@name Star Wars MODEL + MUSIC

runOnTick(1)
runOnLast(1)



if(owner():model()!="models/grealms/characters/kyloren/kyloren.mdl"){
    luaRun("Entity("+owner():id()+"):SetModel('models/materials/humans/group03m/male_07.mdl')")
}


if(first()){
    timer("go",100)
}

if(clk("go")){
    luaRunAll("

    sound.PlayURL('https://www.dropbox.com/s/butt4k6plbc8jcm/Star%20Wars-%20The%20Imperial%20March%20%28Darth%20Vader%27s%20Theme%29.mp3?dl=1', '3d', function(st)
        if(IsValid(st)) then
            st:SetPos(Entity(" + owner():id() + "):GetPos())
        end
    end)

    ")
    
    timer("go",186000)
}


if(last()) {luaRunAll("RunConsoleCommand('stopsound')")}


