@name 
@inputs 
@outputs 
@persist 
@trigger 

runOnTick(1)
NAME = "guy"
E = findPlayerByName(NAME)

if(E:isPlayer()){

if(E:inNoclip()){
#    concmd("ev hp " + NAME + "0")
    G = propSpawn("models/props_phx/ball.mdl",E:pos(),1)
    G:propBreak()
}
}
