@name HoverCar

E=entity()

holoCreate(5)
holoModel(5,"models/holograms/hq_rcylinder.mdl")
holoMaterial(5,"debug/env_cubemap_model")
holoAng(5, E:toWorld(ang(0,0,90)))
holoScale(5,vec(10,2,15))
holoPos(5, E:toWorld(vec(0,0,0)))
holoParent(5,E)

holoCreate(6)
holoModel(6,"models/holograms/hq_rcylinder.mdl")
holoMaterial(6,"debug/env_cubemap_model")
holoAng(6, E:toWorld(ang(0,90,90)))
holoScale(6,vec(4,1,6))
holoPos(6, E:toWorld(vec(60,-55,0)))
holoParent(6,E)

holoCreate(7)
holoModel(7,"models/holograms/hq_rcylinder.mdl")
holoMaterial(7,"debug/env_cubemap_model")
holoAng(7, E:toWorld(ang(0,90,90)))
holoScale(7,vec(4,1,6))
holoPos(7, E:toWorld(vec(-60,-55,0)))
holoParent(7,E)

holoCreate(8)
holoModel(8,"models/holograms/hq_rcylinder.mdl")
holoMaterial(8,"debug/env_cubemap_model")
holoAng(8, E:toWorld(ang(0,90,0)))
holoScale(8,vec(4,1,5))
holoPos(8, E:toWorld(vec(0,-55,20)))
holoParent(8,E)

holoCreate(9)
holoModel(9,"hqtube")
holoMaterial(9,"debug/env_cubemap_model")
holoAng(9, E:toWorld(ang(90,90,0)))
holoScale(9,vec(2,2,6))
holoPos(9, E:toWorld(vec(0,-65,40)))
holoParent(9,E)

holoCreate(10)
holoModel(10,"hqtube")
holoMaterial(10,"debug/env_cubemap_model")
holoAng(10, E:toWorld(ang(90,90,0)))
holoScale(10,vec(2,2,6))
holoPos(10, E:toWorld(vec(-90,-65,0)))
holoParent(10,E)

holoCreate(11)
holoModel(11,"hqtube")
holoMaterial(11,"debug/env_cubemap_model")
holoAng(11, E:toWorld(ang(90,90,0)))
holoScale(11,vec(2,2,6))
holoPos(11, E:toWorld(vec(90,-65,0)))
holoParent(11,E)

holoCreate(12)
holoModel(12,"hqcone")
holoColor(12,vec(0,0,255))
holoAng(12, E:toWorld(ang(0,0,90)))
holoScale(12,vec(2,1.9,6))
holoPos(12, E:toWorld(vec(90,-100,0)))
holoParent(12,E)

holoCreate(13)
holoModel(13,"hqcone")
holoColor(13,vec(0,0,255))
holoAng(13, E:toWorld(ang(0,0,90)))
holoScale(13,vec(2,1.9,6))
holoPos(13, E:toWorld(vec(-90,-100,0)))
holoParent(13,E)

holoCreate(14)
holoModel(14,"hqcone")
holoColor(14,vec(0,0,255))
holoAng(14, E:toWorld(ang(0,0,90)))
holoScale(14,vec(2,1.9,6))
holoPos(14, E:toWorld(vec(0,-100,40)))
holoParent(14,E)

