@name ID command
@inputs 
@outputs T G
@persist
@trigger 
if(first()){T = 0}
IP=array("STEAM_0:0:39867086","STEAM_0:0:47741184","STEAM_0:1:25095711","STEAM_0:1:35026012","STEAM_0:1:37813935","STEAM_0:1:29171145"
,#[Excyte<]#"STEAM_0:0:52384548",
#[XxxxXYOLOXxxxX Draek]#"STEAM_0:1:42092998"#[Spamming/crashing]#,
#[APG PyroP]#"STEAM_0:0:41692007",
#[(Russian name starting in A)]#"STEAM_0:1:18967422",
#[Mitten]#"STEAM_0:0:17405880",
#[Caleb4586]#"STEAM_0:0:4687301",
#[Frame]#"STEAM_0:0:41866886",
#[Scatch Pillow]#"STEAM_0:1:41223489"#[Ropes]#,
#[graffiti kid]#"STEAM_0:0:39521861"#[Spamming]#,
#[zigter]#"STEAM_0:1:50710371"#[Spamming explosives]#,
#[HotshotPaladin]#"STEAM_0:0:39867086"#[Spamming explosives]#,
#[Meerkat218]#"STEAM_0:1:29171145"#[Spamming thrusters]#,
#[Scootaloo the homosexual]#"STEAM 0:1:39028065"#[Spamming/crashing]#,
#[Luigi90900]#"STEAM_0:0:19054966"#[Spamming explosives]#,
#[Rainbow Dash]#"STEAM_0:0:35829958"#[Spamming]#,
#[YODA =SHG=]#"STEAM_0:1:43790420"#[Spamming/crashing]#,
#[zEro_DJ Mixx]#"STEAM_0:1:47081165"#[Spamming]#,
#[Jim E. Rustler]#"STEAM_0:0:37875596"#[Spamming]#,
#[..::*AWestA*::..]#"STEAM_0:0:27130530"#[Spamming explosives]#,
#[Nik_Timokhine]#"STEAM_0:0:55126143"#[Spamming explosives]#,
#[Hotdog The Booster Guy]#"STEAM_0:1:54222656"#[Prop Pushing]#,
#[PVT           . tj791   [HU]]#"STEAM_0:0:27386113"#[Prop Pushing]#,
#[Yunuss]#"STEAM_0:0:20338063"#[Rope Spam]#,
#[sieff1]#"STEAM_0:0:52381193"#[Rope Spam]#)

interval(1000)

Userlist = array()
Cot = findByClass("player")
for(I=1, Cot) {
    G = IP:count()
    T++
    print(T)
    Ent = findResult(T)
    if(Ent:isPlayer()&Ent:steamID()==IP[T,string]) {
        concmd("evs jail "+Ent:name())
    }
    
}
if(T > G){
T =1 }
