@name 
@inputs 
@outputs 
@persist 
@trigger 
runOnTick(1)
runOnChat(1)

if (chatClk(owner())) {
    Array = owner():lastSaid():lower():explode(" ")   
    if (Array[1,string] == "/fuckme") {
        timer("cmd",1200)

}}
if(clk("cmd")){concmd("say /god croc 1")}
