@name BadassShip
@model models/hunter/plates/plate05x1.mdl
@persist [P2H_Mod P2H_Color P2H_Mat P2H_Pos P2H_Ang]:array P2H_Int P2H_Offset P2H_Ready

entity():setColor(0,0,0,0)

if(first())
{
    P2H_Int = 0
    P2H_Offset = 0
    runOnTick(1)
    #Models
    P2H_Mod = array("models/props_phx/wheels/magnetic_medium.mdl",
    "models/hunter/tubes/tube1x1x1d.mdl",
    "models/props_phx/wheels/magnetic_medium.mdl",
    "models/props_phx/wheels/magnetic_medium.mdl",
    "models/props_phx/wheels/magnetic_medium.mdl",
    "models/props_phx/wheels/magnetic_medium.mdl",
    "models/props_phx/wheels/magnetic_medium.mdl",
    "models/props_c17/furniturebathtub001a.mdl",
    "models/props_phx/wheels/magnetic_medium.mdl",
    "models/props_phx/wheels/magnetic_medium.mdl",
    "models/props_phx/wheels/magnetic_medium.mdl",
    "models/xqm/jetengine.mdl",
    "models/hunter/tubes/tube2x2x025d.mdl",
    "models/hunter/tubes/tube2x2x025d.mdl",
    "models/props_phx/wheels/magnetic_medium.mdl",
    "models/props_phx/wheels/magnetic_medium.mdl",
    "models/props_phx/wheels/magnetic_medium.mdl",
    "models/props_phx/wheels/magnetic_medium.mdl",
    "models/props_phx/wheels/magnetic_medium.mdl",
    "models/props_phx/wheels/magnetic_medium.mdl",
    "models/props_phx/wheels/magnetic_medium.mdl",
    "models/props_phx/wheels/magnetic_medium.mdl",
    "models/props_c17/furniturebathtub001a.mdl",
    "models/props_phx/wheels/magnetic_medium.mdl",
    "models/props_phx/wheels/magnetic_medium.mdl",
    "models/hunter/tubes/tube1x1x1d.mdl",
    "models/hunter/tubes/tube1x1x1d.mdl",
    "models/hunter/tubes/tube1x1x1d.mdl",
    "models/props_phx/wheels/magnetic_medium.mdl",
    "models/props_c17/furniturebathtub001a.mdl",
    "models/props_c17/canister01a.mdl",
    "models/props_c17/canister01a.mdl",
    "models/props_c17/canister01a.mdl",
    "models/props_interiors/refrigeratordoor02a.mdl",
    "models/props_interiors/refrigeratordoor02a.mdl",
    "models/props_junk/trashbin01a.mdl",
    "models/props_junk/trashbin01a.mdl",
    "models/props_docks/channelmarker_gib01.mdl",
    "models/props_docks/channelmarker_gib01.mdl",
    "models/props_trainstation/trashcan_indoor001b.mdl",
    "models/props_c17/canister01a.mdl",
    "models/props_docks/channelmarker_gib01.mdl",
    "models/props_docks/channelmarker_gib01.mdl",
    "models/props_junk/trashbin01a.mdl",
    "models/props_interiors/refrigeratordoor02a.mdl",
    "models/props_interiors/refrigeratordoor02a.mdl",
    "models/props_junk/trashbin01a.mdl",
    "models/props_c17/furniturebathtub001a.mdl",
    "models/props_c17/canister01a.mdl",
    "models/hunter/tubes/tube1x1x1d.mdl",
    "models/props_c17/canister01a.mdl",
    "models/props_c17/furniturebathtub001a.mdl",
    "models/props_c17/canister01a.mdl",
    "models/hunter/tubes/tube2x2x05.mdl",
    "models/props_phx/wheels/magnetic_medium.mdl",
    "models/props_c17/furniturebathtub001a.mdl",
    "models/props_c17/furniturebathtub001a.mdl",
    "models/hunter/plates/plate05x1.mdl",
    "models/hunter/plates/plate1x2.mdl",
    "models/props_c17/furniturebathtub001a.mdl",
    "models/props_phx/wheels/magnetic_medium.mdl",
    "models/props_c17/furniturebathtub001a.mdl",
    "models/props_c17/furniturebathtub001a.mdl",
    "models/props_c17/furniturebathtub001a.mdl",
    "models/props_junk/trashbin01a.mdl",
    "models/props_junk/trashbin01a.mdl",
    "models/props_c17/furniturebathtub001a.mdl",
    "models/props_c17/furniturebathtub001a.mdl",
    "models/props_c17/canister01a.mdl",
    "models/props_c17/furniturebathtub001a.mdl",
    "models/hunter/plates/plate1x1.mdl",
    "models/xqm/jetengine.mdl",
    "models/hunter/tubes/tube1x1x1d.mdl")
    #Colors
    P2H_Color = array(vec4(255,255,255,255),
    vec4(255,255,255,255),
    vec4(255,255,255,255),
    vec4(255,255,255,255),
    vec4(255,255,255,255),
    vec4(255,255,255,255),
    vec4(255,255,255,255),
    vec4(255,255,255,255),
    vec4(255,255,255,255),
    vec4(255,255,255,255),
    vec4(255,255,255,255),
    vec4(255,255,255,255),
    vec4(255,255,255,255),
    vec4(255,255,255,255),
    vec4(255,255,255,255),
    vec4(255,255,255,255),
    vec4(255,255,255,255),
    vec4(255,255,255,255),
    vec4(255,255,255,255),
    vec4(255,255,255,255),
    vec4(255,255,255,255),
    vec4(255,255,255,255),
    vec4(255,255,255,255),
    vec4(255,255,255,255),
    vec4(255,255,255,255),
    vec4(255,255,255,255),
    vec4(255,255,255,255),
    vec4(255,255,255,255),
    vec4(255,255,255,255),
    vec4(255,255,255,255),
    vec4(255,255,255,255),
    vec4(255,255,255,255),
    vec4(255,255,255,255),
    vec4(255,255,255,255),
    vec4(255,255,255,255),
    vec4(255,255,255,255),
    vec4(255,255,255,255),
    vec4(255,255,255,255),
    vec4(255,255,255,255),
    vec4(255,255,255,255),
    vec4(255,255,255,255),
    vec4(255,255,255,255),
    vec4(255,255,255,255),
    vec4(255,255,255,255),
    vec4(255,255,255,255),
    vec4(255,255,255,255),
    vec4(255,255,255,255),
    vec4(255,255,255,255),
    vec4(255,255,255,255),
    vec4(255,255,255,255),
    vec4(255,255,255,255),
    vec4(255,255,255,255),
    vec4(255,255,255,255),
    vec4(255,255,255,255),
    vec4(255,255,255,255),
    vec4(255,255,255,255),
    vec4(255,255,255,255),
    vec4(255,255,255,255),
    vec4(255,255,255,255),
    vec4(255,255,255,255),
    vec4(255,255,255,255),
    vec4(255,255,255,255),
    vec4(255,255,255,255),
    vec4(255,255,255,255),
    vec4(255,255,255,255),
    vec4(255,255,255,255),
    vec4(255,255,255,255),
    vec4(255,255,255,255),
    vec4(255,255,255,255),
    vec4(255,255,255,255),
    vec4(255,255,255,255),
    vec4(255,255,255,255),
    vec4(255,255,255,255))
    #Materials
    P2H_Mat = array("phoenix_storms/plastic", #LeftGuardTire2
    #BackMiddlePlate
    "phoenix_storms/plastic",
    #LeftThruster2
    "phoenix_storms/plastic",
    #LeftThruster3
    "phoenix_storms/plastic",
    #LeftThruster4
    "phoenix_storms/plastic",
    #LeftThruster5
    "phoenix_storms/plastic",
    #LeftThruster6
    "phoenix_storms/plastic",
    #LeftThrusterTub
    "phoenix_storms/plastic",
    #LeftThruster7
    "phoenix_storms/plastic",
    #LeftThruster8
    "phoenix_storms/plastic",
    #LeftThruster9
    "phoenix_storms/plastic",
    #LeftThruster
    "phoenix_storms/plastic",
    #LeftBackWing
    "phoenix_storms/plastic",
    #RightBackWing
    "phoenix_storms/plastic",
    #RightThruster9
    "phoenix_storms/plastic",
    #RightThruster8
    "phoenix_storms/plastic",
    #RightThruster7
    "phoenix_storms/plastic",
    #RightThruster6
    "phoenix_storms/plastic",
    #RightThruster5
    "phoenix_storms/plastic",
    #RightThruster3
    "phoenix_storms/plastic",
    #RightThruster2
    "phoenix_storms/plastic",
    #RightThruster1
    "phoenix_storms/plastic",
    #RightThrusterTub
    "phoenix_storms/plastic",
    #RightThruster4
    "phoenix_storms/plastic",
    #RightGuardTire2
    "phoenix_storms/plastic",
    #RightGuardMiddle
    "phoenix_storms/plastic",
    #RightGuardBack
    "phoenix_storms/plastic",
    #RightGuardFront
    "phoenix_storms/plastic",
    #RightGuardTire1
    "phoenix_storms/plastic",
    #FrontMiddleRightTub
    "phoenix_storms/plastic",
    #FrontRightMiddleTank
    "phoenix_storms/plastic",
    #FrontRightTopTank
    "phoenix_storms/plastic",
    #FrontRightBottemTank
    "phoenix_storms/plastic",
    #FrontRightBottemLink
    "phoenix_storms/plastic",
    #FrontRightTopLink
    "phoenix_storms/plastic",
    #FrontBottemBin
    "phoenix_storms/plastic",
    #FrontTopBin
    "phoenix_storms/plastic",
    #RightWoodLink2
    "phoenix_storms/plastic",
    #RightWoodLink1
    "phoenix_storms/plastic",
    #FrontTip
    "phoenix_storms/plastic",
    #FrontBottemLink
    "phoenix_storms/plastic",
    #LeftFrontLink2
    "phoenix_storms/plastic",
    #LeftFrontLink1
    "phoenix_storms/plastic",
    #LeftTopBin
    "phoenix_storms/plastic",
    #LeftTopLink
    "phoenix_storms/plastic",
    #LeftBottemLink
    "phoenix_storms/plastic",
    #LeftBottemBin
    "phoenix_storms/plastic",
    #LeftMiddleTub
    "phoenix_storms/plastic",
    #LeftBottemTank
    "phoenix_storms/plastic",
    #LeftGuardFront
    "phoenix_storms/plastic",
    #LeftTopTank
    "phoenix_storms/plastic",
    #LeftTopBin
    "phoenix_storms/plastic",
    #LeftMiddleTank
    "phoenix_storms/plastic",
    #MiddleCircle
    "phoenix_storms/plastic",
    #LeftGuardTire1
    "phoenix_storms/plastic",
    #LeftMiddleTub
    "phoenix_storms/plastic",
    #LeftFrontTub
    "phoenix_storms/plastic",
    #FrontTopPlate2
    "phoenix_storms/plastic",
    #FrontTopPlate1
    "phoenix_storms/plastic",
    #LeftBackTub
    "phoenix_storms/plastic",
    #LeftThruster1
    "phoenix_storms/plastic",
    #RightBackTub
    "phoenix_storms/plastic",
    #LeftMiddleTub
    "phoenix_storms/plastic",
    #RightFrontTub
    "phoenix_storms/plastic",
    #MiddleLeftTub
    "phoenix_storms/plastic",
    #MiddleRightTub
    "phoenix_storms/plastic",
    #RightTopTub
    "phoenix_storms/plastic",
    #RightBottemTub
    "phoenix_storms/plastic",
    #FrontTank
    "phoenix_storms/plastic",
    #LeftBottemTub
    "phoenix_storms/plastic",
    #FrontBottemPlate
    "phoenix_storms/plastic",
    #RightThruster
    "phoenix_storms/plastic",
    #LeftMiddleGuard
    "phoenix_storms/plastic")
    #Positions
    P2H_Pos = array(vec(25.2568,-63.6853,38.4964),
    vec(28.7023,-26.2838,60.2153),
    vec(32.0546,-27.1679,71.9865),
    vec(33.7132,-27.0811,80.1852),
    vec(35.3718,-26.9943,88.3839),
    vec(37.0304,-26.9075,96.5825),
    vec(38.689,-26.8208,104.7811),
    vec(37.7116,-29.9877,99.8413),
    vec(40.3477,-26.734,112.9798),
    vec(42.0063,-26.6472,121.1785),
    vec(43.6649,-26.5605,129.3771),
    vec(44.9637,-26.5667,135.6574),
    vec(51.2827,-33.665,171.1153),
    vec(51.3283,50.8116,170.1349),
    vec(43.3396,39.2002,127.5873),
    vec(41.6809,39.0681,119.3893),
    vec(40.0222,38.9361,111.1912),
    vec(38.3635,38.804,102.9931),
    vec(36.7049,38.6719,94.795),
    vec(33.3875,38.4077,78.3988),
    vec(31.7288,38.2757,70.2007),
    vec(30.0701,38.1436,62.0026),
    vec(37.72,40.2737,96.735),
    vec(35.0462,38.5398,86.5969),
    vec(23.5139,68.0031,34.5351),
    vec(21.6477,61.2951,29.0491),
    vec(26.7535,33.6341,57.9721),
    vec(14.5194,62.3432,-11.4065),
    vec(12.5205,67.565,-20.2738),
    vec(-0.0535,31.7028,-80.8018),
    vec(-8.9908,40.0444,-67.497),
    vec(-21.5707,25.6819,-63.1162),
    vec(12.8172,39.8495,-72.7014),
    vec(-9.0483,33.5023,-115.159),
    vec(-21.3925,27.8916,-110.3573),
    vec(-11.1461,21.091,-128.2024),
    vec(-22.095,16.0878,-127.4215),
    vec(-25.7849,12.8387,-146.5241),
    vec(-25.6675,9.4815,-143.731),
    vec(-28.0086,-3.7354,-160.4554),
    vec(-10.873,-2.4395,-151.6787),
    vec(-24.6745,-19.1941,-147.303),
    vec(-25.9881,-15.8731,-148.3491),
    vec(-21.2733,-22.416,-127.199),
    vec(-19.1724,-31.5393,-106.6278),
    vec(-7.3604,-36.6357,-108.9226),
    vec(-11.4192,-26.3525,-127.2131),
    vec(-0.4484,-32.8327,-82.1852),
    vec(13.9891,-39.5756,-72.9312),
    vec(7.546,-24.396,-42.5051),
    vec(-21.3922,-27.0613,-66.5352),
    vec(-12.7804,-28.2474,-80.6843),
    vec(-9.6576,-40.2642,-69.3482),
    vec(17.6211,2.7945,15.6021),
    vec(11.4178,-63.1346,-19.4698),
    vec(16.5365,-64.5895,3.348),
    vec(8.1202,-42.2248,-39.0802),
    vec(-9.1813,-0.0869,-35.1104),
    vec(-20.803,-0.9395,-92.681),
    vec(26.3297,-52.8643,47.6104),
    vec(30.3959,-27.2547,63.7879),
    vec(26.238,61.3593,43.5339),
    vec(16.5281,70.7026,0.0205),
    vec(7.5311,44.7636,-42.2121),
    vec(4.3679,-9.3191,-46.2009),
    vec(4.2754,9.5816,-46.4728),
    vec(-12.8969,26.2421,-77.4197),
    vec(13.6703,15.7061,-82.7089),
    vec(20.933,1.6823,-75.8298),
    vec(13.3835,-13.2888,-82.912),
    vec(-2.5279,-1.1069,-124.9237),
    vec(44.6763,39.5415,133.6389),
    vec(13.1246,-54.8826,-15.2388))
    #Angles
    P2H_Ang = array(ang(-0.5666,-44.5111,163.2726),
    ang(21.0674,148.0959,-136.7133),
    ang(11.4344,-0.2253,-0.639),
    ang(11.4344,-0.2253,-0.639),
    ang(11.4344,-0.2253,-0.6391),
    ang(11.4344,-0.2253,-0.6391),
    ang(11.4344,-0.2253,-0.6391),
    ang(-78.4973,6.1046,-96.2038),
    ang(11.4344,-0.2253,-0.6391),
    ang(11.4344,-0.2253,-0.6391),
    ang(11.4344,-0.2253,-0.6391),
    ang(-78.4973,6.1046,-6.2038),
    ang(-1.1131,-90.0001,78.5635),
    ang(-78.4973,6.1046,-6.2038),
    ang(11.4344,-0.2253,-0.9492),
    ang(11.4344,-0.2253,-0.9492),
    ang(11.4344,-0.2253,-0.9491),
    ang(11.4344,-0.2253,-0.9491),
    ang(11.4344,-0.2253,-0.9491),
    ang(11.4344,-0.2253,-0.9491),
    ang(11.4344,-0.2253,-0.9491),
    ang(11.4344,-0.2253,-0.9491),
    ang(-78.4973,6.1047,83.7962),
    ang(11.4344,-0.2253,-0.9491),
    ang(16.5668,-49.0391,178.9297),
    ang(7.1777,-45.6656,170.9879),
    ang(38.2697,-40.8201,-154.4186),
    ang(-21.1341,-31.8356,136.5966),
    ang(11.4344,-0.2253,-30.9148),
    ang(78.7324,-170.7753,-79.9339),
    ang(-4.6706,-90.9257,-12.2349),
    ang(-11.4344,179.7747,1.2558),
    ang(11.4344,-0.2253,-1.2596),
    ang(15.4192,93.9157,-76.4747),
    ang(6.5277,130.1871,112.2158),
    ang(14.2097,94.1503,-167.31),
    ang(-7.1775,134.3345,-170.9878),
    ang(-12.0289,179.7337,24.1355),
    ang(-14.3039,-176.3883,24.483),
    ang(-11.4344,179.7747,1.2511),
    ang(25.1346,1.6286,177.9267),
    ang(-13.8059,178.0668,-22.1898),
    ang(-12.0153,-179.8888,-22.2234),
    ang(-8.4626,-134.594,172.2608),
    ang(-9.0762,-134.3638,78.2183),
    ang(2.3751,-90.8041,78.5236),
    ang(5.7079,-92.9179,167.9598),
    ang(78.5991,-177.404,91.7265),
    ang(7.1775,-45.6655,-9.0115),
    ang(-19.8161,32.6647,41.174),
    ang(11.4344,-0.2253,-1.2604),
    ang(78.4973,-173.8953,141.2038),
    ang(-7.1775,134.3345,9.0123),
    ang(-78.4973,6.1046,-6.2037),
    ang(12.1237,1.9909,18.6924),
    ang(78.4973,-173.8953,96.2038),
    ang(45.084,101.4786,16.3064),
    ang(78.4973,-173.8953,6.2038),
    ang(-1.2347,-89.9755,78.5629),
    ang(42.6616,-100.9674,164.3603),
    ang(11.4344,-0.2253,-0.639),
    ang(45.084,101.4786,-163.6936),
    ang(78.4973,-173.8953,-83.7958),
    ang(42.6616,-100.9674,-15.6396),
    ang(11.4344,-0.2253,178.74),
    ang(11.4344,-0.2253,178.7403),
    ang(78.4973,-173.8953,-128.7955),
    ang(78.4973,-173.8953,6.2038),
    ang(1.2159,90.0207,11.437),
    ang(78.5039,-174.2048,5.9005),
    ang(57.3958,-176.4319,4.0426),
    ang(-78.4973,6.1046,83.7962),
    ang(8.9411,45.4697,7.2662))
}

if(!P2H_Ready)
{
    while(holoCanCreate() & perf() & P2H_Int < P2H_Mod:count())
    {
        P2H_Int++
        local P2H_TempInt = P2H_Int+P2H_Offset
        holoCreate(P2H_TempInt,entity():toWorld(P2H_Pos[P2H_Int,vector]),vec(1),entity():toWorld(P2H_Ang[P2H_Int,angle]))
        holoColor(P2H_TempInt,P2H_Color[P2H_Int,vector4])
        holoModel(P2H_TempInt,P2H_Mod[P2H_Int,string])
        holoMaterial(P2H_TempInt,P2H_Mat[P2H_Int,string])
        holoParent(P2H_TempInt,entity())
    }
    P2H_Ready = P2H_Int >= P2H_Mod:count()
}
