@name ACF-Wallhack-finder by SKY
@inputs Egp:wirelink
@outputs 
@persist 
@trigger 
runOnTick(1)
E=entity()
findByClass("acf_*")
findInSphere(E:pos(),100000)
Find=findToArray()

if(first()){Egp:egpClear()}
timer("find",150)
if(clk("find")){
 for(P=1,Find:count()){
Tip=Find[P,entity]   
 E2=round(Tip:cpuUsage()*1000000)
    OW=Tip:owner():name()
  Dist=round(E:pos():distance(Tip:pos()))
    ######
    Egp:egp3DTracker(P+150,Tip:pos())
    Egp:egpText(P+10,P+" ("+Tip:getName()+") owner=("+OW+")"+"    Distance from chip=="+Dist,vec2(30,0))
    
    Egp:egpCircleOutline(P+20,vec2(),vec2(20,20))
    Egp:egpColor(P+20,vec(255,0,0))
    
    Egp:egpParent(P+20,P+150)
       Egp:egpParent(P+10,P+150)
    if(Tip:owner():isAlive()){
        Egp:egpColor(P+10,vec(0,255,255))
        }else{
       Egp:egpColor(P+10,vec(255,0,255))
    }

}      

}
timer("reset",5000)
if(clk("reset")){
    reset()
}
