@name Airstrike-missle by SKY
@inputs 
@outputs 
@persist Button:entity
@trigger 
@model models/props_phx/construct/metal_angle360.mdl
E=entity()
if(first()){
    runOnTick(1)
    holoCreate(1,E:toWorld(vec(0,0,1)),vec(6,6,2),ang(),vec(75,75,75),"hqcylinder")
    holoParent(1,E)
      holoCreate(2,E:toWorld(vec(0,40,3)),vec(1,1,1),ang(),vec(255,255,255),"models/props_c17/oildrum001.mdl")
    holoParent(2,E)
    ######missle###
  holoCreate(3,E:toWorld(vec(10,0,90)),vec(1,1,1),ang(-90,0,0),vec(255,255,255),"models/props_phx/amraam.mdl")
    holoParent(3,E)
    ###############
        holoCreate(4,E:toWorld(vec(0,0,15)),vec(4,4,1),ang(),vec(50,50,50),"hqtube")
    holoParent(4,E)
          holoCreate(5,E:toWorld(vec(0,40,45)),vec(1,1,1),ang(),vec(255,255,255),"models/props_c17/TrapPropeller_Engine.mdl")
    holoParent(5,E)
           holoCreate(6,E:toWorld(vec(0,-35,7)),vec(1,1,1),ang(0,-90,0),vec(255,255,255),"models/props_lab/reciever01a.mdl")
    holoParent(6,E)
}
