@name dOOR BY SkY 2
@inputs 
@outputs 
@persist P1:entity P2:entity Move
runOnTick(1)
runOnLast(1)
runOnChat(1)
E=entity()
Move++ 

if(!P1){
 P1=propSpawn("models/hunter/plates/plate05x2.mdl",(E:toWorld(vec(10,0,50))),ang(0,0,90),1)  
P1:setMaterial("models/props_combine/tprings_globe") 
}
if(!P2){
 P2=propSpawn("models/hunter/plates/plate05x2.mdl",(E:toWorld(vec(-10,0,50))),ang(0,0,90),1)   
P2:setMaterial("models/props_combine/tprings_globe")
}

Last=lastSaid():explode(" ")
if(last()){
    propDeleteAll()
}
timer("r",4500)
O=owner()
Find=findInSphere(E:pos(),20)
Da=findClosest(E:pos())
if(chatClk(O)&Last:string(1)=="open"){
       P2:setAng(E:toWorld(ang(0,0,90)))
     P1:setAng(E:toWorld(ang(0,0,90)))
    
    P2:setPos(E:toWorld(vec(-50.9,0,50)))
     P1:setPos(E:toWorld(vec(50.9,0,50)))
}

if(clk("r")){


    P2:setAng(E:toWorld(ang(0,0,90)))
     P1:setAng(E:toWorld(ang(0,0,90)))
    
    P2:setPos(E:toWorld(vec(-11.9,0,50)))
     P1:setPos(E:toWorld(vec(11.9,0,50)))
}

if(chatClk(owner())&Last:string(1)=="/d"){
    print("Your door have been deleted")
    hideChat(1)
    selfDestruct()
    propDeleteAll()
}
P2:propFreeze(1)
P1:propFreeze(1)
