@name e2 ufo by sky
@inputs 
@outputs 
@persist Counter M P1:entity P2:entity P3:entity P4:entity P5:entity Drone1:entity Move OP:entity
@trigger 
runOnTick(1)
runOnChat(1)
E=entity()
Seat=E:isWeldedTo()
Driver=Seat:driver()
Counter++
R=Driver:keyReload()
F=Driver:keyPressed("F")
W =Driver:keyForward()
S=Driver:keyBack()
Space=Driver:keyJump()
Shift=Driver:keySprint()
Alt=Driver:keyWalk()
Mouse1=Driver:keyAttack1()
Mouse2=Driver:keyAttack2()
if(W){ Seat:setPos(Seat:pos()+Driver:eye()*15)}
    if(S){ Seat:setPos(Seat:pos()+Driver:eye()*-15)}
    if(Space){ Seat:setPos(Seat:pos()+vec(0,0,10))}
    if(Shift){ Seat:setPos(Seat:pos()+vec(0,0,-10))}
  #######


Ranger = rangerOffset(9999,Seat:pos(),Seat:up()*-9999)
Ranger2 = rangerOffset(9,Seat:pos(),Seat:up()*-9)

holoCreate(123,Ranger:position())
holoColor(123,vec(255,0,0))
holoModel(123,"hqsphere")

holoCreate(124,Ranger2:position())
holoColor(124,vec(255,0,0))
holoModel(124,"hqsphere")

########  
    
    
    
    if(Alt){
        findIncludeClass("expression")
        findIncludeClass("door")
        findIncludeClass("camera")
         findIncludeClass("*")
         findIncludeClass("vehicle_*")
         findIncludeClass("player")
        findIncludeClass("prop")
        findExcludeEntity(Seat)
        findExcludeEntity(owner())
     FF=findInSphere(Ranger:pos(),400)
    FA=findClosest(Ranger:pos())
    FA:setPos(FA:pos()+vec(0,0,1))
 
    FA:propFreeze(0)
}else{
FA:setPos(FA:shootPos()+Ranger:pos())


}
if(Ranger2:hitGroup()=="prop"){
    FA:propDelete()
}

if(Alt&F){
 FA:propDelete()   
}



    XXX=5555555132
           holoCreate(XXX)
        holoScale(XXX,vec(25,25,80))
        holoAng(XXX,ang(0,90,0))
        holoColor(XXX,vec(1,1,1))
        holoModel(XXX,"hqcone")
        holoAlpha(XXX,75)
         holoPos(XXX,Seat:pos()+vec(0,0,-270))
    if(Alt){

       holoAlpha(XXX,150)
     
        }else{
          holoAlpha(XXX,0)
        
    }
        
        
        
    if(Mouse1){
        
        
        
        }





if(first()){
    Seat:setAng(ang())
    
 holoCreate(1,Seat:toWorld(vec(0,0,10)),vec(1,1,1.5),ang(0,0,0),vec(0,255,255),"hqsphere")   
     holoCreate(2,Seat:toWorld(vec(0,0,65)),vec(10,10,0),ang(0,0,0),vec(0,0,0),"hq_torus_thin")   
    holoCreate(3,Seat:toWorld(vec(0,0,12)),vec(19,19,0),ang(0,0,0),vec(0,0,0),"hq_torus_thin")   
     holoCreate(4,Seat:toWorld(vec(0,0,0)),vec(105.5,105.5,15),ang(0,0,0),vec(100,0,100),"hq_torus_thin")   
       holoCreate(5,Seat:toWorld(vec(0,0,12)),vec(11.5,11.5,1),ang(0,0,0),vec(100,0,100),"hq_torus_thin")   
      holoCreate(6,Seat:toWorld(vec(0,0,12)),vec(11.5,11.5,-1),ang(0,0,0),vec(100,0,100),"dome")   
     holoCreate(7,Seat:toWorld(vec(0,0,0)),vec(45.5,45.5,10),ang(0,0,0),vec(75,75,75),"hqsphere")   
     holoCreate(8,Seat:toWorld(vec(0,0,-60)),vec(5.5,5.5,3),ang(0,0,0),vec(9,0,9),"hq_torus_thin")   
    
    holoAlpha(8,120)
    
    #########gun############
       holoCreate(8,Seat:toWorld(vec(150,0,-50)),vec(5.5,5.5,3),ang(0,0,0),vec(9,0,9),"hqsphere")   
      holoCreate(9,holoEntity(8):toWorld(vec(0,0,-15)),vec(1,1,1),ang(0,0,0),vec(100,0,9),"hqsphere")   
     holoCreate(10,holoEntity(9):toWorld(vec(45,0,15)),vec(1,1,4),ang(0,90,90),vec(100,0,9),"hqtube")   
    
      holoCreate(11,Seat:toWorld(vec(-150,0,-50)),vec(5.5,5.5,3),ang(0,0,0),vec(9,0,9),"hqsphere")   
      holoCreate(12,holoEntity(11):toWorld(vec(0,0,-15)),vec(1,1,1),ang(0,0,0),vec(100,0,9),"hqsphere")   
     holoCreate(13,holoEntity(12):toWorld(vec(45,0,15)),vec(1,1,4),ang(0,90,90),vec(100,0,9),"hqtube")   
    
        holoCreate(111,Seat:toWorld(vec(0,-150,-50)),vec(5.5,5.5,3),ang(0,0,0),vec(9,0,9),"hqsphere")   
      holoCreate(121,holoEntity(111):toWorld(vec(0,0,-15)),vec(1,1,1),ang(0,0,0),vec(100,0,9),"hqsphere")   
     holoCreate(131,holoEntity(121):toWorld(vec(45,0,15)),vec(1,1,4),ang(0,90,90),vec(100,0,9),"hqtube")   
    
        holoCreate(1111,Seat:toWorld(vec(0,150,-50)),vec(5.5,5.5,3),ang(0,0,0),vec(9,0,9),"hqsphere")   
      holoCreate(1211,holoEntity(1111):toWorld(vec(0,0,-15)),vec(1,1,1),ang(0,0,0),vec(100,0,9),"hqsphere")   
     holoCreate(1311,holoEntity(1211):toWorld(vec(45,0,15)),vec(1,1,4),ang(0,90,90),vec(100,0,9),"hqtube")   
    
    
}
timer("r1",400)
timer("r2",800)
timer("r3",999)
timer("r4",300)
if(changed(Mouse1)&Mouse1){
        soundPlay(1,999,"mvm/giant_common/giant_common_step_03.wav")
    P1=propSpawn("models/props_phx/ww2bomb.mdl",(holoEntity(1311):pos()),0)
    P1:applyForce(holoEntity(1311):up())
    P1:propGravity(0)
    P1:setAng(Driver:eyeAngles())
    P1:setTrails(30,0,10,"trails/laser",vec(random(255),random(255),random(255)),255)
}


if(changed(Mouse1)&Mouse1){
        soundPlay(2,999,"mvm/giant_common/giant_common_step_03.wav")
      P2=propSpawn("models/props_phx/ww2bomb.mdl",(holoEntity(8):pos()),0)
    P2:applyForce(holoEntity(1311):up())
    P2:propGravity(0)
    P2:setAng(Driver:eyeAngles())
    P2:setTrails(30,0,10,"trails/laser",vec(random(255),random(255),random(255)),255)
    
}
if(changed(Mouse1)&Mouse1){
    soundPlay(3,999,"mvm/giant_common/giant_common_step_03.wav")
      P3=propSpawn("models/props_phx/ww2bomb.mdl",(holoEntity(131):pos()),0)
    P3:applyForce(holoEntity(1311):up())
    P3:propGravity(0)
    P3:setAng(Driver:eyeAngles())
    P3:setTrails(30,0,10,"trails/laser",vec(random(255),random(255),random(255)),255)
}
if(changed(Mouse1)&Mouse1){
        soundPlay(4,999,"mvm/giant_common/giant_common_step_03.wav")
      P4=propSpawn("models/props_phx/ww2bomb.mdl",(holoEntity(13):pos()),0)
    P4:applyForce(holoEntity(1311):up())
    P4:propGravity(0)
    P4:setAng(Driver:eyeAngles())
    P4:setTrails(30,0,10,"trails/laser",vec(random(255),random(255),random(255)),255)
}
if(!P4){
 P3:propBreak()  
P2:propBreak()  
P1:propBreak()   
    P4:propBreak()
}

if(!P3){
 P3:propBreak()  
P2:propBreak()  
P1:propBreak()   
    P4:propBreak()
}

if(!P2){
 P3:propBreak()  
P2:propBreak()  
P1:propBreak()   
    P4:propBreak()
}

if(!P1){
 P3:propBreak()  
P2:propBreak()  
P1:propBreak()   
    P4:propBreak()
}



if(changed(Mouse2)&Mouse2){
    Bomb=propSpawn("models/props_phx/cannonball_solid.mdl",(Driver:aimPos()+vec(0,0,20)),1)
    soundPlay(15,999,"mvm/giant_demoman/giant_demoman_grenade_shoot.wav")
}
Bomb:propFreeze(1)

    Bomb:propBreak()
P1:setAlpha(0)
P2:setAlpha(0)
P3:setAlpha(0)
P4:setAlpha(0)


######aimcontrolls###########
P1:setAng(Driver:eyeAngles())
P1:applyForce(P1:forward()*1099999)

P2:setAng(Driver:eyeAngles())
P2:applyForce(P1:forward()*1099999)

P3:setAng(Driver:eyeAngles())
P3:applyForce(P1:forward()*1099999)

P4:setAng(Driver:eyeAngles())
P4:applyForce(P1:forward()*1099999)


noCollide(P4,P3)
noCollide(P4,P2)
noCollide(P4,P1)
noCollide(P4,P4)


noCollide(P3,P3)
noCollide(P3,P2)
noCollide(P3,P1)
noCollide(P3,P4)


noCollide(P2,P3)
noCollide(P2,P2)
noCollide(P2,P1)
noCollide(P2,P4)


noCollide(P1,P3)
noCollide(P1,P2)
noCollide(P1,P1)
noCollide(P1,P4)

##################################
holoAng(121,Driver:eyeAngles()+ang(0,0,0))
holoParent(131,121)
holoParent(121,Seat)
holoParent(111,Seat)

holoAng(1211,Driver:eyeAngles()+ang(0,0,0))
holoParent(1311,1211)
holoParent(1211,Seat)
holoParent(1111,Seat)

holoAng(12,Driver:eyeAngles()+ang(0,0,0))
holoParent(13,12)
holoParent(12,Seat)
holoParent(11,Seat)

holoAng(9,Driver:eyeAngles()+ang(0,0,0))
holoParent(10,9)
holoParent(9,Seat)
holoParent(8,Seat)
holoParent(7,Seat)
holoParent(6,Seat)
holoParent(5,Seat)
holoParent(4,Seat)
holoParent(1,Seat)
holoParent(2,Seat)
holoParent(4,Seat)
holoParent(3,Seat)
holoAlpha(7,255)
M=M+100
if(Counter==M){
    
    
    holoColor(2,vec(random(255),random(255),random(255)))
}



###########
holoAlpha(6,55)
holoAlpha(2,55 )
holoAlpha(4,220)
holoAlpha(1,16)
Seat:setAlpha(0)
##########

if(Driver:name()!=owner():name()){
 Seat:killPod()   
}
Seat:propFreeze(1)

Chat = lastSaid():explode(" ")
if(chatClk(owner())&Chat:string(1)=="/come"){
hideChat(1)
Seat:setPos(owner():pos()+vec(0,0,30))
   
}
noCollideAll(Seat,1)




if(Driver){
 holoCreate( 1233 )
holoPos(1233,Driver:shootPos()+Driver:eye()*15)
holoModel(1233,"hq_torus_thin")   
    holoColor(1233,vec(255,0,0))
    holoAlpha(1233,150)
    holoAng(1233,Driver:eyeAngles()+ang(90,0,0))
    holoScale(1233,vec(0.5,0.5,0.5))
}
##############camera missle############3


MX=Driver:keyPressed("P")





if(changed(MX)&MX){
 
   P5=propSpawn("models/props_phx/amraam.mdl",(holoEntity(13):pos()),0)
    P5:applyForce(holoEntity(1311):up())
    P5:propGravity(0)
    P5:setAng(Driver:eyeAngles())
    P5:setTrails(30,0,10,"trails/laser",vec(random(255),random(255),random(255)),255)
   cameraToggle(1,1,Seat)
soundPlay(1,999,"ambient/explosions/explode_9.wav")
}
P5:setAng(Driver:eyeAngles())
P5:applyForce(P5:forward()*255555)
cameraCreate(1)
cameraAng(1,Driver:eyeAngles())
cameraPos(1,P5:toWorld(vec(-150,0,50)))
if(!P5){
cameraToggle(1,0,Seat)

}
H=Driver:keyPressed("H")
if(H){
 P5:propFreeze(1)   
}else{
P5:propFreeze(0) 
}

Ran1 = rangerOffset(1,P5:pos(),P5:pos())
if(Ran1:hitWorld()){
    
 P5:propBreak()   
}
###########################3
######Drone#########
D1 = 12312313255
D2 = 1231231323
D3 = 1231231322
D4 = 1231231321
if(changed(!Drone1)&!Drone1){
     Drone1=propSpawn("models/hunter/blocks/cube1x1x1.mdl",Seat:toWorld(vec(0,0,150)),ang(0,0,90),0)
     holoCreate(D1,Drone1:toWorld(vec(0,0,0)),vec(4,4,1),ang(0,0,95),vec(25,0,25),"hqsphere") 
 holoCreate(D2,holoEntity(D1):toWorld(vec(0,0,0)),vec(4,4,1),ang(0,0,95),vec(25,0,25),"hqsphere") 
 holoCreate(D3,holoEntity(D1):toWorld(vec(0,0,0)),vec(4,4,1),ang(0,0,95),vec(25,0,25),"hqsphere")  
 holoCreate(D3,holoEntity(D1):toWorld(vec(0,0,0)),vec(5,5,4),ang(0,0,95),vec(0,255,255),"hq_torus_thin")   
Drone1:setAlpha(0)
Drone1:setMass(999)
}
Drone1:setAng(ang())

if(first()){
    Drone1:setTrails(50,0,10,"trails/electric",vec(255,0,255),255)
 holoCreate(D1,Drone1:toWorld(vec(0,0,0)),vec(4,4,1),ang(0,0,95),vec(25,0,25),"hqsphere") 
 holoCreate(D2,holoEntity(D1):toWorld(vec(0,0,0)),vec(4,4,1),ang(0,0,95),vec(25,0,25),"hqsphere") 
 holoCreate(D3,holoEntity(D1):toWorld(vec(0,0,0)),vec(4,4,1),ang(0,0,95),vec(25,0,25),"hqsphere")  
 holoCreate(D3,holoEntity(D1):toWorld(vec(0,0,0)),vec(5,5,4),ang(0,0,95),vec(0,255,255),"hq_torus_thin")   
Drone1:setAng(ang())
Drone1:propFreeze(1)
}
holoParent(D1,Drone1)
holoParent(D2,Drone1)
holoParent(D3,Drone1)
holoParent(D4,Drone1)


cameraCreate(2)
cameraPos(2,Drone1:toWorld(vec(-100,0,50)))
cameraAng(2,Driver:eyeAngles())

M=Driver:keyPressed("M")
N=Driver:keyPressed("N")
L=Driver:keyPressed("L")
if(changed(M)&M){
       

    cameraToggle(2,1,Seat)

    Drone1:propFreeze(0)
    
}
if(cameraEntity(2)){
    Drone1:setAng(Driver:eyeAngles())
}
if(!cameraEntity(2)){
    
}

if(!Drone1){
 cameraToggle(2,0,Seat)   
    Drone1:setAng(ang())

}
Drone1:setMass(999)

if(changed(L)&L){
    cameraToggle(2,0,Seat)
Drone1:propFreeze(1)
 Drone1:applyForce(Drone1:forward()*0)
}
if(N){
 Drone1:applyForce(Drone1:forward()*950000)
}else{
 Drone1:applyForce(Drone1:forward()*0)

}
if(!Drone1){
 Drone1:propFreeze(1)   
}



###################

if(changed(Driver)&Driver){
 Seat:hintDriver("Made by Sky/e2caster",5)   
    Seat:hintDriver("Mouse1 / Mouse2 to shoot",5)
       Seat:hintDriver("P to start a missle H to freeze the missle!!",5)
       Seat:hintDriver("M to start your drone N to fly ",5)
     Seat:hintDriver("L to leave drone vision",5)
    Seat:hintDriver("Alt for antigravity zoom",5)
    Seat:hintDriver("Alt + F removes the prop",5)
    Seat:hintDriver("R to shoot the most overpowered gun",5)
}

timer("resay",10000)
if(clk("resay")){
Seat:hintDriver("Made by Sky/e2caster",5)   
      Seat:hintDriver("Say !help to read the commands again!",5)
}
Last=lastSaid():explode(" ")
if(chatClk(Driver)&Last:string(1)=="!help"){
    hideChat(1)
     Seat:hintDriver("Made by Sky/e2caster",5)   
    Seat:hintDriver("Mouse1 / Mouse2 to shoot",5)
       Seat:hintDriver("P to start a missle H to freeze the missle!!",5)
       Seat:hintDriver("M to start your drone N to fly ",5)
     Seat:hintDriver("L to leave drone vision",5)
    Seat:hintDriver("Alt for antigravity zoom",5)
    Seat:hintDriver("Alt + F removes the prop",5)
    Seat:hintDriver("R to shoot the most overpowered gun",5)
}


if(first()|dupefinished()){

Seat:setTrails(50,0,30,"trails/electric",vec(100,0,100),255)
}

#########laser############

Move=Move*1+3
Mo1=sin(Move)
Mo2=cos(Move)

Laser_Base=99999123
Laser=1231231231232951925
holoCreate(Laser)
holoAlpha(Laser,0)
holoCreate(Laser_Base)
holoPos(Laser_Base,Seat:pos()+vec(0,0,-50))
holoAng(Laser_Base,ang(0,0,180))
holoModel(Laser_Base,"hqhdome")
holoScale(Laser_Base,vec(5,5,9))
holoColor(Laser_Base,vec(0,0,0))
holoAlpha(Laser_Base,180)
holoParent(Laser_Base,Seat)


 holoCreate(12345,holoEntity(Laser_Base):toWorld(vec(0,0,25)),vec(2,2,2),ang(),vec(225,15,25),"icosphere2") 
holoAng(12345,ang()+Counter*2.5)

EX123=12121212
EX92=1231321312
EX95=123123
EX9E=9999123
EX9=12399991
holoCreate(EX9,holoEntity(Laser_Base):toWorld(vec(0,0,25)),vec(0.5,0.5,0.5),Driver:eyeAngles(),vec(0,0,0),"hqsphere")
holoAng(EX9,Driver:eyeAngles())
if(first()){
holoCreate(EX123,holoEntity(EX9):toWorld(vec(15,0,0)),vec(1.5,1.5,2),ang(90,0,0),vec(100,0,100),"hq_torus_thin")
holoCreate(EX92,holoEntity(EX9):toWorld(vec(20,0,0)),vec(1,1,1.5),ang(90,0,0),vec(100,0,100),"hq_torus_thin")
holoCreate(EX95,holoEntity(EX9):toWorld(vec(25,0,0)),vec(0.5,0.5,1),ang(90,0,0),vec(100,0,100),"hq_torus_thin")
holoCreate(EX9E,holoEntity(EX9):toWorld(vec(30,0,0)),vec(0.25,0.25,0.55),ang(90,0,0),vec(100,0,100),"hq_torus_thin")
}

holoPos(EX123,holoEntity(EX9):toWorld(vec(15,0,0)))
holoPos(EX92,holoEntity(EX123):toWorld(vec(0,0,10)))
holoPos(EX95,holoEntity(EX92):toWorld(vec(0,0,10)))
holoPos(EX9E,holoEntity(EX95):toWorld(vec(0,0,10)))


holoParent(Laser_Base,Seat)

holoParent(EX92,EX9)
holoParent(EX95,EX9)
holoParent(EX9E,EX9)
holoParent(EX123,EX9)
holoParent(EX9,Seat)
holoParent(12345,Laser_Base)



timer("r_op",1000)

RanXD = rangerOffset(50,OP:pos(),OP:pos())
if(R&clk("r_op")){
OP=propSpawn("models/props_phx/torpedo.mdl",(holoEntity(Laser_Base):pos()),0)    
    OP:applyForce(holoEntity(Laser_Base):up()*900000)
    OP:setTrails(100,0,10,"trails/electric",vec(100,0,150),255)
    OP:propGravity(0)
    OP:setAlpha(0)
}
if(RanXD:hitWorld()){
 OP:propBreak()   
}


OP:applyForce(OP:forward()*900000)
OP:setAng(Driver:eyeAngles())
####################
X=1234123
if(Alt){
holoPos(Laser,Seat:pos()+vec(Mo2*450,Mo1*450,0)+Driver:eye()*50)
}else{
holoPos(Laser,Seat:pos()+vec(0,0,10000))

}
holoAng(Laser,Driver:eyeAngles())
if(first()|dupefinished()){
    holoEntity(Laser):setTrails(50,0,10,"trails/electric",vec(100,0,100),255)
    
}
if(Alt){
    
    soundPlay(X,999,"ambient/energy/force_field_loop1.wav")
}
if(!Alt){
 soundStop(X,1)  
    
}

if(changed(Driver)&Driver){
 soundPlay(1235,999,"ambient/atmosphere/ambience_base.wav")   
    
}
timer("lol",1000)
if(!Driver&clk("lol")){
 soundStop(1235,1)   
    
}
if(Driver){
  Seat:propNotSolid(1)  
}else{
Seat:propNotSolid(0)
}
if(Driver){
  E:propNotSolid(1)  
}else{
E:propNotSolid(0)
}
