@name EGP Touchscreen
@inputs Egp:wirelink User:entity Egp2:wirelink Wire1 
@outputs Spieler:string Open2 Close2 Sky1 Sky2 Def1 Wall1 Reset1 Posi2
@persist Off  Welcome On Passwort Admin C1 C2 C3 C4 More Player2:array  Counter E2 Server H T1 T2 T3 P1 P2 P3 P4 Map All:array
@persist Defence Area Vector:vector XY  E2_finder Finder Player Counter2 VEC:vector FAF:entity
@persist Base Door Sky Walls P PP Egpa:entity R RR W WW T Pos Secret SEC E2list AS HOLO
@trigger 
#@model models/Items/item_item_crate.mdl
runOnTick(1)
Counter2++
T++
if(first()){
    Open2=0
    Close2=0
    Sky1=0
    Sky2=0
    Def1=0
    Wall=0
    Reset=0
}
                                         
Egp:egpBox(132,vec2(255,255),vec2(515,515))
Egp:egpColor(132,vec(0,155,255))
Egp:egpMaterial(132, "gui/gradient_up")  
Egp:egpAlpha(132,150)
Egp:egpBox(133,vec2(255,450),vec2(515,390))
Egp:egpColor(133,vec(50,255,100))
Egp:egpMaterial(133,"gui/gradient_up")  
Egp:egpAlpha(133,150)
#entity():propNotSolid(1)
#Counter=1
E=entity()
#EG=Egp:entity()
Cursor=Egp:egpCursor(User)
#if(->Egp) {entity():propNotSolid(1)}else {entity():propNotSolid(0)}

#if(->Egp) {entity():propNotSolid(1)}else {entity():propNotSolid(0)}
#Egp:entity():setPos(entity():pos()+entity():up()*60)
#Egp:entity():setAng(E:toWorld(ang(90,0,0)))
XY=XY*1+5
X=cos(XY)
Y=sin(XY)

if(owner():aimEntity()&owner():keyAttack1()&owner():weapon():type()=="weapon_crowbar"){
if(owner():aimEntity():model()=="models/hunter/plates/plate2x2.mdl"){
Screen=owner():aimEntity()
Egp:egpClear()
Egp2:egpClear()
entity():createWire(Screen,"User","User")            
entity():createWire(Screen,"Egp","wirelink")
AS=1
}}
if(HOLO==1){
holoCreate(1,entity():pos()+vec(0,0,14),vec(1.1,1.5,2.5),ang(0,0,0),vec(100,100,100),"cube")
holoMaterial(1,"sprops/textures/gear_metal")

holoCreate(5,entity():pos()+vec(7,0,14),vec(0.1,1.3,2.2),ang(0,0,0),vec(5,5,5),"cube")
holoCreate(6,entity():pos()+vec(-7,0,14),vec(0.1,1.3,2.2),ang(0,0,0),vec(5,5,5),"cube")
holoAlpha(5,222)
holoAlpha(6,222)

holoCreate(7,entity():pos()+vec(6.8,0,14),vec(0.02,1.2,2.1),ang(0,0,0),vec(555,55,55),"cube")
holoCreate(8,entity():pos()+vec(-6.8,0,14),vec(0.02,1.2,2.1),ang(0,0,0),vec(555,55,55),"cube")

holoMaterial(7,"phoenix_storms/middle")
holoMaterial(8,"phoenix_storms/middle")


holoCreate(9,entity():pos()+vec(-3,8.9,26),vec(0.3,0.05,0.03),ang(0,0,0),vec(60,255,60),"cube")
holoCreate(10,entity():pos()+vec(3,8.9,26),vec(0.3,0.05,0.03),ang(0,0,0),vec(255,60,60),"cube")

holoCreate(11,entity():pos()+vec(0,3.9,10),vec(0.8,0.9,1),ang(0,0,0),vec(100,100,100),"cube")
FachX=holoCreate(2,entity():pos()+vec(0,3.9,20),vec(0.8,0.9,0.03),ang(0,0,0),vec(100,100,100),"cube")
FachY=holoCreate(3,holoEntity(2):pos()+vec(0,0,0.3),vec(0.8,0.9,0.04),ang(0,0,0),vec(100,100,100),"hq_stube_thin")
FachZ=holoCreate(4,holoEntity(2):pos()+vec(0,0.5,0.3),vec(0.2,0.2,0.04),ang(0,0,0),vec(60,60,60),"hq_cylinder")
}







#Egp:egpCircle(100,vec2(),vec2(10,10))
Egp:egpTriangle(100,vec2(0,0),vec2(25,15),vec2(15,25))
Egp:egpParentToCursor(100)
Egp:egpBox(99,vec2(9,9),vec2(2,10))
Egp:egpAngle(99,-45)
Egp:egpParent(99,100)

Egp:egpText(156,time("hour")*1+":"+(time("min"))+":"+(time("sec")),vec2(220,50))
if(first()|changed(players():count())) {
runOnTick(1)
findByClass("player")
All=findToArray()
Counter=1
}

if(first()){
    Egp:egpClear()
    Egp2:egpClear()
    Range=0
    Area=0
HOLO=0
Off=1
SEC=0
Welcome=0
Secret=0
On=0
Admin=0
Passwort=0
Map=0
Server=0
Defence=0
Player=0
E2_finder=0
Finder=0
Defence=0
Base=0
More=0
Door=0
Sky=0
Walls=0
E2list=0
C1=0
C2=0
C3=0
C4=0
P=0
P1=randint(9)
P2=randint(9)
P3=randint(9)
P4=randint(9)
Pos=0
Secret=0
}

if(E2==1){Find2=0}


if(Off==1){
    Egp:egpText(1,"On",vec2(225,230))
#    Egp:egpColor(1,vec(0,0,0))
    Egp:egpRoundedBox(2,vec2(255,255),vec2(130,110))   
    Egp:egpSize(1,50)
    Egp:egpColor(2,vec(0,255,0))
    Egp:egpAlpha(2,100)
#    Egp:egpParent(2,1)


if(User&~User){
       LeftTop = Egp:egpPos(2) - Egp:egpSize(2)/2
        RightBottom = Egp:egpPos(2) + Egp:egpSize(2)/2     
        if(inrange(Cursor, LeftTop, RightBottom)){

    Egp:egpRemove(2)
        Egp:egpRemove(1)
Off=0
Welcome=1

}
}


}
if(Welcome==1){
#    timer("next",1500)
timer("balken",25)
Egp:egpRoundedBox(3,vec2(255,215),vec2(255,200))   
Egp:egpText(4,"Welcome",vec2(160,165))
Egp:egpAlpha(3,100)
Egp:egpColor(4,vec(0,0,0))
#Egp:egpColor(3,vec(random(255,random(255,random(255)))))
Egp:egpSize(4,50)
Egp:egpText(137,""+owner():name(),vec2(185,215))
Egp:egpColor(137,vec(0,0,0))
Egp:egpSize(137,50)

Egp:egpRemove(2)
Egp:egpRemove(1)
if(clk("next")){
    Welcome=0
    On=1
    Egp:egpRemove(3)
    Egp:egpRemove(4)
    Egp:egpRemove(137)
}
Egp:egpRoundedBoxOutline(10,vec2(255,350),vec2(250,25))
if(clk("balken")){
AS=AS+1
Egp:egpRoundedBox(10+AS,vec2(140+AS*1,350),vec2(20,21))   

}
if(AS>227){
stoptimer("balken")
Welcome=0
On=1
Egp:egpRemove(3)
Egp:egpRemove(4)
Egp:egpRemove(137)
for(AS=1,228){
Egp:egpRemove(10+AS)
AS=0
}
}
if(changed(Welcome)&Welcome){
AS=0
}
}
if(On==1){
    Egp:egpRoundedBox(5,vec2(155,155),vec2(130,110))  
    Egp:egpAlpha(5,100)
    Egp:egpText(10,"Admin",vec2(120,140))
    Egp:egpSize(10,25)
    
    Egp:egpRoundedBox(6,vec2(355,355),vec2(130,110))  
    Egp:egpAlpha(6,100)
    Egp:egpText(11,"More",vec2(320,340))
    Egp:egpSize(11,35)

    Egp:egpRoundedBox(7,vec2(155,355),vec2(130,110))  
    Egp:egpAlpha(7,100)
    Egp:egpText(12,"Server",vec2(120,345))    
    Egp:egpSize(12,25)
     
    
    Egp:egpRoundedBox(8,vec2(355,155),vec2(130,110))        
    Egp:egpAlpha(8,100)
    Egp:egpText(13,"E2",vec2(336,135))  
    Egp:egpSize(13,35)  
    
    
    
    
    Egp:egpRoundedBox(9,vec2(50,50),vec2(90,90))   
    Egp:egpAlpha(9,100)
    Egp:egpColor(9,vec(255,0,0))
      Egp:egpText(14,"Off",vec2(30,35))
    Egp:egpSize(14,30)
    
     Egp:egpRoundedBox(194,vec2(461,50),vec2(90,90))   
    Egp:egpAlpha(194,100)
    Egp:egpColor(194,vec(0,255,0))
      Egp:egpText(195,"Base",vec2(431,35))
    Egp:egpSize(195,30)
 
             if(User&~User){
       LeftTop = Egp:egpPos(140) - Egp:egpSize(140)/2
        RightBottom = Egp:egpPos(140) + Egp:egpSize(140)/2     
        if(inrange(Cursor, LeftTop, RightBottom)){
    Egp:egpRemove(5)
    Egp:egpRemove(6)
    Egp:egpRemove(7)
    Egp:egpRemove(8)
    Egp:egpRemove(9)
    Egp:egpRemove(10)
    Egp:egpRemove(11)
    Egp:egpRemove(12)
    Egp:egpRemove(13)
    Egp:egpRemove(14)
    Egp:egpRemove(140)
    Egp:egpRemove(141)
    Egp:egpRemove(194)
Egp:egpRemove(195)

On=0
Base=1
}}
         if(User&~User){
       LeftTop = Egp:egpPos(9) - Egp:egpSize(9)/2
        RightBottom = Egp:egpPos(9) + Egp:egpSize(9)/2     
        if(inrange(Cursor, LeftTop, RightBottom)){
    Egp:egpRemove(5)
    Egp:egpRemove(6)
    Egp:egpRemove(7)
    Egp:egpRemove(8)
    Egp:egpRemove(9)
    Egp:egpRemove(10)
    Egp:egpRemove(11)
    Egp:egpRemove(12)
    Egp:egpRemove(13)
    Egp:egpRemove(14)
    Egp:egpRemove(140)
    Egp:egpRemove(141)
    Egp:egpRemove(194)
Egp:egpRemove(195)

On=0
Off=1
}
}
if(User&~User){
       LeftTop = Egp:egpPos(8) - Egp:egpSize(8)/2
        RightBottom = Egp:egpPos(8) + Egp:egpSize(8)/2     
        if(inrange(Cursor, LeftTop, RightBottom)){
    Egp:egpRemove(5)
    Egp:egpRemove(6)
    Egp:egpRemove(7)
    Egp:egpRemove(8)
    Egp:egpRemove(9)
    Egp:egpRemove(10)
    Egp:egpRemove(11)
    Egp:egpRemove(12)
    Egp:egpRemove(13)
    Egp:egpRemove(14)
    Egp:egpRemove(140)
    Egp:egpRemove(141)
    Egp:egpRemove(194)
Egp:egpRemove(195)
On=0
E2list=1
}
}

if(User&~User){
       LeftTop = Egp:egpPos(7) - Egp:egpSize(7)/2
        RightBottom = Egp:egpPos(7) + Egp:egpSize(7)/2     
        if(inrange(Cursor, LeftTop, RightBottom)){
    Egp:egpRemove(5)
    Egp:egpRemove(6)
    Egp:egpRemove(7)
    Egp:egpRemove(8)
    Egp:egpRemove(9)
    Egp:egpRemove(10)
    Egp:egpRemove(11)
    Egp:egpRemove(12)
    Egp:egpRemove(13)
    Egp:egpRemove(14)
    Egp:egpRemove(140)
    Egp:egpRemove(141)
    Egp:egpRemove(194)
Egp:egpRemove(195)
On=0
Server=1
}}


if(User&~User){
       LeftTop = Egp:egpPos(194) - Egp:egpSize(194)/2
        RightBottom = Egp:egpPos(194) + Egp:egpSize(194)/2     
        if(inrange(Cursor, LeftTop, RightBottom)){
            


            
            
 Egp:egpRemove(5)
    Egp:egpRemove(6)
    Egp:egpRemove(7)
    Egp:egpRemove(8)
    Egp:egpRemove(9)
    Egp:egpRemove(10)
    Egp:egpRemove(11)
    Egp:egpRemove(12)
    Egp:egpRemove(13)
    Egp:egpRemove(14)
    Egp:egpRemove(140)
    Egp:egpRemove(141)
Egp:egpRemove(194)
Egp:egpRemove(195)

On=0
Base=1

}}}


if(User&~User){
       LeftTop = Egp:egpPos(6) - Egp:egpSize(6)/2
        RightBottom = Egp:egpPos(6) + Egp:egpSize(6)/2     
        if(inrange(Cursor, LeftTop, RightBottom)){
    Egp:egpRemove(5)
    Egp:egpRemove(6)
    Egp:egpRemove(7)
    Egp:egpRemove(8)
    Egp:egpRemove(9)
    Egp:egpRemove(10)
    Egp:egpRemove(11)
    Egp:egpRemove(12)
    Egp:egpRemove(13)
    Egp:egpRemove(14)
    Egp:egpRemove(140)
    Egp:egpRemove(141)
Egp:egpRemove(194)
Egp:egpRemove(195)
On=0
More=1
}
}
if(User&~User){
       LeftTop = Egp:egpPos(5) - Egp:egpSize(5)/2
        RightBottom = Egp:egpPos(5) + Egp:egpSize(5)/2     
        if(inrange(Cursor, LeftTop, RightBottom)){
    Egp:egpRemove(5)
    Egp:egpRemove(6)
    Egp:egpRemove(7)
    Egp:egpRemove(8)
    Egp:egpRemove(9)
    Egp:egpRemove(10)
    Egp:egpRemove(10)
    Egp:egpRemove(11)
    Egp:egpRemove(12)
    Egp:egpRemove(13)
    Egp:egpRemove(14)
    Egp:egpRemove(140)
    Egp:egpRemove(141)
    Egp:egpRemove(194)
Egp:egpRemove(195)
On=0
Passwort=1


}
}

if(Passwort==1){
 
      if(first()){  timer("reset",250)
}
    if(clk("reset")){
        C1=0
        C2=0
        C3=0
        C4=0
        stoptimer("reset")
    }
    
    
        Egp:egpRoundedBox(130,vec2(50,35),vec2(80,50))
 Egp:egpColor(130,vec(255,0,0))
 Egp:egpAlpha(130,100)
 Egp:egpText(131,"back",vec2(35,25))
    
    
      Egp:egpRoundedBox(96,vec2(440,40),vec2(100,40))  
    Egp:egpAlpha(96,100)
    Egp:egpText(97,"Pin",vec2(420,28))
    Egp:egpSize(97,25)
    Egp:egpRoundedBox(99,vec2(440,100),vec2(100,60))  
    Egp:egpColor(99,vec(0,255,0))
    Egp:egpText(98,"Enter",vec2(415,85))
    Egp:egpSize(98,25)
    Egp:egpRoundedBox(100,vec2(235,100),vec2(300,50))  
    Egp:egpRoundedBox(101,vec2(115,205),vec2(130,110))    
    Egp:egpRoundedBox(102,vec2(255,205),vec2(130,110))    
    Egp:egpRoundedBox(103,vec2(395,205),vec2(130,110))    
    Egp:egpRoundedBox(104,vec2(115,325),vec2(130,110))      
    Egp:egpRoundedBox(105,vec2(255,325),vec2(130,110))    
    Egp:egpRoundedBox(106,vec2(395,325),vec2(130,110))    
    Egp:egpRoundedBox(107,vec2(115,445),vec2(130,110))    
    Egp:egpRoundedBox(108,vec2(255,445),vec2(130,110))    
    Egp:egpRoundedBox(109,vec2(395,445),vec2(130,110))
    Egp:egpAlpha(100,100)
    Egp:egpAlpha(101,100)
    Egp:egpAlpha(102,100)
    Egp:egpAlpha(103,100)
    Egp:egpAlpha(104,100)
    Egp:egpAlpha(105,100)
    Egp:egpAlpha(106,100)
    Egp:egpAlpha(107,100)
    Egp:egpAlpha(108,100)
    Egp:egpAlpha(109,100)  
    
    Egp:egpText(111,"1",vec2(100,180))
    Egp:egpText(112,"2",vec2(240,180))
    Egp:egpText(113,"3",vec2(380,180))
    Egp:egpText(114,"4",vec2(100,300))
    Egp:egpText(115,"5",vec2(240,300))
    Egp:egpText(116,"6",vec2(380,300))
    Egp:egpText(117,"7",vec2(100,420))
    Egp:egpText(118,"8",vec2(240,420))
    Egp:egpText(119,"9",vec2(380,420))
if(C1>0){
    Egp:egpText(120,""+C1,vec2(120,75))
}
if(C2>0){
    Egp:egpText(121,""+C2,vec2(190,75))
}
if(C3>0){
    Egp:egpText(122,""+C3,vec2(260,75))
}
if(C4>0){
    Egp:egpText(123,""+C4,vec2(330,75))
}
    Egp:egpSize(111,50)
    Egp:egpSize(112,50)
    Egp:egpSize(113,50)
    Egp:egpSize(114,50)
    Egp:egpSize(115,50)
    Egp:egpSize(116,50)
    Egp:egpSize(117,50)
    Egp:egpSize(118,50)
    Egp:egpSize(119,50)
    Egp:egpSize(120,50)
    Egp:egpSize(121,50)
    Egp:egpSize(122,50)
    Egp:egpSize(123,50)
if(User&~User){
       LeftTop = Egp:egpPos(96) - Egp:egpSize(96)/2
        RightBottom = Egp:egpPos(96) + Egp:egpSize(96)/2     
        if(inrange(Cursor, LeftTop, RightBottom)){
P1=randint(9)
P2=randint(9)
P3=randint(9)
P4=randint(9)
print(""+P1+" "+P2+" "+P3+" "+P4)
}}
if(C1==0){
if(User&~User){
       LeftTop = Egp:egpPos(101) - Egp:egpSize(101)/2
        RightBottom = Egp:egpPos(101) + Egp:egpSize(101)/2     
        if(inrange(Cursor, LeftTop, RightBottom)){
C1=1
}} 
if(User&~User){
       LeftTop = Egp:egpPos(102) - Egp:egpSize(102)/2
        RightBottom = Egp:egpPos(102) + Egp:egpSize(102)/2     
        if(inrange(Cursor, LeftTop, RightBottom)){
C1=2
}} 
if(User&~User){
       LeftTop = Egp:egpPos(103) - Egp:egpSize(103)/2
        RightBottom = Egp:egpPos(103) + Egp:egpSize(103)/2     
        if(inrange(Cursor, LeftTop, RightBottom)){
C1=3
}} 
if(User&~User){
       LeftTop = Egp:egpPos(104) - Egp:egpSize(104)/2
        RightBottom = Egp:egpPos(104) + Egp:egpSize(104)/2     
        if(inrange(Cursor, LeftTop, RightBottom)){
C1=4
}} 
if(User&~User){
       LeftTop = Egp:egpPos(105) - Egp:egpSize(105)/2
        RightBottom = Egp:egpPos(105) + Egp:egpSize(105)/2     
        if(inrange(Cursor, LeftTop, RightBottom)){
C1=5
}} 
if(User&~User){
       LeftTop = Egp:egpPos(106) - Egp:egpSize(106)/2
        RightBottom = Egp:egpPos(106) + Egp:egpSize(106)/2     
        if(inrange(Cursor, LeftTop, RightBottom)){
C1=6
}} 
if(User&~User){
       LeftTop = Egp:egpPos(107) - Egp:egpSize(107)/2
        RightBottom = Egp:egpPos(107) + Egp:egpSize(107)/2     
        if(inrange(Cursor, LeftTop, RightBottom)){
C1=7
}} 
if(User&~User){
       LeftTop = Egp:egpPos(108) - Egp:egpSize(108)/2
        RightBottom = Egp:egpPos(108) + Egp:egpSize(108)/2     
        if(inrange(Cursor, LeftTop, RightBottom)){
C1=8
}} 
if(User&~User){
       LeftTop = Egp:egpPos(109) - Egp:egpSize(109)/2
        RightBottom = Egp:egpPos(109) + Egp:egpSize(109)/2     
        if(inrange(Cursor, LeftTop, RightBottom)){
C1=9
}} 



}
elseif(C2==0){
if(User&~User){
       LeftTop = Egp:egpPos(101) - Egp:egpSize(101)/2
        RightBottom = Egp:egpPos(101) + Egp:egpSize(101)/2     
        if(inrange(Cursor, LeftTop, RightBottom)){
C2=1
}} 
if(User&~User){
       LeftTop = Egp:egpPos(102) - Egp:egpSize(102)/2
        RightBottom = Egp:egpPos(102) + Egp:egpSize(102)/2     
        if(inrange(Cursor, LeftTop, RightBottom)){
C2=2
}}
if(User&~User){
       LeftTop = Egp:egpPos(103) - Egp:egpSize(103)/2
        RightBottom = Egp:egpPos(103) + Egp:egpSize(103)/2     
        if(inrange(Cursor, LeftTop, RightBottom)){
C2=3
}}
if(User&~User){
       LeftTop = Egp:egpPos(104) - Egp:egpSize(104)/2
        RightBottom = Egp:egpPos(104) + Egp:egpSize(104)/2     
        if(inrange(Cursor, LeftTop, RightBottom)){
C2=4
}}
if(User&~User){
       LeftTop = Egp:egpPos(105) - Egp:egpSize(105)/2
        RightBottom = Egp:egpPos(105) + Egp:egpSize(105)/2     
        if(inrange(Cursor, LeftTop, RightBottom)){
C2=5
}}
if(User&~User){
       LeftTop = Egp:egpPos(106) - Egp:egpSize(106)/2
        RightBottom = Egp:egpPos(106) + Egp:egpSize(106)/2     
        if(inrange(Cursor, LeftTop, RightBottom)){
C2=6
}}
if(User&~User){
       LeftTop = Egp:egpPos(107) - Egp:egpSize(107)/2
        RightBottom = Egp:egpPos(107) + Egp:egpSize(107)/2     
        if(inrange(Cursor, LeftTop, RightBottom)){
C2=7
}}
if(User&~User){
       LeftTop = Egp:egpPos(108) - Egp:egpSize(108)/2
        RightBottom = Egp:egpPos(108) + Egp:egpSize(108)/2     
        if(inrange(Cursor, LeftTop, RightBottom)){
C2=8
}}
if(User&~User){
       LeftTop = Egp:egpPos(109) - Egp:egpSize(109)/2
        RightBottom = Egp:egpPos(109) + Egp:egpSize(109)/2     
        if(inrange(Cursor, LeftTop, RightBottom)){
C2=9
}}
}
elseif(C3==0){

    if(User&~User){
       LeftTop = Egp:egpPos(101) - Egp:egpSize(101)/2
        RightBottom = Egp:egpPos(101) + Egp:egpSize(101)/2     
        if(inrange(Cursor, LeftTop, RightBottom)){
C3=1
}}
    if(User&~User){
       LeftTop = Egp:egpPos(102) - Egp:egpSize(102)/2
        RightBottom = Egp:egpPos(102) + Egp:egpSize(102)/2     
        if(inrange(Cursor, LeftTop, RightBottom)){
C3=2
}}
if(User&~User){
       LeftTop = Egp:egpPos(103) - Egp:egpSize(103)/2
        RightBottom = Egp:egpPos(103) + Egp:egpSize(103)/2     
        if(inrange(Cursor, LeftTop, RightBottom)){
C3=3
}}
if(User&~User){
       LeftTop = Egp:egpPos(104) - Egp:egpSize(104)/2
        RightBottom = Egp:egpPos(104) + Egp:egpSize(104)/2     
        if(inrange(Cursor, LeftTop, RightBottom)){
C3=4
}}
if(User&~User){
       LeftTop = Egp:egpPos(105) - Egp:egpSize(105)/2
        RightBottom = Egp:egpPos(105) + Egp:egpSize(105)/2     
        if(inrange(Cursor, LeftTop, RightBottom)){
C3=5
}}
if(User&~User){
       LeftTop = Egp:egpPos(106) - Egp:egpSize(106)/2
        RightBottom = Egp:egpPos(106) + Egp:egpSize(106)/2     
        if(inrange(Cursor, LeftTop, RightBottom)){
C3=6
}}
if(User&~User){
       LeftTop = Egp:egpPos(107) - Egp:egpSize(107)/2
        RightBottom = Egp:egpPos(107) + Egp:egpSize(107)/2     
        if(inrange(Cursor, LeftTop, RightBottom)){
C3=7
}}
if(User&~User){
       LeftTop = Egp:egpPos(108) - Egp:egpSize(108)/2
        RightBottom = Egp:egpPos(108) + Egp:egpSize(108)/2     
        if(inrange(Cursor, LeftTop, RightBottom)){
C3=8
}}    
if(User&~User){
       LeftTop = Egp:egpPos(109) - Egp:egpSize(109)/2
        RightBottom = Egp:egpPos(109) + Egp:egpSize(109)/2     
        if(inrange(Cursor, LeftTop, RightBottom)){
C3=9
}}
}
elseif(C4==0){
    if(User&~User){
       LeftTop = Egp:egpPos(101) - Egp:egpSize(101)/2
        RightBottom = Egp:egpPos(101) + Egp:egpSize(101)/2     
        if(inrange(Cursor, LeftTop, RightBottom)){
C4=1
}}
if(User&~User){
       LeftTop = Egp:egpPos(102) - Egp:egpSize(102)/2
        RightBottom = Egp:egpPos(102) + Egp:egpSize(102)/2     
        if(inrange(Cursor, LeftTop, RightBottom)){
C4=2
}}
if(User&~User){
       LeftTop = Egp:egpPos(103) - Egp:egpSize(103)/2
        RightBottom = Egp:egpPos(103) + Egp:egpSize(103)/2     
        if(inrange(Cursor, LeftTop, RightBottom)){
C4=3
}}
if(User&~User){
       LeftTop = Egp:egpPos(104) - Egp:egpSize(104)/2
        RightBottom = Egp:egpPos(104) + Egp:egpSize(104)/2     
        if(inrange(Cursor, LeftTop, RightBottom)){

C4=4
}}
if(User&~User){
       LeftTop = Egp:egpPos(105) - Egp:egpSize(105)/2
        RightBottom = Egp:egpPos(105) + Egp:egpSize(105)/2     
        if(inrange(Cursor, LeftTop, RightBottom)){
C4=5

}}
if(User&~User){
       LeftTop = Egp:egpPos(106) - Egp:egpSize(106)/2
        RightBottom = Egp:egpPos(106) + Egp:egpSize(106)/2     
        if(inrange(Cursor, LeftTop, RightBottom)){
C4=6
}}
if(User&~User){
       LeftTop = Egp:egpPos(107) - Egp:egpSize(107)/2
        RightBottom = Egp:egpPos(107) + Egp:egpSize(107)/2     
        if(inrange(Cursor, LeftTop, RightBottom)){
C4=7
}}
if(User&~User){
       LeftTop = Egp:egpPos(108) - Egp:egpSize(108)/2
        RightBottom = Egp:egpPos(108) + Egp:egpSize(108)/2     
        if(inrange(Cursor, LeftTop, RightBottom)){
C4=8
}}
if(User&~User){
       LeftTop = Egp:egpPos(109) - Egp:egpSize(109)/2
        RightBottom = Egp:egpPos(109) + Egp:egpSize(109)/2     
        if(inrange(Cursor, LeftTop, RightBottom)){
C4=9
}}
}

if(User&~User){
       LeftTop = Egp:egpPos(99) - Egp:egpSize(99)/2
        RightBottom = Egp:egpPos(99) + Egp:egpSize(99)/2 
        
        if(inrange(Cursor, LeftTop, RightBottom)){
if(C1==P1&C2==P2&C3==P3&C4==P4){

timer("aasssdd",150)
Egp:egpRemove(100)
Egp:egpRemove(101)
Egp:egpRemove(102)
Egp:egpRemove(103)
Egp:egpRemove(104)
Egp:egpRemove(105)
Egp:egpRemove(106)
Egp:egpRemove(107)
Egp:egpRemove(108)
Egp:egpRemove(109)
Egp:egpRemove(110)
Egp:egpRemove(111)
Egp:egpRemove(112)
Egp:egpRemove(113)
Egp:egpRemove(114)
Egp:egpRemove(115)
Egp:egpRemove(116)
Egp:egpRemove(117)
Egp:egpRemove(118)
Egp:egpRemove(119)
Egp:egpRemove(120)
Egp:egpRemove(121)
Egp:egpRemove(122)
Egp:egpRemove(123)
Egp:egpRemove(99)
Egp:egpRemove(98)
Egp:egpRemove(130)
Egp:egpRemove(131)
Egp:egpRemove(96)
Egp:egpRemove(97)
Passwort=0
Admin=1
C1=0
C2=0
C3=0
C4=0


}
else{
    C1=0
    C2=0
    C3=0
    C4=0
Egp:egpRemove(120)
Egp:egpRemove(121)
Egp:egpRemove(122)
Egp:egpRemove(123)
}

}
}
if(clk("aassdd")){
    Egp:egpRemove(100)
Egp:egpRemove(101)
Egp:egpRemove(102)
Egp:egpRemove(103)
Egp:egpRemove(104)
Egp:egpRemove(105)
Egp:egpRemove(106)
Egp:egpRemove(107)
Egp:egpRemove(108)
Egp:egpRemove(109)
Egp:egpRemove(110)
Egp:egpRemove(111)
Egp:egpRemove(112)
Egp:egpRemove(113)
Egp:egpRemove(114)
Egp:egpRemove(115)
Egp:egpRemove(116)
Egp:egpRemove(117)
Egp:egpRemove(118)
Egp:egpRemove(119)
Egp:egpRemove(120)
Egp:egpRemove(121)
Egp:egpRemove(122)
Egp:egpRemove(123)
Egp:egpRemove(99)
Egp:egpRemove(98)
Egp:egpRemove(130)
Egp:egpRemove(131)
Egp:egpRemove(96)
Egp:egpRemove(97)
Passwort=0
Admin=1
C1=0
C2=0
C3=0
C4=0
}
if(User&~User){
       LeftTop = Egp:egpPos(130) - Egp:egpSize(130)/2
        RightBottom = Egp:egpPos(130) + Egp:egpSize(130)/2     
        if(inrange(Cursor, LeftTop, RightBottom)){
timer("asdasdasdasda",150)

}
}
if(clk("asdasdasdasda")){
Egp:egpRemove(100)
Egp:egpRemove(101)
Egp:egpRemove(102)
Egp:egpRemove(103)
Egp:egpRemove(104)
Egp:egpRemove(105)
Egp:egpRemove(106)
Egp:egpRemove(107)
Egp:egpRemove(108)
Egp:egpRemove(109)
Egp:egpRemove(110)
Egp:egpRemove(111)
Egp:egpRemove(112)
Egp:egpRemove(113)
Egp:egpRemove(114)
Egp:egpRemove(115)
Egp:egpRemove(116)
Egp:egpRemove(117)
Egp:egpRemove(118)
Egp:egpRemove(119)
Egp:egpRemove(120)
Egp:egpRemove(121)
Egp:egpRemove(122)
Egp:egpRemove(123)
Egp:egpRemove(99)
Egp:egpRemove(98)
Egp:egpRemove(130)
Egp:egpRemove(131)
Egp:egpRemove(96)
Egp:egpRemove(97)
Passwort=0
On=1   
stoptimer("asdasdasdasda")
}
if(changed(Passwort)&Passwort){
    C1=0
    C2=0
    C3=0
    C4=0
    P1=random()
    P2=random()
    P3=random()
    P4=random()
Egp:egpRemove(220)
Egp:egpRemove(221)
Egp:egpRemove(222)
Egp:egpRemove(223)
}
}
if(Admin==1){
        
      

        
        
 Egp:egpRoundedBox(200,vec2(455,405),vec2(70,70))
 Egp:egpColor(200,vec(0,255,0))
Egp:egpAlpha(200,100)
 Egp:egpRoundedBox(201,vec2(55,405),vec2(70,70))
 Egp:egpColor(201,vec(255,0,0))
Egp:egpAlpha(201,100)
 Egp:egpRoundedBox(202,vec2(255,405),vec2(300,70))
 Egp:egpAlpha(202,100)
 Egp:egpRoundedBox(203,vec2(155,155),vec2(150,100))
 Egp:egpAlpha(203,100)
 Egp:egpText(204,"God",vec2(122,135))
 Egp:egpSize(204,40)
Egp:egpRoundedBox(205,vec2(355,155),vec2(150,100))
 Egp:egpAlpha(205,100)
 Egp:egpText(206,"Ungod",vec2(300,135))
 Egp:egpSize(206,40)
 Egp:egpRoundedBox(207,vec2(50,35),vec2(80,50))
 Egp:egpColor(207,vec(255,0,0))
 Egp:egpAlpha(207,100)
 Egp:egpText(208,"back",vec2(35,25))
 Egp:egpText(209,"-",vec2(37,350))
 Egp:egpSize(209,100)
 Egp:egpText(210,"+",vec2(420,350))
 Egp:egpSize(210,100)
Egp:egpText(211,""+Spieler,vec2(120,385))
Egp:egpSize(211,35)
Egp:egpRoundedBox(213,vec2(155,280),vec2(150,100))
Egp:egpAlpha(213,100)
Egp:egpText(214,"respawn",vec2(92,260))
Egp:egpSize(214,35)
Egp:egpRoundedBox(215,vec2(355,280),vec2(150,100))
Egp:egpAlpha(215,100)
Egp:egpText(216,"slay",vec2(315,250))
Egp:egpSize(216,50)


if(Counter>All:count()|Counter==0) {Counter=1}
Spieler=All[Counter,entity]:name() toString(Counter)

Target=All[Counter,entity]

}
if(User&~User){
       LeftTop = Egp:egpPos(200) - Egp:egpSize(200)/2
        RightBottom = Egp:egpPos(200) + Egp:egpSize(200)/2 
        
        if(inrange(Cursor, LeftTop, RightBottom)){
Counter++

}}
if(User&~User){
       LeftTop = Egp:egpPos(201) - Egp:egpSize(201)/2
        RightBottom = Egp:egpPos(201) + Egp:egpSize(201)/2 
        
        if(inrange(Cursor, LeftTop, RightBottom)){
Counter--
}}

if(User&~User){
       LeftTop = Egp:egpPos(203) - Egp:egpSize(203)/2
        RightBottom = Egp:egpPos(203) + Egp:egpSize(203)/2      
          
        if(inrange(Cursor, LeftTop, RightBottom)){
    Target:plyGod(1)

print("You activated god of "+Target:name())   
}}
if(User&~User){
       LeftTop = Egp:egpPos(205) - Egp:egpSize(205)/2
        RightBottom = Egp:egpPos(205) + Egp:egpSize(205)/2        
        if(inrange(Cursor, LeftTop, RightBottom)){
 Target:plyGod(0)

print("You deactivated god of "+Target:name())    
}}
if(User&~User){
       LeftTop = Egp:egpPos(213) - Egp:egpSize(213)/2
        RightBottom = Egp:egpPos(213) + Egp:egpSize(213)/2 
        
        if(inrange(Cursor, LeftTop, RightBottom)) {
 Target:plySpawn()

print("You respawned "+Target:name())
}}
if(User&~User){
       LeftTop = Egp:egpPos(215) - Egp:egpSize(215)/2
        RightBottom = Egp:egpPos(215) + Egp:egpSize(215)/2 
        
        if(inrange(Cursor, LeftTop, RightBottom)){
 Target:plyGod(0)
#Target:dmgApplyDamage(99999999999999999999999)

print("You killed "+Target:name())
}}







if(User&~User){
       LeftTop = Egp:egpPos(207) - Egp:egpSize(207)/2
        RightBottom = Egp:egpPos(207) + Egp:egpSize(207)/2     
        if(inrange(Cursor, LeftTop, RightBottom)){
            
Egp:egpRemove(200)       
Egp:egpRemove(201)       
Egp:egpRemove(202)       
Egp:egpRemove(203)       
Egp:egpRemove(204)       
Egp:egpRemove(205)       
Egp:egpRemove(206)
Egp:egpRemove(206)  
Egp:egpRemove(207)            
Egp:egpRemove(208)
Egp:egpRemove(209) 
Egp:egpRemove(210) 
Egp:egpRemove(211) 
Egp:egpRemove(212) 
Egp:egpRemove(213) 
Egp:egpRemove(214) 
Egp:egpRemove(215)
Egp:egpRemove(216)                
     
            
Admin=0
On=1

}
}



    
if(Map==1){
    
    Zoom=65
    Mitte=vec2(1920/4-250,1080/4)
Egp:egpText(298,Zoom:toString(),Mitte+vec2(100,200))

for(I=1,players():count()) {
S=players()[I,entity]
Egp:egpBox(I,Mitte+vec2(round(S:pos():x())/Zoom,round(S:pos():y())/Zoom),vec2(10,10))
Egp:egpText(100+I,players()[I,entity]:name(),vec2())
Egp:egpParent(100+I,I)
Egp:egpColor(100+I,teamColor(players()[I,entity]:team())+vec(50,50,50))
Egp:egpColor(I,teamColor(players()[I,entity]:team())+vec(50,50,50))

}


    
    
    
    
    
    
    
    
    
    
Egp:egpRoundedBox(150,vec2(50,35),vec2(80,50))
 Egp:egpColor(150,vec(255,0,0))
 Egp:egpAlpha(150,100)
 Egp:egpText(151,"back",vec2(35,25))



if(User&~User){
       LeftTop = Egp:egpPos(150) - Egp:egpSize(150)/2
        RightBottom = Egp:egpPos(150) + Egp:egpSize(150)/2     
        if(inrange(Cursor, LeftTop, RightBottom)){
            Egp:egpClear()
            Egp:egpRemove(150)
            Egp:egpRemove(151)
Map=0
On=1
}}
}


if(Server==1){
Egp:egpRoundedBox(150,vec2(50,35),vec2(80,50))
 Egp:egpColor(150,vec(255,0,0))
 Egp:egpAlpha(150,100)
 Egp:egpText(151,"back",vec2(35,25))



Egp:egpText(190,hostname(),vec2(10,2*35))
Egp:egpText(191,"Player  = "+numPlayers()+"/"+maxPlayers(),vec2(10,3*35))
Egp:egpText(192,"Map name= "+map(),vec2(10,4*35))
Egp:egpText(193,"Gravity = "+gravity(),vec2(10,5*35))
Egp:egpText(194,"Day     = "+time("day")+"/"+time("month")+"/"+time("year"),vec2(10,6*35))
#Egp:egpText(195,"PLAYER",vec2(100,8*35))
Egp:egpColor(196,vec4(255,0,0,190))




for(I=1,players():count()) {


    if(I<=12) {
    Egp:egpText(197+I,players()[I,entity]:name()+"  ("+teamName(players()[I,entity]:team())
+")   "+players()[I,entity]:ping(),vec2(10,100+(10+I)*15))
#    }elseif(I<=12) {
#    Egp:egpText(197+I,players()[I,entity]:name(),vec2(200,100+(10+(I-maxPlayers()/2))*15))
    }
    elseif(I<=12) {
    Egp:egpText(197+I,players()[I,entity]:name(),vec2(390,100+(10+(I-maxPlayers()/2))*15))
    }
Egp:egpColor(197+I,teamColor(players()[I,entity]:team())+vec(50,50,50))

if(changed(players():count())){
for(I=1,players():count()){
Egp:egpRemove(197+I)
}
    
    
    }

}

if(User&~User){
       LeftTop = Egp:egpPos(150) - Egp:egpSize(150)/2
        RightBottom = Egp:egpPos(150) + Egp:egpSize(150)/2     
        if(inrange(Cursor, LeftTop, RightBottom)){

Server=0
On=1




Egp:egpClear()

Egp:egpRemove(150)
Egp:egpRemove(151)
Egp:egpRemove(190)
Egp:egpRemove(191)
Egp:egpRemove(192)
Egp:egpRemove(193)
Egp:egpRemove(194)
Egp:egpRemove(195)
Egp:egpRemove(196)
Egp:egpRemove(197)
Egp:egpRemove(198)
Egp:egpRemove(199)
Server=0
On=1
}}
}
if(More==1){
    Egp:egpRoundedBox(190,vec2(50,35),vec2(80,50))
 Egp:egpColor(190,vec(255,0,0))
 Egp:egpAlpha(190,100)
 Egp:egpText(191,"back",vec2(35,25))



Egp:egpRoundedBox(192,vec2(255,150),vec2(300,80))
Egp:egpAlpha(192,100)
Egp:egpText(193,"Finder",vec2(207,130))
Egp:egpSize(193,35)

Egp:egpRoundedBox(194,vec2(255,265),vec2(300,80))
Egp:egpAlpha(194,100)
Egp:egpText(195,"Map",vec2(215,240))
Egp:egpSize(195,45)


if(User&~User){
       LeftTop = Egp:egpPos(192) - Egp:egpSize(192)/2
        RightBottom = Egp:egpPos(192) + Egp:egpSize(192)/2     
        if(inrange(Cursor, LeftTop, RightBottom)){
            
timer("asd",250)
}}
if(clk("asd")){
            
            
Egp:egpRemove(190)
Egp:egpRemove(191)
Egp:egpRemove(192)
Egp:egpRemove(193)
Egp:egpRemove(194)
Egp:egpRemove(195)

More=0
Finder=1
stoptimer("asd")
}
if(User&~User){
       LeftTop = Egp:egpPos(194) - Egp:egpSize(194)/2
        RightBottom = Egp:egpPos(194) + Egp:egpSize(194)/2     
        if(inrange(Cursor, LeftTop, RightBottom)){
            
timer("asdsda",250)
}}
if(clk("asdsda")){
            
            
Egp:egpRemove(190)
Egp:egpRemove(191)
Egp:egpRemove(192)
Egp:egpRemove(193)
Egp:egpRemove(194)
Egp:egpRemove(195)

More=0
Map=1
stoptimer("asdsda")
}


if(User&~User){
       LeftTop = Egp:egpPos(190) - Egp:egpSize(190)/2
        RightBottom = Egp:egpPos(190) + Egp:egpSize(190)/2     
        if(inrange(Cursor, LeftTop, RightBottom)){
Egp:egpRemove(190)
Egp:egpRemove(191)
Egp:egpRemove(192)
Egp:egpRemove(193)
Egp:egpRemove(194)
Egp:egpRemove(195)

#Egp:egpRemove()
#Egp:egpRemove()
#Egp:egpRemove()
#Egp:egpRemove()
#Egp:egpRemove()
More=0
On=1
}}
}

    if(Finder==1){
        
     Egp:egpRoundedBox(238,vec2(50,35),vec2(80,50))
 Egp:egpColor(238,vec(255,0,0))
 Egp:egpAlpha(239,100)
 Egp:egpText(239,"back",vec2(35,25))      
        
 

Egp:egpRoundedBox(240,vec2(255,170),vec2(300,80))
Egp:egpAlpha(240,100)
Egp:egpText(241,"E2",vec2(230,145))
Egp:egpSize(241,45)
Egp:egpRoundedBox(242,vec2(255,270),vec2(300,80))
Egp:egpAlpha(((242,100)
Egp:egpText(243,"Player",vec2(195,245))
Egp:egpSize(243,45)
         
if(User&~User){
       LeftTop = Egp:egpPos(240) - Egp:egpSize(240)/2
        RightBottom = Egp:egpPos(240) + Egp:egpSize(240)/2     
        if(inrange(Cursor, LeftTop, RightBottom)){        
        if(E2_finder==1){
            E2_finder=0
             Egp2:egpClear()
        }
        else{E2_finder=1}
     Egp2:egpClear()
}
}
       if(User&~User){
       LeftTop = Egp:egpPos(238) - Egp:egpSize(238)/2
        RightBottom = Egp:egpPos(238) + Egp:egpSize(238)/2     
        if(inrange(Cursor, LeftTop, RightBottom)){
Egp:egpRemove(238)
Egp:egpRemove(239)
Egp:egpRemove(240)
Egp:egpRemove(241)
Egp:egpRemove(242)
Egp:egpRemove(243)
#Egp:egpRemove()
#Egp:egpRemove()
#Egp:egpRemove()
Egp:egpClear()
Finder=0
More=1
}}
if(User&~User){
       LeftTop = Egp:egpPos(242) - Egp:egpSize(242)/2
        RightBottom = Egp:egpPos(242) + Egp:egpSize(242)/2     
        if(inrange(Cursor, LeftTop, RightBottom)){
            if(Player==1){
                Player=0
                Egp2:egpClear()
            }
            else{Player=1}
             Egp2:egpClear()
    }}
}

    if(E2_finder==1){
        findByClass("gmod_wire_expression2")
findInSphere(E:pos(),100000)
Find=findToArray()

if(first()){Egp2:egpClear()}
timer("find2",500)
if(clk("find2")){
 for(P=1,Find:count()){
Tip=Find[P,entity]   
 E2=round(Tip:cpuUsage()*1000000)
    OW=Tip:owner():name()
  Dist=round(E:pos():distance(Tip:pos()))
    ######
    Egp2:egp3DTracker(P+150,Tip:pos())
    Egp2:egpText(P+10,P+" ("+Tip:getName()+") owner=("+OW+")"+"    Distance from chip=="+Dist,vec2(30,0))
    
    Egp2:egpCircleOutline(P+30,vec2(),vec2(20,20))
    Egp2:egpColor(P+30,vec(255,0,0))
    
    Egp2:egpParent(P+30,P+150)
       Egp2:egpParent(P+10,P+150)
    if(Tip:owner():isAlive()){
        Egp2:egpColor(P+10,vec(0,255,255))
        }else{
       Egp2:egpColor(P+10,vec(255,0,255))
    }

}      

}
timer("reset",10000)
if(clk("reset")){
    Egp2:egpClear()
}
}      
    
    
    if(Player==1){
        timer("Reset",30000)
interval(750)
if(first()|changed(players():count())|clk("Reset")) { Egp2:egpClear()}
for(T=1,players():count()) {
#if(players()[T,entity]==entity()) {}else {
#Egp:egp3DTracker(T,players()[T,entity]:attachmentPos("eyes"))
Egp2:egp3DTracker(T,players()[T,entity]:attachmentPos("chest"))
Egp2:egpText(T+20,players()[T,entity]:name(),vec2())
Egp2:egpCircleOutline(T+50,vec2(),vec2(10,10))
if(players()[T,entity]:isAlive()) {Egp:egpColor(T+20,vec(0,255,100))} else{Egp:egpColor(T+20,vec(255,0,0))}    
Egp2:egpParent(T+20,T)
Egp2:egpParent(T+50,T)
}
#}

}
if(Base==1){
    Egp:egpRoundedBox(142,vec2(155,145),vec2(130,110))  
    Egp:egpAlpha(142,100)
    Egp:egpText(143,"Door",vec2(115,130))
    Egp:egpSize(143,35)
    
    Egp:egpRoundedBox(144,vec2(355,365),vec2(130,110))  
    Egp:egpAlpha(144,100)
    Egp:egpText(145,"Roofe",vec2(312,345))
    Egp:egpSize(145,35)

    Egp:egpRoundedBox(146,vec2(155,365),vec2(130,110))  
    Egp:egpAlpha(146,100)
    Egp:egpText(147,"Alpha",vec2(115,345))    
    Egp:egpSize(147,35)
      
    Egp:egpRoundedBox(148,vec2(355,145),vec2(130,110))        
    Egp:egpAlpha(148,100)
    Egp:egpText(149,"Defence",vec2(295,125))  
    Egp:egpSize(149,35)  
    
    Egp:egpRoundedBox(152,vec2(255,255),vec2(130,110))        
    Egp:egpAlpha(152,100)
    Egp:egpText(153,"Position",vec2(195,235))  
    Egp:egpSize(153,35)  
    
    Egp:egpRoundedBox(177,vec2(255,460),vec2(300,70))
    Egp:egpAlpha(177,100)
    Egp:egpText(178,"Respawn",vec2(180,437))
    Egp:egpSize(178,40)
    
    Egp:egpRoundedBox(150,vec2(50,50),vec2(90,90))   
    Egp:egpAlpha(150,100)
    Egp:egpColor(150,vec(255,0,0))
    Egp:egpText(151,"Back",vec2(20,35))
    Egp:egpSize(151,30)

if(User&~User){
       LeftTop = Egp:egpPos(177) - Egp:egpSize(177)/2
        RightBottom = Egp:egpPos(177) + Egp:egpSize(177)/2     
        if(inrange(Cursor, LeftTop, RightBottom)){
            Reset1=1
        }

}
        else{Reset1=0}
if(User&~User){
       LeftTop = Egp:egpPos(150) - Egp:egpSize(150)/2
        RightBottom = Egp:egpPos(150) + Egp:egpSize(150)/2     
        if(inrange(Cursor, LeftTop, RightBottom)){
Egp:egpRemove(142)
Egp:egpRemove(143)
Egp:egpRemove(144)
Egp:egpRemove(145)
Egp:egpRemove(146)
Egp:egpRemove(147)
Egp:egpRemove(148)
Egp:egpRemove(149)
Egp:egpRemove(150)
Egp:egpRemove(151)
Egp:egpRemove(152)
Egp:egpRemove(153)
Egp:egpClear()
Base=0
On=1
}}
if(User&~User){
       LeftTop = Egp:egpPos(142) - Egp:egpSize(142)/2
        RightBottom = Egp:egpPos(142) + Egp:egpSize(142)/2     
        if(inrange(Cursor, LeftTop, RightBottom)){
Egp:egpRemove(142)
Egp:egpRemove(143)
Egp:egpRemove(144)
Egp:egpRemove(145)
Egp:egpRemove(146)
Egp:egpRemove(147)
Egp:egpRemove(148)
Egp:egpRemove(149)
Egp:egpRemove(150)
Egp:egpRemove(151)
Egp:egpRemove(152)
Egp:egpRemove(153)
Egp:egpClear()
timer("adssads",150)
}}

#Defence=1


if(clk("adssads")){
Base=0
Door=1
Egp:egpRemove(142)
Egp:egpRemove(143)
Egp:egpRemove(144)
Egp:egpRemove(145)
Egp:egpRemove(146)
Egp:egpRemove(147)
Egp:egpRemove(148)
Egp:egpRemove(149)
Egp:egpRemove(150)
Egp:egpRemove(151)
Egp:egpRemove(152)
Egp:egpRemove(153)
Egp:egpClear()
stoptimer("adssads")
}
if(User&~User){
       LeftTop = Egp:egpPos(152) - Egp:egpSize(152)/2
        RightBottom = Egp:egpPos(152) + Egp:egpSize(152)/2     
        if(inrange(Cursor, LeftTop, RightBottom)){
Egp:egpRemove(142)
Egp:egpRemove(143)
Egp:egpRemove(144)
Egp:egpRemove(145)
Egp:egpRemove(146)
Egp:egpRemove(147)
Egp:egpRemove(148)
Egp:egpRemove(149)
Egp:egpRemove(150)
Egp:egpRemove(151)
Egp:egpRemove(152)
Egp:egpRemove(153)
Egp:egpClear()
timer("adssadssd",150)
}}

#Defence=1


if(clk("adssadssd")){
Base=0
Pos=1
Egp:egpRemove(142)
Egp:egpRemove(143)
Egp:egpRemove(144)
Egp:egpRemove(145)
Egp:egpRemove(146)
Egp:egpRemove(147)
Egp:egpRemove(148)
Egp:egpRemove(149)
Egp:egpRemove(150)
Egp:egpRemove(151)
Egp:egpRemove(152)
Egp:egpRemove(153)
Egp:egpClear()
stoptimer("adssadssd")
}
if(User&~User){
       LeftTop = Egp:egpPos(144) - Egp:egpSize(144)/2
        RightBottom = Egp:egpPos(144) + Egp:egpSize(144)/2     
        if(inrange(Cursor, LeftTop, RightBottom)){
Egp:egpRemove(142)
Egp:egpRemove(143)
Egp:egpRemove(144)
Egp:egpRemove(145)
Egp:egpRemove(146)
Egp:egpRemove(147)
Egp:egpRemove(148)
Egp:egpRemove(149)
Egp:egpRemove(150)
Egp:egpRemove(151)
Egp:egpRemove(152)
Egp:egpRemove(153)
Egp:egpClear()

timer("addsads",150)
}}

#Defence=1


if(clk("addsads")){
Base=0
Sky=1
Egp:egpRemove(142)
Egp:egpRemove(143)
Egp:egpRemove(144)
Egp:egpRemove(145)
Egp:egpRemove(146)
Egp:egpRemove(147)
Egp:egpRemove(148)
Egp:egpRemove(149)
Egp:egpRemove(150)
Egp:egpRemove(151)
Egp:egpRemove(152)
Egp:egpRemove(153)
Egp:egpClear()
stoptimer("addsads")
}
if(User&~User){
       LeftTop = Egp:egpPos(146) - Egp:egpSize(146)/2
        RightBottom = Egp:egpPos(146) + Egp:egpSize(146)/2     
        if(inrange(Cursor, LeftTop, RightBottom)){
Egp:egpRemove(142)
Egp:egpRemove(143)
Egp:egpRemove(144)
Egp:egpRemove(145)
Egp:egpRemove(146)
Egp:egpRemove(147)
Egp:egpRemove(148)
Egp:egpRemove(149)
Egp:egpRemove(150)
Egp:egpRemove(151)
Egp:egpRemove(152)
Egp:egpRemove(153)
Egp:egpClear()

timer("adsfads",150)
}}

#Defence=1


if(clk("adsfads")){
Base=0
Walls=1
Egp:egpRemove(142)
Egp:egpRemove(143)
Egp:egpRemove(144)
Egp:egpRemove(145)
Egp:egpRemove(146)
Egp:egpRemove(147)
Egp:egpRemove(148)
Egp:egpRemove(149)
Egp:egpRemove(150)
Egp:egpRemove(151)
Egp:egpRemove(152)
Egp:egpRemove(153)
Egp:egpClear()
stoptimer("adsfads")
}
if(User&~User){
       LeftTop = Egp:egpPos(148) - Egp:egpSize(148)/2
        RightBottom = Egp:egpPos(148) + Egp:egpSize(148)/2     
        if(inrange(Cursor, LeftTop, RightBottom)){
Egp:egpRemove(142)
Egp:egpRemove(143)
Egp:egpRemove(144)
Egp:egpRemove(145)
Egp:egpRemove(146)
Egp:egpRemove(147)
Egp:egpRemove(148)
Egp:egpRemove(149)
Egp:egpRemove(150)
Egp:egpRemove(151)
Egp:egpRemove(152)
Egp:egpRemove(153)
Egp:egpClear()

timer("adsads",150)
#Defence=1
}}
                                                                                                                                                                         
if(clk("adsads")){
Base=0
Defence=1
Egp:egpRemove(142)
Egp:egpRemove(143)
Egp:egpRemove(144)
Egp:egpRemove(145)
Egp:egpRemove(146)
Egp:egpRemove(147)
Egp:egpRemove(148)
Egp:egpRemove(149)
Egp:egpRemove(150)
Egp:egpRemove(151)
Egp:egpRemove(152)
Egp:egpRemove(153)
Egp:egpClear()
stoptimer("adsads")
}
}
if(Door==1){
Egp:egpRoundedBox(252,vec2(255,200),vec2(300,80))
Egp:egpAlpha(252,100)
Egp:egpText(253,"Open",vec2(205,175))
Egp:egpSize(253,45)


Egp:egpRoundedBox(254,vec2(255,350),vec2(300,80))
Egp:egpAlpha(254,100)
Egp:egpText(255,"Close",vec2(205,325))
Egp:egpSize(255,45)

    Egp:egpRoundedBox(256,vec2(50,50),vec2(90,90))   
    Egp:egpAlpha(256,100)
    Egp:egpColor(256,vec(255,0,0))
      Egp:egpText(257,"Back",vec2(20,35))
    Egp:egpSize(257,30)
    
if(User&~User){
     LeftTop = Egp:egpPos(252) - Egp:egpSize(252)/2
      RightBottom = Egp:egpPos(252) + Egp:egpSize(252)/2     
      if(inrange(Cursor, LeftTop, RightBottom)){ 
        if(P==0){ 
P=1
Open2=1
Egp:egpColor(252,vec(0,255,0))
}
elseif(P==1){
Open2=0 
P=0
Egp:egpColor(252,vec(255,255,255))
}
}}
    if(User&~User){
     LeftTop = Egp:egpPos(254) - Egp:egpSize(254)/2
      RightBottom = Egp:egpPos(254) + Egp:egpSize(254)/2     
      if(inrange(Cursor, LeftTop, RightBottom)){ 
        if(PP==0){ 
PP=1
Close2=1
Egp:egpColor(254,vec(0,255,0))
}
elseif(PP==1){
Close2=0 
PP=0
Egp:egpColor(254,vec(255,255,255))
}
}}
    
    if(User&~User){
     LeftTop = Egp:egpPos(256) - Egp:egpSize(256)/2
      RightBottom = Egp:egpPos(256) + Egp:egpSize(256)/2     
      if(inrange(Cursor, LeftTop, RightBottom)){ 
Egp:egpRemove(252)
Egp:egpRemove(253)
Egp:egpRemove(254)
Egp:egpRemove(255)
Egp:egpRemove(256)
Egp:egpRemove(257)
#Open2=0
#Close2=0
Door=0
Base=1
}}
}
if(Sky==1){
Egp:egpRoundedBox(262,vec2(255,200),vec2(300,80))
Egp:egpAlpha(262,100)
Egp:egpText(253,"Open",vec2(205,175))
Egp:egpSize(253,45)


Egp:egpRoundedBox(254,vec2(255,350),vec2(300,80))
Egp:egpAlpha(254,100)
Egp:egpText(255,"Close",vec2(205,325))
Egp:egpSize(255,45)

    Egp:egpRoundedBox(256,vec2(50,50),vec2(90,90))   
    Egp:egpAlpha(256,100)
    Egp:egpColor(256,vec(255,0,0))
      Egp:egpText(257,"Back",vec2(20,35))
    Egp:egpSize(257,30)
    
if(User&~User){
     LeftTop = Egp:egpPos(262) - Egp:egpSize(262)/2
      RightBottom = Egp:egpPos(262) + Egp:egpSize(262)/2     
      if(inrange(Cursor, LeftTop, RightBottom)){ 
        if(R==0){ 
R=1
Sky1=1
Egp:egpColor(262,vec(0,255,0))
}
elseif(R==1){
Sky1=0 
R=0
Egp:egpColor(262,vec(255,255,255))
}
}}
    if(User&~User){
     LeftTop = Egp:egpPos(254) - Egp:egpSize(254)/2
      RightBottom = Egp:egpPos(254) + Egp:egpSize(254)/2     
      if(inrange(Cursor, LeftTop, RightBottom)){ 
        if(RR==0){ 
RR=1
Sky2=1
Egp:egpColor(254,vec(0,255,0))
}
elseif(RR==1){
Sky2=0 
RR=0
Egp:egpColor(254,vec(255,255,255))
}
}}
    
    if(User&~User){
     LeftTop = Egp:egpPos(256) - Egp:egpSize(256)/2
      RightBottom = Egp:egpPos(256) + Egp:egpSize(256)/2     
      if(inrange(Cursor, LeftTop, RightBottom)){ 
Egp:egpRemove(262)
Egp:egpRemove(253)
Egp:egpRemove(254)
Egp:egpRemove(255)
Egp:egpRemove(256)
Egp:egpRemove(257)
#Sky1=0
#Sky2=0
Sky=0
Base=1
}}
}
if(Defence==1){
       
 
 Egp:egpRoundedBox(43,vec2(155,155),vec2(150,100))
 Egp:egpAlpha(43,100)
 Egp:egpText(44,"500",vec2(122,135))
 Egp:egpSize(44,40)
Egp:egpRoundedBox(45,vec2(355,155),vec2(150,100))
 Egp:egpAlpha(45,100)
 Egp:egpText(46,"1000",vec2(315,135))
 Egp:egpSize(46,40)

 Egp:egpRoundedBox(47,vec2(155,285),vec2(150,100))
 Egp:egpAlpha(47,100)
 Egp:egpText(48,"1500",vec2(112,265))
 Egp:egpSize(48,40)
Egp:egpRoundedBox(49,vec2(355,285),vec2(150,100))
 Egp:egpAlpha(49,100)
 Egp:egpText(50,"2000",vec2(315,265))
 Egp:egpSize(50,40)

Egp:egpRoundedBox(51,vec2(255,395),vec2(250,100))
Egp:egpAlpha(51,100)
Egp:egpText(52,"0",vec2(242,370))
Egp:egpSize(52,50)
    
     Egp:egpRoundedBox(56,vec2(50,50),vec2(90,90))   
    Egp:egpAlpha(56,100)
    Egp:egpColor(56,vec(255,0,0))
      Egp:egpText(57,"Back",vec2(20,35))
    Egp:egpSize(57,30)
    
    
    
     if(User&~User){
     LeftTop = Egp:egpPos(43) - Egp:egpSize(43)/2
      RightBottom = Egp:egpPos(43) + Egp:egpSize(43)/2     
      if(inrange(Cursor, LeftTop, RightBottom)){ 
        Def1=1
}}
     if(User&~User){
     LeftTop = Egp:egpPos(45) - Egp:egpSize(45)/2
      RightBottom = Egp:egpPos(45) + Egp:egpSize(45)/2     
      if(inrange(Cursor, LeftTop, RightBottom)){ 
        Def1=2
}}
     if(User&~User){
     LeftTop = Egp:egpPos(47) - Egp:egpSize(47)/2
      RightBottom = Egp:egpPos(47) + Egp:egpSize(47)/2     
      if(inrange(Cursor, LeftTop, RightBottom)){ 
        Def1=3
}}
     if(User&~User){
     LeftTop = Egp:egpPos(49) - Egp:egpSize(49)/2
      RightBottom = Egp:egpPos(49) + Egp:egpSize(49)/2     
      if(inrange(Cursor, LeftTop, RightBottom)){ 
        Def1=4
}}
     if(User&~User){
     LeftTop = Egp:egpPos(51) - Egp:egpSize(51)/2
      RightBottom = Egp:egpPos(51) + Egp:egpSize(51)/2     
      if(inrange(Cursor, LeftTop, RightBottom)){ 
        Def1=0
}}
    
     if(User&~User){
     LeftTop = Egp:egpPos(56) - Egp:egpSize(56)/2
      RightBottom = Egp:egpPos(56) + Egp:egpSize(56)/2     
      if(inrange(Cursor, LeftTop, RightBottom)){ 
Egp:egpRemove(43)
Egp:egpRemove(44)
Egp:egpRemove(45)
Egp:egpRemove(46)
Egp:egpRemove(47)
Egp:egpRemove(48)
Egp:egpRemove(49)
Egp:egpRemove(50)
Egp:egpRemove(51)
Egp:egpRemove(52)

Defence=0
Base=1
}}
    
    
    
}
if(Walls==1){
    Egp:egpRoundedBox(43,vec2(155,155),vec2(150,100))
 Egp:egpAlpha(43,100)
 Egp:egpText(44,"50",vec2(132,135))
 Egp:egpSize(44,40)
Egp:egpRoundedBox(45,vec2(355,155),vec2(150,100))
 Egp:egpAlpha(45,100)
 Egp:egpText(46,"100",vec2(325,135))
 Egp:egpSize(46,40)

 Egp:egpRoundedBox(47,vec2(155,285),vec2(150,100))
 Egp:egpAlpha(47,100)
 Egp:egpText(48,"150",vec2(122,265))
 Egp:egpSize(48,40)
Egp:egpRoundedBox(49,vec2(355,285),vec2(150,100))
 Egp:egpAlpha(49,100)
 Egp:egpText(50,"200",vec2(325,265))
 Egp:egpSize(50,40)

Egp:egpRoundedBox(51,vec2(255,395),vec2(250,100))
Egp:egpAlpha(51,100)
Egp:egpText(52,"255",vec2(212,370))
Egp:egpSize(52,50)
    
     Egp:egpRoundedBox(56,vec2(50,50),vec2(90,90))   
    Egp:egpAlpha(56,100)
    Egp:egpColor(56,vec(255,0,0))
      Egp:egpText(57,"Back",vec2(20,35))
    Egp:egpSize(57,30)

     if(User&~User){
     LeftTop = Egp:egpPos(56) - Egp:egpSize(56)/2
      RightBottom = Egp:egpPos(56) + Egp:egpSize(56)/2     
      if(inrange(Cursor, LeftTop, RightBottom)){ 
Egp:egpRemove(43)
Egp:egpRemove(44)
Egp:egpRemove(45)
Egp:egpRemove(46)
Egp:egpRemove(47)
Egp:egpRemove(48)
Egp:egpRemove(49)
Egp:egpRemove(50)
Egp:egpRemove(51)
Egp:egpRemove(52)

Walls=0
Base=1
}}
     if(User&~User){
     LeftTop = Egp:egpPos(43) - Egp:egpSize(43)/2
      RightBottom = Egp:egpPos(43) + Egp:egpSize(43)/2     
      if(inrange(Cursor, LeftTop, RightBottom)){ 
        Wall1=1
}}
     if(User&~User){
     LeftTop = Egp:egpPos(45) - Egp:egpSize(45)/2
      RightBottom = Egp:egpPos(45) + Egp:egpSize(45)/2     
      if(inrange(Cursor, LeftTop, RightBottom)){ 
        Wall1=2
}}
     if(User&~User){
     LeftTop = Egp:egpPos(47) - Egp:egpSize(47)/2
      RightBottom = Egp:egpPos(47) + Egp:egpSize(47)/2     
      if(inrange(Cursor, LeftTop, RightBottom)){ 
        Wall1=3
}}
     if(User&~User){
     LeftTop = Egp:egpPos(49) - Egp:egpSize(49)/2
      RightBottom = Egp:egpPos(49) + Egp:egpSize(49)/2     
      if(inrange(Cursor, LeftTop, RightBottom)){ 
        Wall1=4
}}
     if(User&~User){
     LeftTop = Egp:egpPos(51) - Egp:egpSize(51)/2
      RightBottom = Egp:egpPos(51) + Egp:egpSize(51)/2     
      if(inrange(Cursor, LeftTop, RightBottom)){ 
        Wall1=0
}}
}
if(Pos==1){



 Egp:egpRoundedBox(73,vec2(155,155),vec2(150,100))
 Egp:egpAlpha(73,100)
 Egp:egpText(74,"500",vec2(122,135))
 Egp:egpSize(74,40)
Egp:egpRoundedBox(75,vec2(355,155),vec2(150,100))
 Egp:egpAlpha(75,100)
 Egp:egpText(76,"1000",vec2(315,135))
 Egp:egpSize(76,40)

 Egp:egpRoundedBox(77,vec2(155,285),vec2(150,100))
 Egp:egpAlpha(77,100)
 Egp:egpText(78,"1500",vec2(112,265))
 Egp:egpSize(78,40)
Egp:egpRoundedBox(79,vec2(355,285),vec2(150,100))
 Egp:egpAlpha(79,100)
 Egp:egpText(80,"2000",vec2(315,265))
 Egp:egpSize(80,40)

Egp:egpRoundedBox(81,vec2(255,395),vec2(250,100))
Egp:egpAlpha(81,100)
Egp:egpText(82,"0",vec2(242,370))
Egp:egpSize(82,50)
    
     Egp:egpRoundedBox(86,vec2(50,50),vec2(90,90))   
    Egp:egpAlpha(86,100)
    Egp:egpColor(86,vec(255,0,0))
      Egp:egpText(87,"Back",vec2(20,35))
    Egp:egpSize(87,30)
    

     if(User&~User){
     LeftTop = Egp:egpPos(73) - Egp:egpSize(73)/2
      RightBottom = Egp:egpPos(73) + Egp:egpSize(73)/2     
      if(inrange(Cursor, LeftTop, RightBottom)){ 
        Posi2=1
}}
     if(User&~User){
     LeftTop = Egp:egpPos(75) - Egp:egpSize(75)/2
      RightBottom = Egp:egpPos(75) + Egp:egpSize(75)/2     
      if(inrange(Cursor, LeftTop, RightBottom)){ 
        Posi2=2
}}
     if(User&~User){
     LeftTop = Egp:egpPos(77) - Egp:egpSize(77)/2
      RightBottom = Egp:egpPos(77) + Egp:egpSize(77)/2     
      if(inrange(Cursor, LeftTop, RightBottom)){ 
        Posi2=3
}}
     if(User&~User){
     LeftTop = Egp:egpPos(79) - Egp:egpSize(79)/2
      RightBottom = Egp:egpPos(79) + Egp:egpSize(79)/2     
      if(inrange(Cursor, LeftTop, RightBottom)){ 
        Posi2=4
}}
     if(User&~User){
     LeftTop = Egp:egpPos(81) - Egp:egpSize(81)/2
      RightBottom = Egp:egpPos(81) + Egp:egpSize(81)/2     
      if(inrange(Cursor, LeftTop, RightBottom)){ 
        Posi2=0
}}
if(User&~User){
     LeftTop = Egp:egpPos(86) - Egp:egpSize(86)/2
      RightBottom = Egp:egpPos(86) + Egp:egpSize(86)/2     
      if(inrange(Cursor, LeftTop, RightBottom)){ 
Egp:egpRemove(73)
Egp:egpRemove(74)
Egp:egpRemove(75)
Egp:egpRemove(76)
Egp:egpRemove(77)
Egp:egpRemove(78)
Egp:egpRemove(79)
Egp:egpRemove(80)
Egp:egpRemove(81)
Egp:egpRemove(82)
Egp:egpRemove(83)
Egp:egpRemove(84)
Egp:egpRemove(85)
Egp:egpRemove(86)
Egp:egpClear()

Pos=0
Base=1
}}

}
if(E2list==1){
         Egp:egpRoundedBox(86,vec2(50,50),vec2(90,90))   
    Egp:egpAlpha(86,100)
    Egp:egpColor(86,vec(255,0,0))
      Egp:egpText(87,"Back",vec2(20,35))
    Egp:egpSize(87,30)
    
    
findIncludeClass("wire_expression2")
findInSphere(E:pos(),100000)


AR = findToArray()
for(I=1,AR:count()){
    
    
    Target = AR[I,entity]
    Count=AR:count()
    E2=round(Target:cpuUsage()*1000000)
    Name=Target:owner():name()





Egp:egpText(I,"( "+Target:getName() +" ), by: "+Name,vec2(5,100+I*20))
Egp:egpSize(I,20)
Egp:egpText(50+I," cpu "+E2,vec2(430,100+I*20))
Egp:egpSize(50+I,20)
Egp:egpColor(I,teamColor(Target:owner():team())+vec(50,50,50))
Egp:egpColor(50+I,teamColor(Target:owner():team())+vec(50,50,50))


}

    
    
if(User&~User){
     LeftTop = Egp:egpPos(86) - Egp:egpSize(86)/2
      RightBottom = Egp:egpPos(86) + Egp:egpSize(86)/2     
      if(inrange(Cursor, LeftTop, RightBottom)){ 
for(I=1,AR:count()){
Egp:egpRemove(I)
Egp:egpRemove(20+I)
Egp:egpRemove(50+I)
}
#Egp:egpRemove(76)
#Egp:egpRemove(77)
#Egp:egpRemove(78)
#Egp:egpRemove(79)
#Egp:egpRemove(80)
#Egp:egpRemove(81)
##Egp:egpRemove(82)
#Egp:egpRemove(83)
#Egp:egpRemove(84)
Egp:egpRemove(85)
Egp:egpRemove(86)
Egp:egpRemove(87)
Egp:egpClear()

E2list=0
On=1
}}
}

    
    

    
    
    
    
    
    
    
    
    
    
    
    
