@name HminiMap V2
@inputs 
@outputs 
@persist 
@trigger 

runOnTick(1)
E=entity()
timer("holo",250)
if(first()){holoCreate(9999,entity():pos()+vec(0,0,13),vec(10,10,0),ang(),vec(75,75,75),"models/hunter/plates/plate2x2.mdl")
    holoParent(9999,entity())}
holoAlpha(9999,100)
if(clk("holo")){
          findIncludeClass("prop_*")
           findIncludeClass("seat_*")
           findIncludeClass("camera_*")
           findIncludeClass("light_*")
       findIncludeClass("vehicle_*")
       findIncludeClass("egp_*")
      findIncludeClass("wheel_*")
      findIncludeClass("thruster_*")
       findIncludeClass("npc_*")
          findIncludeClass("hoverball_*")
    findIncludeClass("player")   findInSphere(vec(0,0,-10000),10000)
    Find=findToArray()
for(P=1,Find:count()){
    Ply=Find[P,entity]
    Pos=Find[P,entity]:pos()/30+vec(0,0,383)
    ####old hight 383
    ####hight for other server 583
 holoCreate(P)
holoPos(P,E:pos()+Pos)
holoModel(P,Ply:model())
holoAng(P,Ply:angles())
holoScale(P,vec(0.1,0.1,0.1))
holoParent(P,entity())
holoMaterial(P,Ply:getMaterial())
holoAlpha(P,Ply:getAlpha())
}
}
timer("reset",50000)
if(clk("reset")) {
 holoDeleteAll()   
print("CPU=="+round(E:cpuUsage()*1000000))
reset()
}
E:propNotSolid(0)
