@name holospawner
@persist Ar:array
interval(50)
for(I=1,150){
    if(!holoEntity(I) & perf() & holoCanCreate()){
        holoCreate(I,entity():toWorld(vec(0,0,I*20)))
        Ar:pushNumber(I)
        break
    }
}
print(4,Ar:count()+"")
