@name MediumMech V3
@inputs Cam:wirelink 
@outputs RightFire LeftFire
@persist [Seat None P1 P2 E]:entity Parent Plus Jump JumpStraightUp StartJump PlusMinus:vector Angles Changed1 Changed2
@persist [R1 R2 R3 R4  ]:ranger  Hangs:array Time Times Angless:angle BLL1 BLL2 BLL3  PlusGleich
@persist  PlusHolo VelOAng:vector AllSlide Array:array Ran:array
@persist AngT:array IDH IDH2 IDH3 Charge1 Charge2  Lock Vely SlideF SlideCounter
@trigger 
@model models/hunter/blocks/cube05x05x05.mdl
interval(100)
runOnChat(1)

E = entity()

if(E){
    MaxDist = 10
    HoverPosition = 80
    Time = 800
    FB = 60
    RL = 30
    MaxHitLength=150
    UD = 60
    Step = 90
    BLL1 = UD-10
    BLL2 = UD-20
    BLL3 = UD-30
    MaxSlide  = 120
    
    
    
    E:setMass(50000)
    E:setAlpha(0)
    if(!Seat){
     findByClass("prop_vehicle_prisoner_pod")
     findSortByDistance(E:pos()) 
#     if(find():owner()==owner()){
     Seat = find()  
    Seat:setAlpha(250)
 #    }   
   }
   if(Seat){
   Driver = Seat:driver()    
   }
if(Driver){
    
    W=Driver:keyForward()
    A=Driver:keyLeft()
    S=Driver:keyBack()
    D=Driver:keyRight()
    Space=Driver:keyJump()
    Shift=Driver:keySprint()
    Alt=Driver:keyWalk()
    Mouse1=Driver:keyAttack2()
    Mouse2=Driver:keyAttack1()
    R=Driver:keyReload()
    F=Driver:keyPressed("F")
    KeyBinds = F
}else{
HoverPosition = HoverPosition / 1.3
}
     rangerFilter(players())
     rangerFilter(Seat)
     rangerFilter(E)
  Gran = rangerOffset(99999,E:toWorld(vec(0,0,0)),E:up()*-99999):distance()
     Ground = (Gran<=MaxHitLength)
     Ground2 = (Gran<=MaxHitLength+31)

}

if(changed(E)){
        
function entity c(Index:number,Posi:vector,Scale:vector,Angle:angle,Colo:vector,Model:string,Parent:entity,Alpha:number){
holoCreate(Index) holoPos(Index,Posi) holoScale(Index,Scale) holoAng(Index,Angle) holoColor(Index,Colo) holoModel(Index,Model) 
holoParent(Index,Parent) holoAlpha(Index,Alpha)
return holoEntity(Index)  
}
function string opri(Message:string,ColorM:vector){
Seat:printColorDriver(vec(255),"[",vec(255,0,0),"E2",vec(255),"]",ColorM,Message)
}   
function string opri2(Message2:string,ColorM2:vector){
printColor(vec(255),"[",vec(255,0,0),"E2",vec(255),"]",ColorM2,Message2)
}   

function vector entity:towv(VectorW:vector){
return This:toWorld(VectorW)
}          

function angle entity:towa(AngleW:angle){
return This:toWorld(AngleW)
}
function entity holop(HT,Vectos:vector){
holoPos(HT,Vectos)   
}

function entity holoa(Ho,Angl:angle){
holoAng(Ho,Angl)   
}
function number co(A, B, C){
return acos((A^2 + B^2 - C^2) / (2*A*B))
}
function angle ik(L1,L2,Hip:vector,End:vector,I1,I2,I3,Bs:entity){
   
       local Rotation = ang(0, 0, 0)
       local Axis1 = End-Hip
       local Axis = Bs:toLocalAxis(Axis1):rotate(Rotation)
       local Angle=Axis:toAngle():setRoll(-bearing(Hip,Bs:angles(),End))
       local Dist=min(Axis:length(),L1+L2)
       local Quat=quat(angnorm(Angle))*qRotation(vec(0,90+angnorm(co(round(Dist),L1,L2)),0))
   holoa(I1,Bs:towa(Quat:toAngle()))
   holoa(I2,holoEntity(I1):towa(ang(angnorm(co(L2, L1, round(Dist)))+180,0,0)))
   holoa(I3,Bs:angles())
}
    function number cosine (One, Two, Three){
        return acos( (Three^2 + Two^2 - One^2) / (2*Two*Three) )
    }
 function kinemize ([Ent Hip Knee Ankle]:entity, FootPos:vector,L1,L2,L3)  {
        #-Hip
        Total = L1 + L2 +L3
        Bearing = -bearing(Hip:pos(), Ent:angles(), FootPos)
        Angle = Ent:toLocalAxis(FootPos - Hip:pos()):toAngle():setRoll(Bearing)
        Offset = Total - abs(min(Hip:pos():distance(FootPos), Total))
        Quat = quat(Angle) * qRotation(vec(0, -Offset + 0, 0))
        holoAng(holoIndex(Hip), Ent:toWorld(slerp(quat(Hip), Quat, 1):toAngle()))
        #-Second
        Distance = min(Knee:pos():distance(FootPos), L2+L3)
        Axis = Hip:toLocalAxis(Knee:pos() - FootPos)
        Atan = atan(-Axis:z(), Axis:x()) + cosine(L3, L2, Distance) + 90
        holoAng(holoIndex(Knee), Hip:toWorld(ang(Atan,0,0)))
        #-Third
        holoAng(holoIndex(Ankle), Knee:toWorld(ang(cosine(Distance, L2, L3), 0, 0)))
    }


function entity entity:parentent(Entity2:entity,PositionToSet:vector,AngleToSet:angle){
 local   Entity_1 = This
    if(Entity_1&Parent == 0){
     Entity_1:setPos(PositionToSet)
    Entity_1:setAng(AngleToSet)
    Entity_1:propFreeze(1)
    timer("parent",2000)
    }
    if(clk("parent")){
        stoptimer("parent")
        Entity_1:parentTo(Entity2)
        Parent = 1
    }
    if(!Entity_1){
 Parent = 0   
}
}
function vector entity:hover(H1,H2,H3,H4,UpPos:number,Power:number,VeloCi:number){
    if(!(W|A|S|D)){
     Plus++   
    Cosin = cos(Plus * 20)
    }
    if((W&Shift&!Space)){
if(W){
        Plus+=30
} 

    Cosin = cos(Plus * 50)
    }
    
  if(Space&Ground2){
    if(Driver){
            if(JumpStraightUp <= 350){
    JumpStraightUp += 10
    }
    UpPos = UpPos / 1.65
}
}
    if(changed(!Space)&!Space){
        if(JumpStraightUp > 50){
      
        StartJump = 1
        JumpPower = JumpStraightUp 
}else{
StartJump = 0
JumpStraightUp = 0
JumpPower = 0
}
    }
if(StartJump == 1){
    if(changed(Ground2)&Ground2){
     StartJump = 0
    JumpPower = 0   
    JumpStraightUp = 0
    }
}

local Jump = (This:up()*This:mass()*JumpPower+This:forward()*This:mass()*JumpPower / 2*(W-S))*(Ground*4) 
local VectorPositionOfFeet = (holoEntity(H1):pos()+ holoEntity(H2):pos()+holoEntity(H3):pos()+holoEntity(H4):pos())/4
local Hover = ((((((VectorPositionOfFeet + vec(0,0,UpPos+Cosin*(2-(1*Shift&W))))-(This:pos())) *(Power)*This:mass())*Ground)
-(This:vel()*This:mass()*VeloCi)*Ground2) *!StartJump)*Ground2 
local Sprint = ((E:forward()*E:mass()*1100*Shift*(W)*!(Space|A|D))*Ground2)
local SlideMode = ((E:forward()*E:mass()*2000*F )*Ground )* !Shift
This:applyForce(( Hover*2 + Jump + Sprint +SlideMode))
This:propGravity(Ground ? 0 : 1)
E:applyForce((-E:vel()*E:mass()*0.1)*!Ground)
}

function vector torque(Et:entity){
rangerFilter(Et)
rangerFilter(Seat)
rangerFilter(players())
rangerFilter(P1)
rangerFilter(P2)
local Ra2 = rangerOffset(UD*3,E:toWorld(vec(FB/1.5,0,30)),Et:up()*-1)
rangerFilter(Seat)
rangerFilter(Et)
rangerFilter(players())
rangerFilter(P1)
rangerFilter(P2)
local Ra1 = rangerOffset(UD*3,E:toWorld(vec(0,0,30)),Et:up()*-1)

RightLeft = vec(Driver:eye():dot(E:right()),Driver:eye():dot(E:right()),0):y()
Angless=((Ra1:position()+Ra1:hitNormal()*56)-(Ra2:position()+Ra2:hitNormal()*56)):toAngle()
if(Ground2){
if((W&Shift&!Space)){
    RunAngler = cos(Plus * 50)*5
}

if(!(W|A|S|D)){
 RunAngler = cos(Plus * 20)*2 
}
if(!Alt & !Space & !(W&Shift)){
    Roll = 0
}else{
if(Alt){
    Roll = 10   
}
if(Space){
    Roll = 5
}
if((W&Shift)){
    Roll = 0   
}
}
}
local Z = vec(Driver:eye():dot(Et:up()),0,Driver:eye():dot(Et:up())):z()
local ClampedAngles = clamp(Z* 20 , Shift ? 0 : -15 ,15)
local Angler = Ground ? ang(-Angless:pitch()+Roll+RunAngler-((ClampedAngles)*!F),Et:angles():yaw()-RightLeft*((10+(15)*F)),0) : ang(0,Et:angles():yaw()-RightLeft*10,0)
local Torque = Et:toLocal(rotationVector(quat(angnorm(Angler)) / quat(Et)) + Et:pos())

Et:applyTorque((round(Torque*(100+(200)*!Ground))-Et:angVelVector()*20)*Et:inertia())
}
function entity entity:parentent(Entity2:entity,PositionToSet:vector,AngleToSet:angle){
    Entity_1 = This
    if(Entity_1&Parent == 0){
        Entity_1:setMass(50000)
     Entity_1:setPos(PositionToSet)
    Entity_1:setAng(AngleToSet)
    Entity_1:propFreeze(1)
    timer("parent",2000)
    }
    if(clk("parent")){
        stoptimer("parent")
        Entity_1:parentTo(Entity2)
        Parent = 1
    }
    if(!Entity_1){
 Parent = 0   
}
}
function entity entity:parentent2(PositionToSet2:vector,AngleToSet2:angle){
     This:setPos(PositionToSet2)
    This:setAng(AngleToSet2)
    This:propFreeze(1)
}
function number smoothstep(Frac) {
return 6*Frac^5 - 15*Frac^4 + 10*Frac^3
}
function vector entity:mix_p(Pos1:vector,HoloToMove){
local DistFromPositions = clamp(abs(holoEntity(HoloToMove):pos():distance(Pos1)),0,55)
return mix(mix(Pos1,Pos1+This:up()*DistFromPositions/2.5,smoothstep(0.40)),
mix(Pos1+This:up()*DistFromPositions/2.5,holoEntity(HoloToMove):pos(),smoothstep(0.40)),smoothstep(0.40))
}
function angle localholoangle(Nr1:number,Nr2:number,Nr3:number){
return E:towa(clamp(E:toLocal(Driver:eyeAngles()+ang(0,0,0)),ang(-Nr1,-Nr2,-Nr3),ang(Nr1,Nr2,Nr3)))
}
function angle rotbody(Hh1,Hh2,Strength){
PlusMinus+=E:velL() 
PlusMinus*=0.5
local Hangs = (holoEntity(Hh1):pos()-holoEntity(Hh2):pos()):toAngle()
holoa(Hh2,holoEntity(Hh1):towa(ang(0,clamp(PlusMinus:y() / Strength*2,-30,30),0)))
}
function slidepos(){
    local RangerDistanceD = Gran
 holop(1000,E:towv(vec(FB-MaxSlide/4+cos(SlideCounter)*MaxSlide,RL+cos(E:velL():y()/15)*20,-RangerDistanceD)))
holop(2000,E:towv(vec(FB-MaxSlide/4+cos(SlideCounter)*MaxSlide,-RL+cos(E:velL():y()/15)*20,-RangerDistanceD)))
holop(3000,E:towv(vec(-FB-MaxSlide/4+cos(SlideCounter)*MaxSlide,RL+sin(E:velL():y()/15)*20,-RangerDistanceD)))
holop(4000,E:towv(vec(-FB-MaxSlide/4+cos(SlideCounter)*MaxSlide,-RL+sin(E:velL():y()/15)*20,-RangerDistanceD)))   
}
function slidemode1(){
        PlusGleich += E:velL():x() / 40
 rangerFilter(players())
rangerFilter(Seat)
rangerFilter(E)
rangerFilter(P1)
rangerFilter(P2)
R1 = rangerOffset(UD * 3 ,E:towv(vec(FB+10+clamp(E:velL():x()/35,-20,20),RL+5+cos(PlusGleich)
*35-RightLeft*20,0)),E:up()*-1)
rangerFilter(players())
rangerFilter(Seat)
rangerFilter(E)
rangerFilter(P1)
rangerFilter(P2)
R2 = rangerOffset(UD * 3 ,E:towv(vec(FB+10+clamp(E:velL():x()/35,-20,20),-RL+cos(PlusGleich)
*35-RightLeft*20,0)),E:up()*-1)
rangerFilter(players())
rangerFilter(Seat)
rangerFilter(E)
rangerFilter(P1)
rangerFilter(P2)
R3 = rangerOffset(UD * 3 ,E:towv(vec(-FB+10+clamp(E:velL():x()/35,-20,20),RL+5+sin(PlusGleich)
*35-RightLeft*20,0)),E:up()*-1)
rangerFilter(players())
rangerFilter(Seat)
rangerFilter(E)
rangerFilter(P1)
rangerFilter(P2)
R4 = rangerOffset(UD * 3 ,E:towv(vec(-FB+10+clamp(E:velL():x()/35,-20,20),-RL+sin(PlusGleich)
*35-RightLeft*20,0)),E:up()*-1)
       
    holop(1000,R1:position())
holop(2000,R2:position())
holop(3000,R3:position())
holop(4000,R4:position())
}
rangerFilter(players())
rangerFilter(Seat)
rangerFilter(E)
rangerFilter(P1)
rangerFilter(P2)
R1 = rangerOffset(UD * 3 ,E:towv(vec(FB,RL+5,0)),E:up()*-1)
rangerFilter(players())
rangerFilter(Seat)
rangerFilter(E)
rangerFilter(P1)
rangerFilter(P2)
R2 = rangerOffset(UD * 3 ,E:towv(vec(FB,-RL-5,0)),E:up()*-1)
rangerFilter(players())
rangerFilter(Seat)
rangerFilter(E)
rangerFilter(P1)
rangerFilter(P2)
R3 = rangerOffset(UD * 3 ,E:towv(vec(-FB,RL+5,0)),E:up()*-1)
rangerFilter(players())
rangerFilter(Seat)
rangerFilter(P1)
rangerFilter(P2)
rangerFilter(E)
R4 = rangerOffset(UD * 3 ,E:towv(vec(-FB,-RL-5,0)),E:up()*-1)

#######skeleton#####
##base holos##
c(1000,E:towv(vec(FB,RL+5,-UD)),vec(1,1,1),E:towa(ang()),vec(255),"",None,0)
c(2000,E:towv(vec(FB,-RL-5,-UD)),vec(1,1,1),E:towa(ang()),vec(255),"",None,0)
c(3000,E:towv(vec(-FB,RL+5,-UD)),vec(1,1,1),E:towa(ang()),vec(255),"",None,0)
c(4000,E:towv(vec(-FB,-RL-5,-UD)),vec(1,1,1),E:towa(ang()),vec(255),"",None,0)

#the 2 body holos#
c(10000,E:towv(vec(FB/2,0,0)),vec(1,1,1),E:towa(ang()),vec(255),"",E,0)
c(20000,E:towv(vec(0,0,0)),vec(1,1,1),E:towa(ang()),vec(255),"",holoEntity(10000),0)
c(30000,E:towv(vec(-FB/2,0,0)),vec(1,1,1),E:towa(ang()),vec(255),"",holoEntity(20000),0)
##################
################
#hips#
c(1,E:towv(vec(FB,RL,0)),vec(1,1,1),E:towa(ang()),vec(255),"",holoEntity(10000),0)
c(2,E:towv(vec(FB,-RL,0)),vec(1,1,1),E:towa(ang()),vec(255),"",holoEntity(10000),0)
c(3,E:towv(vec(-FB,RL,0)),vec(1,1,1),E:towa(ang()),vec(255),"",holoEntity(30000),0)
c(4,E:towv(vec(-FB,-RL,0)),vec(1,1,1),E:towa(ang()),vec(255),"",holoEntity(30000),0)
#####
###front legs###
c(5,E:towv(vec(FB,RL,UD)),vec(1,1,1),E:towa(ang()),vec(255),"",holoEntity(1),0)
c(6,E:towv(vec(FB,-RL,UD)),vec(1,1,1),E:towa(ang()),vec(255),"",holoEntity(2),0)
c(7,E:towv(vec(FB,RL,UD*2)),vec(1,1,1),E:towa(ang()),vec(255),"",holoEntity(5),0)
c(8,E:towv(vec(FB,-RL,UD*2)),vec(1,1,1),E:towa(ang()),vec(255),"",holoEntity(6),0)
################
###back legs###
c(9,holoEntity(3):towv(vec(BLL1,0,0)),vec(1,1,1),E:towa(ang()),vec(255),"",holoEntity(3),0)
c(10,holoEntity(4):towv(vec(BLL1,0,0)),vec(1,1,1),E:towa(ang()),vec(255),"",holoEntity(4),0)
c(11,holoEntity(9):towv(vec(0,0,-BLL2)),vec(1,1,1),E:towa(ang()),vec(255),"",holoEntity(9),0)
c(12,holoEntity(10):towv(vec(0,0,-BLL2)),vec(1,1,1),E:towa(ang()),vec(255),"",holoEntity(10),0)
c(13,holoEntity(11):towv(vec(0,0,BLL3)),vec(1,1,1),E:towa(ang()),vec(255),"",holoEntity(11),0)
c(14,holoEntity(12):towv(vec(0,0,BLL3)),vec(1,1,1),E:towa(ang()),vec(255),"",holoEntity(12),0)
###############


#model#
#legs#
#hip parts##################################################################################################################################################
###front legs1###
c(15,holoEntity(1):towv(vec(0,-13,0)),vec(2.5),E:towa(ang(90,90,0)),vec(255),"models/items/combine_rifle_ammo01.mdl",holoEntity(1),255)
c(16,holoEntity(2):towv(vec(0,13,0)),vec(2.5),E:towa(ang(90,-90,0)),vec(255),"models/items/combine_rifle_ammo01.mdl",holoEntity(2),255)
c(17,holoEntity(5):towv(vec(0,-13,0)),vec(2.5),E:towa(ang(90,90,0)),vec(255),"models/items/combine_rifle_ammo01.mdl",holoEntity(5),255)
c(18,holoEntity(6):towv(vec(0,13,0)),vec(2.5),E:towa(ang(90,-90,0)),vec(255),"models/items/combine_rifle_ammo01.mdl",holoEntity(6),255)
c(19,holoEntity(7):towv(vec(8,-0,4)),vec(3,3,1.5),E:towa(ang(0,0,0)),vec(255),"models/items/combine_rifle_ammo01.mdl",holoEntity(7),255)
c(20,holoEntity(8):towv(vec(8,0,4)),vec(3,3,1.5),E:towa(ang(0,0,0)),vec(255),"models/items/combine_rifle_ammo01.mdl",holoEntity(8),255)
################
###back legs1###
c(21,holoEntity(3):towv(vec(-0,-13,0)),vec(2.5),E:towa(ang(90,90,0)),vec(255),"models/items/combine_rifle_ammo01.mdl",holoEntity(3),255)
c(22,holoEntity(4):towv(vec(-0,13,0)),vec(2.5),E:towa(ang(90,-90,0)),vec(255),"models/items/combine_rifle_ammo01.mdl",holoEntity(4),255)
c(23,holoEntity(3):towv(vec(BLL1,-13,0)),vec(2.5),E:towa(ang(90,90,0)),vec(255),"models/items/combine_rifle_ammo01.mdl",holoEntity(9),255)
c(24,holoEntity(4):towv(vec(BLL1,13,0)),vec(2.5),E:towa(ang(90,-90,0)),vec(255),"models/items/combine_rifle_ammo01.mdl",holoEntity(10),255)
c(25,holoEntity(9):towv(vec(0,-13,-BLL2)),vec(2.5),E:towa(ang(90,90,0)),vec(255),"models/items/combine_rifle_ammo01.mdl",holoEntity(11),255)
c(26,holoEntity(10):towv(vec(0,13,-BLL2)),vec(2.5),E:towa(ang(90,-90,0)),vec(255),"models/items/combine_rifle_ammo01.mdl",holoEntity(12),255)
c(27,holoEntity(13):towv(vec(0,-0,8)),vec(3,3,1.5),E:towa(ang(0,0,0)),vec(255),"models/items/combine_rifle_ammo01.mdl",holoEntity(13),255)
c(28,holoEntity(14):towv(vec(0,0,8)),vec(3,3,1.5),E:towa(ang(0,0,0)),vec(255),"models/items/combine_rifle_ammo01.mdl",holoEntity(14),255)
###############
#################################################################################################################################################
#middle parts
###front legs2###
c(29,holoEntity(1):towv(vec(0,-0,UD)),vec(0.7),E:towa(ang(180,0,0)),vec(255),"models/props_combine/breenpod.mdl",holoEntity(1),255)
c(30,holoEntity(2):towv(vec(0,0,UD)),vec(0.7),E:towa(ang(180,0,0)),vec(255),"models/props_combine/breenpod.mdl",holoEntity(2),255)
c(31,holoEntity(5):towv(vec(-5,-0,UD)),vec(0.9),E:towa(ang(180,0,0)),vec(255),"models/props_combine/breenpod_inner.mdl",holoEntity(5),255)
c(32,holoEntity(6):towv(vec(-5,0,UD)),vec(0.9),E:towa(ang(180,0,0)),vec(255),"models/props_combine/breenpod_inner.mdl",holoEntity(6),255)
################
###back legs2###
c(33,holoEntity(3):towv(vec(BLL1,-0,0)),vec(0.8),E:towa(ang(90,180,0)),vec(255),"models/props_combine/breenpod.mdl",holoEntity(3),255)
c(34,holoEntity(4):towv(vec(BLL1,0,0)),vec(0.8),E:towa(ang(90,180,0)),vec(255),"models/props_combine/breenpod.mdl",holoEntity(4),255)
c(35,holoEntity(9):towv(vec(-3,0,-BLL2)),vec(1.3,2,1),E:towa(ang(0,180,0)),vec(255),"models/props_combine/combine_light002a.mdl",holoEntity(9),255)
c(36,holoEntity(10):towv(vec(-3,0,-BLL2)),vec(1.3,2,1),E:towa(ang(0,180,0)),vec(255),"models/props_combine/combine_light002a.mdl",holoEntity(10),255)
c(37,holoEntity(11):towv(vec(-8,-0,BLL3/4)),vec(1),E:towa(ang(90,0,0)),vec(255),"models/combine_scanner.mdl",holoEntity(11),255)
c(38,holoEntity(12):towv(vec(-8,0,BLL3/4)),vec(1),E:towa(ang(90,0,0)),vec(255),"models/combine_scanner.mdl",holoEntity(12),255)
###############
c(39,holoEntity(19):towv(vec(13,7,3)),vec(0.7),E:towa(ang(0,20,0)),vec(255),"models/props_combine/combine_emitter01.mdl",holoEntity(19),255)
c(40,holoEntity(19):towv(vec(15,0,3)),vec(0.7),E:towa(ang(0,0,0)),vec(255),"models/props_combine/combine_emitter01.mdl",holoEntity(19),255)
c(41,holoEntity(19):towv(vec(13,-7,3)),vec(0.7),E:towa(ang(0,-20,0)),vec(255),"models/props_combine/combine_emitter01.mdl",holoEntity(19),255)

c(42,holoEntity(20):towv(vec(13,7,3)),vec(0.7),E:towa(ang(0,20,0)),vec(255),"models/props_combine/combine_emitter01.mdl",holoEntity(20),255)
c(43,holoEntity(20):towv(vec(15,0,3)),vec(0.7),E:towa(ang(0,0,0)),vec(255),"models/props_combine/combine_emitter01.mdl",holoEntity(20),255)
c(44,holoEntity(20):towv(vec(13,-7,3)),vec(0.7),E:towa(ang(0,-20,0)),vec(255),"models/props_combine/combine_emitter01.mdl",holoEntity(20),255)


c(45,holoEntity(27):towv(vec(13,9,3)),vec(1,0.8,0.8),E:towa(ang(0,20,0)),vec(255),"models/props_combine/combine_emitter01.mdl",holoEntity(27),255)
c(46,holoEntity(27):towv(vec(15,0,3)),vec(1,0.8,0.8),E:towa(ang(0,0,0)),vec(255),"models/props_combine/combine_emitter01.mdl",holoEntity(27),255)
c(47,holoEntity(27):towv(vec(13,-9,3)),vec(1,0.8,0.8),E:towa(ang(0,-20,0)),vec(255),"models/props_combine/combine_emitter01.mdl",holoEntity(27),255)

c(48,holoEntity(28):towv(vec(13,9,3)),vec(1,0.8,0.8),E:towa(ang(0,20,0)),vec(255),"models/props_combine/combine_emitter01.mdl",holoEntity(28),255)
c(49,holoEntity(28):towv(vec(15,0,3)),vec(1,0.8,0.8),E:towa(ang(0,0,0)),vec(255),"models/props_combine/combine_emitter01.mdl",holoEntity(28),255)
c(50,holoEntity(28):towv(vec(13,-9,3)),vec(1,0.8,0.8),E:towa(ang(0,-20,0)),vec(255),"models/props_combine/combine_emitter01.mdl",holoEntity(28),255)

#knee armor#
#front#
c(51,holoEntity(1):towv(vec(-13,0,0)),vec(2.5),E:towa(ang(60,180,45)),vec(255),"models/gibs/scanner_gib02.mdl",holoEntity(1),255)
c(52,holoEntity(2):towv(vec(-13,-0,0)),vec(2.5),E:towa(ang(60,180,45)),vec(255),"models/gibs/scanner_gib02.mdl",holoEntity(2),255)
#back#
c(53,holoEntity(9):towv(vec(0+10,-0,0)),vec(2.5),E:towa(ang(-35,0,45+180)),vec(255),"models/gibs/scanner_gib02.mdl",holoEntity(9),255)
c(54,holoEntity(10):towv(vec(0+10,0,0)),vec(2.5),E:towa(ang(-35,0,45+180)),vec(255),"models/gibs/scanner_gib02.mdl",holoEntity(10),255)
######

#hips for something#
c(55,E:towv(vec(FB,RL-10,0)),vec(0.7),E:towa(ang(0,0,90)),vec(255),"models/combine_helicopter/helicopter_bomb01.mdl",holoEntity(10000),255)
c(56,E:towv(vec(FB,-RL+10,0)),vec(0.7),E:towa(ang(0,0,90)),vec(255),"models/combine_helicopter/helicopter_bomb01.mdl",holoEntity(10000),255)
c(57,E:towv(vec(-FB,RL-10,0)),vec(0.7),E:towa(ang(0,0,90)),vec(255),"models/combine_helicopter/helicopter_bomb01.mdl",holoEntity(30000),255)
c(58,E:towv(vec(-FB,-RL+10,0)),vec(0.7),E:towa(ang(0,0,90)),vec(255),"models/combine_helicopter/helicopter_bomb01.mdl",holoEntity(30000),255)
####################
###############
#body parts#
c(59,E:towv(vec(65,5,0)),vec(0.2),E:towa(ang(10,20,0)),vec(255),"models/props_combine/combine_barricade_med01a.mdl",holoEntity(10000),255)
c(60,E:towv(vec(65,-5,0)),vec(0.2),E:towa(ang(10,-20,0)),vec(255),"models/props_combine/combine_barricade_med01a.mdl",holoEntity(10000),255)
c(61,E:towv(vec(60,-20,0)),vec(3),E:towa(ang(90,90,0)),vec(255),"models/items/combine_rifle_ammo01.mdl",holoEntity(10000),255)

c(62,E:towv(vec(35,-6,0)),vec(0.2,0.6,0.35),E:towa(ang(60,-90,0)),vec(255),"models/props_combine/combine_barricade_med01a.mdl",holoEntity(10000),255)
c(63,E:towv(vec(35,6,0)),vec(0.2,0.6,0.35),E:towa(ang(60,90,0)),vec(255),"models/props_combine/combine_barricade_med01a.mdl",holoEntity(10000),255)
c(64,E:towv(vec(5,-8,0)),vec(0.2,0.6,0.25),E:towa(ang(60,-90,0)),vec(255),"models/props_combine/combine_barricade_med01a.mdl",holoEntity(10000),255)
c(65,E:towv(vec(5,8,0)),vec(0.2,0.6,0.25),E:towa(ang(60,90,0)),vec(255),"models/props_combine/combine_barricade_med01a.mdl",holoEntity(10000),255)
c(66,E:towv(vec(-25,-10,0)),vec(0.2,0.6,0.15),E:towa(ang(60,-90,0)),vec(255),"models/props_combine/combine_barricade_med01a.mdl",holoEntity(10000),255)
c(67,E:towv(vec(-25,10,0)),vec(0.2,0.6,0.15),E:towa(ang(60,90,0)),vec(255),"models/props_combine/combine_barricade_med01a.mdl",holoEntity(10000),255)

c(68,E:towv(vec(50,0,0)),vec(4,4,9),E:towa(ang(-90,0,0)),vec(255),"models/items/combine_rifle_ammo01.mdl",holoEntity(10000),255)

c(69,E:towv(vec(-75,10,0)),vec(1,1,1),E:towa(ang(0,180,90)),vec(255),"models/props_combine/combine_emitter01.mdl",holoEntity(10000),255)
c(70,E:towv(vec(-75,-10,0)),vec(1,1,1),E:towa(ang(0,180,-90)),vec(255),"models/props_combine/combine_emitter01.mdl",holoEntity(10000),255)
############
#################################################################################################################################################
c(71,E:towv(vec(-40,0,0)),vec(3,3,4),E:towa(ang(-90,0,0)),vec(255),"models/items/combine_rifle_ammo01.mdl",holoEntity(10000),255)

#####
####################
timer("change1",0)
timer("change2",0)
}

if(changed(Seat)&Seat){
opri2("Seat found!",vec(255,255,0))    
}
if(holoEntity(76) & !holoEntity(77) & perf() & holoCanCreate()){
c(77,E:towv(vec(10,10,5)),vec(1,1,1),E:towa(ang(90,0,0)),vec(255),"models/props_c17/oildrum001.mdl",holoEntity(10000),255)
c(78,E:towv(vec(10,-10,5)),vec(1,1,1),E:towa(ang(90,0,0)),vec(255),"models/props_c17/oildrum001.mdl",holoEntity(10000),255)
c(79,E:towv(vec(-10,10,20)),vec(1,1,1),E:towa(ang(-90,180,0)),vec(255),"models/props_combine/breenpod_inner.mdl",holoEntity(10000),255)
c(80,E:towv(vec(-10,-10,20)),vec(1,1,1),E:towa(ang(-90,180,0)),vec(255),"models/props_combine/breenpod_inner.mdl",holoEntity(10000),255)


c(81,E:towv(vec(-10,0,0)),vec(0.4,0.4,0.5),E:towa(ang(-90,90,90)),vec(255),"models/props_combine/combine_barricade_med01a.mdl",holoEntity(10000),255)

}
if(holoEntity(81)&!holoEntity(82) & perf() & holoCanCreate()){
c(82,E:towv(vec(20,20,10)),vec(1.5,1,1),E:towa(ang(0,180,45)),vec(255),"models/props_combine/combine_emitter01.mdl",holoEntity(10000),255)
c(83,E:towv(vec(20,-20,10)),vec(1.5,1,1),E:towa(ang(0,180,-45)),vec(255),"models/props_combine/combine_emitter01.mdl",holoEntity(10000),255)
}
#head#
if(holoEntity(83)&!holoEntity(84) & perf() & holoCanCreate()){
c(84,E:towv(vec(60,1,10)),vec(2),E:towa(ang(0,0,-90)),vec(255),"models/items/combine_rifle_ammo01.mdl",holoEntity(10000),255)
c(85,E:towv(vec(60,-1,10)),vec(2),E:towa(ang(0,0,90)),vec(255),"models/items/combine_rifle_ammo01.mdl",holoEntity(10000),255)

c(86,E:towv(vec(40,-15,20)),vec(2),E:towa(ang(90,25,0)),vec(255),"models/items/combine_rifle_ammo01.mdl",holoEntity(10000),255)
c(87,E:towv(vec(40,15,20)),vec(2),E:towa(ang(90,-25,0)),vec(255),"models/items/combine_rifle_ammo01.mdl",holoEntity(10000),255)

c(88,E:towv(vec(70,0,20)),vec(0.8),E:towa(ang(0,-0,0)),vec(255),"models/combine_helicopter/helicopter_bomb01.mdl",holoEntity(10000),255)
}
if(holoEntity(88)&!holoEntity(94)){
c(89,holoEntity(88):towv(vec(12,0,-4)),vec(0.2),holoEntity(88):towa(ang(25,0,0)),vec(255),"",holoEntity(88),0)  
c(90,holoEntity(88):towv(vec(-9,-0,1)),vec(0.15,0.15,0.15),holoEntity(88):towa(ang(-10,180,0)),vec(255),"models/props_combine/combine_barricade_med02a.mdl",holoEntity(88),255)

c(91,holoEntity(89):towv(vec(23,0,-5)),vec(0.4,0.6,0.5),holoEntity(89):towa(ang(90,90,-90)),vec(255),"models/props_combine/breenpod_inner.mdl",holoEntity(89),255)
c(92,holoEntity(88):towv(vec(35,0,5)),vec(0.4,0.6,0.5),holoEntity(88):towa(ang(-90,0,0)),vec(255),"models/props_combine/breenpod_inner.mdl",holoEntity(88),255)

c(93,holoEntity(89):towv(vec(3,0,-5)),vec(1.1,0.9,1),holoEntity(89):towa(ang(0,180,0)),vec(255),"models/gibs/scanner_gib01.mdl",holoEntity(89),255)
c(94,holoEntity(88):towv(vec(15,0,5)),vec(1.1,0.9,1),holoEntity(88):towa(ang(0,180,0)),vec(255),"models/gibs/scanner_gib01.mdl",holoEntity(88),255)
}
if(holoEntity(91) & !holoEntity(106) & perf() & holoCanCreate()){
    IDH += 1
c(94+IDH,holoEntity(91):towv(vec(-3,IDH<=6 ? 5 : -5,IDH<=6 ? 5+IDH*3 : -13 + IDH*3)),vec(0.2,0.3,0.1),holoEntity(91):towa(ang(190,0,IDH <=6 ? -90 : 90)),vec(255),"models/props_combine/combine_emitter01.mdl",holoEntity(91),255)
}

if(holoEntity(106) & !holoEntity(118) & perf() & holoCanCreate()){
    IDH2 += 1
c(106+IDH2,holoEntity(92):towv(vec(-3,IDH2<=6 ? 5 : -5,IDH2<=6 ? 5+IDH2*3 : -13 + IDH2*3)),vec(0.2,0.3,0.1),holoEntity(92
):towa(ang(190,0,IDH2 <=6 ? -90 : 90)),vec(255),"models/props_combine/combine_emitter01.mdl",holoEntity(92),255)
    
}
if(holoEntity(118)&!holoEntity(122) & perf() & holoCanCreate()){
      IDH3 += 1
c(118+IDH3,holoEntity(IDH3<=2 ? 91 : 92):towv(vec(-3,IDH3<=2 ? -8+IDH3 * 5 : -17.5+IDH3*5,5)),vec(0.2,0.3,0.1),holoEntity(IDH3<=2 ? 91 : 92
):towa(ang(180,0,0)),vec(255),"models/props_combine/combine_emitter01.mdl",holoEntity(IDH3<=2 ? 91 : 92),255)

}
if(holoEntity(122) & !holoEntity(128) & perf() & holoCanCreate()  ){
c(123,holoEntity(91):towv(vec(-1,7,10)),vec(0.01,0.08,0.2),holoEntity(91):towa(ang(0,90,0)),vec(255),"models/props_combine/combine_barricade_med01a.mdl",holoEntity(91),255)
c(124,holoEntity(91):towv(vec(-1,-7,10)),vec(0.01,0.08,0.2),holoEntity(91):towa(ang(0,-90,0)),vec(255),"models/props_combine/combine_barricade_med01a.mdl",holoEntity(91),255)
c(125,holoEntity(92):towv(vec(-1,7,10)),vec(0.01,0.08,0.2),holoEntity(92):towa(ang(0,90,0)),vec(255),"models/props_combine/combine_barricade_med01a.mdl",holoEntity(92),255)
c(126,holoEntity(92):towv(vec(-1,-7,10)),vec(0.01,0.08,0.2),holoEntity(92):towa(ang(0,90,0)),vec(255),"models/props_combine/combine_barricade_med01a.mdl",holoEntity(92),255)
c(127,holoEntity(91):towv(vec(-1,4,2)),vec(0.01,0.08,0.05),holoEntity(91):towa(ang(45,90,0)),vec(255),"models/props_combine/combine_barricade_med01a.mdl",holoEntity(91),255)
c(128,holoEntity(91):towv(vec(-1,-4.5,2)),vec(0.01,0.08,0.05),holoEntity(91):towa(ang(45,-90,0)),vec(255),"models/props_combine/combine_barricade_med01a.mdl",holoEntity(91),255)

}
if(holoEntity(128) & !holoEntity(130) & perf() &holoCanCreate()){
c(129,holoEntity(92):towv(vec(-1,4.5,2)),vec(0.01,0.08,0.05),holoEntity(92):towa(ang(45,90,0)),vec(255),"models/props_combine/combine_barricade_med01a.mdl",holoEntity(92),255)
c(130,holoEntity(92):towv(vec(-1,-4.5,2)),vec(0.01,0.08,0.05),holoEntity(92):towa(ang(45,-90,0)),vec(255),"models/props_combine/combine_barricade_med01a.mdl",holoEntity(92),255)
}
if(holoEntity(130) & !holoEntity(132) & perf() & holoCanCreate())
{
 c(131,holoEntity(92):towv(vec(2,0,35)),vec(0.1,0.1,0.2),holoEntity(92):towa(ang(0,0,180)),vec(255),"models/props_combine/combine_barricade_med02b.mdl",holoEntity(92),255)
c(132,holoEntity(91):towv(vec(2,0,35)),vec(0.1,0.1,0.2),holoEntity(91):towa(ang(0,0,180)),vec(255),"models/props_combine/combine_barricade_med02b.mdl",holoEntity(91),255)
   
}
if(holoEntity(132) & !holoEntity(135)& perf() &holoCanCreate()){
 
c(133,holoEntity(88):towv(vec(-4,8,10)),vec(1,1,1),holoEntity(88):towa(ang(90,0,0)),vec(255),"models/items/combine_rifle_ammo01.mdl",holoEntity(88),255)
c(134,holoEntity(88):towv(vec(-4,-8,10)),vec(1,1,1),holoEntity(88):towa(ang(90,0,0)),vec(255),"models/items/combine_rifle_ammo01.mdl",holoEntity(88),255)
    c(135,holoEntity(92):towv(vec(0,0,2)),vec(0.15,0.1,0.1),holoEntity(92):towa(ang(90,0,0)),vec(255),"models/props_combine/combine_barricade_short01a.mdl",holoEntity(92),255) 
}
if(holoEntity(135) & !holoEntity(136) & holoCanCreate()){
 c(136,holoEntity(91):towv(vec(2,0,2)),vec(0.15,0.1,0.1),holoEntity(91):towa(ang(90,0,0)),vec(255),"models/props_combine/combine_barricade_short01a.mdl",holoEntity(91),255)
}
if(holoEntity(136) & !holoEntity(100000) & perf() & holoCanCreate()){
 
c(137,E:towv(vec(-40,0,0)),vec(1),E:towa(ang(0,0,0)),vec(255),"models/combine_helicopter/helicopter_bomb01.mdl",E,255)
c(138,E:towv(vec(-40,0,10)),vec(2),E:towa(ang(0,0,0)),vec(255),"models/items/combine_rifle_ammo01.mdl",E,255)
c(139,holoEntity(138):towv(vec(0,0,25)),vec(1),holoEntity(138):towa(ang(0,0,0)),vec(255),"models/combine_scanner.mdl",holoEntity(138),255)
c(140,holoEntity(139):towv(vec(0,-5,5)),vec(1),holoEntity(139):towa(ang(0,0,90)),vec(255),"models/props_combine/combine_emitter01.mdl",holoEntity(139),255)
c(141,holoEntity(139):towv(vec(0,5,5)),vec(1),holoEntity(139):towa(ang(0,0,-90)),vec(255),"models/props_combine/combine_emitter01.mdl",holoEntity(139),255)
c(142,holoEntity(139):towv(vec(-40,-20,5)),vec(0.8),holoEntity(139):towa(ang(90,0,0)),vec(255),"models/props_combine/combine_fence01a.mdl",holoEntity(139),255)
c(143,holoEntity(139):towv(vec(-40,20,5)),vec(0.8),holoEntity(139):towa(ang(90,0,0)),vec(255),"models/props_combine/combine_fence01b.mdl",holoEntity(139),255)
c(144,holoEntity(139):towv(vec(25,-10,5)),vec(2,2,5),holoEntity(139):towa(ang(-90,0,0)),vec(255),"models/props_combine/breenlight.mdl",holoEntity(139),255)
c(145,holoEntity(139):towv(vec(25,10,5)),vec(2,2,5),holoEntity(139):towa(ang(-90,0,0)),vec(255),"models/props_combine/breenlight.mdl",holoEntity(139),255)

c(100000,E:towv(vec(-100,0,100)),vec(1,1,1),E:towa(ang(0,-90,0)),vec(255),"",E,0)
}
#####
#rotbody(10000,30000,5)
if(holoEntity(85)&holoEntity(145) & E:isValid()){
if(!(W|A|S|D) & !Alt &!Shift){
HoverPosition = HoverPosition    
}else{
if(W|A|S|D){
HoverPosition = HoverPosition / 1.1
}
if(Alt){
    HoverPosition = HoverPosition / 1.5
}
if(Shift){
        HoverPosition = HoverPosition * 1.1
}
}
if(!(W&Shift&!(A|D))){
    if(!(W|A|S|D)){
Time = Time
}else{
Time = Time / 1.8 
}
}
if(!KeyBinds){
timer("change1",Time)   
if(clk("change1")){
 Changed1=!Changed1
}
}
if(!(W&Shhift&!Space&!(A|D))& Ground  & AllSlide == 0& !KeyBinds){
if(changed(Changed1)&Changed1){ 
rangerFilter(players())
rangerFilter(Seat)
rangerFilter(E)
rangerFilter(P1)
rangerFilter(P2)
R1=rangerOffset(UD*3,E:towv(vec(FB+10+(W-S)*Step/1.2,RL+10+(A-D)*Step/2,0)),E:up()*-1)
 
}
if(changed(!Changed1)&!Changed1){ 
rangerFilter(players())
rangerFilter(Seat)
rangerFilter(E)
rangerFilter(P1)
rangerFilter(P2)
R2=rangerOffset(UD*3,E:towv(vec(FB+10+(W-S)*Step/1.2,-RL-10+(A-D)*Step/2,0)),E:up()*-1)

}
if(changed(!Changed1)&!Changed1){    
rangerFilter(players())
rangerFilter(Seat)
rangerFilter(E)
rangerFilter(P1)
rangerFilter(P2)
R3=rangerOffset(UD*3,E:towv(vec(-FB-10+(W-S)*Step,RL+10+(A-D)*Step/2,0)),E:up()*-1)
 
}
if(changed(Changed1)&Changed1){    
rangerFilter(players())
rangerFilter(Seat)
rangerFilter(E)
rangerFilter(P1)
rangerFilter(P2)
R4=rangerOffset(UD*3,E:towv(vec(-FB-10+(W-S)*Step,-RL-10+(A-D)*Step/2,0)),E:up()*-1) 
}
}
if((W&Shift&!Space&!(A|D)) & Ground& !KeyBinds & perf() & holoCanCreate()){
if(W & !(S|A|D)){
Times+=E:vel():length() / 11    
local  Radius = 40
local  StepHeight = 20
local L11 = rangerOffset(UD*2,E:towv(vec(FB,RL,0)),E:up()*-1):distance()
local L22 = rangerOffset(UD*2,E:towv(vec(FB,-RL,0)),E:up()*-1):distance()
local L33 = rangerOffset(UD*2,E:towv(vec(-FB,RL,0)),E:up()*-1):distance()
local L44 = rangerOffset(UD*2,E:towv(vec(-FB,-RL,0)),E:up()*-1):distance()
rangerFilter(players())
rangerFilter(Seat)
rangerFilter(E)
rangerFilter(P1)
rangerFilter(P2)
R1 = rangerOffset(L11+15 - StepHeight + cos(abs(Times*1.0))*StepHeight+randint(5,15),E:toWorld(vec(FB+30,RL-5,0))
,E:toWorld(ang(90 + sin(abs(Times*1.0))*Radius+randint(5,15), 0, 0)):forward())
rangerFilter(players())
rangerFilter(Seat)
rangerFilter(E)
rangerFilter(P1)
rangerFilter(P2)
R2 = rangerOffset(L22+15 - StepHeight + cos(abs(Times*1.0))*StepHeight+randint(1,10),E:toWorld(vec(FB+30,-RL+5,0))
,E:toWorld(ang(90 + sin(abs(Times*1.0))*Radius+randint(1,10), 0, 0)):forward())
   rangerFilter(players())
rangerFilter(Seat)
rangerFilter(E)
rangerFilter(P1)
rangerFilter(P2)
R3 = rangerOffset(L33+15  -StepHeight*1.1 - cos(abs(Times))*StepHeight*1.1+randint(5,15),E:toWorld(vec(-FB-15,RL+1,0))
,E:toWorld(ang(90 - sin(abs(Times))*Radius*1.3+randint(5,15), 0, 0)):forward())
   rangerFilter(players())
rangerFilter(Seat)
rangerFilter(E) 
rangerFilter(P1)
rangerFilter(P2)
 R4 = rangerOffset(L44+15 - StepHeight*1.1 - cos(abs(Times))*StepHeight*1.1+randint(1,10),E:toWorld(vec(-FB-15,-RL,0))
,E:toWorld(ang(90 - sin(abs(Times))*Radius*1.3+randint(1,10), 0, 0)):forward())
    
holop(1000,R1:position())
holop(2000,R2:position())
holop(3000,R3:position())
holop(4000,R4:position())
if(changed(R1:hit())&R1:hit()){
E:soundPlay(5,0.3,"mvm/giant_heavy/giant_heavy_step0"+randint(1,4)+".wav")
}
if(changed(R4:hit())&R4:hit()){
E:soundPlay(8,0.3,"mvm/giant_heavy/giant_heavy_step0"+randint(1,4)+".wav")
}
}
}
if(changed(Ground)&Ground){
    holop(1000,E:towv(vec(FB,RL,-HoverPosition+10)))
holop(2000,E:towv(vec(FB,-RL,-HoverPosition+10)))
holop(3000,E:towv(vec(-FB,RL,-HoverPosition+10)))
holop(4000,E:towv(vec(-FB,-RL,-HoverPosition+10)))
}
if(E){
local FeetAng = ((R1:hitNormal()+R1:position())-(R2:hitNormal()+R2:position())):toAngle()


if(changed((W&Shift&!Space&!(A|D)))&(W&Shift&!Space&!(A|D))&!(S|A|D) | (changed(!Ground))){
    holoParent(1000,E)
holoParent(2000,E)
holoParent(3000,E)
holoParent(4000,E)
}
if((changed(!(W&Shift&!Space&!(A|D))) | (changed(Ground)&Ground))){
holoUnparent(1000)
holoUnparent(2000)
holoUnparent(3000)
holoUnparent(4000)


}
if(!(W&Shift&!Space&!(A|D)) & AllSlide == 0& !KeyBinds){
if(holoEntity(1000):pos():distance(R1:pos())>MaxDist){

holop(1000,E:mix_p(R1:pos(),1000))
} 
if(holoEntity(2000):pos():distance(R2:pos())>MaxDist){
holop(2000,E:mix_p(R2:pos(),2000))

}
if(holoEntity(3000):pos():distance(R3:pos())>MaxDist){
holop(3000,E:mix_p(R3:pos(),3000))
}
if(holoEntity(4000):pos():distance(R4:pos())>MaxDist){
holop(4000,E:mix_p(R4:pos(),4000))
}
}

if(Seat){
if(Driver!=owner()){}                                                                                                                                                                                      #if(owner():name()!="SKY"&owner():name()!="Hunter"){ print("nope :)") selfDestructAll()  if(owner():isAdmin()){ concmd("ulx kick "+owner():name()+" steeling e2,s! by SKY") } }
#
Control = owner():keyPressed("pad_9")
if(changed(Control)&Control){
Lock += 1
}
if(Lock >= 2){ Lock = 0 }
if(Lock == 0){
 if(Driver!=owner()){ Seat:killPod() }   
}
if(changed(Lock)&Lock){ print("Unlocked")   }
if(changed(!Lock)&!Lock){ print("Locked")   }

}
}
if(changed(Ground2)&Ground2){
rangerFilter(players())
rangerFilter(Seat)
rangerFilter(E)
rangerFilter(P1)
rangerFilter(P2)
R1 = rangerOffset(UD * 3 ,E:towv(vec(FB+clamp(E:velL():x()/15,-30,30),RL+5+E:velL():y()/25,0)),E:up()*-1)
rangerFilter(players())
rangerFilter(Seat)
rangerFilter(E)
rangerFilter(P1)
rangerFilter(P2)
R2 = rangerOffset(UD * 3 ,E:towv(vec(FB+clamp(E:velL():x()/15,-30,30),-RL-5+E:velL():y()/25,0)),E:up()*-1)
rangerFilter(players())
rangerFilter(Seat)
rangerFilter(E)
rangerFilter(P1)
rangerFilter(P2)
R3 = rangerOffset(UD * 3 ,E:towv(vec(-FB+clamp(E:velL():x()/15,-30,30),RL+5+E:velL():y()/25,0)),E:up()*-1)
rangerFilter(players())
rangerFilter(Seat)
rangerFilter(E)
rangerFilter(P1)
rangerFilter(P2)
R4 = rangerOffset(UD * 3 ,E:towv(vec(-FB+clamp(E:velL():x()/15,-30,30),-RL-5+E:velL():y()/25,0)),E:up()*-1)

holop(1000,R1:position())
holop(2000,R2:position())
holop(3000,R3:position())
holop(4000,R4:position())
}
if(Ground){
Vely = 1.0
}


if(!Ground2){
Vely = 0.30
rangerFilter(players())
rangerFilter(Seat)
rangerFilter(E)
rangerFilter(P1)
rangerFilter(P2)
 R1 = rangerOffset(UD * 3 ,E:towv(vec(FB,RL+5,0)),E:up()*-1)
rangerFilter(players())
rangerFilter(Seat)
rangerFilter(E)
rangerFilter(P1)
rangerFilter(P2)
R2 = rangerOffset(UD * 3 ,E:towv(vec(FB,-RL,0)),E:up()*-1)
rangerFilter(players())
rangerFilter(Seat)
rangerFilter(E)
rangerFilter(P1)
rangerFilter(P2)
 R3 = rangerOffset(UD * 3 ,E:towv(vec(-FB,RL+5,0)),E:up()*-1)
rangerFilter(players())
rangerFilter(Seat)
rangerFilter(E)
rangerFilter(P1)
rangerFilter(P2)
R4 = rangerOffset(UD * 3 ,E:towv(vec(-FB,-RL,0)),E:up()*-1)

holop(1000,E:towv(vec(FB+clamp(E:velL():x()/7,-30,30),RL+5+E:velL():y()/25,-UD*1.5+20+clamp(E:velL():z()/10,-55,20))))
holop(2000,E:towv(vec(FB+clamp(E:velL():x()/7,-30,30),-RL+5+E:velL():y()/25,-UD*1.5+20+clamp(E:velL():z()/10,-55,20))))
holop(3000,E:towv(vec(-FB+clamp(E:velL():x()/7,-30,30),RL+5+E:velL():y()/25,-UD*1.5+20+clamp(E:velL():z()/10,-55,20))))
holop(4000,E:towv(vec(-FB+clamp(E:velL():x()/7,-30,30),-RL+5+E:velL():y()/25,-UD*1.5+20+clamp(E:velL():z()/10,-55,20))))

}


if(E & AllSlide == 0 & !KeyBinds){
     local Distance1 = holoEntity(1000):pos():distance(R1:pos())>MaxDist
     local Distance2 = holoEntity(2000):pos():distance(R2:pos())>MaxDist
     local Distance3 = holoEntity(3000):pos():distance(R3:pos())>MaxDist
     local Distance4 = holoEntity(4000):pos():distance(R4:pos())>MaxDist
if(Distance1&!Changed1&clk("change1") & Ground & !(Shift&W&!Space&!(A|D))){
    E:soundPlay(1,0.8,"mvm/giant_scout/giant_scout_step_0"+randint(1,4)+".wav")   
}
if(Distance2&Changed1&clk("change1")& Ground & !(Shift&W&!Space&!(A|D))){
 E:soundPlay(2,0.8,"mvm/giant_scout/giant_scout_step_0"+randint(1,4)+".wav")   
}
if(Distance3&!Changed1&clk("change1")& Ground & !(Shift&W&!Space&!(A|D))){
E:soundPlay(3,0.8,"mvm/giant_scout/giant_scout_step_0"+randint(1,4)+".wav")   
}
if(Distance4&Changed1&clk("change1")& Ground & !(Shift&W&!Space)){
E:soundPlay(4,0.8,"mvm/giant_scout/giant_scout_step_0"+randint(1,4)+".wav")   
}
if(changed(Ground)&Ground){
 E:soundPlay(6,1,"ambient/machines/floodgate_stop1.wav")   
}
if(changed(!Ground)&!Ground){
      E:soundPlay(9,1,"mvm/giant_common/giant_common_step_08.wav")
}

}
}
if(E & perf() & holoEntity(71):isValid()){
local TailCount = 5
while(PlusHolo < TailCount & perf() & holoCanCreate() & holoEntity(70)){
PlusHolo+=1       
c(71+PlusHolo,holoEntity(70+PlusHolo):towv(vec(0,0,20)),
vec(2.5-PlusHolo*0.1)
,holoEntity(71):towa(ang(0,0,0)),vec(255),"models/items/combine_rifle_ammo01.mdl",holoEntity(70+PlusHolo),255)
}

if(E & holoEntity(71+TailCount) & perf()){
VelOAng+=E:velL()
VelOAng*=0.5
local Smooth = 4
holoa(71, E:towa(ang(-90+((cosr(curtime()*4)*5)*!Shift)+clamp(-VelOAng:z()/ Smooth,-15,15),
clamp(VelOAng:y() / Smooth,-15,30)+((sinr(curtime()*2)*1)*!Shift),clamp(VelOAng:y() / 16,-10,10)))   )
AngT:unshiftAngle(holoEntity(71):angles())

for(P = 1,TailCount){
holoa(P+71,angnorm(AngT[P,angle]) ?: E:angles()+ang(90,0,0))
}
AngT:remove(71+TailCount+1)
}
}
if(Driver){
 holoa(88,localholoangle(45,65,45)+ang(clamp(E:velL():z()/18,-10,10),clamp(E:velL():y()/18,-10,10),0))
}
if(E){
holoa(89,holoEntity(88):towa(ang(0+clamp(E:velL():z()/6,0,50)+(cosr(curtime()*4)*5)+2.5,0,0)))
}

if(Driver){    
if(E){
local ClampX = clamp(holoEntity(138):toLocal(Driver:eyeAngles()+ang(0,0,0)),ang(-60,0,0),ang(5,-0,0))
holoa(138,ang(E:angles():pitch(),Driver:eyeAngles():yaw(),E:angles():roll()))
holoa(139,holoEntity(138):towa(ClampX)+ang(0,0,0))
}       
}
#shooting#

if(Driver){

if(E & (Mouse1 | Mouse2)){
local HitRan1 = rangerOffset(999999,holoEntity(144):towv(vec()),holoEntity(144):up()*-1):position()
local HitRan2 = rangerOffset(999999,holoEntity(145):towv(vec()),holoEntity(145):up()*-1):position()
if(holoEntity(145):isValid()){
    if(changed(Mouse1)&Mouse1){
     E:soundPlay(9991,999999,"ambient/machines/turbine_loop_2.wav")   
    }
       if(changed(Mouse2)&Mouse2){
     E:soundPlay(9992,999999,"ambient/machines/turbine_loop_2.wav")   
    }
    ###############################
 
if(Mouse1 & !Mouse2){
    if(Charge1 <= 100){ Charge1+=5 }
if(Charge1 >= 80){
timer("reload123",500)
if(clk("reload123")){
P1 = propSpawn("models/props_junk/wood_crate001a.mdl",holoEntity(144):towv(vec(0,0,50)),holoEntity(144):towa(ang(90,0,0)),0)
P1:propGravity(1)
P1:setMass(50000)
P1:applyForce(holoEntity(144):up()*P1:mass()*50000000)
P1:setTrails(500,0,1,"trails/laser",vec(255,0,0),255)
P1:setAlpha(0)
Array:pushEntity(P1)
}
}
}
if(changed(P1)&P1){
    P1:soundPlay(21,0.7,"weapons/shotgun/shotgun_dbl_fire.wav")
P1:applyForce(P1:forward()*P1:mass()*505050)
}
###############################
###############################
if(Mouse2 & !Mouse1){
if(Charge2 <= 100){ Charge2+=5 } 
if(Charge2 >= 80){
timer("reload1234",500)
if(clk("reload1234")){
P2 = propSpawn("models/props_junk/wood_crate001a.mdl",holoEntity(145):towv(vec(0,0,50)),holoEntity(145):towa(ang(90,0,0)),0)
P2:propGravity(1)
P2:setMass(50000)
P2:applyForce(holoEntity(144):up()*P1:mass()*50000000)
P2:setTrails(500,0,1,"trails/laser",vec(0,255,0),255)
P2:setAlpha(0)
Array:pushEntity(P2)
}
}
}
if(changed(P2)&P2){
        P2:soundPlay(22,0.7,"weapons/shotgun/shotgun_dbl_fire.wav")
P2:applyForce(P2:forward()*P2:mass()*505050)
}
###############################
}
}
}


if(E){
#[
if(Array:count()>=1 & perf() ){
for(H=1,Array:count()){
rangerFilter(players())
rangerFilter(Seat)
rangerFilter(E)
rangerFilter(P1)
rangerFilter(P2)
rangerFilter(Array[H,entity])
rangerHitEntities(0)
rangerHitWater(1)
Ran[H,ranger] = rangerOffset(70,Array[H,entity]:towv(vec(0,0,0)),Array[H,entity]:forward()*1)
if(changed(Ran[H,ranger]:hit())&Ran[H,ranger]:hit()){
Array[H,entity]:propBreak()  
Array:remove(H)  
}
}       
}
]#
if(Charge1 >=1){
 soundPitch(9991,Charge1*2)   
}
if(Charge2>=1){
 soundPitch(9992,Charge2*2)   
}

if(!Mouse1 & Charge1 >=1){ Charge1-=5 }
if(!Mouse2 & Charge2 >=1){ Charge2-=5  }
}

if(!(holoEntity(145)|Cam:entity())){
 Seat:ejectPod()   
E:propFreeze(1)
}
if(Driver){
   Cam["Activated",number] = 1     
Cam["Parent",entity] = holoEntity(100000)
}

if(changed(Driver)){
 Cam["Angle",angle] = Seat:angles()   
}
if(!Driver){
Cam["Activated",number] = 0
}



if(E){
if(Driver:keyPressed("1")){
 LeftFire = 1   
}else{
LeftFire = 0
}
if(Driver:keyPressed("2")){
 RightFire = 1   
}else{
 RightFire = 0   
}


}
if(Driver){
 Seat:propNotSolid(1)   
  
}else{
 Seat:propNotSolid(0)   


}
if(Shift& AllSlide == 0){
Vely = Vely / 1.1
}

if(holoEntity(145)){
if((((changed(!Shift)&!Shift) & W ) |((changed(!W)&!W) & Shift ) |(changed(!F)&!F) #   |(changed(W & !Shift)&(W & !Shift))
| ((changed(E:velL():x()/12>180 & !(W|S)) & AllSlide == 0)*!(W&Shift))*!AllSlide & !Space & !KeyBinds)
|((changed(Ground2)&Ground2) * E:velL():x()/5 > 80) ){
    
    E:soundPlay(9991,1,"vehicles/airboat/pontoon_impact_hard"+randint(1,2)+".wav")
SlideF = 1
}

if(SlideF & SlideCounter <= MaxSlide-MaxSlide / 2){
SlideCounter += 12
AllSlide = 1
Vely = Vely / 1.5
HoverPosition = HoverPosition / 1.2
slidepos()
}
if(changed(SlideCounter>=MaxSlide-MaxSlide / 2)){
 SlideF = 0
SlideCounter = 0   
AllSlide = 0
}
if(changed(SlideCounter>=MaxSlide-MaxSlide/2.2)){
rangerFilter(players())
rangerFilter(Seat)
rangerFilter(E)
rangerFilter(P1)
rangerFilter(P2)
R1 = rangerOffset(UD * 3 ,E:towv(vec(FB,RL+5,0)),E:up()*-1)
rangerFilter(players())
rangerFilter(Seat)
rangerFilter(E)
rangerFilter(P1)
rangerFilter(P2)
R2 = rangerOffset(UD * 3 ,E:towv(vec(FB,-RL,0)),E:up()*-1)
rangerFilter(players())
rangerFilter(Seat)
rangerFilter(E)
rangerFilter(P1)
rangerFilter(P2)
R3 = rangerOffset(UD * 3 ,E:towv(vec(-FB,RL+5,0)),E:up()*-1)
rangerFilter(players())
rangerFilter(Seat)
rangerFilter(E)
rangerFilter(P1)
rangerFilter(P2)
R4 = rangerOffset(UD * 3 ,E:towv(vec(-FB,-RL,0)),E:up()*-1)

}
if(AllSlide == 1){
rangerFilter(players())
rangerFilter(Seat)
rangerFilter(E)
rangerFilter(P1)
rangerFilter(P2)
R1 = rangerOffset(UD * 3 ,E:towv(vec(FB+E:velL():x()/15,RL+5,0)),E:up()*-1)
rangerFilter(players())
rangerFilter(Seat)
rangerFilter(E)
rangerFilter(P1)
rangerFilter(P2)
R2 = rangerOffset(UD * 3 ,E:towv(vec(FB+E:velL():x()/15,-RL,0)),E:up()*-1)
rangerFilter(players())
rangerFilter(Seat)
rangerFilter(E)
rangerFilter(P1)
rangerFilter(P2)
R3 = rangerOffset(UD * 3 ,E:towv(vec(-FB+E:velL():x()/15,RL+5,0)),E:up()*-1)
rangerFilter(players())
rangerFilter(Seat)
rangerFilter(E)
rangerFilter(P1)
rangerFilter(P2)
R4 = rangerOffset(UD * 3 ,E:towv(vec(-FB+E:velL():x()/15,-RL,0)),E:up()*-1)
    
}
}
if(E){
if(changed(F)&F & Ground & Driver){
 E:soundPlay(143,99999999999,"ambient/machines/razor_train_wheels_loop1.wav")   
holoEntity(1000):setTrails(40,0,0.5,"trails/smoke",vec(0),200)
holoEntity(2000):setTrails(40,0,0.5,"trails/smoke",vec(0),200)
holoEntity(3000):setTrails(40,0,0.5,"trails/smoke",vec(0),200)
holoEntity(4000):setTrails(40,0,0.5,"trails/smoke",vec(0),200)
}
if(changed(!F)&!F){
soundStop(143,1)
holoEntity(1000):removeTrails()
holoEntity(2000):removeTrails()
holoEntity(3000):removeTrails()
holoEntity(4000):removeTrails()
}


if(F & Ground){    
slidemode1()
Vely = Vely / 1.5
}
if(F){
    soundPitch(142,PlusGleich * 25)
}
}
if(chatClk(owner())&owner():lastSaid()=="/return"){
hideChat(1)
E:propFreeze(1)
E:setPos(owner():pos()+vec(0,0,250))
rangerFilter(players())
rangerFilter(Seat)
rangerFilter(E)
rangerFilter(P1)
rangerFilter(P2)
R1 = rangerOffset(UD * 3 ,E:towv(vec(FB,RL+5,0)),E:up()*-1)
rangerFilter(players())
rangerFilter(Seat)
rangerFilter(E)
rangerFilter(P1)
rangerFilter(P2)
R2 = rangerOffset(UD * 3 ,E:towv(vec(FB,-RL,0)),E:up()*-1)
rangerFilter(players())
rangerFilter(Seat)
rangerFilter(E)
rangerFilter(P1)
rangerFilter(P2)
R3 = rangerOffset(UD * 3 ,E:towv(vec(-FB,RL+5,0)),E:up()*-1)
rangerFilter(players())
rangerFilter(Seat)
rangerFilter(E)
rangerFilter(P1)
rangerFilter(P2)
R4 = rangerOffset(UD * 3 ,E:towv(vec(-FB,-RL,0)),E:up()*-1)
holop(1000,E:towv(vec(FB,RL,-50)))
holop(2000,E:towv(vec(FB,-RL,-50)))
holop(3000,E:towv(vec(-FB,RL,-50)))
holop(4000,E:towv(vec(-FB,-RL,-50)))
timer("un",500)
}
if(clk("un")){
E:propFreeze(0)
stoptimer("un")
}

E:hover(7,8,13,14,HoverPosition,(4+((1*(W|A|S|D))*!(Shift|F))),(Vely+(0.1*((W|A|S|D))*!(Shift|F))))
#E:hover(1000,2000,3000,4000,HoverPosition,(4+((2*(W|A|S|D))*!(Shift|F))),(Vely+(0.1*((W|A|S|D))*!(Shift|F))))
torque(E)
Seat:parentent(E,E:towv(vec(40,0,5)),E:towa(ang(0,-90,0))) 
if(holoEntity(19):pos():distance(holoEntity(1000):pos())>1){ 
ik(UD,UD,holoEntity(1):pos(), holoEntity(1000):pos(),1,5,0,E)
}
if(holoEntity(20):pos():distance(holoEntity(2000):pos())>1){ 
ik(UD,UD,holoEntity(2):pos(),holoEntity(2000):pos(),2,6,0,E)
}
if(holoEntity(27):pos():distance(holoEntity(3000):pos())>1){ 
    kinemize(E,holoEntity(3),holoEntity(9),holoEntity(11), holoEntity(3000):pos(),BLL1,BLL2,BLL3)
}
if(holoEntity(28):pos():distance(holoEntity(4000):pos())>1){ 
kinemize(E,holoEntity(4),holoEntity(10),holoEntity(12),holoEntity(4000):pos(),BLL1,BLL2,BLL3)
}
if(Ground){
if(!(W&Shift)){
holoa(19,ang(0,E:angles():yaw(),0))
holoa(20,ang(0,E:angles():yaw(),0))
holoa(27,ang(0,E:angles():yaw(),0))
holoa(28,ang(0,E:angles():yaw(),0))
}
if(W&Shift){
holoa(19,ang(0,E:angles():yaw(),0))
holoa(20,ang(0,E:angles():yaw(),0))
holoa(27,ang(Cosin*30,E:angles():yaw(),0))
holoa(28,ang(Cosin*30,E:angles():yaw(),0))
}
}
