
@name PlayerFinder 
@inputs  
@outputs  
@persist Player:entity Timer
@trigger  

runOnTick(1) 

if(first()){ 
    hint("1-2-3-4-5 <name>",5) 
    hint("Das ist nur der Anfang!",5) 
    hint("Aber ich werde ihn updaten!",5) 
holoCreate(1) 
hideChat(1)


} 

S = owner():lastSaid():explode(" ") 

if (S:string(1)=="1"){
hideChat(1)

TempPlayer = findPlayerByName(S:string(2)) 
if (TempPlayer:isPlayer()){ 
Player = TempPlayer 


} 
} 

holoCreate(1) 
holoModel(1,"hqsphere") 
holoScale(1,vec(-7,-7,-7)) 
holoColor(1,vec(250,250,250)) 
holoAng(1,ang(0,360,0)) 
holoPos(1, Player:pos() + vec(0,0,50)) 
holoMaterial(1,"matsys_regressiontest/background")   
holoEntity(1):soundPlay(999,999,"hit.wav")  


if (duped()) {selfDestruct()}

S = owner():lastSaid():explode(" ") 

if (S:string(1)=="2"){


TempPlayer = findPlayerByName(S:string(2)) 
if (TempPlayer:isPlayer()){ 
Player = TempPlayer 


} 
} 

holoCreate(1) 
holoModel(1,"hqsphere") 
holoScale(1,vec(-7,-7,-7)) 
holoColor(1,vec(250,250,250)) 
holoAng(1,ang(0,360,0)) 
holoPos(1, Player:pos() + vec(0,0,50)) 
holoMaterial(1,"matsys_regressiontest/background")   
holoEntity(1):soundPlay(999,999,"hit.wav")  


if (duped()) {selfDestruct()}

S = owner():lastSaid():explode(" ") 

if (S:string(1)=="3"){


TempPlayer = findPlayerByName(S:string(2)) 
if (TempPlayer:isPlayer()){ 
Player = TempPlayer 


} 
} 

holoCreate(1) 
holoModel(1,"hqsphere") 
holoScale(1,vec(-7,-7,-7)) 
holoColor(1,vec(250,250,250)) 
holoAng(1,ang(0,360,0)) 
holoPos(1, Player:pos() + vec(0,0,50)) 
holoMaterial(1,"matsys_regressiontest/background")   
holoEntity(1):soundPlay(999,999,"hit.wav")  


if (duped()) {selfDestruct()}

S = owner():lastSaid():explode(" ") 

if (S:string(1)=="4"){


TempPlayer = findPlayerByName(S:string(2)) 
if (TempPlayer:isPlayer()){ 
Player = TempPlayer 


} 
} 

holoCreate(1) 
holoModel(1,"hqsphere") 
holoScale(1,vec(-7,-7,-7)) 
holoColor(1,vec(250,250,250)) 
holoAng(1,ang(0,360,0)) 
holoPos(1, Player:pos() + vec(0,0,50)) 
holoMaterial(1,"matsys_regressiontest/background")   
holoEntity(1):soundPlay(999,999,"hit.wav")  


if (duped()) {selfDestruct()}

S = owner():lastSaid():explode(" ") 

if (S:string(1)=="1"){


TempPlayer = findPlayerByName(S:string(2)) 
if (TempPlayer:isPlayer()){ 
Player = TempPlayer 


} 
} 

holoCreate(1) 
holoModel(1,"hqsphere") 
holoScale(1,vec(-7,-7,-7)) 
holoColor(1,vec(250,250,250)) 
holoAng(1,ang(0,360,0)) 
holoPos(1, Player:pos() + vec(0,0,50)) 
holoMaterial(1,"matsys_regressiontest/background")   
holoEntity(1):soundPlay(999,999,"hit.wav")  


if (duped()) {selfDestruct()}

S = owner():lastSaid():explode(" ") 

if (S:string(1)=="5"){


TempPlayer = findPlayerByName(S:string(2)) 
if (TempPlayer:isPlayer()){ 
Player = TempPlayer 


} 
} 

holoCreate(1) 
holoModel(1,"hqsphere") 
holoScale(1,vec(-7,-7,-7)) 
holoColor(1,vec(250,250,250)) 
holoAng(1,ang(0,360,0)) 
holoPos(1, Player:pos() + vec(0,0,50)) 
holoMaterial(1,"matsys_regressiontest/background")   
holoEntity(1):soundPlay(999,999,"hit.wav")  


if (duped()) {selfDestruct()}

S = owner():lastSaid():explode(" ") 

if (S:string(1)=="6"){


TempPlayer = findPlayerByName(S:string(2)) 
if (TempPlayer:isPlayer()){ 
Player = TempPlayer 


} 
} 

holoCreate(1) 
holoModel(1,"hqsphere") 
holoScale(1,vec(-7,-7,-7)) 
holoColor(1,vec(250,250,250)) 
holoAng(1,ang(0,360,0)) 
holoPos(1, Player:pos() + vec(0,0,50)) 
holoMaterial(1,"matsys_regressiontest/background")   
holoEntity(1):soundPlay(999,999,"hit.wav")  


if (duped()) {selfDestruct()}


if(owner():lastSaid() == "stop"){
 holoDeleteAll()
  }
