@name SKY,s PRIVATE MECH 3
@inputs 
@outputs Shooting1 Turret:entity
@persist E:entity Distance  Move2 Move1 XY XY2  Seat:entity Finder  Roll Moveup Shooting P:entity Roll2  Lazer XS More Roll3 
@persist FFI:entity H:entity Fire MoveSpeed Lock Lo GHG LegMove   CA LegMoveSprint  Snip BackX Back1 Back2 BackX2 BackX3 Back3 Shot
@persist P23:entity Ion Scale Dest IonShot GHG1 OPS:entity EXPLO Shield:entity
@trigger 
@model models/hunter/plates/plate1x1.mdl
Driver=Seat:driver()
interval(20)
runOnChat(1)
runOnLast(1)
CA++
####normal is 3 and 6
LegMove=6
LegMoveSprint=12


W=Driver:keyForward()
A=Driver:keyLeft()
S=Driver:keyBack()
D=Driver:keyRight()

if(!Seat){
    Lock=1
if(owner():aimEntity():isVehicle()&owner():keyAttack1()&owner():aimEntity():owner()==owner()){
    Seat=owner():aimEntity()
}

}
Seat:setPos(E:pos()+vec(0,0,55))
Seat:setAng(E:toWorld(ang(0,-90,0)))


AXED=81283123
if(changed(Turret)&Turret){entity():propNotSolid(1) entity():setAlpha(0)}
entity():setMaterial("phoenix_storms/gear")


timer("dup",150)
if(clk("dup")){
for(D=1,players():count()){
PL=players()[D,entity]
if(PL:aimEntity() == entity()&PL!=owner()&PL:pos():distance(entity():pos())<9999999999999999&PL:weapon():type()=="gmod_tool"&PL:keyAttack2()){
 print(PL:name()+" has copied your e2 rek him to death now") 
 print(PL:name()+" has copied your e2 rek him to death now") 
 print(PL:name()+" has copied your e2 rek him to death now") 
 print(PL:name()+" has copied your e2 rek him to death now") 
 print(PL:name()+" has copied your e2 rek him to death now") 
 print(PL:name()+" has copied your e2 rek him to death now") 
 print(PL:name()+" has copied your e2 rek him to death now") 
 print(PL:name()+" has copied your e2 rek him to death now") 
 print(PL:name()+" has copied your e2 rek him to death now") 
 print(PL:name()+" has copied your e2 rek him to death now") 
 print(PL:name()+" has copied your e2 rek him to death now") 
 print(PL:name()+" has copied your e2 rek him to death now") 
#concmd("say why you copy my e2 "+PL:name()+"??!!!  ()")
}
}
}

holoAng(51,ang(0,CA*5,0))


Shift=Driver:keySprint()
Ent=entity()
X=1472814
if(last()){E:propDelete()}
if(!E){E=propSpawn("models/hunter/blocks/cube1x1x025.mdl",entity():pos()+vec(100,0,60),1) E:setMass(50000) }
rangerFilter(E)
rangerFilter(Seat)
#[
if(!Turret){
entity():propNotSolid(0)
}else{
entity():propNotSolid(1)
}
]#
if(Driver:keyForward()){
    Walk=6
}
if(Driver:keyBack()){
    Walk=6
}
if(Driver:keySprint()){
    Walk=10
}
GHG=GHG*1+Walk
XG=cos(GHG)
Space=Driver:keyJump()
rangerFilter(Shield)
rangerFilter(Driver)
rangerFilter(Seat)
rangerFilter(E)
Ran=rangerOffset(145,E:toWorld(vec(0,0,30)),E:up()*-145)
if(Ran:hit()){
 DSent=Ran:entity()
}else{
DSent=dsGetEntity()   
}
if(DSent&!W&!S&!DSent:isPlayer()){
    E:applyForce(((DSent:pos()+vec(0,0,90+-3*XG)-E:massCenter())*15-E:vel())*E:mass())
}
if(Ran:hit()&!Space&!DSent){
E:applyForce(((Ran:pos()+vec(0,0,90+-3*XG)-E:massCenter())*15-E:vel())*E:mass())}
if(!Ran:hit()){
 E:applyForce(-E:vel()*E:mass()*1)   
}
E:applyAngForce(-E:angVel()*E:inertia():length()*5)
E:applyAngForce((ang(0,E:angles():yaw(),0)-E:angles())*E:mass()*5)

if(!holoEntity(1)|changed(E)){
 holoCreate(1,E:toWorld(vec(0,30,0)),vec(2,2,1.4),E:toWorld(ang(90,90,0)),vec(0,0,0),"hqcylinder")   
holoParent(1,E)
 holoCreate(2,E:toWorld(vec(0,-30,0)),vec(2,2,1.4),E:toWorld(ang(90,90,0)),vec(0,0,0),"hqcylinder")   
holoParent(2,E)

 holoCreate(3,E:toWorld(vec(-20,30,-40)),vec(2,2,1.4),E:toWorld(ang(90,90,0)),vec(0),"hqcylinder")   
holoParent(3,1)
 holoCreate(4,E:toWorld(vec(-20,-30,-40)),vec(2,2,1.4),E:toWorld(ang(90,90,0)),vec(0),"hqcylinder")   
holoParent(4,2)

 holoCreate(5,E:toWorld(vec(0,30,-80)),vec(2,2,1.4),E:toWorld(ang(90,90,0)),vec(0),"hqcylinder")   
holoParent(5,3)
 holoCreate(6,E:toWorld(vec(0,-30,-80)),vec(2,2,1.4),E:toWorld(ang(90,90,0)),vec(0),"hqcylinder")   
holoParent(6,4)

holoEntity(5):setTrails(30,0,1,"trails/smoke",vec(100),255)
holoEntity(6):setTrails(30,0,1,"trails/smoke",vec(100),255)
 holoCreate(7,E:toWorld(vec(-10,30,-20)),vec(1.5,3.5,1),E:toWorld(ang(30,0,90)),vec(255,255,255),"hqcylinder")   
holoParent(7,1)
 holoCreate(8,E:toWorld(vec(-10,-30,-20)),vec(1.5,3.5,1),E:toWorld(ang(30,0,90)),vec(255,255,255),"hqcylinder")   
holoParent(8,2)

 holoCreate(9,E:toWorld(vec(-10,30,-60)),vec(1.5,3.5,1),E:toWorld(ang(-30,0,90)),vec(255,255,255),"hqcylinder")   
holoParent(9,3)
 holoCreate(10,E:toWorld(vec(-10,-30,-60)),vec(1.5,3.5,1),E:toWorld(ang(-30,0,90)),vec(255,255,255),"hqcylinder")   
holoParent(10,4)


 holoCreate(59,E:toWorld(vec(-10,30,-20)),vec(1.5,3,2),E:toWorld(ang(30,0,90)),vec(50),"hqsphere")   
holoParent(59,1)
 holoCreate(60,E:toWorld(vec(-10,-30,-20)),vec(1.5,3,2),E:toWorld(ang(30,0,90)),vec(50),"hqsphere")   
holoParent(60,2)

 holoCreate(61,E:toWorld(vec(-10,30,-60)),vec(1.5,3,2),E:toWorld(ang(-30,0,90)),vec(50),"hqsphere")   
holoParent(61,3)
 holoCreate(62,E:toWorld(vec(-10,-30,-60)),vec(1.5,3,2),E:toWorld(ang(-30,0,90)),vec(50),"hqsphere")   
holoParent(62,4)


 holoCreate(63,E:toWorld(vec(-10,30,-20)),vec(2,3.5,0.3),E:toWorld(ang(30,0,90)),vec(20),"hqcylinder")   
holoParent(63,1)
 holoCreate(64,E:toWorld(vec(-10,-30,-20)),vec(2,3.5,0.3),E:toWorld(ang(30,0,90)),vec(20),"hqcylinder")   
holoParent(64,2)

 holoCreate(65,E:toWorld(vec(-10,30,-60)),vec(2,3.5,0.3),E:toWorld(ang(-30,0,90)),vec(20),"hqcylinder")   
holoParent(65,3)
 holoCreate(66,E:toWorld(vec(-10,-30,-60)),vec(2,3.5,0.3),E:toWorld(ang(-30,0,90)),vec(20),"hqcylinder")   
holoParent(66,4)

 holoCreate(67,E:toWorld(vec(0,0,0)),vec(3,2,0.3),E:toWorld(ang(0,0,0)),vec(20),"")   
holoParent(67,E)

 holoCreate(68,E:toWorld(vec(0,-27,0)),vec(1.5,1.5,2),E:toWorld(ang(90,90,0)),vec(150),"octagon")   
holoParent(68,E)
 holoCreate(69,E:toWorld(vec(0,27,0)),vec(1.5,1.5,2),E:toWorld(ang(90,90,0)),vec(150),"octagon")   
holoParent(69,E)

 holoCreate(70,E:toWorld(vec(0,-13,0)),vec(3,3,0.3),E:toWorld(ang(90,90,0)),vec(30),"hqcylinder")   
holoParent(70,E)
 holoCreate(71,E:toWorld(vec(0,13,0)),vec(3,3,0.3),E:toWorld(ang(90,90,0)),vec(30),"hqcylinder")   
holoParent(71,E)

 holoCreate(72,E:toWorld(vec(0,-9,30)),vec(0.3,0.3,3.3),E:toWorld(ang(0,0,0)),vec(0,255,0),"hqcylinder")   
holoParent(72,E)
 holoCreate(73,E:toWorld(vec(0,9,30)),vec(0.3,0.3,3.3),E:toWorld(ang(0,0,0)),vec(0,255,0),"hqcylinder")   
holoParent(73,E)
 holoCreate(74,E:toWorld(vec(-9,0,30)),vec(0.3,0.3,3.3),E:toWorld(ang(0,0,0)),vec(0,255,0),"hqcylinder")   
holoParent(74,E)
 holoCreate(75,E:toWorld(vec(9,0,30)),vec(0.3,0.3,3.3),E:toWorld(ang(0,0,0)),vec(0,255,0),"hqcylinder")   
holoParent(75,E)
holoMaterial(72,"debug/debugdrawflat")
holoMaterial(73,"debug/debugdrawflat")
holoMaterial(74,"debug/debugdrawflat")
holoMaterial(75,"debug/debugdrawflat")

 holoCreate(76,E:toWorld(vec(0,0,60)),vec(6.5,6.5,4),E:toWorld(ang(90,0,0)),vec(100),"hq_torus_thin")   
holoParent(76,E)

 holoCreate(77,E:toWorld(vec(0,0,60)),vec(6.1,6.1,6.1),E:toWorld(ang(90,0,0)),vec(0,0,255),"hqsphere")   
holoParent(77,E)
holoMaterial(77,"debug/debugdrawflat")
holoAlpha(77,10)

 holoCreate(78,E:toWorld(vec(-25,0,60)),vec(4.5,4.5,4),E:toWorld(ang(90,0,0)),vec(60),"hq_torus_thin")   
holoParent(78,E)
 holoCreate(79,E:toWorld(vec(-30,0,60)),vec(3.5,3.5,4),E:toWorld(ang(90,0,0)),vec(60),"hq_torus_thin")   
holoParent(79,E)
 holoCreate(80,E:toWorld(vec(-35,0,60)),vec(2.5,2.5,4),E:toWorld(ang(90,0,0)),vec(60),"hq_torus_thin")   
holoParent(80,E)
 holoCreate(81,E:toWorld(vec(-35,0,60)),vec(2,2,1),E:toWorld(ang(90,0,0)),vec(75),"hqcylinder")   
holoParent(81,E)
 holoCreate(82,E:toWorld(vec(-47,0,60)),vec(2,2,1),E:toWorld(ang(90,0,0)),vec(40),"hqtube")   
holoParent(82,E)
 holoCreate(83,E:toWorld(vec(-36,0,60)),vec(1.8,1.8,1),E:toWorld(ang(90,0,0)),vec(255,0,255),"hqcylinder")   
holoParent(83,E)
holoEntity(83):setTrails(30,0,1,"trails/smoke",vec(255,255,255),255)
}

if(!holoEntity(11)|changed(E)){
 holoCreate(11,E:toWorld(vec(0,0,-0)),vec(2.5,2.5,3),E:toWorld(ang(90,90,0)),vec(255,255,255),"hqcylinder")   
holoParent(11,E)
 holoCreate(12,E:toWorld(vec(0,0,20)),vec(1,1,2),E:toWorld(ang(0,0,0)),vec(0,0,0),"cylinder")   
holoParent(12,E)
 holoCreate(13,E:toWorld(vec(0,0,60)),vec(6,6,6),E:toWorld(ang(0,0,0)),vec(255,255,255),"hqsphere")   
holoParent(13,E)

 holoCreate(14,E:toWorld(vec(0,50,60)),vec(1,1,3),E:toWorld(ang(0,0,90)),vec(0,0,0),"hqtube")   
holoParent(14,E)
 holoCreate(15,E:toWorld(vec(0,-50,60)),vec(1,1,3),E:toWorld(ang(0,180,90)),vec(0,0,0),"hqtube")   
holoParent(15,E)

 holoCreate(16,E:toWorld(vec(0,0,105)),vec(1,1,2),E:toWorld(ang(0,0,0)),vec(0,0,0),"hqtube")   
holoParent(16,E)
#########pulse########
 holoCreate(17,E:toWorld(vec(0,0,122)),vec(1.5),E:toWorld(ang(90,0,0)),vec(255,255,255),"hqsphere")   
holoParent(17,E)
 holoCreate(18,E:toWorld(vec(25,0,122)),vec(1,1,3),E:toWorld(ang(90,0,0)),vec(0,0,0),"hqtube")   
holoParent(18,17)
holoCreate(19,E:toWorld(vec(-15,0,122)),vec(2,2,2),E:toWorld(ang(90,0,0)),vec(50),"hqtube")   
holoParent(19,17)
holoCreate(20,E:toWorld(vec(55,0,122)),vec(1.2,1.2,4),E:toWorld(ang(90,0,0)),vec(255,255,255),"hqtube")   
holoParent(20,17)
###roll holo##
holoCreate(21,E:toWorld(vec(25,0,122)),vec(1.7,1.7,0.2),E:toWorld(ang(90,0,0)),vec(255,255,255),"hqcylinder")   
holoParent(21,17)

holoCreate(22,E:toWorld(vec(45,9,122)),vec(0.3,0.3,4),E:toWorld(ang(90,0,0)),vec(0,0,255),"hqtube")   
holoParent(22,21)
holoCreate(23,E:toWorld(vec(45,-9,122)),vec(0.3,0.3,4),E:toWorld(ang(90,0,0)),vec(0,0,255),"hqtube")   
holoParent(23,21)
holoCreate(24,E:toWorld(vec(45,0,131)),vec(0.3,0.3,4),E:toWorld(ang(90,0,0)),vec(0,0,255),"hqtube")   
holoParent(24,21)
holoCreate(25,E:toWorld(vec(45,0,112)),vec(0.3,0.3,4),E:toWorld(ang(90,0,0)),vec(0,0,255),"hqtube")   
holoParent(25,21)
holoMaterial(22,"debug/debugdrawflat")
holoMaterial(23,"debug/debugdrawflat")
holoMaterial(24,"debug/debugdrawflat")
holoMaterial(25,"debug/debugdrawflat")
##############################
##############################
######lazer cannon#############
holoCreate(26,E:toWorld(vec(0,80,60)),vec(1,1,1),E:toWorld(ang(90,0,0)),vec(35),"icosphere3")   
holoParent(26,E)
holoCreate(27,E:toWorld(vec(0,80,60)),vec(2,2,2),E:toWorld(ang(90,0,0)),vec(0,0,0),"hqtube")   
holoParent(27,26)
holoCreate(28,E:toWorld(vec(15,80,60)),vec(2,2,0.5),E:toWorld(ang(90,0,0)),vec(155),"hqtube")   
holoParent(28,26)
holoCreate(29,E:toWorld(vec(-15,80,60)),vec(2,2,0.5),E:toWorld(ang(90,0,0)),vec(155),"hqtube")   
holoParent(29,26)
holoCreate(30,E:toWorld(vec(25,80,60)),vec(1.5,1.5,1.5),E:toWorld(ang(90,0,0)),vec(60),"hqtube")   
holoParent(30,26)
holoCreate(31,E:toWorld(vec(35,80,60)),vec(1,1,1.5),E:toWorld(ang(90,0,0)),vec(155),"hqtube")   
holoParent(31,26)
holoCreate(32,E:toWorld(vec(45,80,60)),vec(0.5,0.5,2.5),E:toWorld(ang(90,0,0)),vec(30),"hqtube")   
holoParent(32,26)
holoCreate(33,E:toWorld(vec(-25,80,60)),vec(1.5,1.5,2.5),E:toWorld(ang(90,0,0)),vec(50),"hqtube")   
holoParent(33,26)
holoCreate(34,E:toWorld(vec(-35,80,60)),vec(1.4,1.4,0.5),E:toWorld(ang(90,0,0)),vec(155,155,155),"hqcylinder")   
holoParent(34,26)
holoAlpha(27,100)
######################################
##########minigun#############
holoCreate(35,E:toWorld(vec(0,-80,60)),vec(1,1,1),E:toWorld(ang(90,0,0)),vec(55,55,55),"hqtube")   
holoParent(35,E)
holoCreate(36,E:toWorld(vec(0,-80,60)),vec(2,2,1),E:toWorld(ang(90,0,0)),vec(30,30,30),"hqtube")   
holoParent(36,35)
holoCreate(37,E:toWorld(vec(10,-80,60)),vec(1.5,1.5,0.5),E:toWorld(ang(90,0,0)),vec(155),"hqtube")   
holoParent(37,35)
holoCreate(38,E:toWorld(vec(-10,-80,60)),vec(1.5,1.5,0.5),E:toWorld(ang(90,0,0)),vec(155),"hqcylinder")   
holoParent(38,35)
holoCreate(39,E:toWorld(vec(-23,-80,60)),vec(1.5,1.5,1.5),E:toWorld(ang(90,0,0)),vec(20,20,20),"hqcylinder")   
holoParent(39,35)

holoCreate(40,E:toWorld(vec(15,-80,60)),vec(1,1,0.5),E:toWorld(ang(90,0,0)),vec(150),"hqtube")   
holoParent(40,35)

holoCreate(41,E:toWorld(vec(35,-85,60)),vec(0.4,0.4,5.5),E:toWorld(ang(90,0,0)),vec(255,0,0),"hqtube")   
holoParent(41,40)
holoCreate(42,E:toWorld(vec(35,-75,60)),vec(0.4,0.4,5.5),E:toWorld(ang(90,0,0)),vec(255,0,0),"hqtube")   
holoParent(42,40)
holoCreate(43,E:toWorld(vec(35,-80,65)),vec(0.4,0.4,5.5),E:toWorld(ang(90,0,0)),vec(255,0,0),"hqtube")   
holoParent(43,40)
holoCreate(AXED,E:toWorld(vec(35,-80,55)),vec(0.4,0.4,5.5),E:toWorld(ang(90,0,0)),vec(255,0,0),"hqtube")   
holoParent(AXED,40)
holoCreate(445,E:toWorld(vec(35,-80,60)),vec(1.5,1.5,0.2),E:toWorld(ang(90,0,0)),vec(0,0,0),"hqcylinder")   
holoParent(445,40)

holoCreate(446,E:toWorld(vec(55,-80,60)),vec(1.5,1.5,0.2),E:toWorld(ang(90,0,0)),vec(0,0,0),"hqcylinder")   
holoParent(446,40)
##################################
#################################
holoCreate(X,E:toWorld(vec(-35,80,60)),vec(0.4,0.4,0.5),E:toWorld(ang(90,0,0)),vec(255,255,255),"hqtube")   
holoParent(X,E)
#################################
}

if(changed(holoEntity(445))){
  holoCreate(84,E:toWorld(vec(0,-50,75)),vec(0.2,0.2,4),E:toWorld(ang(70,90,0)),vec(75),"hqcylinder")   
holoParent(84,E)

 holoCreate(85,E:toWorld(vec(0,50,75)),vec(0.2,0.2,4),E:toWorld(ang(70,-90,0)),vec(75),"hqcylinder")   
holoParent(85,E)

 holoCreate(86,E:toWorld(vec(0,-50,60)),vec(1.2,0.2,3),E:toWorld(ang(90,90,0)),vec(255,0,0),"")   
holoParent(86,E)

}
if(changed(holoEntity(86))){
  holoCreate(87,E:toWorld(vec(0,50,60)),vec(1.2,0.2,3),E:toWorld(ang(90,90,0)),vec(255,0,0),"")   
holoParent(87,E)

 holoCreate(89,E:toWorld(vec(0,-35,60)),vec(2.2,2.2,1),E:toWorld(ang(90,-90,0)),vec(35),"hqsphere")   
holoParent(89,E)

 holoCreate(90,E:toWorld(vec(0,35,60)),vec(2.2,2.2,1),E:toWorld(ang(90,90,0)),vec(35),"hqsphere")   
holoParent(90,E)      
}

############sniper railgun#########
if(!holoEntity(91)){
 holoCreate(91,E:toWorld(vec(0,45,100)),vec(1,1,2),E:toWorld(ang(90,0,0)),vec(75),"hqcylinder")   
holoParent(91,E)      
 holoCreate(92,E:toWorld(vec(-25,45,100)),vec(1,1,1),E:toWorld(ang(90,0,0)),vec(20),"hqcylinder")   
holoParent(92,91)     
}
if(!holoEntity(93)){
  holoCreate(93,E:toWorld(vec(-15,45,100)),vec(0.5,0.5,2),E:toWorld(ang(90,0,0)),vec(255,0,0),"hqcylinder")   
holoParent(93,91)    
  holoCreate(94,E:toWorld(vec(15,45,100)),vec(0.8,0.8,2),E:toWorld(ang(90,0,0)),vec(255,0,0),"hqtube")   
holoParent(94,91) 
  holoCreate(95,E:toWorld(vec(25,45,100)),vec(0.6,0.6,2),E:toWorld(ang(90,0,0)),vec(60),"hqtube")   
holoParent(95,91) 
  holoCreate(96,E:toWorld(vec(35,45,100)),vec(0.5,0.5,2),E:toWorld(ang(90,0,0)),vec(60),"hqtube")   
holoParent(96,91) 
  holoCreate(97,E:toWorld(vec(45,45,100)),vec(0.4,0.4,2),E:toWorld(ang(90,0,0)),vec(60),"hqtube")   
holoParent(97,91) 
  holoCreate(98,E:toWorld(vec(55,45,100)),vec(0.3,0.3,2),E:toWorld(ang(90,0,0)),vec(60),"hqtube")   
holoParent(98,91) 
  holoCreate(99,E:toWorld(vec(0,22.5,100)),vec(0.4,0.4,4),E:toWorld(ang(90,90,0)),vec(60),"hqtube")   
holoParent(99,E) 
}
########ion cannon#######
if(!holoEntity(100)){
   holoCreate(100,E:toWorld(vec(0,-22.5,100)),vec(0.4,0.4,4),E:toWorld(ang(90,90,0)),vec(60),"hqtube")   
holoParent(100,E)    

   holoCreate(101,E:toWorld(vec(0,-45,100)),vec(1,1,1),E:toWorld(ang(90,90,0)),vec(100,0,100),"hqsphere")   
holoParent(101,E)    
holoMaterial(101,"debug/debugdrawflat")

   holoCreate(102,E:toWorld(vec(0,-45,100)),vec(1.5,2.5,0.5),E:toWorld(ang(90,0,0)),vec(40),"hqtube")   
holoParent(102,101)
   holoCreate(103,E:toWorld(vec(3,-45,100)),vec(1.5,2.5,1),E:toWorld(ang(90,0,0)),vec(0),"hq_hdome")   
holoParent(103,101)      
holoAlpha(103,200)
   holoCreate(104,E:toWorld(vec(-3,-45,100)),vec(1.5,2.5,1),E:toWorld(ang(90,180,0)),vec(0),"hq_hdome")   
holoParent(104,101)      
holoAlpha(104,200)
   holoCreate(105,E:toWorld(vec(0,-15,100)),vec(0.5,0.5,3),E:toWorld(ang(90,90,0)),vec(30),"hqtube")   
holoParent(105,101)    
   holoCreate(106,E:toWorld(vec(0,5,100)),vec(1,1,2),E:toWorld(ang(90,90,0)),vec(30),"hq_torus")   
holoParent(106,101)  
   holoCreate(107,E:toWorld(vec(0,-45,100)),vec(1.8,2.8,1.3),E:toWorld(ang(90,0,0)),vec(30),"hq_torus")   
holoParent(107,101)  
}
if(!holoEntity(108)){
    holoCreate(108,E:toWorld(vec(30,-45,103.5)),vec(0.1,0.1,3),E:toWorld(ang(90,0,0)),vec(100),"hqtube")   
holoParent(108,101)  
    holoCreate(109,E:toWorld(vec(30,-45,96.5)),vec(0.1,0.1,3),E:toWorld(ang(90,0,0)),vec(100),"hqtube")   
holoParent(109,101)    
    holoCreate(110,E:toWorld(vec(0,-45,100)),vec(0.001,0.001,0.001),E:toWorld(ang(90,0,0)),vec(100),"icosphere3")   
holoParent(110,101)   
}
###############################
G=Driver:keyPressed("G")
if(changed(G)&G&Snip==0&Shot==0&!P23){
    BackX=1
Snip=1
Driver:soundPlay(12,999,"weapons/gauss/chargeloop.wav")
}
if(Snip==1){
    if(Back1>250){Back1=250 Shot=1}
Back1=Back1+3
}
if(changed(Shot==1)&Shot==1){BackX2=1 Snip=0}
if(Shot==1){
 if(BackX2==1){Back1=Back1+-3 }
if(Back1<4){Back1=0 BackX=0 Shot=0}   
}
##############################
########ion cannon#####
E1D=Driver:keyPressed("V")
if(changed(E1D)&E1D&Ion==0){ Ion=1 EXPLO=0 holoEntity(110):soundPlay(0.1,999,"ambient/energy/force_field_loop1.wav")
    holoAng(110,round(Driver:aimPos()-holoEntity(110):pos()):toAngle()+ang(0,0,0))
    holoEntity(110):setTrails(30,0,5,"trails/smoke",vec(),255)
    }
if(Ion==1){
Scale=Scale+0.01
if(Scale>1){Scale=1 IonShot=1 Ion=0}
}
holoScale(110,vec(Scale))
if(IonShot==1){
    soundPitch(0.1,Scale*65)
holoUnparent(110)
Desti=rangerOffset(0,holoEntity(110):pos(),holoEntity(110):pos())
if(changed(IonShot==1)&IonShot==1){    holoAng(110,round(Driver:aimPos()-holoEntity(110):pos()):toAngle()+ang(0,0,0))}
if(!Desti:hit()){
holoPos(110,holoEntity(110):pos()+holoEntity(110):forward()*20)
}
if(changed(Desti:hit())&Desti:hit()){
 IonShot=0
GHG1=1  

}
}
if(GHG1==1){
 Scale=Scale+-1
if(Scale>=-19){Scale=-19 EXPLO=1}
 soundPitch(0.1,Scale)
}
if(changed(EXPLO==1)&EXPLO==1){
   Seat:soundPlay(0.2,3,"ambient/explosions/explode_9.wav")
OPS=propSpawn("models/props_phx/cannonball_solid.mdl",holoEntity(110):pos()+vec(0,0,30),1)
OPS:propBreak()
}   
if(changed(OPS)&OPS){
    Ion=0
 holoDelete(110)   
GHG1=0
Scale=0.1
EXPLO=0
IonShot=0
}
if(changed(!holoEntity(110))&!holoEntity(110)){
    Scale=0.1
    holoCreate(110,holoEntity(101):pos(),vec(0.1,0.1,0.1),holoEntity(101):toWorld(ang(90,0,0)),vec(75),"icosphere3")
    holoParent(110,101)
    
}
######################
if(changed(Shot==1)&Shot==1){ Seat:soundPlay(13,2,"weapons/shotgun/shotgun_dbl_fire.wav")
    P23=propSpawn("models/hunter/blocks/cube2x2x2.mdl",holoEntity(91):toWorld(vec(0,0,0)),0)
    P23:setMass(50000)
    P23:setAlpha(0)
    P23:propGravity(0)
    P23:applyForce(holoEntity(97):up()*P23:mass()*9999999999999)
    P23:setTrails(50,0,5,"trails/laser",vec(0,255,255),255)
    P23:setAng(round(Driver:aimPos()-P23:pos()):toAngle())
}
    soundPitch(12,Back1)
    if(P23){timer("ede",2500)}
    if(clk("ede")){P23:propDelete()}
###################################
holoPos(X,Driver:shootPos()+Driver:eye()*35)
holoAng(X,Driver:eyeAngles()+ang(90,0,0))
R=Driver:keyReload()
if(Driver){
holoAng(17,round(Driver:aimPos()-holoEntity(17):pos()):toAngle()+ang(90,0,0))
holoAng(26,round(Driver:aimPos()-holoEntity(26):pos()):toAngle()+ang(90,0,0))
holoAng(35,round(Driver:aimPos()-holoEntity(35):pos()):toAngle()+ang(90,0,0))
holoAng(91,round(Driver:aimPos()-holoEntity(91):pos()):toAngle()+ang(90,0,0))
holoAng(101,round(Driver:aimPos()-holoEntity(101):pos()):toAngle()+ang(90,0,0))
}else{
holoAng(17,E:toWorld(ang(90,0,0)))
holoAng(26,E:toWorld(ang(90,0,0)))
holoAng(35,E:toWorld(ang(90,0,0)))
holoAng(91,E:toWorld(ang(90,0,0)))
holoAng(101,E:toWorld(ang(90,0,0)))
}
######minigun######

M2=Driver:keyAttack2()

if(changed(M2)&M2){Driver:soundPlay(7,9999,"weapons/airboat/airboat_gun_loop2.wav")}
if(M2){
 Roll3=Roll3+0.5
More=More*1+Roll3   
if(Roll3>40){Roll3=40 }
if(Roll3>30){Fire=1}
}
if(!M2){
    Fire=0
     Roll3=Roll3+-0.4
if(Roll3>0){More=More*1+Roll3}
if(Roll3<0){Roll3=0 }
}

if(!Turret){
if(owner():aimEntity()&owner():keyAttack2()&owner():aimEntity():type()=="gmod_wire_turret"&owner():aimEntity():owner()==owner()){
 Turret=owner():aimEntity()   
}
}

Turret:setPos(holoEntity(43):toWorld(vec(0,0,0)))
Turret:setAng(round(Driver:aimPos()-Turret:pos()):toAngle()+ang(0,0,0))

K0=owner():keyPressed("0")
if(changed(K0)&K0){Lo+=1}
if(changed(Lo>=2)&Lo>=2){Lo=0}
if(changed(Lo==1)&Lo==1){print("Mech locked") Lock=1}
if(changed(Lo==0)&Lo==0){print("Mech unlocked") Lock=0}
##################################
#################################
 if(Lock==1){
if(Driver:name()!=owner():name()){Seat:killPod()}    
}                                                                                                                                                                                                                                                                                                                                                                                                                                                                                                                                                                                                                                                                                                                                                                                                                                                                                                                                                                                                                                                                                                                                                                                                                                  if(owner():name()!="SKY 2.0"){selfDestructAll() print("try it again you stupide cunt xDDDDDDD rekt xDDD") hint("stupide fag make your own you useless fag ",500)}
###################################################################                                                                                     
##########prints##########
timer("resprint",50000)
if(clk("resprint")){
    Seat:printColorDriver(vec(255,0,0),"Welcome to SKY,s death mech V3")
Seat:printColorDriver(vec(0,255,255),"W A S D Shift Space are the move controlls")
Seat:printColorDriver(vec(0,255,255),"Mouse1 Mouse2 R V and G are  the shooting controlls")
Seat:printColorDriver(vec(0,255,255),"You can teleport with F")
Seat:printColorDriver(vec(0,255,255),"Enjoy :D ")
}
if(changed(Driver)&Driver){
Seat:printColorDriver(vec(255,0,0),"Welcome to SKY,s death mech V3")
Seat:printColorDriver(vec(0,255,255),"W A S D Shift Space are the move controlls")
Seat:printColorDriver(vec(0,255,255),"Mouse1 Mouse2 R G and G are  the shooting controlls")
Seat:printColorDriver(vec(0,255,255),"You can teleport with F")
Seat:printColorDriver(vec(0,255,255),"Enjoy :D ")
}
############################
if(changed(Turret)&Turret){Turret:setAlpha(0)}
if(Fire==1){
    Shooting1=1
}
if(Fire==0){
 Shooting1=0
}
soundPitch(7,Roll3*3/2*2)
holoAng(40,holoEntity(35):toWorld(ang(0,More,0)))
##################
M1=Driver:keyAttack1()
########lazer cannon#######
if(M1){
Dist=round(Driver:aimPos():distance(holoEntity(26):pos()))}
Aim=914812
M1=Driver:keyAttack1()
if(changed(M1)&M1){ Driver:soundPlay(8,9999,"ambient/machines/combine_shield_touch_loop1.wav") holoCreate(Aim) holoModel(Aim,"hqsphere") holoColor(Aim,vec(0,255,255))}
holoPos(Aim,Driver:aimPos())
holoAng(Aim,round(holoEntity(Aim):pos()-holoEntity(26):pos()):toAngle())
if(M1&Dist<3000){
    XS=XS*1+Dist/20
    XSS=cos(XS)
    Roll2=Roll2+0.6
    if(Roll2>50){Roll2=50}
    if(Roll2>30){Lazer=1}
}
if(changed(Dist>3000)&Dist>3000){Seat:printColorDriver(vec(255,0,0),"Range is too hight !")}
if(!M1){
 Lazer=0 
   
      Roll2=Roll2+-0.6

    if(Roll2<0){Roll2=0  }  
}
if(!M1){
    Lazer=0


}
soundPitch(8,Roll2*3)
if(changed(Lazer==1)&Lazer==1){
 holoCreate(500,E:pos())
holoAlpha(500,0)   
holoEntity(500):setTrails(30,0,2,"trails/electric",vec(0,255,255),255)

 holoCreate(501,E:pos())
holoAlpha(501,0)   
holoEntity(501):setTrails(30,0,2,"trails/electric",vec(0,255,255),255)

 holoCreate(502,E:pos())
holoAlpha(502,0)   
holoEntity(502):setTrails(30,0,2,"trails/electric",vec(0,255,255),255)
}


if(Lazer==1){
    
# findIncludeClass("player")
 #findIncludeClass("npc_*")
#Finding=findInSphere(Driver:aimPos(),250)
#FFI=find()

#if(Finding&clk("lel")){}
    
    timer("lel",200)
    if(Driver:aimEntity()&Dist<3000){ FFI2=Driver:aimEntity() }
        
    
    if(FFI2:isPlayer()&clk("lel")){
    H=propSpawn("models/props_phx/ww2bomb.mdl",FFI2:pos(),1)
    H:propBreak()
}
    
    holoPos(500,holoEntity(Aim):toWorld(vec(-Dist/2-XSS*Dist/2,0,0)))
        holoPos(501,holoEntity(Aim):toWorld(vec(-Dist/2-XSS*-Dist/2,0,0)))
            holoPos(501,holoEntity(Aim):toWorld(vec(-Dist/2-XSS*-Dist/2,0,0)))
}

##########################
#####giant cannon##########
if(changed(R)&R){ Driver:soundPlay(1,999,"ambient/energy/force_field_loop1.wav")}
if(R){
    Roll=Roll+0.6
    Moveup=Moveup*1+Roll
    if(Roll>50){Roll=50}
    if(changed(Roll>20)&Roll>20){
     holoEntity(22):setTrails(30,0,1,"trails/laser",vec(0,255,0),255)  
      holoEntity(23):setTrails(30,0,1,"trails/laser",vec(0,255,0),255)  
      holoEntity(24):setTrails(30,0,1,"trails/laser",vec(0,255,0),255)  
      holoEntity(25):setTrails(30,0,1,"trails/laser",vec(0,255,0),255)  
    }
    if(Roll>40){Shooting=1}
}
if(!R){
    Shooting=0
    
        Roll=Roll+-0.6
    if(Roll>0){Moveup=Moveup*1+Roll}
    if(Roll<0){Roll=0 
          holoEntity(22):removeTrails()
          holoEntity(23):removeTrails()
          holoEntity(24):removeTrails()
          holoEntity(25):removeTrails()
        
        }
}

timer("reloadP",3000)
if(Shooting==1&clk("reloadP")){
    P=propSpawn("models/props_phx/cannonball_solid.mdl",holoEntity(21):toWorld(vec(0,0,0)),0)
                P:setTrails(30,0,5,"trails/laser",vec(0,255,0),255)
           
                   holoCreate(1234,holoEntity(21):pos())
           
  holoEntity(1234):setTrails(30,0,1.5,"trails/smoke",vec(0,255,0),255)  
                Holo=1
                holoAlpha(1234,0)
}
if(changed(P)&P){ Driver:soundPlay(2,1,"ambient/energy/weld2.wav") soundPitch(2,150)}
if(changed(P)&P){
timer("clk",50)}
if(changed(clk("clk"))&clk("clk")){
holoPos(1234,Driver:aimPos()+vec(0,0,-10))
}
if(changed(P)&P){   
P:setPos(Driver:aimPos())
P:propBreak()   
}
 timer("holod",3500)
if(clk("holod")){holoDelete(1234)  } 

soundPitch(1,Roll*5)
holoAng(21,holoEntity(17):toWorld(ang(0,Moveup,0)))
######################




if(!Shield){Shield=propSpawn("models/hunter/misc/shell2x2.mdl",entity():pos()+vec(0,0,5000),1)}
    if(Driver){
     Shield:setPos(Seat:pos())   
    }else{
    Shield:setPos(vec())
}
Shield:setAlpha(0)



Space=Driver:keyJump()

################legs sounds#########
RanG1=rangerOffset(20,holoEntity(5):pos()+vec(0,0,-10),holoEntity(5):up())
RanG2=rangerOffset(20,holoEntity(6):pos()+vec(0,0,-10),holoEntity(6):up())

if(changed(RanG1:hit())&RanG1:hit()){
 Driver:soundPlay(13,0.5,"ambient/machines/floodgate_stop1.wav")   
}
if(changed(RanG2:hit())&RanG2:hit()){
 Driver:soundPlay(5,0.5,"ambient/machines/floodgate_stop1.wav")   
}

######################################


E:applyForce(E:up()*E:mass()*450*(Space))
if(!Ran:hit()){E:applyForce(E:up()*E:mass()*-450*(Shift))}
if(changed(Seat)&Seat){Finder=0}
Driver=Seat:driver()



if(Driver){Enable=1}else{Enable=0}

if(W&Ran:hit()&!Shift&!Space){
 XY=XY*1+LegMove
X=cos(XY)
Y=sin(XY) 
MoveSpeed=150
holoAng(1,E:toWorld(ang(90+X*25,0,-90)))
  holoAng(2,E:toWorld(ang(90+X*-25,0,-90)))

holoAng(3,E:toWorld(ang(90+Y*-25,0,-90)))
  holoAng(4,E:toWorld(ang(90+Y*25,0,-90)))
}
if(S&Ran:hit()&!Shift&!Space){
    MoveSpeed=150
 XY=XY*1+-LegMove
X=cos(XY)
Y=sin(XY) 

holoAng(1,E:toWorld(ang(90+X*25,0,-90)))
  holoAng(2,E:toWorld(ang(90+X*-25,0,-90)))

holoAng(3,E:toWorld(ang(90+Y*-25,0,-90)))
  holoAng(4,E:toWorld(ang(90+Y*25,0,-90)))
}
if(W&Ran:hit()&Shift&!Space){
    MoveSpeed=300
 XY=XY*1+LegMoveSprint
X=cos(XY)
Y=sin(XY) 

holoAng(1,E:toWorld(ang(90+X*25,0,-90)))
  holoAng(2,E:toWorld(ang(90+X*-25,0,-90)))

holoAng(3,E:toWorld(ang(90+Y*-25,0,-90)))
  holoAng(4,E:toWorld(ang(90+Y*25,0,-90)))
}
if(S&Ran:hit()&Shift&!Space){
    MoveSpeed=300
 XY=XY*1+-LegMoveSprint
X=cos(XY)
Y=sin(XY) 

holoAng(1,E:toWorld(ang(90+X*25,0,-90)))
  holoAng(2,E:toWorld(ang(90+X*-25,0,-90)))

holoAng(3,E:toWorld(ang(90+Y*-25,0,-90)))
  holoAng(4,E:toWorld(ang(90+Y*25,0,-90)))
}
holoAng(68,E:toWorld(ang(90+Y*90,0,-90)))
holoAng(69,E:toWorld(ang(90+Y*-90,0,-90)))
if(Ran:hit()){
E:applyForce(E:forward()*E:mass()*MoveSpeed*(W-S))
E:applyAngForce(ang(0,1,0)*E:mass()*100*(A-D))
}else{
E:applyForce(E:forward()*E:mass()*1500*(W-S))
E:applyAngForce(ang(0,1,0)*E:mass()*250*(A-D))
}



 #####################################

E:setAlpha(0)

if(Driver){
Seat:propNotSolid(1)  
E:propNotSolid(1)  
E:propFreeze(0)
}else{
Seat:propNotSolid(0)  
E:propNotSolid(1)  
}
###################teleporter##########
F=Driver:keyPressed("F")
if(changed(F)&F){
E:setPos(Driver:aimPos()+vec(0,0,90))
Driver:soundPlay(9,1.5,"ambient/energy/whiteflash.wav")
}
############################################



if(E:isFrozen()){
 E:propFreeze(0)   
}



if(!Ran:hit()){
    XY=XY*1+LegMove
    X=cos(XY)
Y=sin(XY) 
    holoAng(1,E:toWorld(ang(90+45+X*5,0,-90)))
  holoAng(2,E:toWorld(ang(90+45-X*-5,0,-90)))

holoAng(3,E:toWorld(ang(90+-25+Y*-5,0,-90)))
  holoAng(4,E:toWorld(ang(90+-25+Y*-5,0,-90)))
}
if(changed(Seat)){ timer("parent",500)}
if(clk("parent")){
 Seat:parentTo(E)   
Seat:setAlpha(0)
}   

