@name Soldier core
@inputs CAM:entity
@outputs 
@persist O:entity T  Target:entity  ON Pro:entity ONE
@persist Players:array  C  Bad B:entity 
@persist Find:entity Finds:array  I       JUMPPOWER  HP   SPEED ON1 ON2 TRO
@trigger all
@model models/props_combine/combine_mine01.mdl

JUMPPOWER = 1000
HP        = 1000
SPEED     = 1000






function number check(Arr:array,Check:string) {
local Found = -1
    foreach(K,V:string=Arr) {
        if(Check == V) {
            Found = 1
            break
        }else{
            Found = 0
       }
    }
return Found
}


function entity fixed_findPlayerByName(S:string){#By Mister Bean for a Soldier, findPlayerByName function is broken
    for(I=1,players():count()){
        if(players():entity(I):name():find(S)){
            return players():entity(I)
            break
        }
    }
}

if(first()){
    TRO = 0
    if(owner():health() >= 900){
    ON1 = 1
}
C = 0
Bad = 0
#owner():setTrails(100,100,1000,"trails/smoke",vec(0,30,100),300,1,1) 
O = entity()

}

runOnTick(1)

runOnChat(1)




if(owner():health()<=  100){
  owner():plySetHealth(100)
}

 





#############Special thanks to#############
#               
# Linus - for many help including functions
#
# SKY - for not banning me during tests :D
#
# Mister bean - function and fixing errors
#
#
#
###########################################


if(TRO == 1){

B = findPlayerByName("assaltpl")

if( !B:isAlive() ){

local Pos = B:pos()    
local Ang = B:eyeAngles()  
 B:plySpawn()   
 B:plySetPos(owner():pos() + vec(0,0,100))
}

}



if( !O:isAlive() ){

local Pos = O:pos()    
local Ang = O:eyeAngles()  
 O:plySpawn()   
 O:plySetPos(owner():pos()+ vec(0,0,150))
}

  if(owner():lastSaid() == "!take"){
    O:plySetGravity(0)
    O:plySetMass(0)
    C=1
}





 if(owner():lastSaid() == "!nograv"){
   ON = 1
}

if(owner():lastSaid() == "!grav"){
   ON = 0
}


if(owner():lastSaid() == "!moon"){
   ON = 2
}

if(owner():lastSaid() == "!heal"){
  
   O:plySetHealth(100)
}
if(owner():lastSaid() == "!powerup"){
  ON2 = 1

 
}
if(owner():lastSaid() == "!powerdown"){
ON2 = 0
 
}

if(owner():lastSaid() == "!selfpowerdown"){
  ON1 = 0
 
}
if(owner():lastSaid() == "!selfpowerup"){
  

ON1 = 1
}


if(owner():lastSaid() == "!selfmoon"){
 owner():plySetGravity(100)
}
if(owner():lastSaid() == "!selfgrav"){
 owner():plySetGravity(600)
}

 if(owner():lastSaid() == "!leave"){
    O:plySetGravity(600)
    O:plySetMass(83)
    C=0
}
if(C==1){
    if(Bad == 0){
        
 O:plySetPos(owner():pos()+ vec(0,0,150))
}
}

Split = owner():lastSaid():explode(" ")
if(chatClk(owner()) & Split[1,string] == "!Choose"){
O = fixed_findPlayerByName(Split[2,string])
print("choosing: "+Split[2,string])
print("test: " + O:name())

}






Filter = array("SKY","Linus","Soldier[Rtf2]")


if(check(Filter,Split[2,string]) == 1){if(Bad == 0){Bad = 1}}
    if(Bad == 1){
    selfDestruct()}






if(ON == 1){
O:plySetGravity(0)
}else{
O:plySetGravity(600)
}


if(ON == 2){
O:plySetGravity(100)
}



if(ON1 == 1){
    if(owner():health()<=  HP){
  owner():plySetHealth(1001)
}
 
 owner():plySetJumpPower(JUMPPOWER)
   owner():plySetHealth(HP)
   owner():plySetSpeed(SPEED)


if(owner():keyPressed("LShift")){
    owner():plySetJumpPower(4000)
    
   

}else{

owner():plySetJumpPower(JUMPPOWER)

}

 Trail = 1

}else{
Trail = 0
 owner():plySetJumpPower(200)
   owner():plySetHealth(100)
   owner():plySetSpeed(200)
    
}






if(ON2 == 1){
    if(O:health()<=  HP){
  O:plySetHealth(1001)
}
 
 O:plySetJumpPower(JUMPPOWER)
   O:plySetHealth(HP)
   O:plySetSpeed(SPEED)


}else{
 O:plySetJumpPower(200)
   O:plySetHealth(100)
   O:plySetSpeed(200)
   
}
if(changed(Trail)&Trail){owner():setTrails(100,100,1,"trails/smoke",vec(0,30,100),300,100,1)}





