@name Wallhack
@inputs Egp:wirelink
@outputs 
@persist 
@trigger 

runOnTick(1)
for(P=1,players():count()){
    Ply=players()[P,entity]
    Egp:egp3DTracker(P+100,Ply:pos())
    Egp:egpText(P+15,P+" "+Ply:name(),vec2(20,0))
    Egp:egpBoxOutline(P+20,vec2(),vec2(20,30))
    Egp:egpParent(P+20,P+100)
        Egp:egpParent(P+15,P+100)
        if(Ply:isAlive()){
            Egp:egpColor(P+15,vec(0,255,0))
                  Egp:egpColor(P+20,vec(0,255,0))
        }else{
             Egp:egpColor(P+15,vec(255,0,0))
                  Egp:egpColor(P+20,vec(255,0,0))
    }
}
