@name Wave-Grid
@persist Scale:vector Modus:string
@persist X Y H Counter Time
@persist Interval
if(first()) {
runOnTick(1)
Interval = 0.01
Time = realtime() + Interval
Scale = vec(0.06,0.06,0.06)
H=1
Modus="Spawnen"
}
if(Modus=="Spawnen") {

if(X<=9&&holoCanCreate()) {
holoCreate(H,entity():pos()+vec(20,0,5)+vec(Y,X,0),Scale,ang(),vec(255,255,255))
X++
H++
}
else{
X=0
Y++
H++
}
if(H==100) {
Modus="Run"
timer("Timer",1)
}
}

if (Time == realtime() || Time <realtime()) {
Time = realtime() + Interval
Counter+=1
}

if(Modus=="Run"&&clk("Timer")) {
timer("Timer",1)
print("Ticked")
    for(I=1,100) {
#            local Z = entity():pos():z()+ sin(I+Counter)*10
#            holoPos((J),holoEntity(I):pos():setZ(Z))
            print(I)
    }

}
