@name hologramholkins
@model models/sprops/cuboids/height06/size_1/cube_6x96x6.mdl
@persist [P2H_Mod P2H_Col P2H_Mat P2H_Pos P2H_Ang]:array P2H_Int P2H_Offset
if(first())
{
   P2H_Int = 1
   P2H_Offset = 0
   runOnTick(1)
   timer("P2H_CreateHolo",350)
   P2H_Mod = array("models/sprops/geometry/fdisc_12.mdl","models/sprops/geometry/fdisc_18.mdl","models/sprops/cuboids/height48/size_1/cube_48x96x48.mdl","models/sprops/prisms/tri/size_3/tprism_12x48.mdl","models/sprops/cuboids/height12/size_1/cube_12x96x12.mdl","models/sprops/prisms/tri/size_3/tprism_12x12.mdl","models/sprops/cuboids/height12/size_1/cube_12x36x12.mdl","models/sprops/prisms/tri/size_3/tprism_12x12.mdl","models/sprops/cuboids/height12/size_2/cube_24x48x12.mdl","models/sprops/prisms/tri/size_3/tprism_12x12.mdl","models/sprops/prisms/tri/size_3/tprism_12x12.mdl","models/sprops/cuboids/height12/size_1/cube_12x12x12.mdl","models/sprops/prisms/tri/size_3/tprism_12x12.mdl","models/sprops/cuboids/height12/size_1/cube_12x12x12.mdl","models/sprops/prisms/tri/size_2/tprism_6x72.mdl","models/sprops/prisms/tri/size_2/tprism_6x72.mdl","models/sprops/cuboids/height06/size_2/cube_12x72x6.mdl","models/sprops/prisms/tri/size_2/tprism_6x72.mdl","models/sprops/cuboids/height06/size_2/cube_12x72x6.mdl","models/sprops/misc/tubes_thin/size_2/t_tube_24x84.mdl","models/sprops/misc/tubes_thin/size_1/t_tube_12x144.mdl","models/sprops/geometry/t_fdisc_24.mdl","models/props_phx/misc/potato_launcher_chamber.mdl","models/sprops/cuboids/height06/size_2/cube_12x72x6.mdl","models/sprops/prisms/tri/size_2/tprism_6x72.mdl","models/sprops/prisms/tri/size_2/tprism_6x72.mdl","models/sprops/cuboids/height24/size_1/cube_24x84x24.mdl","models/sprops/cuboids/height06/size_2/cube_12x72x6.mdl","models/sprops/prisms/tri/size_2/tprism_6x72.mdl","models/sprops/prisms/tri/size_2/tprism_6x72.mdl","models/sprops/prisms/tri/size_2/tprism_6x72.mdl","models/sprops/prisms/tri/size_3/tprism_12x12.mdl","models/sprops/prisms/tri/size_3/tprism_12x12.mdl","models/sprops/cuboids/height12/size_1/cube_12x12x12.mdl","models/sprops/prisms/tri/size_3/tprism_12x12.mdl","models/sprops/prisms/tri/size_3/tprism_12x12.mdl","models/sprops/cuboids/height12/size_1/cube_12x12x12.mdl","models/sprops/prisms/tri/size_3/tprism_12x12.mdl","models/sprops/prisms/tri/size_3/tprism_12x12.mdl","models/sprops/prisms/tri/size_3/tprism_12x48.mdl")
   P2H_Col = array(vec4(72,72,72,255),vec4(80,93,67,255),vec4(80,93,67,255),vec4(80,93,67,255),vec4(72,72,72,255),vec4(72,72,72,255),vec4(72,72,72,255),vec4(72,72,72,255),vec4(80,93,67,255),vec4(145,145,145,255),vec4(72,72,72,255),vec4(145,145,145,255),vec4(145,145,145,255),vec4(145,145,145,255),vec4(80,93,67,255),vec4(80,93,67,255),vec4(80,93,67,255),vec4(80,93,67,255),vec4(80,93,67,255),vec4(72,72,72,255),vec4(72,72,72,255),vec4(72,72,72,255),vec4(72,72,72,255),vec4(80,93,67,255),vec4(80,93,67,255),vec4(80,93,67,255),vec4(80,93,67,255),vec4(80,93,67,255),vec4(80,93,67,255),vec4(80,93,67,255),vec4(80,93,67,255),vec4(145,145,145,255),vec4(145,145,145,255),vec4(145,145,145,255),vec4(145,145,145,255),vec4(145,145,145,255),vec4(145,145,145,255),vec4(145,145,145,255),vec4(145,145,145,255),vec4(80,93,67,255))
   P2H_Mat = array("sprops/trans/lights/light_plastic","sprops/trans/lights/light_plastic","sprops/trans/lights/light_plastic","sprops/trans/lights/light_plastic","sprops/trans/lights/light_plastic","sprops/trans/lights/light_plastic","sprops/trans/lights/light_plastic","sprops/trans/lights/light_plastic","sprops/trans/lights/light_plastic","sprops/trans/lights/light_plastic","sprops/trans/lights/light_plastic","sprops/trans/lights/light_plastic","sprops/trans/lights/light_plastic","sprops/trans/lights/light_plastic","sprops/trans/lights/light_plastic","sprops/trans/lights/light_plastic","sprops/trans/lights/light_plastic","sprops/trans/lights/light_plastic","sprops/trans/lights/light_plastic","sprops/trans/lights/light_plastic","sprops/trans/lights/light_plastic","sprops/trans/lights/light_plastic","sprops/trans/lights/light_plastic","sprops/trans/lights/light_plastic","sprops/trans/lights/light_plastic","sprops/trans/lights/light_plastic","sprops/trans/lights/light_plastic","sprops/trans/lights/light_plastic","sprops/trans/lights/light_plastic","sprops/trans/lights/light_plastic","sprops/trans/lights/light_plastic","sprops/trans/lights/light_plastic","sprops/trans/lights/light_plastic","sprops/trans/lights/light_plastic","sprops/trans/lights/light_plastic","sprops/trans/lights/light_plastic","sprops/trans/lights/light_plastic","sprops/trans/lights/light_plastic","sprops/trans/lights/light_plastic","sprops/trans/lights/light_plastic")
   P2H_Pos = array(vec(39.6337890625,-0.018556050956249,0.00213623046875),vec(37.08935546875,-0.018555963411927,0.00213623046875),vec(0.0043949438259006,12.00048828125,-8.9998168945312),vec(18.015134811401,-42.01025390625,-8.9998168945312),vec(-6.5003184042053e-13,0,21.000183105469),vec(0.0043926746584475,-53.99951171875,21.000183105469),vec(0.0043926746584475,-53.99951171875,-2.9998168945312),vec(0.0043926746584475,-53.99951171875,-26.999816894531),vec(0.0043930872343481,-42,-8.9998168945312),vec(12.005373001099,65.9736328125,9.0001831054688),vec(-0.0058575184084475,54,21.000183105469),vec(0.0058616441674531,66.0009765625,9.0001831054688),vec(18.003419876099,66.00341796875,3.0011596679688),vec(18.003419876099,66.0009765625,-8.9998168945312),vec(15.004886627197,108.00048828125,0.00018310546875),vec(9.0043983459473,108.00048828125,5.9992065429688),vec(0.004398244433105,108.00048828125,5.9992065429688),vec(-15.020015716553,107.998046875,0.00018310546875),vec(15.004886627197,108.00048828125,-8.9998168945312),vec(-0.00097045226721093,177.7294921875,-9.0056762695312),vec(0.0014724236680195,220.47998046875,-9.0056762695312),vec(0.0014724236680195,220.47998046875,-9.0056762695312),vec(0.0014748345129192,290.6025390625,-9.0056762695312),vec(-14.996089935303,108.00048828125,-8.9998168945312),vec(-15.015621185303,107.9853515625,-18.002258300781),vec(-8.9946250915527,108.00048828125,-23.999694824219),vec(0.0043980381451547,102.0009765625,-8.9998168945312),vec(0.005374806933105,108.00048828125,-23.999816894531),vec(9.0043983459473,108.00048828125,-23.999816894531),vec(15.004886627197,108.00048828125,-17.999816894531),vec(-8.9956016540527,108.00048828125,5.9992065429688),vec(-17.995603561401,66.0009765625,3.0011596679688),vec(-11.994138717651,66.00244140625,9.0001831054688),vec(-17.995603561401,66.0009765625,-8.9998168945312),vec(-18.020994186401,66.0009765625,-21.025207519531),vec(-11.995115280151,66.0009765625,-26.999816894531),vec(0.0043968004174531,66.0009765625,-26.999816894531),vec(12.005373001099,66,-26.999816894531),vec(18.003419876099,66.00146484375,-20.999816894531),vec(-17.975099563599,-42.00146484375,-8.9959106445312))
   P2H_Ang = array(ang(-5.1014485968892e-09,89.999618530273,-0.00012207030522404),ang(1.0794247372564e-14,89.999809265137,1.5258786334016e-05),ang(-7.778926947033e-10,-89.999618530273,0.00010681151616154),ang(2.4988739255605e-07,0.10169159621,90.000007629395),ang(-5.9862691159651e-06,90.006202697754,1.5258786334016e-05),ang(-5.7325675456577e-11,-90.000267028809,1.7735121097401e-12),ang(89.999946594238,-89.999893188477,0),ang(89.999946594238,-90.001617431641,0),ang(89.999946594238,-90.000045776367,0),ang(-0.00066213094396517,-0.24381969869137,-0.0012207030085847),ang(-1.072590955509e-17,89.999946594238,1.5258786334016e-05),ang(0.00061941653257236,89.98494720459,-0.00051879876991734),ang(-3.3618192674112e-08,-0.0066461670212448,0.00010681151616154),ang(9.6199464678648e-06,90.006858825684,1.5258786334016e-05),ang(1.0676304285084e-10,0.00016113983292598,1.5258788153005e-05),ang(-2.1540930497665e-11,3.371442653588e-05,0.00010681151616154),ang(8.0518353096082e-10,89.999618530273,-179.99975585938),ang(-0.00032054007169791,179.96102905273,-0.00018310546875),ang(-8.2935983414245e-08,90.00072479248,90.000007629395),ang(1.3174193506937e-11,-0.0042437221854925,1.5258788153005e-05),ang(4.9031747550998e-09,0.023744909092784,-0.00012207030522404),ang(0.0012735025957227,0.0073050805367529,179.99989318848),ang(89.999877929688,-90.000373840332,0),ang(4.9079146996478e-11,90.00040435791,90.000007629395),ang(2.2480423922389e-07,179.99989318848,-179.99975585938),ang(89.999946594238,179.99975585938,0),ang(1.6719567353871e-12,89.999877929688,1.5258786334016e-05),ang(-4.8411082389066e-05,90.001251220703,-179.99963378906),ang(89.999946594238,9.7295313025825e-05,0),ang(-3.4725747610764e-08,0.000347556109773,-179.99989318848),ang(3.9940978240338e-06,179.99949645996,1.5258788153005e-05),ang(3.6150290725345e-06,179.99989318848,1.5258788153005e-05),ang(1.1525562726433e-09,179.99884033203,1.5258788153005e-05),ang(3.8032882002881e-05,89.99967956543,0.00010681151616154),ang(-0.24199172854424,-179.99989318848,-179.99989318848),ang(89.999946594238,179.99980163574,0),ang(0.00061063037719578,89.997924804688,-0.00067138666054234),ang(89.998962402344,9.7295313025825e-05,0),ang(89.999946594238,0.00023389907437377,0),ang(2.5497892686133e-10,179.99963378906,-89.999938964844))
}
if(clk("P2H_CreateHolo"))
{
   P2H_TempInt = P2H_Int+P2H_Offset
   holoCreate(P2H_TempInt,entity():toWorld(P2H_Pos[P2H_Int,vector]),vec(1),entity():toWorld(P2H_Ang[P2H_Int,angle]))
   holoColor(P2H_TempInt,P2H_Col[P2H_Int,vector4])
   holoModel(P2H_TempInt,P2H_Mod[P2H_Int,string])
   holoMaterial(P2H_TempInt,P2H_Mat[P2H_Int,string])
   holoParent(P2H_TempInt,entity())
   print("Created holo "+P2H_Int+"/"+P2H_Mod:count())
   if(P2H_Int<P2H_Mod:count())
   {
     P2H_Int++
     timer("P2H_CreateHolo",350)
   }
}
