@name ExoSuit-V1
@inputs Cam:wirelink Egp:wirelink
@outputs 
@persist [FR FL BR BL Norm Locker Cannon Mech Howl]:table  MoveSpeed
@persist RightLeft LegLength1 LegLength2 LegLengthB1 LegLengthB2 LegLengthB3 SpeedVel FrontBack StepVel
@persist MaxHitLength HoverHeight Jump Smode Slide Alpha TailAngle:angle TailArray:array TailScale NeckAngle:angle Come
@persist BombArray:array P:entity P2:entity ShootPower PX:entity LastHolo EgpMode StepSpeed AngSpeed MaxAim StepDelay  
@persist Mode:string
@trigger  
@model models/hunter/blocks/cube05x05x05.mdl
#runOnTick(1)
runOnChat(0)
E = entity()
Driver = Seat:driver()
Ca = 91491941

Angler_1 = 9148135167127524151
Angler_2 = 1236215243333323112

rangerFilter(E)
rangerFilter(Seat)
rangerFilter(players())
rangerFilter(PropLock["Locker",entity])
HoverRan = rangerOffset(LegLength1+LegLength2,E:toWorld(vec(0,0,0)),vec(0,0,-1))

######################
#[-----settings-----]#
if(perf()){
E:setAlpha(0) 
StepDelay = 4 #4 or 5
StepHeight = 2.5
StepSpeed = 0.1  #0.1 or 0.2
StepVel = 4
RunStepSpeed = 1.5

UpSec = 1
ShootPower = 4000 #do not change this it will fuck the artellerie up
Alpha = 0   
RightLeft = 29
LegLength1 = 55
LegLength2 = 55
LegLengthB1 = 35
LegLengthB2 = 30
LegLengthB3 = 35
Add = 5
TailScale=0.15
FrontBack = 50
MaxHitLength = (LegLength2+LegLength1)
HoverHeight = 60
AngSpeed = 5
MaxAim = 1000
}
#[------------------]#
######################
E:propNotSolid(0)

if(first()){
function table:fixIt2(TempV:vector){
   This["Middle.data", vector] = This["StartPos.data", vector] = This["RangerPos",vector] = This["Bezier", vector] = TempV
This["Parts",string]="Doanim"
}
    FR:fixIt2(E:toWorld(vec(FrontBack,RightLeft,-HoverHeight)))
    FL:fixIt2(E:toWorld(vec(FrontBack,-RightLeft,-HoverHeight)))
    BR:fixIt2(E:toWorld(vec(-FrontBack,RightLeft,-HoverHeight)))
    BL:fixIt2(E:toWorld(vec(-FrontBack,-RightLeft,-HoverHeight))) 
function setFeedAngles(H1,H2,H3,H4){
holoAng(H1,entity():angles())
holoAng(H2,entity():angles())
holoAng(H3,entity():angles())
holoAng(H4,entity():angles())
}
    holoCreate(Ca,E:toWorld(vec(0,0,80)),vec(0.0001),ang(),vec(0),"")
    holoParent(Ca,E)
    #include "GeneralMechFunctions"
    
    function entity h(N){
    return holoEntity(N)
    }
    


}
if(Driver&!Lock){
Shift=Driver:keySprint()
if(Shift){ Sprint = 1 }
}
Cam:checkSeat(E:toWorld(vec(30,0,-20)),E:toWorld(ang(0,-90,0)),E,h(Ca))
 

if(first()){
    
    function setMode(Name:string){ Mode = Name }

    
PropLock:getPropLock(owner():keyPressed("pad_0"),"models/hunter/blocks/cube075x075x075.mdl",E)

    
E:propFreeze(1)
FR["Bezier",vector]= FR["EndPos",vector] = E:toWorld(vec(FrontBack,RightLeft,-HoverHeight))
FL["Bezier",vector]= FL["EndPos",vector] = E:toWorld(vec(FrontBack,-RightLeft,-HoverHeight))
BR["Bezier",vector]= BR["EndPos",vector] = E:toWorld(vec(-FrontBack,RightLeft,-HoverHeight))
BL["Bezier",vector]= BL["EndPos",vector] = E:toWorld(vec(-FrontBack,-RightLeft,-HoverHeight))
entity():propGravity(0)
entity():setMass(50000)


#front legs#
#hips#
c(1,E:toWorld(vec(FrontBack,RightLeft,5)),vec(1.1),E:toWorld(ang()),vec(85),"cube",E,Alpha)
c(2,E:toWorld(vec(FrontBack,-RightLeft,5)),vec(1.1),E:toWorld(ang()),vec(85),"cube",E,Alpha)
c(3,h(1):toWorld(vec(0,0,LegLength1)),vec(1.1),h(1):toWorld(ang()),vec(85),"cube",h(1),Alpha)
c(4,h(2):toWorld(vec(0,-0,LegLength1)),vec(1.1),h(2):toWorld(ang()),vec(85),"cube",h(2),Alpha)
c(5,h(3):toWorld(vec(0,0,LegLength2)),vec(1.1),h(3):toWorld(ang()),vec(85),"cube",h(3),Alpha)
c(6,h(4):toWorld(vec(0,-0,LegLength2)),vec(1.1),h(4):toWorld(ang()),vec(85),"cube",h(4),Alpha)
####

#back legs#
#hips#
c(11,E:toWorld(vec(-FrontBack,RightLeft,5)),vec(1.1),E:toWorld(ang()),vec(85),"cube",E,Alpha)
c(12,E:toWorld(vec(-FrontBack,-RightLeft,5)),vec(1.1),E:toWorld(ang()),vec(85),"cube",E,Alpha)
c(13,h(11):toWorld(vec(LegLengthB1,0,0)),vec(1.1),h(11):toWorld(ang()),vec(85),"cube",11,Alpha)
c(14,h(12):toWorld(vec(LegLengthB1,0,0)),vec(1.1),h(12):toWorld(ang()),vec(85),"cube",12,Alpha)
c(15,h(13):toWorld(vec(0,0,-LegLengthB2)),vec(1.1),h(13):toWorld(ang()),vec(85),"cube",13,Alpha)
c(16,h(14):toWorld(vec(0,0,-LegLengthB2)),vec(1.1),h(14):toWorld(ang()),vec(85),"cube",14,Alpha)
c(17,h(15):toWorld(vec(0,0,LegLengthB3)),vec(1.1),h(15):toWorld(ang()),vec(85),"cube",15,Alpha)
c(18,h(16):toWorld(vec(0,0,LegLengthB3)),vec(1.1),h(16):toWorld(ang()),vec(85),"cube",16,Alpha)
#####

##########
#combine models#
#middle parts of the legs
#front
c(7,h(1):toWorld(vec(0,0,0)),vec(1.2,2,1.3),h(1):toWorld(ang()),vec(255),"models/props_combine/combine_light002a.mdl",h(1),255)
c(8,h(2):toWorld(vec(0,-0,0)),vec(1.2,2,1.3),h(2):toWorld(ang()),vec(255),"models/props_combine/combine_light002a.mdl",h(2),255)
c(9,h(3):toWorld(vec(0,0,0)),vec(1.2,2,1.3),h(3):toWorld(ang()),vec(255),"models/props_combine/combine_light002a.mdl",h(3),255)
c(10,h(4):toWorld(vec(0,-0,0)),vec(1.2,2,1.3),h(4):toWorld(ang()),vec(255),"models/props_combine/combine_light002a.mdl",h(4),255)

#back
c(19,h(11):toWorld(vec(0,0,0)),vec(1,2,1),h(11):toWorld(ang(90,0,0)),vec(255),"models/props_combine/combine_light002a.mdl",11,255)
c(20,h(12):toWorld(vec(0,0,0)),vec(1,2,1),h(12):toWorld(ang(90,0,0)),vec(255),"models/props_combine/combine_light002a.mdl",12,255)
c(21,h(13):toWorld(vec(0,0,-LegLengthB2-5)),vec(1.5,2,1),h(13):toWorld(ang(0,180,0)),vec(255),"models/props_combine/combine_light002a.mdl",13,255)
c(22,h(14):toWorld(vec(0,0,-LegLengthB2-5)),vec(1.5,2,1),h(14):toWorld(ang(0,180,0)),vec(255),"models/props_combine/combine_light002a.mdl",14,255)
c(23,h(15):toWorld(vec(0,0,0)),vec(1.25,2,0.9),h(15):toWorld(ang()),vec(255),"models/props_combine/combine_light002a.mdl",15,255)
c(24,h(16):toWorld(vec(0,0,0)),vec(1.25,2,0.9),h(16):toWorld(ang()),vec(255),"models/props_combine/combine_light002a.mdl",16,255)


nik(LegLength1,LegLength2,h(1):pos(),FR["Bezier",vector]+vec(0,0,5)+E:right()*-1,1,3,E)  
nik(LegLength1,LegLength2,h(2):pos(),FL["Bezier",vector]+vec(0,0,5)+E:right()*1,2,4,E)  
ik3seg(E,h(11),h(13),h(15),BR["Bezier",vector]+vec(0,0,5)+E:right()*-1,LegLengthB1,LegLengthB2,LegLengthB3)
ik3seg(E,h(12),h(14),h(16),BL["Bezier",vector]+vec(0,0,5)+E:right()*1,LegLengthB1,LegLengthB2,LegLengthB3)
setFeedAngles(17,18,5,6)


###back deco#
c(25,h(11):toWorld(vec(0,5,-10)),vec(2,2,3),h(11):toWorld(ang(80,-5,0)),vec(255),"models/items/combine_rifle_ammo01.mdl",11,255)
c(26,h(12):toWorld(vec(0,5,-10)),vec(2,2,3),h(12):toWorld(ang(80,-5,0)),vec(255),"models/items/combine_rifle_ammo01.mdl",12,255)
c(27,h(11):toWorld(vec(0,-5,-10)),vec(2,2,3),h(11):toWorld(ang(80,5,0)),vec(255),"models/items/combine_rifle_ammo01.mdl",11,255)
c(28,h(12):toWorld(vec(0,-5,-10)),vec(2,2,3),h(12):toWorld(ang(80,5,0)),vec(255),"models/items/combine_rifle_ammo01.mdl",12,255)
c(29,h(11):toWorld(vec(7,0,-10)),vec(0.2,0.28,0.3),h(11):toWorld(ang(0,180,0)),vec(255),"models/props_combine/combine_barricade_med01a.mdl",11,255)
c(30,h(12):toWorld(vec(7,0,-10)),vec(0.2,0.28,0.3),h(12):toWorld(ang(0,180,0)),vec(255),"models/props_combine/combine_barricade_med01a.mdl",12,255)
c(31,h(13):toWorld(vec(1,0,-25)),vec(0.1,0.28,0.4),h(13):toWorld(ang(0,180,0)),vec(255),"models/props_combine/combine_barricade_med01a.mdl",13,255)
c(32,h(14):toWorld(vec(1,0,-25)),vec(0.1,0.28,0.4),h(14):toWorld(ang(0,180,0)),vec(255),"models/props_combine/combine_barricade_med01a.mdl",14,255)
c(33,h(13):toWorld(vec(1,0,9)),vec(2),h(13):toWorld(ang(-20,0,45)),vec(255),"models/gibs/scanner_gib02.mdl",13,255)
c(34,h(14):toWorld(vec(1,0,9)),vec(2),h(14):toWorld(ang(-20,0,45)),vec(255),"models/gibs/scanner_gib02.mdl",14,255)

#############


#front deco#
c(35,h(1):toWorld(vec(8,0,3)),vec(2,2,4),h(1):toWorld(ang(-5,0,0)),vec(255),"models/items/combine_rifle_ammo01.mdl",h(1),255)
c(36,h(2):toWorld(vec(8,-0,3)),vec(2,2,4),h(2):toWorld(ang(-5,0,0)),vec(255),"models/items/combine_rifle_ammo01.mdl",h(2),255)
c(37,h(1):toWorld(vec(-3,0,9)),vec(0.2,0.28,0.2),h(1):toWorld(ang(-270,0,0)),vec(255),"models/props_combine/combine_barricade_med01a.mdl",h(1),255)
c(38,h(2):toWorld(vec(-3,-0,9)),vec(0.2,0.28,0.2),h(2):toWorld(ang(-270,0,0)),vec(255),"models/props_combine/combine_barricade_med01a.mdl",h(2),255)

#############

#feet back#
c(39,h(17):toWorld(vec(4,0,0)),vec(0.2,0.10,0.1),h(17):toWorld(ang(0,180,0)),vec(255),"models/props_combine/combine_booth_short01a.mdl",17,255)
c(40,h(18):toWorld(vec(4,0,0)),vec(0.2,0.10,0.1),h(18):toWorld(ang(0,180,0)),vec(255),"models/props_combine/combine_booth_short01a.mdl",18,255)

c(41,h(17):toWorld(vec(12,0,-2)),vec(0.15,0.07,0.25),h(17):toWorld(ang(-60,0,0)),vec(255),"models/props_combine/combine_barricade_med01a.mdl",17,255)
c(42,h(18):toWorld(vec(12,0,-2)),vec(0.15,0.07,0.25),h(18):toWorld(ang(-60,0,0)),vec(255),"models/props_combine/combine_barricade_med01a.mdl",18,255)
c(43,h(17):toWorld(vec(12,5,-2)),vec(0.15,0.07,0.25),h(17):toWorld(ang(-60,15,0)),vec(255),"models/props_combine/combine_barricade_med01a.mdl",17,255)
c(44,h(18):toWorld(vec(12,5,-2)),vec(0.15,0.07,0.25),h(18):toWorld(ang(-60,15,0)),vec(255),"models/props_combine/combine_barricade_med01a.mdl",18,255)
c(45,h(17):toWorld(vec(12,-5,-2)),vec(0.15,0.07,0.25),h(17):toWorld(ang(-60,-15,0)),vec(255),"models/props_combine/combine_barricade_med01a.mdl",17,255)
c(46,h(18):toWorld(vec(12,-5,-2)),vec(0.15,0.07,0.25),h(18):toWorld(ang(-60,-15,0)),vec(255),"models/props_combine/combine_barricade_med01a.mdl",18,255)

############

#feet front#
c(47,h(5):toWorld(vec(4,0,0)),vec(0.2,0.10,0.1),h(5):toWorld(ang(0,180,0)),vec(255),"models/props_combine/combine_booth_short01a.mdl",5,255)
c(48,h(6):toWorld(vec(4,0,0)),vec(0.2,0.10,0.1),h(6):toWorld(ang(0,180,0)),vec(255),"models/props_combine/combine_booth_short01a.mdl",6,255)

c(49,h(5):toWorld(vec(12,0,-2)),vec(0.15,0.07,0.25),h(5):toWorld(ang(-60,0,0)),vec(255),"models/props_combine/combine_barricade_med01a.mdl",5,255)
c(50,h(6):toWorld(vec(12,0,-2)),vec(0.15,0.07,0.25),h(6):toWorld(ang(-60,0,0)),vec(255),"models/props_combine/combine_barricade_med01a.mdl",6,255)
c(51,h(5):toWorld(vec(12,5,-2)),vec(0.15,0.07,0.25),h(5):toWorld(ang(-60,15,0)),vec(255),"models/props_combine/combine_barricade_med01a.mdl",5,255)
c(52,h(6):toWorld(vec(12,5,-2)),vec(0.15,0.07,0.25),h(6):toWorld(ang(-60,15,0)),vec(255),"models/props_combine/combine_barricade_med01a.mdl",6,255)
c(53,h(5):toWorld(vec(12,-5,-2)),vec(0.15,0.07,0.25),h(5):toWorld(ang(-60,-15,0)),vec(255),"models/props_combine/combine_barricade_med01a.mdl",5,255)
c(54,h(6):toWorld(vec(12,-5,-2)),vec(0.15,0.07,0.25),h(6):toWorld(ang(-60,-15,0)),vec(255),"models/props_combine/combine_barricade_med01a.mdl",6,255)

############
#########################
#endlegs#
#startbody#
c(55,E:toWorld(vec(FrontBack-8,RightLeft/1.20,-2)),vec(0.5,0.5,1.1),E:toWorld(ang(0,0,90)),vec(125),"models/props_c17/oildrum001.mdl",E,255)
c(56,E:toWorld(vec(-FrontBack,RightLeft/1.20,-2)),vec(0.5,0.5,1.1),E:toWorld(ang(0,0,90)),vec(125),"models/props_c17/oildrum001.mdl",E,255)
c(57,E:toWorld(vec(20,15,-7)),vec(1.2,0.8,1.5),E:toWorld(ang(-5,0,-20)),vec(155),"models/Gibs/helicopter_brokenpiece_03.mdl",E,255)
c(58,E:toWorld(vec(20,-15,-7)),vec(1.2,0.8,1.5),E:toWorld(ang(-5,-5,-20)),vec(155),"models/Gibs/helicopter_brokenpiece_03.mdl",E,255)
c(59,E:toWorld(vec(-10,-10,-0)),vec(3,3,4),E:toWorld(ang(-90,0,0)),vec(255),"models/items/combine_rifle_ammo01.mdl",E,255)
c(60,E:toWorld(vec(-10,10,-0)),vec(3,3,4),E:toWorld(ang(-90,0,0)),vec(255),"models/items/combine_rifle_ammo01.mdl",E,255)
c(61,E:toWorld(vec(15,0,-0)),vec(1,1,1),E:toWorld(ang(0,0,0)),vec(255),"models/xqm/jetengine.mdl",E,255)

c(62,E:toWorld(vec(-40,10,5)),vec(0.2,0.2,0.5),E:toWorld(ang(-90,180,0)),vec(255),"models/props_combine/combine_barricade_med01a.mdl",E,255)
c(63,E:toWorld(vec(-40,-10,5)),vec(0.2,0.2,0.5),E:toWorld(ang(-90,180,0)),vec(255),"models/props_combine/combine_barricade_med01a.mdl",E,255)

c(64,E:toWorld(vec(55,0,-12)),vec(1,1,1),E:toWorld(ang(5,0,0)),vec(255),"models/xqm/jetengine.mdl",E,255)

c(65,E:toWorld(vec(5,0,-10)),vec(0.2,0.4,0.6),E:toWorld(ang(105,0,0)),vec(255),"models/props_combine/combine_barricade_med01a.mdl",E,255)
c(66,E:toWorld(vec(-45,0,-0)),vec(0.2,0.4,0.6),E:toWorld(ang(100,0,0)),vec(255),"models/props_combine/combine_barricade_med01a.mdl",E,255)

c(67,E:toWorld(vec(-55,0,-15)),vec(0.22,0.22,0.22),E:toWorld(ang(0,0,0)),vec(255),"models/props_combine/combine_tptimer.mdl",E,255)


c(68,h(67):toWorld(vec(-TailScale*95,0,18)),vec(TailScale-0.001),h(67):toWorld(ang(0,0,0)),vec(255),"models/props_combine/headcrabcannister01a.mdl",67,255)
c(69,h(68):toWorld(vec(-TailScale*95,0,-0)),vec(TailScale-0.002),h(68):toWorld(ang(0,0,0)),vec(255),"models/props_combine/headcrabcannister01a.mdl",68,255)
c(70,h(69):toWorld(vec(-TailScale*95,0,-0)),vec(TailScale-0.003),h(69):toWorld(ang(0,0,0)),vec(255),"models/props_combine/headcrabcannister01a.mdl",69,255)
c(71,h(70):toWorld(vec(-TailScale*95,0,-0)),vec(TailScale-0.004),h(70):toWorld(ang(0,0,0)),vec(255),"models/props_combine/headcrabcannister01a.mdl",70,255)
c(72,h(71):toWorld(vec(-TailScale*95,0,-0)),vec(TailScale-0.005),h(71):toWorld(ang(0,0,0)),vec(255),"models/props_combine/headcrabcannister01a.mdl",71,255)
c(73,h(72):toWorld(vec(-TailScale*95,0,-0)),vec(TailScale-0.006),h(72):toWorld(ang(0,0,0)),vec(255),"models/props_combine/headcrabcannister01a.mdl",72,255)
c(74,h(73):toWorld(vec(-TailScale*95,0,-0)),vec(TailScale-0.007),h(73):toWorld(ang(0,0,0)),vec(255),"models/props_combine/headcrabcannister01a.mdl",73,255)
c(75,h(74):toWorld(vec(-TailScale*95,0,-0)),vec(TailScale-0.008),h(74):toWorld(ang(0,0,0)),vec(255),"models/props_combine/headcrabcannister01a.mdl",74,255)
c(76,h(75):toWorld(vec(-TailScale*95,0,-0)),vec(TailScale-0.009),h(75):toWorld(ang(0,0,0)),vec(255),"models/props_combine/headcrabcannister01a.mdl",75,255)
c(77,h(76):toWorld(vec(-TailScale*95,0,-0)),vec(TailScale-0.01),h(76):toWorld(ang(0,0,0)),vec(255),"models/props_combine/headcrabcannister01a.mdl",76,255)
    c(10000,vec(0,0,-10000),vec(3,3,1),ang(),vec(255,0,0),"hq_torus",255)
holoMaterial(10000,"debug/debugdrawflat")

c(50000,E:toWorld(vec(-0,0,50)),vec(0.0000001),ang(),vec(255),"hqsphere",E,255)
#6
###########

#head#
#neck#

####
######

function number nextOne(Sholo,Eholo){
return (!h(Eholo)&h(Sholo)&perf()&holoCanCreate())
}
function changePart(Part:string,When){
if(changed(h(When))&h(When)){
Norm["HoloSpawnParts",string] = Part
}

}



function secondholos(){
if(h(10000)&Norm["HoloSpawnParts",string]==""){
Norm["HoloSpawnParts",string] = "P1"
}


switch (Norm["HoloSpawnParts",string]){

case "P1",
if(nextOne(50000,92)){

c(78,E:toWorld(vec(50,0,-10)),vec(0.5),E:toWorld(ang(0,0,0)),vec(255),"cube",E,255)
c(79,h(78):toWorld(vec(5,0,-0)),vec(0.5),h(78):toWorld(ang(0,0,0)),vec(255),"cube",78,255)
c(80,h(79):toWorld(vec(5,0,-0)),vec(0.5),h(79):toWorld(ang(0,0,0)),vec(255),"cube",79,255)
c(81,h(80):toWorld(vec(5,0,-0)),vec(0.5),h(80):toWorld(ang(0,0,0)),vec(255),"cube",80,255)
c(82,h(81):toWorld(vec(5,0,-0)),vec(0.5),h(81):toWorld(ang(0,0,0)),vec(255),"cube",81,255)


c(83,h(78):toWorld(vec(0,0,-0)),vec(4.5,4.5,0.5),h(78):toWorld(ang(90,0,0)),vec(255),"models/items/combine_rifle_ammo01.mdl",78,255)
c(84,h(79):toWorld(vec(0,0,-0)),vec(4.25,4.25,0.5),h(79):toWorld(ang(90,0,0)),vec(255),"models/items/combine_rifle_ammo01.mdl",79,255)
c(85,h(80):toWorld(vec(0,0,-0)),vec(4,4,0.5),h(80):toWorld(ang(90,0,0)),vec(255),"models/items/combine_rifle_ammo01.mdl",80,255)
c(86,h(81):toWorld(vec(0,0,-0)),vec(3.75,3.75,0.5),h(81):toWorld(ang(90,0,0)),vec(255),"models/items/combine_rifle_ammo01.mdl",81,255)
c(87,h(82):toWorld(vec(0,0,-0)),vec(3.5,3.5,0.5),h(82):toWorld(ang(90,0,0)),vec(255),"models/items/combine_rifle_ammo01.mdl",82,255)


c(88,h(82):toWorld(vec(5,0,-0)),vec(1),h(82):toWorld(ang(0,0,0)),vec(255),"models/combine_scanner.mdl",82,255)
c(89,h(82):toWorld(vec(10,0,5)),vec(1),h(82):toWorld(ang(0,0,0)),vec(255),"models/gibs/scanner_gib01.mdl",82,255)
c(90,h(82):toWorld(vec(10,0,-5)),vec(1),h(82):toWorld(ang(0,0,0)),vec(255),"models/gibs/scanner_gib01.mdl",82,255)

c(91,h(82):toWorld(vec(20,0,4)),vec(0.4),h(82):toWorld(ang(5,0,0)),vec(255),"cube",82,0)
c(92,h(82):toWorld(vec(20,0,-6)),vec(0.4),h(82):toWorld(ang(-5,0,0)),vec(255),"cube",82,0)

changePart("P2",92)
}
break

case "P2",
if(nextOne(92,100)){
 
c(93,h(91):toWorld(vec(10,0,0)),vec(1),h(91):toWorld(ang(180,0,0)),vec(255),"models/gibs/scanner_gib01.mdl",91,255)
c(94,h(92):toWorld(vec(10,0,-0)),vec(1),h(92):toWorld(ang(180,0,0)),vec(255),"models/gibs/scanner_gib01.mdl",92,255)
c(95,h(91):toWorld(vec(15,0,-3)),vec(0.15,0.15,0.30),h(91):toWorld(ang(-100,180,180)),vec(255),"models/props_combine/combine_barricade_med01a.mdl",91,255)
c(96,h(92):toWorld(vec(15,0,2)),vec(0.15,0.15,0.30),h(92):toWorld(ang(85,0,180)),vec(255),"models/props_combine/combine_barricade_med01a.mdl",92,255)

c(97,h(91):toWorld(vec(15,0,-2)),vec(0.15,0.07,0.22),h(95):toWorld(ang(0,70,0)),vec(255),"models/props_combine/combine_barricade_med01a.mdl",91,255)
c(98,h(92):toWorld(vec(15,0,0)),vec(0.15,0.07,0.22),h(96):toWorld(ang(0,-70,0)),vec(255),"models/props_combine/combine_barricade_med01a.mdl",92,255)
c(99,h(91):toWorld(vec(15,-0,-2)),vec(0.15,0.07,0.22),h(95):toWorld(ang(0,-70,0)),vec(255),"models/props_combine/combine_barricade_med01a.mdl",91,255)
c(100,h(92):toWorld(vec(15,-0,0)),vec(0.15,0.07,0.22),h(96):toWorld(ang(0,70,0)),vec(255),"models/props_combine/combine_barricade_med01a.mdl",92,255)
changePart("P3",100) 
#teeth#    
#######
}
break


case "P3",
if(nextOne(100,113)){
c(101,h(92):toWorld(vec(4,3,1)),vec(0.2,0.2,0.20),h(95):toWorld(ang(0,20,-90)),vec(255),"models/props_combine/combine_emitter01.mdl",92,255)
c(102,h(92):toWorld(vec(6,3,1)),vec(0.2,0.2,0.20),h(95):toWorld(ang(0,20,-90)),vec(255),"models/props_combine/combine_emitter01.mdl",92,255)
c(103,h(92):toWorld(vec(8,3,1)),vec(0.2,0.2,0.20),h(95):toWorld(ang(0,20,-90)),vec(255),"models/props_combine/combine_emitter01.mdl",92,255)
c(104,h(92):toWorld(vec(10,3,1)),vec(0.2,0.2,0.20),h(95):toWorld(ang(0,20,-90)),vec(255),"models/props_combine/combine_emitter01.mdl",92,255)
c(105,h(92):toWorld(vec(12,3,1)),vec(0.2,0.2,0.20),h(95):toWorld(ang(0,20,-90)),vec(255),"models/props_combine/combine_emitter01.mdl",92,255)
c(106,h(92):toWorld(vec(14,3,1)),vec(0.2,0.2,0.20),h(95):toWorld(ang(0,20,-90)),vec(255),"models/props_combine/combine_emitter01.mdl",92,255)
c(107,h(92):toWorld(vec(16,3,1)),vec(0.2,0.2,0.20),h(95):toWorld(ang(0,20,-90)),vec(255),"models/props_combine/combine_emitter01.mdl",92,255)
c(108,h(92):toWorld(vec(18,3,1)),vec(0.2,0.2,0.20),h(95):toWorld(ang(0,20,-90)),vec(255),"models/props_combine/combine_emitter01.mdl",92,255)
c(109,h(92):toWorld(vec(20,3,1)),vec(0.2,0.2,0.20),h(95):toWorld(ang(0,20,-90)),vec(255),"models/props_combine/combine_emitter01.mdl",92,255)

c(110,h(92):toWorld(vec(22,3,1)),vec(0.2,0.2,0.20),h(95):toWorld(ang(0,0,180)),vec(255),"models/props_combine/combine_emitter01.mdl",92,255)
c(111,h(92):toWorld(vec(22,1,1)),vec(0.2,0.2,0.20),h(95):toWorld(ang(0,0,180)),vec(255),"models/props_combine/combine_emitter01.mdl",92,255)
c(112,h(92):toWorld(vec(22,-1,1)),vec(0.2,0.2,0.20),h(95):toWorld(ang(0,0,180)),vec(255),"models/props_combine/combine_emitter01.mdl",92,255)
c(113,h(92):toWorld(vec(22,-3,1)),vec(0.2,0.2,0.20),h(95):toWorld(ang(0,0,180)),vec(255),"models/props_combine/combine_emitter01.mdl",92,255)
changePart("P4",113)
}
break

case "P4",
if(nextOne(113,122)){
c(114,h(92):toWorld(vec(4,-3,1)),vec(0.2,0.2,0.20),h(95):toWorld(ang(0,-20,90)),vec(255),"models/props_combine/combine_emitter01.mdl",92,255)
c(115,h(92):toWorld(vec(6,-3,1)),vec(0.2,0.2,0.20),h(95):toWorld(ang(0,-20,90)),vec(255),"models/props_combine/combine_emitter01.mdl",92,255)
c(116,h(92):toWorld(vec(8,-3,1)),vec(0.2,0.2,0.20),h(95):toWorld(ang(0,-20,90)),vec(255),"models/props_combine/combine_emitter01.mdl",92,255)
c(117,h(92):toWorld(vec(10,-3,1)),vec(0.2,0.2,0.20),h(95):toWorld(ang(0,-20,90)),vec(255),"models/props_combine/combine_emitter01.mdl",92,255)
c(118,h(92):toWorld(vec(12,-3,1)),vec(0.2,0.2,0.20),h(95):toWorld(ang(0,-20,90)),vec(255),"models/props_combine/combine_emitter01.mdl",92,255)
c(119,h(92):toWorld(vec(14,-3,1)),vec(0.2,0.2,0.20),h(95):toWorld(ang(0,-20,90)),vec(255),"models/props_combine/combine_emitter01.mdl",92,255)
c(120,h(92):toWorld(vec(16,-3,1)),vec(0.2,0.2,0.20),h(95):toWorld(ang(0,-20,90)),vec(255),"models/props_combine/combine_emitter01.mdl",92,255)
c(121,h(92):toWorld(vec(18,-3,1)),vec(0.2,0.2,0.20),h(95):toWorld(ang(0,-20,90)),vec(255),"models/props_combine/combine_emitter01.mdl",92,255)
c(122,h(92):toWorld(vec(20,-3,1)),vec(0.2,0.2,0.20),h(95):toWorld(ang(0,-20,90)),vec(255),"models/props_combine/combine_emitter01.mdl",92,255)

changePart("P5",122)
}

break

case "P5",
if(nextOne(122,134)){
c(122,h(91):toWorld(vec(4,3,-3)),vec(0.2,0.2,0.20),h(96):toWorld(ang(0,-20,90)),vec(255),"models/props_combine/combine_emitter01.mdl",91,255)
c(123,h(91):toWorld(vec(6,3,-3)),vec(0.2,0.2,0.20),h(96):toWorld(ang(0,-20,90)),vec(255),"models/props_combine/combine_emitter01.mdl",91,255)
c(124,h(91):toWorld(vec(8,3,-3)),vec(0.2,0.2,0.20),h(96):toWorld(ang(0,-20,90)),vec(255),"models/props_combine/combine_emitter01.mdl",91,255)
c(125,h(91):toWorld(vec(10,3,-3)),vec(0.2,0.2,0.20),h(96):toWorld(ang(0,-20,90)),vec(255),"models/props_combine/combine_emitter01.mdl",91,255)
c(126,h(91):toWorld(vec(12,3,-3)),vec(0.2,0.2,0.20),h(96):toWorld(ang(0,-20,90)),vec(255),"models/props_combine/combine_emitter01.mdl",91,255)
c(127,h(91):toWorld(vec(14,3,-3)),vec(0.2,0.2,0.20),h(96):toWorld(ang(0,-20,90)),vec(255),"models/props_combine/combine_emitter01.mdl",91,255)
c(128,h(91):toWorld(vec(16,3,-3)),vec(0.2,0.2,0.20),h(96):toWorld(ang(0,-20,90)),vec(255),"models/props_combine/combine_emitter01.mdl",91,255)
c(129,h(91):toWorld(vec(18,3,-3)),vec(0.2,0.2,0.20),h(96):toWorld(ang(0,-20,90)),vec(255),"models/props_combine/combine_emitter01.mdl",91,255)
c(130,h(91):toWorld(vec(20,3,-3)),vec(0.2,0.2,0.20),h(96):toWorld(ang(0,-20,90)),vec(255),"models/props_combine/combine_emitter01.mdl",91,255)

c(131,h(91):toWorld(vec(22,3,-3)),vec(0.2,0.2,0.20),h(96):toWorld(ang(0,0,180)),vec(255),"models/props_combine/combine_emitter01.mdl",91,255)
c(132,h(91):toWorld(vec(22,1,-3)),vec(0.2,0.2,0.20),h(96):toWorld(ang(0,0,180)),vec(255),"models/props_combine/combine_emitter01.mdl",91,255)
c(133,h(91):toWorld(vec(22,-1,-3)),vec(0.2,0.2,0.20),h(96):toWorld(ang(0,0,180)),vec(255),"models/props_combine/combine_emitter01.mdl",91,255)
c(134,h(91):toWorld(vec(22,-3,-3)),vec(0.2,0.2,0.20),h(96):toWorld(ang(0,0,180)),vec(255),"models/props_combine/combine_emitter01.mdl",91,255)
changePart("P6",134)
}
break

case "P6",
if(nextOne(134,143)){
c(135,h(91):toWorld(vec(4,-3,-3)),vec(0.2,0.2,0.20),h(96):toWorld(ang(0,20,-90)),vec(255),"models/props_combine/combine_emitter01.mdl",91,255)
c(136,h(91):toWorld(vec(6,-3,-3)),vec(0.2,0.2,0.20),h(96):toWorld(ang(0,20,-90)),vec(255),"models/props_combine/combine_emitter01.mdl",91,255)
c(137,h(91):toWorld(vec(8,-3,-3)),vec(0.2,0.2,0.20),h(96):toWorld(ang(0,20,-90)),vec(255),"models/props_combine/combine_emitter01.mdl",91,255)
c(138,h(91):toWorld(vec(10,-3,-3)),vec(0.2,0.2,0.20),h(96):toWorld(ang(0,20,-90)),vec(255),"models/props_combine/combine_emitter01.mdl",91,255)
c(139,h(91):toWorld(vec(12,-3,-3)),vec(0.2,0.2,0.20),h(96):toWorld(ang(0,20,-90)),vec(255),"models/props_combine/combine_emitter01.mdl",91,255)
c(140,h(91):toWorld(vec(14,-3,-3)),vec(0.2,0.2,0.20),h(96):toWorld(ang(0,20,-90)),vec(255),"models/props_combine/combine_emitter01.mdl",91,255)
c(141,h(91):toWorld(vec(16,-3,-3)),vec(0.2,0.2,0.20),h(96):toWorld(ang(0,20,-90)),vec(255),"models/props_combine/combine_emitter01.mdl",91,255)
c(142,h(91):toWorld(vec(18,-3,-3)),vec(0.2,0.2,0.20),h(96):toWorld(ang(0,20,-90)),vec(255),"models/props_combine/combine_emitter01.mdl",91,255)
c(143,h(91):toWorld(vec(20,-3,-3)),vec(0.2,0.2,0.20),h(96):toWorld(ang(0,20,-90)),vec(255),"models/props_combine/combine_emitter01.mdl",91,255)

changePart("P7",143)
}
break
#my railgun#
 Next = 153
case "P7",
if(nextOne(143,Next)){

c(144,E:toWorld(vec(6,-0,10)),vec(0.7),E:toWorld(ang(0,180,0)),vec(255),"models/props_combine/combine_emitter01.mdl",E,255)



c(145,E:toWorld(vec(6,-0,10)),vec(0.7),E:toWorld(ang(0,180,0)),vec(255),"models/props_combine/combine_emitter01.mdl",E,255)
c(146,E:toWorld(vec(-10,-0,5)),vec(2,2,2),E:toWorld(ang(0,0,0)),vec(255),"models/items/combine_rifle_ammo01.mdl",E,255)
c(147,h(146):toWorld(vec(3,-0,15)),vec(0.5,0.1,0.1),h(146):toWorld(ang(0,180,0)),vec(255),"models/props_combine/combine_booth_short01a.mdl",146,255)

c(148,h(146):toWorld(vec(-6,0,15)),vec(0.4),h(146):toWorld(ang(0,0,0)),vec(255),"cube",146,255)

c(149,h(148):toWorld(vec(-0,0,3)),vec(1),h(148):toWorld(ang(90,0,0)),vec(200),"models/props_phx/misc/potato_launcher.mdl",148,255)
holoMaterial(149,"models/weapons/v_stunbaton/w_shaft01a")

c(150,h(149):toWorld(vec(-0,0,90)),vec(0.7),h(149):toWorld(ang(180,0,0)),vec(200),"models/props_phx/misc/potato_launcher_chamber.mdl",149,255)
holoMaterial(150,"phoenix_storms/FuturisticTrackRamp_1-2")
changePart("P8",Next)
}
case "P8",
if(nextOne(143,160)){
#Boosters#
c(151,E:toWorld(vec(-45,14,14)),vec(0.8),E:toWorld(ang(0,0,0)),vec(150),"models/xqm/jetengine.mdl",E,255)
c(152,E:toWorld(vec(-45,-14,14)),vec(0.8),E:toWorld(ang(0,0,0)),vec(150),"models/xqm/jetengine.mdl",E,255)

c(153,h(151):toWorld(vec(-10,0,0)),vec(0.2,0.2,0.4),h(151):toWorld(ang(90,0,0)),vec(255,240,0),"models/effects/vol_light64x128.mdl",151,0)
c(154,h(152):toWorld(vec(-10,0,0)),vec(0.2,0.2,0.4),h(152):toWorld(ang(90,0,0)),vec(255,240,0),"models/effects/vol_light64x128.mdl",152,0)
holoEntity(153):setTrails(0,120,0.5,"trails/smoke",vec(220,220,220),0)    
holoEntity(154):setTrails(0,70,0.15,"trails/smoke",vec(230,230,230),0)  

c(155,h(151):toWorld(vec(-10,0,0)),vec(0.2,0.2,0.4),h(151):toWorld(ang(90,0,0)),vec(255,50,0),"models/effects/vol_light64x128.mdl",151,0)
c(156,h(152):toWorld(vec(-10,0,0)),vec(0.2,0.2,0.4),h(152):toWorld(ang(90,0,0)),vec(255,50,0),"models/effects/vol_light64x128.mdl",152,0)


changePart("P9",156)
}
case "P9",
c(157,h(151):toWorld(vec(-25,0,0)),vec(2,1.5,1.5),h(151):toWorld(ang(90,0,0)),vec(255,0,0),"cube",151,0)
c(158,h(151):toWorld(vec(-50,0,0)),vec(2),h(151):toWorld(ang(90,0,0)),vec(255,0,0),"cube",151,0)
c(159,h(152):toWorld(vec(-25,0,0)),vec(1.5),h(152):toWorld(ang(90,0,0)),vec(255,0,0),"cube",152,0)
c(160,h(152):toWorld(vec(-50,0,0)),vec(2,1.5,1.5),h(152):toWorld(ang(90,0,0)),vec(255,0,0),"cube",152,0)
holoMaterial(157,"sprites/heatwave")
holoMaterial(158,"sprites/heatwave")
holoMaterial(159,"sprites/heatwave")
holoMaterial(160,"sprites/heatwave")
c(Angler_1,E:toWorld(vec(FrontBack,0,-HoverHeight)),vec(0.2),E:toWorld(ang()),vec(255,0,0),"hqsphere",E,0)
c(Angler_2,E:toWorld(vec(-FrontBack,0,-HoverHeight)),vec(0.2),E:toWorld(ang()),vec(255,0,0),"hqsphere",E,0)
break
##########
break 

############

}
}
LastHolo = Angler_2


#######################################################################################################################
#######################################################################################################################
#######################################################################################################################

function activateTurbines(){
local Alp = 255
holoAlpha(153,Alp)
holoAlpha(154,Alp)
holoAlpha(155,Alp)
holoAlpha(156,Alp)
holoAlpha(157,Alp)
holoAlpha(158,Alp)
holoAlpha(159,Alp)
holoAlpha(160,Alp)
holoEntity(153):setTrails(0,120,0.5,"trails/smoke",vec(220,220,220),255)    
holoEntity(154):setTrails(0,120,0.5,"trails/smoke",vec(220,220,220),255)    

holoEntity(155):setTrails(0,70,0.15,"trails/smoke",vec(230,230,230),255)
holoEntity(156):setTrails(0,70,0.15,"trails/smoke",vec(230,230,230),255)  
}
function deactivateTurbines(){
local Alp = 0
holoAlpha(153,Alp)
holoAlpha(154,Alp)
holoAlpha(155,Alp)
holoAlpha(156,Alp)
holoAlpha(157,Alp)
holoAlpha(158,Alp)
holoAlpha(159,Alp)
holoAlpha(160,Alp)
holoEntity(153):removeTrails()
holoEntity(154):removeTrails()
holoEntity(155):removeTrails()
holoEntity(156):removeTrails()
}
deactivateTurbines()
#######################################################################################################################
#######################################################################################################################
#######################################################################################################################

function number createAimHolo(Index:number,VisEntity:entity,Key,Position:vector){
 if(changed(Key)&Key){
c(Index,Position,vec(2,2,5),ang(180,0,0),vec(0,255,0),"hq_cone",255)
holoVisible(Index,players(),0)
holoVisible(Index,VisEntity,1)
holoMaterial(Index,"debug/debugdrawflat")
 }

 if(Key){
 holoPos(Index,Position+vec(0,0,70+cos(curtime()*300)*15))
 }
 if(changed(!Key)&!Key){
holoDelete(Index)
 }

}
#######################################################################################################################
#######################################################################################################################
#######################################################################################################################
 function table:anim(Speed,StartAnim,EndCounter,Sheight,EndVector:vector,Glength,MaxDist,Vel,Base:entity,VecDown:vector,FeetHolo){
 local T = This
#[-----------Counter & AnimFix----------]#
if(T["Parts",string]!="Setupanim"&T["Parts",string]!="Doanim"){ T["Parts",string] = "Setupanim" }

T["Count.data",number] = (T["Count.data",number] + 1) % EndCounter
#[---------------Ranger-----------------]#

 rangerFilter(Base)
 rangerFilter(Seat)
 rangerFilter(PropLock["Locker",entity])
 local TempA = rangerOffset(Glength,EndVector+Base:vel():setZ(0)/Vel,VecDown)
 T["RangerPos",vector]=TempA:position()

#[------------------Anim----------------]#

 switch (T["Parts",string]){
    case "Setupanim",
    if(TempA:hit()){
     if(T["Count.data",number]==StartAnim){
      if(T["StartPos.data",vector]:distance(  T["RangerPos",vector] )>=MaxDist){ 
       T["StartPos.data",vector] = T["Bezier",vector]
       T["Distance.data",number] = (T["StartPos.data",vector]- T["RangerPos",vector]):length()
       T["Middle.data",vector] = mix( T["RangerPos",vector],T["StartPos.data",vector],0.99) + vec(0,0,max(T["Distance.data",number] / Sheight,MaxDist/10)) 
       T["Parts",string] = "Doanim"
      }  
     }  
    }
    break  
    case "Doanim",
    
      T["GaitVelocity",number] = T["GaitVelocity",number]*0.1 + (Base:vel():length() + abs(Base:angVelVector():length()))
      T["GC",number] = T["GC",number] + (0.04 + 0.01*T["GaitVelocity",number]/(100 * Speed))
      T["Move_Count.data",number] = min(T["Move_Count.data",number] + T["GC",number],1)
     
       T["Bezier",vector] = bezier(T["StartPos.data",vector],T["Middle.data",vector], T["RangerPos",vector],T["Move_Count.data",number])
    
          if(T["Move_Count.data",number]>=1){
            holoEntity(FeetHolo):soundPlay(FeetHolo*randint(999),1.3,"npc/dog/dog_footstep_run"+randint(1,8)+".wav")
           
            T["Move_Count.data",number] = T["GaitVelocity",number] = T["GC",number] = 0
            T["Parts",string] = "Setupanim"
          }
        
    break
 }
#[-----------------Foot-----------------]#
  if(Base){
    local HT = TempA:hitNormal()
    local Cross = HT:cross(Base:forward()):normalized():cross(HT)
    holoAng(FeetHolo,slerp(quat(holoEntity(FeetHolo):angles()), quat(Cross:toAngle()),0.99):toAngle())
  } 
#[--------------------------------------]#
 }
function table:fixIt(TempV:vector){
   This["Middle.data", vector] = This["StartPos.data", vector] = This["RangerPos",vector] = This["Bezier", vector] = TempV
This["Parts",string]="Doanim"
}

#######################################################################################################################
#######################################################################################################################
#######################################################################################################################

function array:explodeEntity(Ent:entity,L){
    if(changed(Ent)&Ent){
    This:pushEntity(Ent)
    Ent:propNotSolid(1)
    }
   foreach(K,V:entity=This){
rangerFilter(V)
rangerFilter(Seat)
rangerFilter(E)
rangerFilter(PropLock["Locker",entity])
   if(rangerOffset(L,V:pos(),vec(1,0,-1)):hit()){
      V:propBreak() 
      This:removeEntity(K) 
   } 
    
   }
}
#######################################################################################################################
#######################################################################################################################
#######################################################################################################################


#######################################################################################################################
#######################################################################################################################
#######################################################################################################################



#######################################################################################################################
#######################################################################################################################
#######################################################################################################################

function table:fireGun(Index,Ppos:vector,Pang:angle,Direction:vector){
  P = propSpawn("models/props_phx/cannonball_solid.mdl",Ppos,Pang,1)
  P:propFreeze(0)
  P:setTrails(30,1,1,"trails/smoke",vec(20),255)
  P:setAlpha(0)
  P:setMass(5000)
  P:applyForce(Direction*P:mass()*ShootPower)


 if(changed(P)&P){
 E:soundPlay(123128,soundDuration("weapons/hegrenade/explode"+randint(3,5)+".wav"),"weapons/hegrenade/explode"+randint(3,5)+".wav")

 }
}

#######################################################################################################################
#######################################################################################################################
#######################################################################################################################

function number bearingRotate(Aim:vector,NR,M){
return (-bearing(E:pos(),ang(E:angles():pitch(),E:angles():yaw(), E:angles():roll()), Aim) / NR * M) *!Lock
} 
#######################################################################################################################
#######################################################################################################################
#######################################################################################################################
function setGroundAngles(Hologram,Ran:ranger){
local HN = Ran:hitNormal()
holoAng(Hologram,HN:toAngle()+ang(90,0,0))
}
function vector aimP(Part:string){
switch (Part) {
case "IsDriver",
rangerFilter(P)
rangerFilter(E) rangerFilter(Seat) 
rangerFilter(PropLock["Locker",entity])
 return rangerOffset(99999, Driver:shootPos(), Seat:toLocalAxis(Driver:eye())):position() 
 break

case "NonDriver", return owner():eye() break
}
}
function aim(){
 if(perf()){
  if(Driver){
    holoPos(10000,getJumpVec(aimP("IsDriver"),1000)+h(10000):up()*10) 
    setGroundAngles(10000,FinalRanger)    
  }
 }
}
#######################################################################################################################
#######################################################################################################################
#######################################################################################################################

function number gunAim(YawH,PitchH1){
  if(Driver){
  local RotAng = (aimP("IsDriver")-h(YawH):pos())
  local PitchAng = -(RotAng:length() / ((ShootPower/1.5) / pi()))
  holoAng(YawH,E:toWorld(ang(0,clamp(bearingRotate(aimP("IsDriver"),1,Driver:isValid()),-120,120),0)))
  holoAng(PitchH1,h(YawH):toWorld(clamp(h(YawH):toLocal(ang(PitchAng+RotAng:toAngle():pitch(),RotAng:toAngle():yaw(),RotAng:toAngle():roll())),ang(-50,0,-180),ang(10,0,180))))
  }
}


#######################################################################################################################
#######################################################################################################################
#######################################################################################################################


#######################################################################################################################
#######################################################################################################################
#######################################################################################################################

function number table:getFH(){
return ((This["Bezier",vector]-This["RangerPos",ranger]:pos()):z())
}
function number table:getFX(){
return ((This["Bezier",vector]-This["RangerPos",ranger]:pos()):x())
}
#######################################################################################################################
#######################################################################################################################
#######################################################################################################################

function runNeck( Target:vector, FootHeight,H1,H2,H3,H4,H5) {
    NeckAngle = mix(angnorm((Target - h(H1):pos()):toAngle() - E:angles()) / 8, NeckAngle, 0.33)
    local NeckDiff = ang(min(abs(FootHeight), 35) / 3, 0, 0)

    holoAng(H1, E:toWorld(NeckAngle + NeckDiff))
#    holoAng(H2, h(H1):toWorld(NeckAngle))
#    holoAng(H3, h(H2):toWorld(NeckAngle))
    holoAng(H4, h(H3):toWorld(NeckAngle-NeckDiff))
    holoAng(H5, h(H4):toWorld(ang(NeckAngle[1], 0, 0)))
}
#######################################################################################################################
#######################################################################################################################
#######################################################################################################################

function number returnGrounds(){
rangerFilter(Seat)
rangerFilter(players())
rangerFilter(E)
rangerFilter(PropLock["Locker",entity])
local GroundRan = rangerOffset(9999999,E:toWorld(vec(0,0,0)),vec(0,0,-1)):distance()
Ground = (GroundRan <= MaxHitLength)


}
#######################################################################################################################
#######################################################################################################################
#######################################################################################################################

function number setTail(StartHoloGram,HoloCount,Angles:angle,Add:angle,Rate) {
    TailAngle = slerp(quat(Angles+Add),quat(TailAngle),Rate):toAngle()
    TailArray:unshiftAngle(TailAngle)
    TailArray:removeAngle(StartHoloGram+HoloCount)
    for (I = 1,HoloCount){
    holoAng(I+StartHoloGram,TailArray[I,angle]) 
    }
}


#######################################################################################################################
#######################################################################################################################
#######################################################################################################################

function vector entity:setF(V:vector,Vel){
This:applyForce((V)*This:mass()-(This:vel()*This:mass()*Vel))
}
function angle entity:setA(A:angle,Vel){
This:applyAngForce((A)*This:mass()-(This:angVel()*This:mass()*Vel))
}
timer("Number",1)
function interval2(Number){
  if(clk("Number")){ 
  timer("Number",Number)
  }
}
#######################################################################################################################
#######################################################################################################################
#######################################################################################################################

#######################################################################################################################
#######################################################################################################################
#######################################################################################################################




    if(Mech["Modes",string]!="Howl"&Mech["Modes",string]!="ShutDown"){
    if(Driver){
runNeck((aimP("IsDriver")+vec(0,0,10)),150,78,79,80,81,82)
}else{
runNeck(E:toWorld(vec(FrontBack * 2,0,0)),150,78,79,80,81,82)
}
}   
local  MR = LegLength1+LegLength2



#######################################################################################################################
#######################################################################################################################
#######################################################################################################################
function number chan(N){
return (changed(N)&N)    
}
function pNormal(){
runNeck((aimP("IsDriver")+vec(0,0,10)),150,78,79,80,81,82) 
interval(100)
    holoPos(10000,getJumpVec(aimP("IsDriver"),1000)+h(10000):up()*10) 
    setGroundAngles(10000,FinalRanger)    
gunAim(146,148)    
local Speed = max(1,toUnit("mph",E:vel():setZ(0):length()))
local CurTime = curtime()*100
local SinTime = sin(CurTime)/Speed * 2
local CosTime = cos(CurTime)/Speed * 2    
E:propGravity(0)

local Delay = StepDelay
FR:anim(StepSpeed,1,(Delay*2),StepHeight,E:toWorld(vec(FrontBack,RightLeft-Add,0)),LegLength1+LegLength2,20,StepVel,E,E:up()*-1,5)
BL:anim(StepSpeed,1,(Delay*2),StepHeight,E:toWorld(vec(-FrontBack,-RightLeft+Add,0)),LegLength1+LegLength2,20,StepVel+1,E,E:up()*-1,18)


FL:anim(StepSpeed,1+Delay,(Delay*2),StepHeight,E:toWorld(vec(FrontBack,-RightLeft+Add,0)),LegLength1+LegLength2,20,StepVel,E,E:up()*-1,6)
BR:anim(StepSpeed,1+Delay,(Delay*2),StepHeight,E:toWorld(vec(-FrontBack,RightLeft-Add,0)),LegLength1+LegLength2,20,StepVel+1,E,E:up()*-1,17)


nik(LegLength1,LegLength2,h(1):pos(),FR["Bezier",vector]+vec(0,0,UpSec)+E:right()*-1,1,3,E)  
nik(LegLength1,LegLength2,h(2):pos(),FL["Bezier",vector]+vec(0,0,UpSec)+E:right()*1,2,4,E)  
ik3seg(E,h(11),h(13),h(15),BR["Bezier",vector]+vec(0,0,UpSec)+E:right()*-1,LegLengthB1,LegLengthB2,LegLengthB3)
ik3seg(E,h(12),h(14),h(16),BL["Bezier",vector]+vec(0,0,UpSec)+E:right()*1,LegLengthB1,LegLengthB2,LegLengthB3)

setTail(67,10,E:angles(),ang(-E:velL():z()/20,E:velL():y()/20,0),0.66)
local AL = LegLength1+LegLength2
rangerFilter(E)
rangerFilter(Seat)
rangerFilter(players())
local AngRan1 = rangerOffset(AL*2,E:toWorld(vec(FrontBack,0,0)),E:up()*-1)
local AngRan2 = rangerOffset(AL*2,E:toWorld(vec(-FrontBack,0,0)),E:up()*-1)


local FH = clamp(abs(FR:getFH()-FL:getFH()),-40,20)

local FX = clamp(abs(FR:getFX()+FL:getFX()),-40,20)
 
local Rotationa =( (E:toLocal(AngRan1:position()-holoEntity(Angler_1):pos())):z()-(E:toLocal(AngRan2:position()-holoEntity(Angler_2):pos())):z() )# ((AngRan:position())-(HoverRan:position())):toAngle()
local MoveMent = (E:forward()*(30-(10*S))*(W-S))+(E:right()*30/2*(D-A))-(E:forward()*FX/2)*(W-S)
local Vec = ((HoverRan:pos()+vec(0,0,CosTime+HoverHeight-(HoverHeight/3*Space)-(5*(W|S|A|D))+FH))-E:pos())+MoveMent


local Ang = E:toLocal(ang(E:angles():pitch()-SinTime/2+FH/6+(-Rotationa/AngSpeed)-(2*W),E:angles():yaw()+bearingRotate(aimP("IsDriver"),8,Driver:isValid()),0)) #
#E:setA(Ang*8,0.8)
#E:setF((Vec*2),0.25)
E:applyAngForce((Ang*8)*E:mass()-(E:angVel()*E:mass()*0.8))

E:applyForce((Vec*2)*E:mass()-(E:vel()*E:mass()*0.25))

if(!Ground){
  setMode("fall")
  deactivateTurbines()
}

if(Driver){ 
  if(Space){
   Norm["Cunt",number] = min(Norm["Cunt",number]+1,2)  
  }
    if(Norm["Cunt",number]>=2&!chan(Space)){
      Norm["Cunt",number]=0
      E:soundPlay(1,3,"npc/dog/dog_pneumatic"+randint(1,2)+".wav")   
      activateTurbines()
      setMode("jump")
    }
  
  if(chan(R)){
  setMode("howl")    
  }
  if(chan(Shift)){
  setMode("sprint") 
  activateTurbines() 
  }
  if(chan(Alt)){
  setMode("crouch")
  }
  if(chan(Driver:keyPressed("F"))){
  setMode("fly") 
 FR["Bezier",vector] = E:toWorld(vec(FrontBack-40,RightLeft-Add*2,-HoverHeight/1.5))  #+E:vel():setZ(0)/100
FL["Bezier",vector] = E:toWorld(vec(FrontBack-40,-RightLeft+Add*2,-HoverHeight/1.5)) #+E:vel():setZ(0)/100
BR["Bezier",vector] = E:toWorld(vec(-FrontBack-40,RightLeft-Add*2,-HoverHeight/1.5)) #+E:vel():setZ(0)/100
BL["Bezier",vector] = E:toWorld(vec(-FrontBack-40,-RightLeft+Add*2,-HoverHeight/1.5)) #+E:vel():setZ(0)/100

nik(LegLength1,LegLength2,h(1):pos(),FR["Bezier",vector]+vec(0,0,UpSec)+E:right()*-1,1,3,E)  
nik(LegLength1,LegLength2,h(2):pos(),FL["Bezier",vector]+vec(0,0,UpSec)+E:right()*1,2,4,E)  
ik3seg(E,h(11),h(13),h(15),BR["Bezier",vector]+vec(0,0,UpSec)+E:right()*-1,LegLengthB1,LegLengthB2,LegLengthB3)
ik3seg(E,h(12),h(14),h(16),BL["Bezier",vector]+vec(0,0,UpSec)+E:right()*1,LegLengthB1,LegLengthB2,LegLengthB3)

  activateTurbines()
  }
 }else{
  setMode("shutDown")
}
    
}

#######################################################################################################################
#######################################################################################################################
#######################################################################################################################

function crouch(){
runNeck((aimP("IsDriver")+vec(0,0,10)),150,78,79,80,81,82)

interval(100)
    holoPos(10000,getJumpVec(aimP("IsDriver"),1000)+h(10000):up()*10) 
    setGroundAngles(10000,FinalRanger)    
gunAim(146,148)     
local Speed = max(1,toUnit("mph",E:vel():setZ(0):length()))
local CurTime = curtime()*100
local SinTime = sin(CurTime)/Speed * 2
local CosTime = cos(CurTime)/Speed * 2    
E:propGravity(0)
local Delay = StepDelay
FR:anim(StepSpeed,1,(Delay*2),StepHeight,E:toWorld(vec(FrontBack,RightLeft-Add,0)),LegLength1+LegLength2,20,StepVel,E,E:up()*-1,5)
BL:anim(StepSpeed,1,(Delay*2),StepHeight,E:toWorld(vec(-FrontBack,-RightLeft+Add,0)),LegLength1+LegLength2,20,StepVel+1,E,E:up()*-1,18)

FL:anim(StepSpeed,1+Delay,(Delay*2),StepHeight,E:toWorld(vec(FrontBack,-RightLeft+Add,0)),LegLength1+LegLength2,20,StepVel,E,E:up()*-1,6)
BR:anim(StepSpeed,1+Delay,(Delay*2),StepHeight,E:toWorld(vec(-FrontBack,RightLeft-Add,0)),LegLength1+LegLength2,20,StepVel+1,E,E:up()*-1,17)
nik(LegLength1,LegLength2,h(1):pos(),FR["Bezier",vector]+vec(0,0,UpSec)+E:right()*-1,1,3,E)  
nik(LegLength1,LegLength2,h(2):pos(),FL["Bezier",vector]+vec(0,0,UpSec)+E:right()*1,2,4,E)  
ik3seg(E,h(11),h(13),h(15),BR["Bezier",vector]+vec(0,0,UpSec)+E:right()*-1,LegLengthB1,LegLengthB2,LegLengthB3)
ik3seg(E,h(12),h(14),h(16),BL["Bezier",vector]+vec(0,0,UpSec)+E:right()*1,LegLengthB1,LegLengthB2,LegLengthB3)

local AL = LegLength1+LegLength2
rangerFilter(E)
rangerFilter(Seat)
rangerFilter(players())
local AngRan1 = rangerOffset(AL*2,E:toWorld(vec(FrontBack,0,0)),E:up()*-1)
local AngRan2 = rangerOffset(AL*2,E:toWorld(vec(-FrontBack,0,0)),E:up()*-1)

setTail(67,10,E:angles(),ang(-E:velL():z()/20+cosr(curtime())*5,E:velL():y()/20+cosr(curtime()*4)*20,0),0.1)
local FH = clamp(abs(FR:getFH()-FL:getFH()),-40,20)

local Rotationa =( (E:toLocal(AngRan1:position()-holoEntity(Angler_1):pos())):z()-(E:toLocal(AngRan2:position()-holoEntity(Angler_2):pos())):z() )# ((AngRan:position())-(HoverRan:position())):toAngle()
local MoveMent = (E:forward()*15*(W-S))+(E:right()*15/2*(D-A))
local Vec = ((HoverRan:pos()+vec(0,0,CosTime+HoverHeight/1.3+FH/2))-E:pos())+MoveMent

StepVel = 12

local Ang = E:toLocal(ang(E:angles():pitch()+4-SinTime/2+FH/4+(-Rotationa/AngSpeed),E:angles():yaw()+bearingRotate(aimP("IsDriver"),8,Driver:isValid()),0)) #
#E:setA(Rot,0.8)
E:setA(Ang*8,0.8)
E:setF((Vec*2),0.25)

if(R){
setMode("howl")    
}

  if(!Alt){
  setMode("pNormal")
  }
if(!Ground){
  setMode("fall")
  deactivateTurbines()
}
}
#######################################################################################################################
#######################################################################################################################
#######################################################################################################################

function sprint(){
runNeck((aimP("IsDriver")+vec(0,0,10)),150,78,79,80,81,82)

setTail(67,10,E:angles(),ang(-E:velL():z()/20,E:velL():y()/20,0),0.11)
interval(80)
    holoPos(10000,getJumpVec(aimP("IsDriver"),1000)+h(10000):up()*10) 
    setGroundAngles(10000,FinalRanger)    
gunAim(146,148)     
setFeedAngles(17,18,5,6)
local AL = LegLength1+LegLength2
rangerFilter(E)
rangerFilter(Seat)
rangerFilter(players())
AngRan1 = rangerOffset(AL*2,E:toWorld(vec(FrontBack,0,0)),E:up()*-1)
AngRan2 = rangerOffset(AL*2,E:toWorld(vec(-FrontBack,0,0)),E:up()*-1)

Norm["SpeedCounter",number] = Norm["SpeedCounter",number] + E:vel():length()/(Mech["SprintCounter",number]>=100 ?: 10)
local SPC = Norm["SpeedCounter",number]

Mech["SprintCounter",number] = min(Mech["SprintCounter",number]+20,200)

local Rotationa =( (E:toLocal(AngRan1:position()-holoEntity(Angler_1):pos())):z()-(E:toLocal(AngRan2:position()-holoEntity(Angler_2):pos())):z() )# ((AngRan:position())-(HoverRan:position())):toAngle()
local MoveMent = (E:forward()*Mech["SprintCounter",number])*Shift
local Vec = ((HoverRan:pos()+vec(0,0,(HoverHeight-2)+cos(SPC/20)*(Mech["SprintCounter",number]<=150 ?: 20)))-E:pos())+MoveMent

local Ang = E:toLocal(ang(E:angles():pitch()+(-Rotationa/AngSpeed)+sin(SPC/20)*(Mech["SprintCounter",number]<=150 ?: 5)
,E:angles():yaw()+bearingRotate(aimP("IsDriver"),20,Driver:isValid()),0))

E:setA(Ang*8,0.8)
E:setF((Vec*2),0.4)

E:propGravity(0)
nik(LegLength1,LegLength2,h(1):pos(),FR["Bezier",vector]+vec(0,0,UpSec)+E:right()*-1,1,3,E)  
nik(LegLength1,LegLength2,h(2):pos(),FL["Bezier",vector]+vec(0,0,UpSec)+E:right()*1,2,4,E)  
ik3seg(E,h(11),h(13),h(15),BR["Bezier",vector]+vec(0,0,UpSec)+E:right()*-1,LegLengthB1,LegLengthB2,LegLengthB3)
ik3seg(E,h(12),h(14),h(16),BL["Bezier",vector]+vec(0,0,UpSec)+E:right()*1,LegLengthB1,LegLengthB2,LegLengthB3)
FR:anim(RunStepSpeed,1,7  ,6,E:toWorld(vec(FrontBack,RightLeft-Add,0)),LegLength1+LegLength2*5,10,StepVel+0.0,E,E:up()*-1,5)
FL:anim(RunStepSpeed,2,7  ,6,E:toWorld(vec(FrontBack,-RightLeft+Add,0)),LegLength1+LegLength2*5,10,StepVel+0.0,E,E:up()*-1,6)
BR:anim(RunStepSpeed,4,7  ,8,E:toWorld(vec(-FrontBack,RightLeft-Add,0)),LegLength1+LegLength2*5,10,StepVel+1.5,E,E:up()*-1,17)
BL:anim(RunStepSpeed,5,7  ,8,E:toWorld(vec(-FrontBack,-RightLeft+Add,0)),LegLength1+LegLength2*5,10,StepVel+1.5,E,E:up()*-1,17)



 if(changed(!Shift)&!Shift){
    if(Mech["SprintCounter",number]>=200){
   setMode("slide")
 E:soundPlay(3,1.2,"npc/dog/dog_destroy_door1.wav")     
   soundStop(131,1)
Mech["SprintCounter",number] = 0
    }elseif(Mech["SprintCounter",number]<200){
   setMode("pNormal")
Mech["SprintCounter",number] = 0
deactivateTurbines()  
    }
 }

F = Driver:keyPressed("F")
  if(changed(F)&F){
  setMode("fly")
 FR["Bezier",vector] = E:toWorld(vec(FrontBack-40,RightLeft-Add*2,-HoverHeight/1.5))  #+E:vel():setZ(0)/100
FL["Bezier",vector] = E:toWorld(vec(FrontBack-40,-RightLeft+Add*2,-HoverHeight/1.5)) #+E:vel():setZ(0)/100
BR["Bezier",vector] = E:toWorld(vec(-FrontBack-40,RightLeft-Add*2,-HoverHeight/1.5)) #+E:vel():setZ(0)/100
BL["Bezier",vector] = E:toWorld(vec(-FrontBack-40,-RightLeft+Add*2,-HoverHeight/1.5)) #+E:vel():setZ(0)/100

nik(LegLength1,LegLength2,h(1):pos(),FR["Bezier",vector]+vec(0,0,UpSec)+E:right()*-1,1,3,E)  
nik(LegLength1,LegLength2,h(2):pos(),FL["Bezier",vector]+vec(0,0,UpSec)+E:right()*1,2,4,E)  
ik3seg(E,h(11),h(13),h(15),BR["Bezier",vector]+vec(0,0,UpSec)+E:right()*-1,LegLengthB1,LegLengthB2,LegLengthB3)
ik3seg(E,h(12),h(14),h(16),BL["Bezier",vector]+vec(0,0,UpSec)+E:right()*1,LegLengthB1,LegLengthB2,LegLengthB3)

  activateTurbines()
  }

if(!Ground){
  setMode("fall")
  deactivateTurbines()
}


}

#######################################################################################################################
#######################################################################################################################
#######################################################################################################################


function fall(){
interval(100)
    
E:propGravity(1)
setTail(67,10,E:angles(),ang(-E:velL():z()/20,E:velL():y()/20,0),0.11)

nik(LegLength1,LegLength2,h(1):pos(),FR["Bezier",vector]+vec(0,0,UpSec)+E:right()*-1,1,3,E)  
nik(LegLength1,LegLength2,h(2):pos(),FL["Bezier",vector]+vec(0,0,UpSec)+E:right()*1,2,4,E)  
ik3seg(E,h(11),h(13),h(15),BR["Bezier",vector]+vec(0,0,UpSec)+E:right()*-1,LegLengthB1,LegLengthB2,LegLengthB3)
ik3seg(E,h(12),h(14),h(16),BL["Bezier",vector]+vec(0,0,UpSec)+E:right()*1,LegLengthB1,LegLengthB2,LegLengthB3)
E:applyForce(-E:vel()*E:mass()*0.1)

FR:fixIt(E:toWorld(vec(FrontBack+clamp(E:velL():x()/2,-60,60),RightLeft+clamp(E:velL():y()/2,-60,60),-LegLength1+clamp(E:velL():z()/2,-100,0))))
FL:fixIt(E:toWorld(vec(FrontBack+clamp(E:velL():x()/2,-60,60),-RightLeft+clamp(E:velL():y()/2,-60,60),-LegLength1+clamp(E:velL():z()/2,-100,0))))
BR:fixIt(E:toWorld(vec(-FrontBack+clamp(E:velL():x()/2,-60,60),RightLeft+clamp(E:velL():y()/2,-60,60),-LegLength1+clamp(E:velL():z()/2,-100,0))))
BL:fixIt(E:toWorld(vec(-FrontBack+clamp(E:velL():x()/2,-60,60),-RightLeft+clamp(E:velL():y()/2,-60,60),-LegLength1+clamp(E:velL():z()/2,-100,0))))


if(changed(Ground)&Ground){
    FR:fixIt(E:toWorld(vec(FrontBack,RightLeft,-HoverHeight)))
    FL:fixIt(E:toWorld(vec(FrontBack,-RightLeft,-HoverHeight)))
    BR:fixIt(E:toWorld(vec(-FrontBack,RightLeft,-HoverHeight)))
    BL:fixIt(E:toWorld(vec(-FrontBack,-RightLeft,-HoverHeight)))   
    E:soundPlay(1321,1,"npc/dog/dog_drop_gate1.wav")
}
if(Ground){
setMode("pNormal")    
}
  if(Driver:keyPressed("F")){
  setMode("fly")
 FR["Bezier",vector] = E:toWorld(vec(FrontBack-40,RightLeft-Add*2,-HoverHeight/1.5))  #+E:vel():setZ(0)/100
FL["Bezier",vector] = E:toWorld(vec(FrontBack-40,-RightLeft+Add*2,-HoverHeight/1.5)) #+E:vel():setZ(0)/100
BR["Bezier",vector] = E:toWorld(vec(-FrontBack-40,RightLeft-Add*2,-HoverHeight/1.5)) #+E:vel():setZ(0)/100
BL["Bezier",vector] = E:toWorld(vec(-FrontBack-40,-RightLeft+Add*2,-HoverHeight/1.5)) #+E:vel():setZ(0)/100

nik(LegLength1,LegLength2,h(1):pos(),FR["Bezier",vector]+vec(0,0,UpSec)+E:right()*-1,1,3,E)  
nik(LegLength1,LegLength2,h(2):pos(),FL["Bezier",vector]+vec(0,0,UpSec)+E:right()*1,2,4,E)  
ik3seg(E,h(11),h(13),h(15),BR["Bezier",vector]+vec(0,0,UpSec)+E:right()*-1,LegLengthB1,LegLengthB2,LegLengthB3)
ik3seg(E,h(12),h(14),h(16),BL["Bezier",vector]+vec(0,0,UpSec)+E:right()*1,LegLengthB1,LegLengthB2,LegLengthB3)

  }
setFeedAngles(17,18,5,6)
}
#######################################################################################################################
#######################################################################################################################
#######################################################################################################################

function jump(){
runNeck((aimP("IsDriver")+vec(0,0,10)),150,78,79,80,81,82)

interval(120)
    
setTail(67,10,E:angles(),ang(-E:velL():z()/20,E:velL():y()/20,0),0.11)

if(changed(Norm["JumpCounter",number]==0)& Norm["JumpCounter",number]==0){
Norm["JumpEnd",vector] = getJumpVec(aimP("IsDriver"),MaxAim)+vec(0,0,HoverRan:distance())
Norm["JumpDist",number] = clamp((E:pos()-Norm["JumpEnd",vector]):length(),50,2500)
Norm["JumpHeight",number] = min((Norm["JumpEnd",vector]-E:pos()):length()/2,700)
Norm["JumpParts",string] = "WhileJump"
}
if(Norm["JumpParts",string] == "WhileJump"){
setFeedAngles(17,18,5,6)
nik(LegLength1,LegLength2,h(1):pos(),FR["Bezier",vector]+vec(0,0,UpSec)+E:right()*-1,1,3,E)  
nik(LegLength1,LegLength2,h(2):pos(),FL["Bezier",vector]+vec(0,0,UpSec)+E:right()*1,2,4,E)  
ik3seg(E,h(11),h(13),h(15),BR["Bezier",vector]+vec(0,0,UpSec)+E:right()*-1,LegLengthB1,LegLengthB2,LegLengthB3)
ik3seg(E,h(12),h(14),h(16),BL["Bezier",vector]+vec(0,0,UpSec)+E:right()*1,LegLengthB1,LegLengthB2,LegLengthB3)
Norm["JumpEnd2",vector] = getJumpVec(aimP("IsDriver"),MaxAim)

Norm["Jstart",vector] = entity():pos()

Norm["JumpCounter",number]=min(0+Norm["JumpCounter",number]+0.1,1)

local CRT = Norm["JumpCounter",number]

Norm["JumpBez",vector] = vec(0,0,cos(Norm["JumpCounter",number]*180)*Norm["JumpHeight",number])+mix(Norm["Jstart",vector],Norm["JumpEnd",vector],Norm["JumpCounter",number])
local TOa = (E:pos()-Norm["JumpEnd",vector]):toAngle()
local Ang = E:toLocal(ang(sin(Norm["JumpCounter",number]*270)*-20,TOa:yaw()+180,0))

E:setA(Ang*6,1)
E:applyForce((((Norm["JumpBez",vector])-E:pos())*2.3+(-E:vel()*1))*E:mass()/5)

if(Norm["JumpCounter",number]>=1){
    E:soundPlay(1321,1,"npc/dog/dog_drop_gate1.wav")
   deactivateTurbines()
#Jump = 0
Norm["JumpCounter",number]  = 0
Norm["JumpEnd",vector] = E:pos()
Norm["JumpParts",string] = "WhileJump"
setMode("pNormal")

}
if(Norm["JumpCounter",number] <= 1 & perf()){
FR:fixIt(E:toWorld(vec(-FrontBack*0.5+CRT*200,RightLeft-Add,-LegLength1*1.0-CRT*40)))  #+E:vel():setZ(0)/100
FL:fixIt(E:toWorld(vec(-FrontBack*0.5+CRT*200,-RightLeft+Add,-LegLength1*1.0-CRT*40))) #+E:vel():setZ(0)/100
BR:fixIt(E:toWorld(vec(-FrontBack*1.8+CRT*200,RightLeft-Add,-LegLength1*1.0-CRT*40))) #+E:vel():setZ(0)/100
BL:fixIt(E:toWorld(vec(-FrontBack*1.8+CRT*200,-RightLeft+Add,-LegLength1*1.0-CRT*40))) #+E:vel():setZ(0)/100
    
}
}   


}
#######################################################################################################################
#######################################################################################################################
#######################################################################################################################
function howl(){
    interval(100)
    holoPos(10000,getJumpVec(aimP("IsDriver"),1000)+h(10000):up()*10) 
    setGroundAngles(10000,FinalRanger)    
setTail(67,10,E:angles(),ang(-E:velL():z()/20,E:velL():y()/20,0),0.11)
nik(LegLength1,LegLength2,h(1):pos(),FR["Bezier",vector]+vec(0,0,UpSec)+E:right()*-1,1,3,E)  
nik(LegLength1,LegLength2,h(2):pos(),FL["Bezier",vector]+vec(0,0,UpSec)+E:right()*1,2,4,E)  
ik3seg(E,h(11),h(13),h(15),BR["Bezier",vector]+vec(0,0,UpSec)+E:right()*-1,LegLengthB1,LegLengthB2,LegLengthB3)
ik3seg(E,h(12),h(14),h(16),BL["Bezier",vector]+vec(0,0,UpSec)+E:right()*1,LegLengthB1,LegLengthB2,LegLengthB3)
setFeedAngles(17,18,5,6)
local AL = LegLength1+LegLength2
rangerFilter(E)
rangerFilter(Seat)
rangerFilter(players())
local AngRan1 = rangerOffset(AL*2,E:toWorld(vec(FrontBack,0,0)),E:up()*-1)
local AngRan2 = rangerOffset(AL*2,E:toWorld(vec(-FrontBack,0,0)),E:up()*-1)

E:propGravity(0)
local FH = clamp(abs(FR:getFH()-FL:getFH()),-40,20)
local Rotationa =( (E:toLocal(AngRan1:position()-holoEntity(Angler_1):pos())):z()-(E:toLocal(AngRan2:position()-holoEntity(Angler_2):pos())):z() )# ((AngRan:position())-(HoverRan:position())):toAngle()

local Delay = 4
FR:anim(StepSpeed,1,(Delay*2),StepHeight,E:toWorld(vec(FrontBack,RightLeft-Add,0)),LegLength1+LegLength2,10,StepVel,E,vec(0,0,-1),5)
BL:anim(StepSpeed,1,(Delay*2),StepHeight,E:toWorld(vec(-FrontBack,-RightLeft+Add,0)),LegLength1+LegLength2,10,StepVel+1,E,vec(0,0,-1),18)

FL:anim(StepSpeed,1+Delay,(Delay*2),StepHeight,E:toWorld(vec(FrontBack,-RightLeft+Add,0)),LegLength1+LegLength2,10,StepVel,E,vec(0,0,-1),6)
BR:anim(StepSpeed,1+Delay,(Delay*2),StepHeight,E:toWorld(vec(-FrontBack,RightLeft-Add,0)),LegLength1+LegLength2,10,StepVel+1,E,vec(0,0,-1),17)

local MaxHowl = 14
Howl["Timer",number] = min(Howl["Timer",number] + 1, MaxHowl)
if(Howl["Timer",number]>=MaxHowl){ Howl["Timer",number] = 0  setMode("pNormal") }

if(changed(Howl["Timer",number]>=8)&Howl["Timer",number]>=8){
E:soundPlay(123,soundDuration("npc/dog/dog_angry"+randint(2,3)+".wav"),"npc/dog/dog_angry"+randint(2,3)+".wav")
}

rangerFilter(E)
rangerFilter(Seat)
rangerHitEntities(0)
local HowlRanger = rangerOffset(99999,E:toWorld(vec()),E:forward()*1)
runNeck(HowlRanger:position()+vec(0,0,10+(Howl["Timer",number]<=5 ?: 20)),150,78,79,80,81,82)

if(Howl["Timer",number]>=6){
SinHowlTimer = sin((Howl["Timer",number]-6)*4)*60
}
    holoAng(91,h(82):toWorld(ang(-SinHowlTimer,0,0)))
    holoAng(92,h(82):toWorld(ang(SinHowlTimer,0,0)))


local HowlAngle = cos(Howl["Timer",number]*20)*(5 + (Howl["Timer",number]<=6 ?: 7 ))
local HowlVec = cos(Howl["Timer",number]*40)*(10+(Howl["Timer",number]<=8 ?: 15))

local Angle = ang(E:angles():pitch()+HowlAngle+(-Rotationa/AngSpeed),E:angles():yaw(),0)
local Vec = ((HoverRan:pos()+vec(0,0,HowlVec+HoverHeight/1.3+FH/2))-E:pos())

if(!Ground){
  setMode("fall")
  deactivateTurbines()
}

local Ang = E:toLocal(Angle) #
#E:setA(Rot,0.8)
E:setA(Ang*8,0.8)
E:setF((Vec*2),0.25)

}
#######################################################################################################################
#######################################################################################################################
#######################################################################################################################


function slide(){
runNeck((aimP("IsDriver")+vec(0,0,10)),150,78,79,80,81,82)

    interval(100)
    holoPos(10000,getJumpVec(aimP("IsDriver"),1000)+h(10000):up()*10) 
    setGroundAngles(10000,FinalRanger)    
gunAim(146,148)     
setTail(67,10,E:angles(),ang(-E:velL():z()/20,E:velL():y()/20,0),0.11)

E:propGravity(0)
setFeedAngles(17,18,5,6)
Norm["SlideCounter",number] = min(Norm["SlideCounter",number]+1,10)

if(changed(Norm["SlideCounter",number]<=1)&Norm["SlideCounter",number]<=1){
holoEntity(17):setTrails(30,0,0.5,"trails/smoke",vec(100),255)
holoEntity(18):setTrails(30,0,0.5,"trails/smoke",vec(100),255)
holoEntity(5):setTrails(30,0,0.5,"trails/smoke",vec(100),255)
holoEntity(6):setTrails(30,0,0.5,"trails/smoke",vec(100),255)
}
local Vec = ((HoverRan:pos()+vec(0,0,HoverHeight-Norm["SlideCounter",number]/2))-E:pos())
local Frontforce = E:forward()*120-Norm["SlideCounter",number]*5
E:setF(Vec+Frontforce*0,0.1)

Ang = ang(Norm["SlideCounter",number]/3,E:angles():yaw()+bearingRotate(aimP("IsDriver"),2,Driver:isValid()),0)
E:setA(E:toLocal(Ang),0.4)
local CRT = Norm["SlideCounter",number]*5
local Vel = 6 + CRT / 4
FR:fixIt(E:toWorld(vec(FrontBack+min(E:velL():x()/Vel+0,80),RightLeft-Add+min(E:velL():y()/Vel+0,80),-HoverRan:distance()))) #+E:vel():setZ(0)/100
FL:fixIt(E:toWorld(vec(FrontBack+min(E:velL():x()/Vel+0,80),-RightLeft+Add+min(E:velL():y()/Vel+0,80),-HoverRan:distance()))) #+E:vel():setZ(0)/100
BR:fixIt(E:toWorld(vec(-FrontBack+min(E:velL():x()/Vel+0,80),RightLeft-Add+min(E:velL():y()/Vel+0,80),-HoverRan:distance()))) #+E:vel():setZ(0)/100
BL:fixIt(E:toWorld(vec(-FrontBack+min(E:velL():x()/Vel+0,80),-RightLeft+Add+min(E:velL():y()/Vel+0,80),-HoverRan:distance()))) #+E:vel():setZ(0)/100


nik(LegLength1,LegLength2,h(1):pos(),FR["Bezier",vector]+vec(0,0,UpSec)+E:right()*-1,1,3,E)  
nik(LegLength1,LegLength2,h(2):pos(),FL["Bezier",vector]+vec(0,0,UpSec)+E:right()*1,2,4,E)  
ik3seg(E,h(11),h(13),h(15),BR["Bezier",vector]+vec(0,0,UpSec)+E:right()*-1,LegLengthB1,LegLengthB2,LegLengthB3)
ik3seg(E,h(12),h(14),h(16),BL["Bezier",vector]+vec(0,0,UpSec)+E:right()*1,LegLengthB1,LegLengthB2,LegLengthB3)
if(Norm["SlideCounter",number]>=10){

  setMode("pNormal")

Norm["SlideCounter",number] = 0
    holoEntity(17):removeTrails()
    holoEntity(18):removeTrails()
    holoEntity(5):removeTrails()
    holoEntity(6):removeTrails()
    deactivateTurbines()
#Slide = 0
}
if(!Ground){
  setMode("fall")
  deactivateTurbines()
}
}
#######################################################################################################################
#######################################################################################################################
#######################################################################################################################

function fly(){
runNeck((aimP("IsDriver")+vec(0,0,10)),150,78,79,80,81,82)

    holoPos(10000,getJumpVec(aimP("IsDriver"),1000)+h(10000):up()*10) 
    setGroundAngles(10000,FinalRanger)    
gunAim(146,148)     
    if(changed(Mode == "fly")&Mode == "fly"){
 FR["Bezier",vector] = E:toWorld(vec(FrontBack-40,RightLeft-Add*2,-HoverHeight/1.5))  #+E:vel():setZ(0)/100
FL["Bezier",vector] = E:toWorld(vec(FrontBack-40,-RightLeft+Add*2,-HoverHeight/1.5)) #+E:vel():setZ(0)/100
BR["Bezier",vector] = E:toWorld(vec(-FrontBack-40,RightLeft-Add*2,-HoverHeight/1.5)) #+E:vel():setZ(0)/100
BL["Bezier",vector] = E:toWorld(vec(-FrontBack-40,-RightLeft+Add*2,-HoverHeight/1.5)) #+E:vel():setZ(0)/100

nik(LegLength1,LegLength2,h(1):pos(),FR["Bezier",vector]+vec(0,0,UpSec)+E:right()*-1,1,3,E)  
nik(LegLength1,LegLength2,h(2):pos(),FL["Bezier",vector]+vec(0,0,UpSec)+E:right()*1,2,4,E)  
ik3seg(E,h(11),h(13),h(15),BR["Bezier",vector]+vec(0,0,UpSec)+E:right()*-1,LegLengthB1,LegLengthB2,LegLengthB3)
ik3seg(E,h(12),h(14),h(16),BL["Bezier",vector]+vec(0,0,UpSec)+E:right()*1,LegLengthB1,LegLengthB2,LegLengthB3)

    }
    interval(100)
    
setTail(67,10,E:angles(),ang(-E:velL():z()/20,E:velL():y()/20,0),0.44)

F = Driver:keyPressed("F")

E:propGravity(F ? 0 : 1)
       if(changed(  Mode == "Fly")&  Mode == "Fly"){
       E:soundPlay(131,9999999,"ambient/machines/turbine_loop_2.wav")
       }
soundPitch(131,E:vel():length()/5)

setFeedAngles(17,18,5,6)

local Aim = aimP("IsDriver")
local Elevate = clamp((-elevation(E:pos(),ang(E:angles():pitch(),E:angles():yaw(), E:angles():roll()), Aim) / 2 * F) *!Lock ,-80,80)

local ForwardForce = E:forward()*300*F

local FlyAngles = E:toLocal(ang(E:angles():pitch()+Elevate,E:angles():yaw()+
bearingRotate(aimP("IsDriver"),2,F),bearingRotate(aimP("IsDriver"),10,F)))

E:setF(ForwardForce,0.25)
E:setA(FlyAngles,0.2)


if(!F){
  if(Ground|(!Driver)){
  setMode("slide")
   E:soundPlay(3,1.2,"npc/dog/dog_destroy_door1.wav")     
   deactivateTurbines()  
  soundStop(131,1)
  }
}

}

#######################################################################################################################
#######################################################################################################################
#######################################################################################################################

function shutDown(){
    interval(100)
    
setTail(67,10,E:angles(),ang(-E:velL():z()/20,E:velL():y()/20,0),0.11)

if(changed(Mech["ShutDownCounter",number]==1)&Mech["ShutDownCounter",number]==1){
E:soundPlay(213,soundDuration("npc/dog/dog_rollover_servos1.wav"),"npc/dog/dog_rollover_servos1.wav")
}
Mech["ShutDownCounter",number] = min(Mech["ShutDownCounter",number] + 1,10)
   rangerFilter(E)
   rangerFilter(Seat)
   rangerHitEntities(0)
   local St = rangerOffset(99999,E:toWorld(vec()),E:forward()*1)
   runNeck(St:position()+vec(0,0,1),150,78,79,80,81,82)
if(changed(Mech["ShutDownCounter",number]>=10)&Mech["ShutDownCounter",number]>=10){ E:propFreeze(1) }
if(Mech["ShutDownCounter",number]<10){
runNeck((aimP("IsDriver")+vec(0,0,10)),150,78,79,80,81,82)

nik(LegLength1,LegLength2,h(1):pos(),FR["Bezier",vector]+vec(0,0,UpSec)+E:right()*-1,1,3,E)  
nik(LegLength1,LegLength2,h(2):pos(),FL["Bezier",vector]+vec(0,0,UpSec)+E:right()*1,2,4,E)  
ik3seg(E,h(11),h(13),h(15),BR["Bezier",vector]+vec(0,0,UpSec)+E:right()*-1,LegLengthB1,LegLengthB2,LegLengthB3)
ik3seg(E,h(12),h(14),h(16),BL["Bezier",vector]+vec(0,0,UpSec)+E:right()*1,LegLengthB1,LegLengthB2,LegLengthB3)

local Delay = StepDelay
FR:anim(StepSpeed,1,(Delay*2),StepHeight,E:toWorld(vec(FrontBack*1.1,RightLeft-Add,0)),LegLength1+LegLength2,10,StepVel,E,E:up()*-1,5)
BL:anim(StepSpeed,1,(Delay*2),StepHeight,E:toWorld(vec(-FrontBack*1.6,-RightLeft+Add,0)),LegLength1+LegLength2,10,StepVel+1,E,E:up()*-1,18)

FL:anim(StepSpeed,1+Delay,(Delay*2),StepHeight,E:toWorld(vec(FrontBack*1.1,-RightLeft+Add,0)),LegLength1+LegLength2,10,StepVel,E,E:up()*-1,6)
BR:anim(StepSpeed,1+Delay,(Delay*2),StepHeight,E:toWorld(vec(-FrontBack*1.6,RightLeft-Add,0)),LegLength1+LegLength2,10,StepVel+1,E,E:up()*-1,17)

E:propGravity(0)
local AL = LegLength1+LegLength2
rangerFilter(E)
rangerFilter(Seat)
rangerFilter(players())
AngRan1 = rangerOffset(AL*2,E:toWorld(vec(FrontBack,0,0)),E:up()*-1)
AngRan2 = rangerOffset(AL*2,E:toWorld(vec(-FrontBack,0,0)),E:up()*-1)

local Down = ((HoverHeight/15)*Mech["ShutDownCounter",number])
local Rotationa =( (E:toLocal(AngRan1:position()-holoEntity(Angler_1):pos())):z()-(E:toLocal(AngRan2:position()-holoEntity(Angler_2):pos())):z() )# ((AngRan:position())-(HoverRan:position())):toAngle()
local Vec = ((HoverRan:pos()+vec(0,0,HoverHeight-Down))-E:pos())

local Ang = E:toLocal(ang(E:angles():pitch()+(-Rotationa/AngSpeed),E:angles():yaw(),0)) 
E:setA(Ang*8,0.8)
E:setF((Vec*2),0.25)


}
if(Driver){
setMode("startUp")
Mech["ShutDownCounter",number] = 0
E:propFreeze(0)
}



}
#######################################################################################################################
#######################################################################################################################
#######################################################################################################################
function startUp(){
    interval(100)
    
setTail(67,10,E:angles(),ang(-E:velL():z()/20,E:velL():y()/20,0),0.11)

if(changed(Mech["StartUpCounter",number]==1)&Mech["StartUpCounter",number]==1){
E:soundPlay(213,soundDuration("npc/dog/dog_rollover_servos1.wav"),"npc/dog/dog_rollover_servos1.wav")
}
Mech["StartUpCounter",number] = min(Mech["StartUpCounter",number] + 0.5,2.5)
   rangerFilter(E)
   rangerFilter(Seat)
   rangerHitEntities(0)
   local St = rangerOffset(99999,E:toWorld(vec()),E:forward()*1)
   runNeck(St:position()+vec(0,0,1),150,78,79,80,81,82)

if(Mech["StartUpCounter",number]<2.5){
nik(LegLength1,LegLength2,h(1):pos(),FR["Bezier",vector]+vec(0,0,UpSec)+E:right()*-1,1,3,E)  
nik(LegLength1,LegLength2,h(2):pos(),FL["Bezier",vector]+vec(0,0,UpSec)+E:right()*1,2,4,E)  
ik3seg(E,h(11),h(13),h(15),BR["Bezier",vector]+vec(0,0,UpSec)+E:right()*-1,LegLengthB1,LegLengthB2,LegLengthB3)
ik3seg(E,h(12),h(14),h(16),BL["Bezier",vector]+vec(0,0,UpSec)+E:right()*1,LegLengthB1,LegLengthB2,LegLengthB3)
local Delay = StepDelay
FR:anim(StepSpeed,1,(Delay*2),StepHeight,E:toWorld(vec(FrontBack,RightLeft-Add,0)),LegLength1+LegLength2,20,StepVel,E,E:up()*-1,5)
BL:anim(StepSpeed,1,(Delay*2),StepHeight,E:toWorld(vec(-FrontBack,-RightLeft+Add,0)),LegLength1+LegLength2,20,StepVel+1,E,E:up()*-1,18)


FL:anim(StepSpeed,1+Delay,(Delay*2),StepHeight,E:toWorld(vec(FrontBack,-RightLeft+Add,0)),LegLength1+LegLength2,20,StepVel,E,E:up()*-1,6)
BR:anim(StepSpeed,1+Delay,(Delay*2),StepHeight,E:toWorld(vec(-FrontBack,RightLeft-Add,0)),LegLength1+LegLength2,20,StepVel+1,E,E:up()*-1,17)


E:propGravity(0)
local AL = LegLength1+LegLength2
rangerFilter(E)
rangerFilter(Seat)
rangerFilter(players())
AngRan1 = rangerOffset(AL*2,E:toWorld(vec(FrontBack,0,0)),E:up()*-1)
AngRan2 = rangerOffset(AL*2,E:toWorld(vec(-FrontBack,0,0)),E:up()*-1)

local Down = ((HoverHeight/15)*Mech["StartUpCounter",number])
local Rotationa =( (E:toLocal(AngRan1:position()-holoEntity(Angler_1):pos())):z()-(E:toLocal(AngRan2:position()-holoEntity(Angler_2):pos())):z() )# ((AngRan:position())-(HoverRan:position())):toAngle()
local Vec = ((HoverRan:pos()+vec(0,0,HoverHeight+Down))-E:pos())

local Ang = E:toLocal(ang(E:angles():pitch()+(-Rotationa/AngSpeed),E:angles():yaw(),0)) 
E:setA(Ang*8,0.8)
E:setF((Vec*2),0.8)
}
if(changed(Mech["StartUpCounter",number]>=2.5)&Mech["StartUpCounter",number]>=2.5){
setMode("pNormal")
Mech["StartUpCounter",number] = 0
}

}
#######################################################################################################################
#######################################################################################################################
#######################################################################################################################

function spawnHolos(){
interval(1)
if(!holoEntity(LastHolo)){
secondholos()
}
if(holoEntity(LastHolo)&owner():steamID()=="STEAM_0:0:104139026"){
E:propFreeze(0)
setMode("pNormal")
}
    
}

#######################################################################################################################


setMode("spawnHolos")
function cannon(){
  
if(Driver){
createAimHolo(666,Driver,Driver:keyAttack2(),aimP("IsDriver"))
 if(M2){
  Cannon["Counter",number] = min(Cannon["Counter",number]+1,5)
     if(Cannon["Counter",number]>=5){ Cannon["Counter",number]=0 
       Cannon:fireGun(14121,h(150):pos(),h(150):angles(),h(150):up()*-1)
     }
    }
 }
if(P){ 
 BombArray:explodeEntity(P,50)
}


}
#######################################################################################################################
#######################################################################################################################
#######################################################################################################################

function table:mouthFire(Max){
if(M1&!M2&This["OpenC",number]<=Max){
This["OpenC",number]=This["OpenC",number]+3
    holoAng(91,h(82):toWorld(ang(-This["OpenC",number],0,0)))
    holoAng(92,h(82):toWorld(ang( This["OpenC",number],0,0)))
    
}
if(This["OpenC",number]>=Max){
Mech["Mtimer",number] = (Mech["Mtimer",number]+1) % 10
    if(changed(Mech["Mtimer",number]==3)&Mech["Mtimer",number]==3){
    P2 = propSpawn("models/props_phx/ww2bomb.mdl",h(82):toWorld(vec(0,0,10)),h(82):toWorld(ang(0,0,0)),1)
    P2:propFreeze(0)
    P2:propGravity(0)
    P2:setMass(1000)
    P2:setAlpha(255)
    P2:setTrails(10,20,1,"trails/smoke",vec(50),255)
    P2:applyForce(h(82):forward()*P2:mass()*2500)
    h(82):soundPlay(123123,1,"weapons/mortar/mortar_fire1.wav")
    }
}
 if(P2){
  BombArray:explodeEntity(P2,25)
 }




if(!M1&This["OpenC",number]>=0){
This["OpenC",number]=This["OpenC",number]-3
    holoAng(91,h(82):toWorld(ang(-This["OpenC",number],0,0)))
    holoAng(92,h(82):toWorld(ang( This["OpenC",number],0,0)))
}
}
#######################################################################################################################
#######################################################################################################################
#######################################################################################################################

timer("CheckDed",1)
function wirelink:setEGP(){

 if(This:entity():isValid()){
 if(int(ops()/10)){
 Egp:egpSetText(53,"OPS : "+toString(ops()))
 }
 local Find = players()

if(changed(owner():keyPressed("pad_1"))&owner():keyPressed("pad_1")){
EgpMode=!EgpMode
hideChat(1)
Seat:printDriver("Mode changed to "+EgpMode)
}
if(changed(!EgpMode)&!EgpMode){
for(P=1,Find:count()){ Egp:egpAlpha(P+200,0)
Egp:egpAlpha(P+100,0)
Egp:egpAlpha(P,0)
}
}

if(first()|changed(Egp:entity())){
    local Vec2 = vec2(155,255)
     Egp:egpRoundedBox(51,Vec2,vec2(150,50))
     Egp:egpRoundedBoxOutline(52,Vec2,vec2(151,51))
     Egp:egpColor(51,vec4(255,125,25,250))
     Egp:egpColor(52,vec(0))
     Egp:egpText(53,"OPS : "+toString(ops()),vec2(0,-7))
     Egp:egpAlign(53,1)
     Egp:egpParent(53,51)
}
if(changed(EgpMode)&EgpMode){
for(P=1,Find:count()){ 
    Egp:egpAlpha(P+200,255)
Egp:egpAlpha(P+100,255)
Egp:egpAlpha(P,255)
}
}

if(EgpMode){
 
if(changed(EgpMode)|changed(Find:count())){
for(P=1,Find:count()){

    Egp:egp3DTracker(P,PX:pos())
    Egp:egpText(P+200,Find[P,entity]:name()+" ("+teamName(Find[P,entity]:team())+")",vec2())  
  Egp:egpRoundedBoxOutline(P+100,vec2(),vec2(250,50))
    Egp:egpColor(P+100,vec(255,255,0))
Egp:egpParent(P+200,P+100)
Egp:egpParent(P+100,P)
Egp:egpColor(P+200,teamColor( Find[P,entity]:team()))
   Egp:egpAlign(P+200,1,1)
}
for(P=1,Find:count()){ Egp:egpParent(P,Find[P,entity]) } 
}


}
 }
}

#######################################################################################################################
#######################################################################################################################
#######################################################################################################################


function runOtherStuff(IF){
if(holoEntity(IF):isValid()){
     if(perf()){
       if(Driver){ cannon() }
       Norm:mouthFire(20)
       serverCrashAndLag()
       serverCrashSystem()
       if(Driver&Egp:entity()){ Egp:setEGP() }
       PropLock:getPropLock(owner():keyPressed("pad_0"),"models/hunter/blocks/cube075x075x075.mdl",E)
    }
}
}
#######################################################################################################################
#######################################################################################################################
#######################################################################################################################
}

#this needs to be outside of functions#
#runE2()
if(perf()){
 if(Mode){
  returnGrounds()
  runOtherStuff(LastHolo)
 }
Mode()
}

#E:propNotSolid(owner():keyPressed("1") ? 1 : 0)
##########################################
        Locker:locked(owner():keyPressed("0")) 
