@name SexyAssTardis
@inputs 
@outputs 
@persist 
@trigger 

#[
Tardis
Welp Version Fuck Who Knows
Written By Raf
For Scripty Legs
]#
E = entity()
if(first()){
   for(I=0,100){
    holoCreate(I)
    holoParent(I,E)
    }    
}

holoScale(1,vec(10,10,10))

