@name sShop16 Final
@inputs Scr:wirelink UserTrigger:entity Moneypot:wirelink
@outputs PrivacyDoor MoneyOpen

@persist [UserData Users Cache Config Meta Chat ChatHelp Session Anim]:table
@persist [Owner Entity User ScrEnt]:entity
@persist UseHold UseTimeout Menu UserID:string LastMoney
@persist IdleTimer Cursor:vector2
@persist Time
@trigger Scr UserTrigger
@model models/hunter/plates/plate.mdl 

#[
    // Beforehand //
    Hi, I'm Scriptis.
    
    ##################################################
    # steamcommunity.com/id/dakota99/ (Main account) #
    # steamcommunity.com/id/dakota98/    (Garrysmod) #
    ##################################################
    
    // sShop16 //
    Extremely overdue.  This chip was originally scheduled to be released in November 2013.
    However, said wait has given me time to optimize my coding patterns and this chip
    should run cold even under high stress.
    
    // Usage //
    - Spawn an EGP, anywhere.
    - Spawn users pointed towards your shipments.
    - Spawn the chip near the EGP.
    - The chip will auto-wire itself.
    
    - Say .wire if you need to rewire everything.
    - Say .detect if you add any more users.
    
    Shipments are re-detected whenever a shop menu is loaded and right before
    a vend takes place.  You will be notified of changes through chat.
    
    This chip seriously takes no effort to use.  It's designed to do everything.
    
    // Additional Commands //
    .s lockdown <on/off>
        Sets sShop16 to lockdown mode.  In this state, the screen can't be interacted with.
        (Pending purchases will still finish.)
    
    .s discount <item> <discount> [time]
        Discounting system.
        <item> - The name of the item to add a discount to.
        <discount> - Discount syntax for item.
        [time] - If set, the discount will expire after x seconds.
    
    .s bundle <name> <discount> <item> <item> [item] [item] ... [time]
        Item bundling system.
        <name> - Name of bundle.
        <discount> - Discount syntax for price.
        <item>, [item] - Name of an item in the system.
        [time] - If set, the bundle will expire after x seconds.
        
    .s bundle remove <name>
        Removes a bundle.
        
    .s discount remove <name>
        Removes a discount.
        
    .s autosales <on/off>
        Enables auto sales.  Every one to ten minutes, sShop16 will generate a random bundle
        based on collected statistics, and will add it to the system unless cancelled through
        chat with .s decline.
    
    .s ldiscount - Lists all active discounts.
    
    .s help - Prints commands into chat.
    
    .s rhelp - Prints commands and their function calls into chat.
    
    .s confirm - Internal command.  Confirms a user input request.
    .s decline - Internal command.  Declines a user input request.
    
    .s detect - Reloads available shipments from detected users.
    .s wire [radius=infinite] - Wires all users, the nearest EGP, and the nearest moneypot to the chip in radius.
    
    // Discount Syntax //
    Certain commands use a special syntax, shown as such: <$value%>
    This means that you can use the following value types:
        $x - Discount $x from product.
        %x - Discount x% from product.
        $$x - Set absolute price to $x.
    
    // License //
    None of my projects have a license.  However,
    
    *** I WILL PUNCH YOU IN THE FACE IF YOU PLAGIARIZE MY CODE. ***
    
    You are free to modify, edit, and transform upon this code.
    Just, for the love of god, don't write your name all over it
    like some idiot.  And don't sell copies of this code for ingame
    RP cash or otherwise-- it's open-source and free for a reason, you
    twit.
]#

##########################
### Execution Triggers ###
##########################

interval(100)   # Def 100 (<200 ops), can be changed to 200-300 to run at <100 ops
runOnChat(1)    # Required.

###########################
### Lots of Definitions ###
###########################

if(first()) {
    ############
    ## Config ##
    ############
    Config["Interest",number]=1.15                  # Base profit modifier
    
    Config["GlUserData",number]=1                   # Whether or not to back up userdata when last() is reached.
    Config["GlTable",string]="sShop16_UserData"     # The gTable to back up to if GlUserData is active.
    
    Config["UserRange",number]=300                  # Range of users.
    
    Config["AutoAdvert",number]=1                   # Automatically send ads through player chat.
    Config["AdvertTimer",number]=600                # Seconds between advertisements.
    
    Config["Locked",number]=0                       # .lockdown value    
    
    Config["HideChat",number]=1                     # Whether or not to hide commands from chat
    
    Config["MOTD",table]=table(                     # sShop16 MOTD - Leave messages for your customers.
        1=table(
            "Text"="Release 4.1.0: First stable release.  Includes general item vending.",
            "Timestamp"="September 5, 2015"
        ),
        2=table(
            "Text"="Release 4.0.0: Replaces 3.0 in favor of a complete rewrite.",
            "Timestamp"="July 5, 2015"
        )
    )
    
    ###################
    ## Miscellaneous ##
    ###################
    
    Owner=owner()
    Entity=entity()
    ScrEnt=Scr:entity()
    Use=0
    
    #####################
    ## Debug Overrides ##
    #####################
    function string entity:shipmentClass() {return This:shipmentType()}
    # function string entity:shipmentName() {}
    # function number entity:shipmentAmount() {}
    
    ##############################
    ## Self-Wire & AddShipments ##
    ##############################
    
    function string getShipmentClass(Entity:entity) {
        if(!Entity:isShipment()){return "Not a shipment"}
        Entity:shipmentClass() # fix for weird medkit bug
        
        local BaseClass=Entity:shipmentClass()
        local BaseName=Entity:shipmentName()
        switch(BaseName) {
            # Special class exceptions
            case "Nano-Flex Ammo",
                BaseClass="ammo"
            break
            case "Armor",
                BaseClass="armor"
            break
            case "Medkit",
                BaseClass="Medkit"
            break
            default,break
        }
        return BaseClass
    }
    
    function number checkShipments() {
        foreach(I,V:table=Users) {
            if(!V["Ranger",wirelink]:entity():isValid()){
                Users:removeTable(I)
                printColor(vec(255,255,0),"[sShop-F] ",vec(255),"User removed.")
                continue
            }
            
            local Ranger=ranger(V["Ranger",wirelink]:entity(),Config["UserRange",number])
            local Hit=Ranger:entity()
            local IsShipment=Hit:isShipment()
            local Class=getShipmentClass(Hit)
            
            if(!Hit | !Hit:isShipment()) {
                printColor(vec(255,255,0),"[sShop-F] ",vec(255),"Shipment removed: ",vec(255,0,0),V["Class",string])
            } elseif (Hit:isShipment() & Class!=V["Class",string]) {
                printColor(vec(255,255,0),"[sShop-F] ",vec(255),"Shipment changed: ",vec(255,0,0),V["Class",string],vec(255)," to ",vec(0,255,0),Class)
            }
            
            Users[I,table]=table("Class"=Class,"Entity"=Hit,"Ranger"=V["Ranger",wirelink],"Active"=IsShipment)
        }
    }
    
    function array addShipments(Junk:array) {
        Users:clear()
        local ShipmentCt=0
        local UserCt=0
        if(Junk:count()==0) {
            findByClass("gmod_wire_user")
            foreach(I,V:entity=findToArray()) {
                if(V:owner()==Owner) {
                    UserCt++
                    local Ranger=ranger(V,Config["UserRange",number])
                    local Hit=Ranger:entity()
                    if(Hit:isShipment()) {
                        local Class=getShipmentClass(Hit)
                        if(Users[Class,table]["Active",number]) {
                            printColor(vec(255,255,0),"[sShop-F] ",vec(255),"Shipment conflict: ",vec(255,0,0),Class)
                        }
                        Users[Class,table]=table("Class"=Class,"Entity"=Hit,"Ranger"=V:wirelink(),"Active"=1)
                        ShipmentCt++
                    }
                }
            }
            printColor(vec(255,255,0),"[sShop-F] ",vec(0,255,0),UserCt,vec(255)," users linked, with ",vec(0,255,0),ShipmentCt,vec(255)," shipments.")
        } else {
            foreach(I,V:table=Users) {
                if(!V["Ranger",wirelink]:entity()) {
                    printColor(vec(255,255,0),"[sShop-F] ",vec(255,0,0),"A user has been deleted.")
                    Users:removeTable(I)
                    continue
                }
                local Ranger=ranger(V["Ranger",wirelink]:entity(),V["UserRange",number])
                
            }
        }
        return array(ShipmentCt,UserCt)
    }
    
    function number selfWire(Args:array) {
        if(!Scr | !UserTrigger) {
            findByClass("gmod_wire_egp")
            local EGP=findClosest(Entity:pos())
            
            if(EGP) {
                Entity:createWire(EGP,"Scr","wirelink")
                Entity:createWire(EGP,"UserTrigger","User")
                ScrEnt=EGP
            } else {
                hint("[sShop-F Self-Wire] Could not detect a Wire EGP.",5)
                hint("[sShop-F Self-Wire] Spawn one and say '.wire'.",5)
            }
            
            printColor(vec(255,255,0),"[sShop-F] ",vec(0,255,0),"Wire EGP",vec(255)," linked.")
        }
        
        # Add shipments
        addShipments(array())
        printColor(vec(255,255,0),"[sShop-F] ",vec(255),"Self-wire completed.")
        
        return 1
    }
    
    selfWire(array())
    
    ###############
    ## Functions ##
    ###############
    
    # Global getPrice Function
    function number getPrice(Shipment:string,Count) {
        local BasePrice=Meta["Shipment",table][Shipment,array][4,number]
        
        return ceil(
            BasePrice # base
            *Config["Interest",number] # global interest modifier
            *Count # assume all objects have the same price until advanced discount
        )
    }
    
    # Global total calculator
    function number recalculateTotals(Bundles,Singles) {
        local Current=0
        
        if(Singles) {
            foreach(Shipment,Count:number=Session["Cart",table]) {
                Current+=getPrice(Shipment,Count)
            }
        }
        
        return Current
    }
    
    # Get egpAngle to a vector
    function number heading(Wirelink:wirelink,Center:vector) {
        local Ent=Wirelink:entity()
        local Pos=Ent:toLocal(Center)
        return (vec2(Pos:x(),Pos:y())):toAngle()
    }
    
    # Optimized hover functions for one EGP
    function number wirelink:cache(I:number) {
        local Center=This:egpPos(I)
        local Size2=This:egpSize(I)/2
        
        Cache[I,array]=array(Center-Size2,Center+Size2)
        return 1
    }
    
    function number wirelink:cacheStatic(I:number,Center:vector2) {
        local Center=This:egpPos(I)
        local Size2=This:egpSize(I)/2
        
        Cache[I,array]=array(Center-Size2,Center+Size2)
        return 1
    }
    
    function number wirelink:cacheUnparent(I:number) {
        local Center=This:egpPos(I)
        local Size2=This:egpSize(I)/2
        local Parent=Scr:egpParent(I)
        
        local Iteration=0
        
        while(Parent!=0) {
            Iteration++
            if(Iteration>10) {
                printColor(vec(255,0,0),"[sShop-F] ",vec(255,0,0),"CRITICAL: cacheUnparent exceeded 10 iterations while caching object ",vec(255,0,0),""+I,vec(255,0,0),"!")
                printColor(vec(255,0,0),"[sShop-F] ",vec(255,0,0),"If you've done nothing to cause this, post about it on the forums immediately!")
                break
            }
            Center+=Scr:egpPos(Parent)
            Parent=Scr:egpParent(Parent)
        }
        
        Cache[I,array]=array(Center-Size2,Center+Size2)
        return 0
    }
    
    function number wirelink:hover(I:number) {
        local V=Cache[I,array]
        return inrange(Cursor,V[1,vector2],V[2,vector2])
    }
    
    # Prettify values
    function string getTime(Num:number) {
        Min=floor(Num/60)
        Sec=Num%60
        return (Sec>=10) ? ""+Min+":"+Sec : ""+Min+":0"+Sec
    }
    
    function string prettyInt(N:number) {
        local String=""+N
        local Result=""
        
        while(String:length()>3){
            local Length=String:length()
            local Chunk=String:sub(Length-2,Length)
            String=String:sub(0,Length-3)
            Result=","+Chunk+Result
        }
        
        if(String:length()>0) {Result=String+Result}
        
        return Result
    }
    
    # smoothStep - Overcomplicated smoothen function for ease in/out
    function number smoothStep(Min,Max,X) {
        local X=clamp((X-Min)/(Max-Min),0,1)
        return (X^3)*(X*(X*6-15)+10)
    }
    
    # sexyBG - since 2013
    function number sexyBG(Scr:wirelink) {
        Scr:egpClear()
        Scr:egpBox(300,vec2(256),vec2(512))
        Scr:egpColor(300,vec(64))
        local Lines=5
        local Dist=512/Lines
        CurSelection=0
        for (I=1, Lines+2) {
            Scr:egpLine(I+200,vec2(Dist*(I-2),-5),vec2(Dist*I,517))
            Scr:egpSize(I+200,30)
            Scr:egpMaterial(I+200,"gui/gradient_down")
            Scr:egpColor(I+200,vec(32))
        }
        Scr:egpBox(250,vec2(256),vec2(512))
        Scr:egpColor(250,vec4(1,1,1,128))
        Scr:egpMaterial(250,"gui/gradient_up")
        return 1
    }
    
    # My own personal emblem
    function number sSymbol(ID,Vec2:vector2,Scale){
        local Offset=vec2(-248,-250)
        local SSymbol_Graph=array(vec2(242.7,311.7),vec2(249.1,304.6),vec2(256.9,298.9),vec2(267.6,293.3),vec2(272.4,295.1),vec2(281.5,286.9),vec2(286,296.4),vec2(291.3,306.8),vec2(290.5,298.6),vec2(289.7,287.6),vec2(292,280.3),vec2(293.6,276.6),vec2(295.9,280.3),vec2(299,273.6),vec2(299.7,263.1),vec2(295,251.2),vec2(289.8,244.4),vec2(285.1,241.3),vec2(280.9,238.4),vec2(275.8,236.3),vec2(271.2,234.5),vec2(274.4,231.9),vec2(270.6,231.3),vec2(264.5,231.5),vec2(256.5,229.6),vec2(250,228.1),vec2(243.3,223.2),vec2(241.1,219.4),vec2(240.7,214.7),vec2(243.1,210.8),vec2(246.7,210),vec2(247.1,214.9),vec2(248.8,218.6),vec2(250.4,215.2),vec2(254.5,215.9),vec2(256.3,220.5),vec2(261.5,223),vec2(266.7,221.4),vec2(271.8,220.9),vec2(277.4,221.8),vec2(280.7,224.7),vec2(286,229),vec2(290.7,225.2),vec2(289.9,219.1),vec2(281.5,215.1),vec2(277.4,212.9),vec2(271.8,207.2),vec2(266.5,202.9),vec2(266.8,197.4),vec2(271.2,196.4),vec2(268.2,193.6),vec2(261.2,194.3),vec2(258.1,195),vec2(253.4,190.8),vec2(245.1,183.6),vec2(239.3,181.5),vec2(244.2,190.7),vec2(235.9,191.7),vec2(231.3,191.9),vec2(223.2,190.3),vec2(208.2,190.1),vec2(197.2,189.3),vec2(203.2,191.2),vec2(214.7,194.8),vec2(221.2,198.4),vec2(208.2,199.5),vec2(213.1,202.8),vec2(208.2,207.6),vec2(201.5,224.4),vec2(210.7,221.1),vec2(219.6,213.3),vec2(215.6,221.5),vec2(211.5,235.4),vec2(211.5,242),vec2(217.2,248.8),vec2(219.6,246.5),vec2(222.8,235.4),vec2(226.7,237.3),vec2(236.8,246.5),vec2(250.5,253.1),vec2(257.3,254),vec2(262.5,253.3),vec2(272.9,260.9),vec2(271.4,266.2),vec2(275.1,268.4),vec2(278,263.2),vec2(276.6,269.9),vec2(266.9,274.3),vec2(263.2,275.8),vec2(267.3,277.3),vec2(261.7,281),vec2(250.9,281),vec2(249,275),vec2(250.5,266),vec2(246.4,267.5),vec2(242.2,270.4),vec2(236.1,271.9),vec2(235.3,266.5),vec2(226.7,267.9),vec2(231.4,261.1),vec2(238.4,255.9),vec2(235.3,255.4),vec2(217.2,263.8),vec2(207.3,273.7),vec2(201.5,283.9),vec2(197.2,294.7),vec2(196.3,306.3),vec2(203.2,309.3),vec2(203.2,300.1),vec2(204.8,291),vec2(209.8,291.7),vec2(210.7,284.7),vec2(222,281.2),vec2(228.3,279.4),vec2(235.3,284),vec2(233,287),vec2(228.3,290),vec2(231.4,293.1),vec2(229.1,295.4),vec2(223.6,297),vec2(227.1,297.7),vec2(236.5,297.6),vec2(240.7,293.7),vec2(245.2,288.5),vec2(249,288.4),vec2(253.5,290.7),vec2(246.8,298.9),vec2(243.3,303.5),vec2(240.7,310.4))
        for (I=1, SSymbol_Graph:count()) {
            SSymbol_Graph[I,vector2]=(SSymbol_Graph[I,vector2]+Offset)*Scale
        }
        #248 250
        Scr:egpPolyOutline(ID,SSymbol_Graph)
        return 1
    }
    
    # My other personal emblem
    
    function wirelink:scriptisNETEmblem(ID:number,Pos:vector2,Scale,Parent) {
        local Base_Size=vec2(335.346)
        
        local Path_01=array(
            vec2(185.869,159.215),
            vec2(185.869,159.385),
            vec2(170.369,198.535),
            vec2(164.699,198.535),
            vec2(148.869,159.475),
            vec2(148.869,159.215),
            vec2(167.329,128.535),
            vec2(167.449,128.535)
        )
        
        local Path_02=array(
            vec2(243.699,216.785),
            vec2(253.079,238.475),
            vec2(239.849,249.335),
            vec2(225.499,234.995)
        )
        
        local Path_03=array(
            vec2(92.819,216.785),
            vec2(111.019,234.995),
            vec2(96.668,249.335),
            vec2(83.438,238.475)
        )
        
        local Path_04=array(
            vec2(86.188,212.725),
            vec2(72.299,228.405),
            vec2(71.889,228.035),
            vec2(47.539,201.075),
            vec2(19.719,203.685),
            vec2(0.589,154.125),
            vec2(23.199,132.385),
            vec2(45.799,85.425),
            vec2(42.329,39.335),
            vec2(7.539,1.945),
            vec2(57.979,29.775),
            vec2(75.369,69.775),
            vec2(71.889,113.255),
            vec2(57.109,131.515),
            vec2(48.409,165.425),
            vec2(56.239,183.685),
            vec2(85.799,212.385)
        )
        
        local Path_05=array(
            vec2(335.929,154.125),
            vec2(316.799,203.685),
            vec2(288.979,201.075),
            vec2(264.628,228.035),
            vec2(264.219,228.405),
            vec2(250.329,212.725),
            vec2(250.719,212.385),
            vec2(280.279,183.685),
            vec2(288.109,165.425),
            vec2(279.409,131.515),
            vec2(264.628,113.255),
            vec2(261.148,69.775),
            vec2(278.539,29.775),
            vec2(328.979,1.945),
            vec2(294.188,39.335),
            vec2(290.719,85.425),
            vec2(313.329,132.385)
        )
        
        local Path_06=array(
            vec2(253.039,257.645),
            vec2(256.759,246.995),
            vec2(253.079,238.475),
            vec2(243.699,216.785),
            vec2(233.979,194.275),
            vec2(250.329,212.725),
            vec2(264.219,228.405),
            vec2(305.499,274.995),
            vec2(281.489,306.555),
            vec2(283.759,314.125),
            vec2(239.409,459.335),
            vec2(241.979,491.905),
            vec2(256.329,511.465),
            vec2(249.849,534.125),
            vec2(235.059,558.465),
            vec2(200.918,567.705),
            vec2(168.059,568.205),
            vec2(135.599,567.665),
            vec2(101.458,558.455),
            vec2(86.668,534.115),
            vec2(80.199,511.465),
            vec2(94.539,491.905),
            vec2(97.109,459.335),
            vec2(52.759,314.125),
            vec2(55.029,306.545),
            vec2(31.019,274.995),
            vec2(72.299,228.405),
            vec2(86.188,212.725),
            vec2(102.539,194.275),
            vec2(92.819,216.785),
            vec2(83.438,238.475),
            vec2(79.759,246.995),
            vec2(83.479,257.645),
            vec2(83.579,257.615),
            vec2(127.458,267.345),
            vec2(166.599,267.535),
            vec2(169.929,267.535),
            vec2(209.059,267.345),
            vec2(252.938,257.615)
        )
        
        local Paths=table(
            "crystal"=Path_01,
            "rhorn_bit"=Path_02,
            "lhorn_bit"=Path_03,
            "lhorn_base"=Path_04,
            "rhorn_base"=Path_05,
            "head"=Path_06
        )
        
        local Index=ID
        local Offset=(Base_Size*(Scale/335.346)/2)
        foreach(I,V:array=Paths) {
            foreach(I,Vec:vector2=V) {
                V[I,vector2]=((Vec-Offset)/Base_Size*Scale+Pos)-Offset
            }
            Scr:egpPolyOutline(Index,V)
            if(I!="crystal") {
                Scr:egpColor(Index,vec(255,255,0))
            } else {
                Scr:egpColor(Index,vec(1))
            }
            Scr:egpParent(Index,Parent)
            Index++
        }
    }
    
    ## Metadata Table ################################################################
    # Credit where it's due: descriptions are from a contest I held long ago on RP4. #
    # type = array(type,name,DPS,PPU,model,icon,description                          #
    # * Must be edited for compatibility on other servers.                           #
    ##################################################################################
    
    Meta=table(
        "Shipment"=table(
            # Material Icons
            "weapon_mad_deagle"=array("weapon_mad_deagle","Desert Eagle",25,250,"models/weapons/w_pist_deagle.mdl","weapons/weapon_mad_deagle","This weapon is as handy as it gets, Never leave home without one!"),
            "weapon_mad_glock"=array("weapon_mad_glock","Glock 18",12,160,"models/weapons/w_pist_glock18.mdl","weapons/weapon_mad_glock","It shoots Scriptis!"),
            "weapon_mad_usp"=array("weapon_mad_usp","USP",16,160,"models/weapons/w_pist_usp.mdl","weapons/weapon_mad_usp","It has a dick on the end."),
            "weapon_mad_p228"=array("weapon_mad_p228","P228",11,170,"models/weapons/w_pist_p228.mdl","weapons/weapon_mad_p228","I simply cannot describe how 'amazing' this sidearm is."),
            "weapon_mad_dual"=array("weapon_mad_dual","Dual Elites",15,240,"models/weapons/w_pist_elite.mdl","weapons/weapon_mad_dual","Dual penetration!"),
            "weapon_mad_ak47"=array("weapon_mad_ak47","AK47",33,350,"models/weapons/w_rif_ak47.mdl","weapons/weapon_mad_ak47","Prime of Russian Engineering. Time for vodka.",""),
            "weapon_mad_mp5"=array("weapon_mad_mp5","MP5",17,280,"models/weapons/w_smg_mp5.mdl","weapons/weapon_mad_mp5","People ask me - Is this gun good? Tell me, Do the SAS use this gun? Of course they do. Only this describes this gun."),
            "weapon_mad_m4"=array("weapon_mad_m4","M4A1",20,370,"models/weapons/w_rif_m4a1.mdl","weapons/weapon_mad_m4","Made by americans, therefore prone to bouts of extreme manliness."),
            "weapon_mad_mac10"=array("weapon_mad_mac10","Mac10",20,210,"models/weapons/w_smg_mac10.mdl","weapons/weapon_mad_mac10","Fires fast and hits hard. What more could you want?"),
            "weapon_mad_tmp"=array("weapon_mad_tmp","TMP",12,230,"models/weapons/w_smg_tmp.mdl","weapons/weapon_mad_tmp","r u a ninja?"),
            "weapon_mad_spas"=array("weapon_mad_spas","Spas Shotgun",72,190,"models/weapons/w_shotgun.mdl","weapons/weapon_mad_spas","This is my BOOMSTICK, There are many like it, But this one is mine. E+M2 to dual-barrel."),
            "weapon_mad_m3"=array("weapon_mad_m3","Benelli M3",96,230,"models/weapons/w_shot_m3super90.mdl","weapons/weapon_mad_m3","A generic shotgun. Has a flashlight though, which makes it seem at least a BIT cooler."),
            "weapon_mad_scout"=array("weapon_mad_scout","Scout Sniper",80,499,"models/weapons/w_snip_scout.mdl","weapons/weapon_mad_scout","Peter Watson, are you acting like a hitman?"),
            "weapon_mad_p90"=array("weapon_mad_p90","P90",15,285,"models/weapons/w_smg_p90.mdl","weapons/weapon_mad_p90","For when \"go away\" just isnt enough..."),
            "weapon_mad_famas"=array("weapon_mad_famas","Famas",17,295,"models/weapons/w_rif_famas.mdl","weapons/weapon_mad_famas","It's a gun.  It's a gun that shoots bullets.  Guns do that, often."),
            "weapon_mad_galil"=array("weapon_mad_galil","Galil",25,320,"models/weapons/w_rif_galil.mdl","weapons/weapon_mad_galil","One would say \"overpowered.\" One would also be very dead."),
            "weapon_mad_m249"=array("weapon_mad_m249","M249 SAW",30,415,"models/weapons/w_mach_m249para.mdl","weapons/weapon_mad_m249","100 Bullets per clip.  For the sociopath who can't shoot enough bullets..."),
            "weapon_mad_ump"=array("weapon_mad_ump","UMP",22,290,"models/weapons/w_smg_ump45.mdl","weapons/weapon_mad_ump","For when shooting one bullet at a time isn't enough."),
            "weapon_mad_sg552"=array("weapon_mad_sg552","SG552",18,335,"models/weapons/w_rif_sg552.mdl","weapons/weapon_mad_sg552","Remember when that guy said \"i wish my sniper rifle was automatic?\""),
            "weapon_mad_alyxgun"=array("weapon_mad_alyxgun","Alyx Gun",15,1099,"models/weapons/w_alyx_gun.mdl","weapons/weapon_mad_alyxgun","Named after everybody's favorite butt -- ehhr, character."),
            "weapon_mad_357"=array("weapon_mad_357","357 Magnum",30,799,"models/weapons/w_357.mdl","weapons/weapon_mad_357","The majority of people would go deaf.  The minority would die."),
            "stunstick"=array("stunstick","Stunstick",10,1299,"models/weapons/w_stunbaton.mdl","weapons/weapon_mad_admin","Every abusive cop's favorite weapon."),
            "weapon_mad_awp"=array("weapon_mad_awp","AWP",95,910,"models/weapons/w_snip_awp.mdl","weapons/weapon_mad_awp","It's like shooting lasers."),
            "weapon_mad_flash"=array("weapon_mad_flash","Flash Grenade",0,333,"models/weapons/w_eq_flashbang.mdl","weapons/weapon_mad_flash","Blinds people for 8 seconds."),
            "weapon_keypad_cracker"=array("weapon_keypad_cracker","Keypad Cracker",0,1010,"models/weapons/w_c4.mdl","weapons/weapon_mad_admin","Cracks keypads to get you where you're not supposed to be."),
            "weapon_nomad"=array("weapon_nomad","Nomad",15,1010,"models/weapons/w_smg1.mdl","weapons/weapon_mad_mp7","Shoots LASERS!"),
            "weapon_mad_charge"=array("weapon_mad_charge","Door Charge",0,110,"models/weapons/w_slam.mdl","weapons/weapon_mad_charge","Forget lockpicks-- go in in style!"),
            "weapon_pumpshotgun2"=array("weapon_pumpshotgun2","Pump Shotgun",96,230,"models/weapons/w_shot_m3super90.mdl","weapons/weapon_mad_m3","This little fucker killed the M3 and XM1014."),
            "weapon_mad_g3"=array("weapon_mad_g3","HK GS3G1",50,950,"models/weapons/w_snip_g3sg1.mdl","weapons/weapon_mad_g3","A semi-auto sniper rifle for all of your legitimate needs."),
            
            # Lack icons
            "ammo"=array("Nano-Flex Ammo","Ammo",0,110,"models/items/boxsrounds.mdl","null","100 rounds for any weapon!","Ammo"),
            "armor"=array("Armor","Armor",0,160,"models/Items/BoxMRounds.mdl","null","100 armor!  Protects from bullets, lasers, and rapists!","Armor"),
            "lockpick"=array("lockpick","Lockpick",0,610,"models/weapons/w_crowbar.mdl","null","Opens doors to new, illegal, places.","Lockpick"),
            "Medkit"=array("Medkit","Medkit",0,150,"models/items/healthkit.mdl","null","100 health!") #weapons/weapon_mad_medic
        )
    )
    
    ##################
    ## Menu Helpers ##
    ##################
    
    function number drawMenuHandler() {} #temp
    function number menuHandler() {} #temp
    
    function number setMenu(N:number,ClearOverride:number) {
        if(Time<Meta["NavCool",number]) {
            # printColor(vec(255,0,0),"[sShop-F] ",vec(255),"Debug: preventing menu change due to limited quota")
            return 0
        } # prevents players from stabbing the hard quota to death
        Menu=N
        Use=0
        Cache:clear()
        Anim:clear()
        if(ClearOverride) {Scr:egpClear()}
        stoptimer("SetupShop")
        
        drawMenuHandler()
        menuHandler()
        return 1
    }
    
    function number setMenu(N:number) {return setMenu(N,1)}
    
    # Shop Tabs - Really ugly, necessary for how EGP order works (it doesn't.) #    
    function number hb_drawBG() {
        Scr:egpBox(38,vec2(256,256+65.5),vec2(512,512))
        Scr:egpColor(38,vec(96))
        
        Scr:egpLine(2,vec2(0,64),vec2(512,64))
        Scr:egpSize(2,5)
        Scr:egpColor(2,vec(110))
        
        return 1
    }
    
    function number hb_button1(Active) {
        local XOffset=0
        local ID=39
        Scr:egpRoundedBox(ID,vec2(96+XOffset,64),vec2(85,69+10*Active))
        Scr:egpColor(ID,vec(110+-32*!Active))
        
        if(!Active) {
            Scr:cache(39)
        } elseif(Active){hb_drawBG()}
        
        Scr:egpRoundedBox(ID+1,vec2(96+XOffset,64),vec2(80,64+10*Active))
        Scr:egpColor(ID+1,vec(96-32*!Active))
        
        Scr:egpText(ID+2,"HOME",Scr:egpPos(ID))
        Scr:egpAlign(ID+2,1,2)
        Scr:egpSize(ID+2,25)
        Scr:egpColor(ID+2,vec(255-32*!Active))
        
        return 1
    }
    
    
    function number hb_button2(Active) {
        local XOffset=95
        local ID=42
        Scr:egpRoundedBox(ID,vec2(96+XOffset,64),vec2(85,69+10*Active))
        Scr:egpColor(ID,vec(110-32*!Active))
        
        if(!Active) {
            Scr:cache(42)
        } elseif(Active){hb_drawBG()}
        
        Scr:egpRoundedBox(ID+1,vec2(96+XOffset,64),vec2(80,64+10*Active))
        Scr:egpColor(ID+1,vec(96-32*!Active))
        
        Scr:egpText(ID+2,"STORE",Scr:egpPos(ID))
        Scr:egpAlign(ID+2,1,2)
        Scr:egpSize(ID+2,25)
        Scr:egpColor(ID+2,vec(255-32*!Active))
        
        return 1
    }
    
    function number hb_button3(Active) {
        local XOffset=189
        local ID=45
        Scr:egpRoundedBox(ID,vec2(96+XOffset,64),vec2(85,69+10*Active))
        Scr:egpColor(ID,vec(110-32*!Active))
        
        if(!Active) {
            Scr:cache(45)
        } elseif(Active){hb_drawBG()}
        
        Scr:eegpRoundedBox(ID+1,vec2(96+XOffset,64),vec2(80,64+10*Active))
        Scr:egpColor(ID+1,vec(96-32*!Active))
        
        Scr:egpText(ID+2,"DEALS",Scr:egpPos(ID))
        Scr:egpAlign(ID+2,1,2)
        Scr:egpSize(ID+2,25)
        Scr:egpColor(ID+2,vec(255-32*!Active))
        
        return 1
    }
    
    function number hb_Setup() {
        Scr:egpBox(1,vec2(256,32),vec2(512,64))
        Scr:egpColor(1,vec(50))
        for (I=1, 33) {
            local X=(512/32)*(I-2)
            Scr:egpLine(2+I,vec2(X+34.5,-5),vec2(X,64))
            Scr:egpSize(2+I,5)
            Scr:egpColor(2+I,vec(32))
            Scr:egpMaterial(2+I,"gui/gradient_down")
        }
        
        Scr:egpBox(37,vec2(256,30),vec2(512,64))
        Scr:egpMaterial(37,"gui/gradient_up")
        Scr:egpColor(37,vec4(1,1,1,128))
        
        switch(Menu){
            case 1,
                hb_button2(0)
                hb_button3(0)
                hb_button1(1)
                
            break
            case 2,
                hb_button1(0)
                hb_button3(0)
                hb_button2(1)
                
            break
            case 3,
                hb_button1(0)
                hb_button2(0)
                hb_button3(1)
                
            break
            default,
                hb_button1(0)
                hb_button2(0)
                hb_button3(0)
                hb_drawBG()
            break
        }
        return 1
    }
    
    function number hb_Handle() {
        local Hover1=Scr:hover(39)
        local Hover2=Scr:hover(42)
        local Hover3=Scr:hover(45)
        
        if(Menu!=1){
            if(Hover1) {
                Scr:egpColor(40,vec(128))
                if(Use){setMenu(1)}
            } else {
                Scr:egpColor(40,vec(88))
            }
        }
        
        if(Menu!=2){
            if(Hover2) {
                Scr:egpColor(43,vec(128))
                if(Use){setMenu(2)}
            } else {
                Scr:egpColor(43,vec(88))
            }
        }
        
        if(Menu!=3) {
            if(Hover3) {
                Scr:egpColor(46,vec(128))
                if(Use){setMenu(3)}
            } else {
                Scr:egpColor(46,vec(88))
            }
        }
        
        return 1
    }
    
    ###########
    ## Menus ##
    ###########
    
    #[
        A fair word of warning: I hate how I handled this.  I do not enjoy function call stacks.
        However, this is how it ended up in the end to function without the screen flashing.
        Also, it preserves quite a lot of ops, as I found.
        Exchange pretty code for the best efficiency, I suppose.
    ]#
    
    # Login
    function number draw_Menu0() {
        sexyBG(Scr)
        Scr:egpBox(1,vec2(256),vec2(512))
        Scr:egpColor(1,vec4(1,1,1,255))
        Scr:egpMaterial(1,"gui/gradient_up")
        
        Scr:egpBox(2,vec2(256),vec2(512,60))
        Scr:egpColor(2,vec(128))
        
        Scr:egpBox(4,vec2(256),vec2(512,60))
        Scr:egpMaterial(4,"gui/gradient_up")
        Scr:egpColor(4,vec4(1,1,1,25))
        
        Scr:egpText(3,Config["Locked",number] ? "System locked" : "Press Anywhere to Begin",vec2(256))
        Scr:egpAlign(3,1,1)
        Scr:egpSize(3,45)
        
        return 1
    }
    
    function number handle_Menu0() {
        findByClass("player")
        local Player=findClosest(Scr:entity():pos())
        Scr:egpSetText(3,Config["Locked",number] ? "System Locked" : "Press Anywhere to Begin")
        local Dist=256-(clamp(Player:pos():distance(Scr:entity():pos())*2.5-100,1,255))
        # print(_HUD_PRINTCENTER,""+Dist)
        Scr:egpAlpha(2,Dist)
        Scr:egpAlpha(4,Dist)
        Scr:egpAlpha(3,Dist)
        if (!Config["Locked",number] & ~UserTrigger & UserTrigger==Player & UseTimeout<Time) {
            Session=table("Cart"=table())
            User=UserTrigger
            UserID=User:steamID() 
            if(!UserData[UserID,table]) {
                UserData[UserID,table]=table(
                    "money"=0
                )
            }
            setMenu(1)
        }
        
        return 1
    }
    
    # Main Menu
    function number draw_Menu1() {
        hb_Setup()
        
        Scr:egpBox(100,vec2(128,180),vec2(195,135))
        Scr:egpColor(100,vec(200))
        Scr:egpAngle(100,5)
        Scr:egpBox(101,vec2(0),vec2(188,108))
        Scr:egpColor(101,vec(64))
        Scr:egpParent(101,100)
        Scr:egpMaterial(101,"gui/gradient_up")
        #sSymbol(102,vec2(188,140),0.8)
        Scr:scriptisNETEmblem(94,vec2(40,-15),60,101)
        
        Scr:egpText(103,"[sS16]",vec2(-5,-15))
        Scr:egpAlign(103,2)
        Scr:egpParent(103,101)
        Scr:egpAngle(103,0)
        Scr:egpSize(103,30)
        Scr:egpColor(103,vec(255,255,0))
        Scr:egpBox(104,vec2(0),vec2(188,140))
        Scr:egpMaterial(104,"gui/center_gradient")
        Scr:egpAlpha(104,16)
        Scr:egpParent(104,100)
        
        Scr:egpRoundedBox(105,vec2(128,254),vec2(120,30))
        Scr:egpColor(105,vec(140))
        Scr:egpAngle(105,5)
        Scr:cache(105)
        
        #Scr:egpMaterial(105,"gui/center_gradient")
        Scr:egpText(106,"Shop",vec2(0))
        Scr:egpAlign(106,1,1)
        Scr:egpParent(106,105)
        Scr:egpAngle(106,0)
        Scr:egpSize(106,25)
        
        # News panel
        Scr:egpBox(107,vec2(384,288),vec2(261,405))
        Scr:egpColor(107,vec(140))
        
        Scr:egpBox(108,vec2(384,288),vec2(256,400))
        Scr:egpColor(108,vec(128))
        
        local Entries=array()
        
        Scr:egpBox(109,vec2(0,-180),vec2(256,40))
        Scr:egpColor(109,vec(64))
        Scr:egpParent(109,108)
        Scr:egpBox(110,vec2(-113,0),vec2(30))
        Scr:egpParent(110,109)
        Scr:egpMaterial(110,"vgui/notices/generic")
        Scr:egpText(111,"sShop16 v4.1.0",vec2(-98,-20))
        Scr:egpParent(111,109)
        Scr:egpText(112,"Database is STATIC.",vec2(-98,0))
        Scr:egpParent(112,109)
        
        local ID=113
        for(I=1,3) {
            local Misc=Config["MOTD",table][I,table]
            if(!Misc) {break}
            local I=I-1
            local YSize=360/3
            Scr:egpBox(ID,vec2(0,-160+YSize*(I+1)-YSize*0.5),vec2(256,YSize-2))
            Scr:egpColor(ID,vec(80))
            Scr:egpParent(ID,108)
            Scr:egpTextLayout(ID+1,Misc["Text",string],vec2(-118,-YSize/2),vec2(246,YSize))
            Scr:egpAlign(ID+1,0,1)
            Scr:egpParent(ID+1,ID)
            Scr:egpText(ID+2,Misc["Timestamp",string],vec2(-124,YSize/2-22))
            Scr:egpParent(ID+2,ID)
            ID+=2
        }
        
        Scr:egpBox(128,vec2(128,256+128),vec2(195,135))
        Scr:egpAngle(128,-5)
        Scr:egpColor(128,vec(200))
        Scr:egpBox(129,vec2(0),vec2(190,90))
        Scr:egpMaterial(129,"gui/gradient_up")
        Scr:egpParent(129,128)
        Scr:egpColor(129,vec(64))
        
        local RandomThing=""
        local RandomName=""
        local RandomIcon=""
        local RandomPrice=""
        if (!RandomThing) {
            RandomThing="YOUR FACE"
            RandomName="YOUR FACE"
            RandomIcon="weapons/weapon_mad_admin"
            RandomPrice="UGLY"
        }
        
        Scr:egpBox(130,vec2(0,-5),vec2(160,100))
        Scr:egpMaterial(130,RandomIcon)
        Scr:egpParent(130,129)
        Scr:egpAngle(130,10)
        Scr:egpText(131,RandomName,vec2(0,-70))
        Scr:egpAlign(131,1,0)
        Scr:egpParent(131,129)
        Scr:egpAngle(131,0)
        Scr:egpSize(131,25)
        Scr:egpColor(131,vec(255,255,0))
        Scr:egpText(132,RandomPrice,vec2(95,68))
        Scr:egpAlign(132,2,2)
        Scr:egpSize(132,25)
        Scr:egpColor(132,vec(0,255,0))
        Scr:egpParent(132,129)
        Scr:egpAngle(132,0)
        Scr:egpBox(133,vec2(0),vec2(190,110))
        Scr:egpMaterial(133,"gui/center_gradient")
        Scr:egpAlpha(133,16)
        Scr:egpParent(133,129)
        Scr:egpText(134,"FEATURED ITEM",vec2(133,307))
        Scr:egpAlign(134,1,1)
        Scr:egpAngle(134,-5)
        Scr:egpSize(134,27)
        
        return 1
    }
    
    function number handle_Menu1() {
        if(Scr:hover(105)) {
            Scr:egpColor(105,vec(180))
            if(Use){
                setMenu(2)
            }
        } else {
            Scr:egpColor(105,vec(105))
        }
        
        hb_Handle()
        
        return 1
    }
    
    # Shop    
    function number setupShopPage(StartPos) {
        Meta["NavCool",number]=Time+1        
        Meta["ShopButtons",table]=table()
        
        local Index=80
        
        local Row=1
        local Column=1
        
        # This block seems to be the most resource intensive in the entire script
        # responsible for very heavy crashes, so everything is cached before we enter
        
        # X/Y Positions for all elements
        local IX=array(116,211,301,396)
        local IY=array(136,231,328,386)
        local Drawn=0
        
        # Sizes & poses, per-element
        local Vec2=vec2()
        
        local ISize=vec2(80)
        
        local IPos1=vec2(0,5)
        local ISize1=vec2(80)
        local IColor1=vec4(32,32,32,128)
        
        local ISize2=vec2(80)
        local IColor2=vec(230)
        
        local ISize3=vec2(80)
        local IColor3=vec4(32,32,32,128)
        
        local ISize4=vec2(80,40)
        
        local IPos5=vec2(-30,37)
        local IColor5=vec(1)
        
        local IPos6=vec2(30,37)
        local IColor6=vec(0,255,0)
        
        local IColorSpecial=vec(1,1,0)
        local BaseOffset=vec2(0,100)
        local BaseOffset2=vec2(0,-100)
        
        for(IndexNumber=StartPos,StartPos+12) {
            local I=Meta["ItemList",array][IndexNumber,string]
            if(!I){break}
            local V=Users[I,table]
            
            local MetaData=Meta["Shipment",table][I,array]
            local Count=V["Entity",entity]:shipmentAmount()
            
            local Index1=Index+1
            local Index2=Index+2
            local Index3=Index+3
            local Index4=Index+4
            local Index5=Index+5
            local Index6=Index+6
            local BasePos=vec2(IX[Row,number],IY[Column,number])
            
            local Price=getPrice(I,1)
            
            Scr:egpRoundedBox(Index,BasePos,ISize)
            Scr:egpColor(Index,vec4(1,1,1,0))
            Scr:cache(Index)
            
            Scr:egpRoundedBox(Index1,IPos1,ISize1)
            Scr:egpColor(Index1,IColor1)
            Scr:egpMaterial(Index1,"gui/gradient_up")
            Scr:egpParent(Index1,Index)
            
            Scr:egpRoundedBox(Index2,Vec2,ISize2)
            Scr:egpColor(Index2,IColor2)
            Scr:egpParent(Index2,Index)
            
            Scr:egpRoundedBox(Index3,Vec2,ISize3)
            Scr:egpColor(Index3,IColor3)
            Scr:egpMaterial(Index3,"gui/gradient_up")
            Scr:egpParent(Index3,Index2)
            
            Meta["ShopButtons",table][I,table]=table(
                "Shipment"=I,
                "Name"=MetaData[2,string],
                "Desc"=MetaData[7,string],
                "Price"=Price,
                "Pos"=BasePos+(Column==3 ? BaseOffset2 : BaseOffset),
                "Index"=Index,
                "IndexC"=Index2,
                "Count"=Count,
                "CountText"=Index5
            )
            
            if(MetaData[6,string]!="null"){
                Scr:egpBox(Index4,Vec2,ISize4)
                Scr:egpMaterial(Index4,MetaData[6,string])
                Scr:egpParent(Index4,Index2)
            } else {
                Scr:egpText(Index4,MetaData[2,string],Vec2)
                Scr:egpSize(Index4,25)
                Scr:egpFont(Index4,"roboto")
                Scr:egpAlign(Index4,1,1)
                Scr:egpParent(Index4,Index2)
                Scr:egpColor(Index4,IColorSpecial)
            }
            
            Scr:egpText(Index5,Session["Cart",table][I,number]+"/"+Count,IPos5)
            Scr:egpFont(Index5,"roboto")
            Scr:egpAlign(Index5,0,2)
            Scr:egpParent(Index5,Index2)
            Scr:egpColor(Index5,IColor5)
            Scr:egpSize(Index5,11)
            
            Scr:egpText(Index6,"$"+Price,IPos6)
            Scr:egpFont(Index6,"roboto")
            Scr:egpAlign(Index6,2,2)
            Scr:egpColor(Index6,IColor6)
            Scr:egpParent(Index6,Index2)
            Scr:egpSize(Index6,11)
            
            Drawn++
            Row++
            Index+=8
            if(Row>4) {Row=1 Column++}
            if(Drawn>=12) {break}
        }
        
        ## Tooltip
        Index+=5
        
        Scr:egpBox(Index,vec2(256),vec2(150,100))
        Scr:egpColor(Index,vec(150))
        
        local Index1=Index+1
        Scr:egpBox(Index1,vec2(),vec2(150,100))
        Scr:egpColor(Index1,vec4(1,1,1,128))
        Scr:egpMaterial(Index1,"gui/gradient_up")
        Scr:egpParent(Index1,Index)
        
        local Index2=Index+3
        Scr:egpText(Index2,"%itemname%",vec2(3,-20))
        Scr:egpSize(Index2,20)
        Scr:egpColor(Index2,vec(255,255,0))
        Scr:egpAlign(Index2,1,2)
        Scr:egpParent(Index2,Index)
        Scr:egpFont(Index2,"roboto")
        
        local Index3=Index+4
        Scr:egpTextLayout(Index3,"%itemdesc%",vec2(-65,-25),vec2(130,70))
        Scr:egpSize(Index3,15)
        Scr:egpAlign(Index3,1,1)
        Scr:egpParent(Index3,Index)
        
        Meta["Tooltip",number]=Index
        Meta["ItemName",number]=Index2
        Meta["ItemDesc",number]=Index3
        
        Meta["ToolID",array]=array(Index,Index1,Index2,Index3)
            Meta["ShopTemp",array]=Meta["ShopTemp",array]:add(Meta["ToolID",array])
        Meta["ToolAlpha",array]=array(255,128,255,255)
        
        foreach(I,V:number=Meta["ToolID",array]) {
            Scr:egpAlpha(V,0)
        }
        
        Scr:egpSetText(56,format("Page %d of %d",Meta["Page",number],Meta["PageCount",number]))
        Scr:egpSetText(64,"$"+prettyInt(Session["Total",number]))
        
        return 1
    }
    
    function number draw_Menu2() {
        hb_Setup()
        checkShipments()
        
        local ItemCt=0
        Meta["Page",number]=1
        Meta["ItemList",array]=array()
        Meta["ShopTemp",array]=array()
        
        foreach(I,V:table=Users) {
            if(!V["Active",number]){continue}
            Meta["ItemList",array]:pushString(I)
            ItemCt++
        }
        
        Meta["PageCount",number]=clamp(ceil(ItemCt/12),1,9e99)
        
        # Bottom bar
        Scr:egpBox(50,vec2(256,482),vec2(512,60))
        Scr:egpColor(50,vec(50))
        
        Scr:egpBox(51,vec2(384,482),vec2(256,60))
        Scr:egpColor(51,vec(50))
        
        Scr:egpBox(52,vec2(256,482),vec2(512,60))
        Scr:egpColor(52,vec4(1,1,1,128))
        Scr:egpMaterial(52,"gui/gradient_up")
        
        Scr:egpLine(53,vec2(0,452),vec2(512,452))
        Scr:egpColor(53,vec(110))
        Scr:egpSize(53,3)
        
        # Background & navigation
        Scr:egpBox(54,vec2(256),vec2(443,343))
        Scr:egpColor(54,vec(110))
        
        Scr:egpBox(55,vec2(256),vec2(440,340))
        Scr:egpColor(55,vec(80))
        
        Scr:egpText(56,format("Page %d of %d",Meta["Page",number],Meta["PageCount",number]),vec2(256,400))
        Scr:egpAlign(56,1,1)
        Scr:egpSize(56,25)
        Scr:egpFont(56,"roboto")
        
        # forward - 57
        Scr:egpBox(57,vec2(468,256),vec2(40,120))
        Scr:egpColor(57,vec(110))
        Scr:cache(57)
        
        # backward - 58
        
        Scr:egpBox(58,vec2(44,256),vec2(40,120))
        Scr:egpColor(58,vec(110))
        Scr:cache(58)
        
        Scr:egpTriangle(59,vec2(31,256),vec2(54,279),vec2(54,233))
        Scr:egpColor(59,vec(90))
        
        Scr:egpTriangle(60,vec2(34,256),vec2(54,276),vec2(54,236))
        Scr:egpColor(60,vec(130))
        
        Scr:egpTriangle(61,vec2(481,256),vec2(458,279),vec2(458,233))
        Scr:egpColor(61,vec(90))
        
        Scr:egpTriangle(62,vec2(478,256),vec2(458,276),vec2(458,236))
        Scr:egpColor(62,vec(130))
        
        # Total & Checkout
        Scr:egpText(63,"Total: ",vec2(32,483))
        Scr:egpAlign(63,0,1)
        
        Scr:egpText(64,"$"+prettyInt(Session["Total",number]),vec2(80,483))
        Scr:egpAlign(64,0,1)
        Scr:egpSize(64,20)
        Scr:egpColor(64,vec(0,255,0))
        
        Scr:egpRoundedBox(65,vec2(417,485),vec2(150,40))
        Scr:egpColor(65,vec(100))
        
        Scr:egpRoundedBox(66,vec2(417,483),vec2(150,40))
        Scr:egpColor(66,vec(150))
        Scr:cache(66)
        
        Scr:egpText(67,"CHECKOUT",vec2(417,483))
        Scr:egpAlign(67,1,1)
        Scr:egpSize(67,25)
        Scr:egpFont(67,"roboto")
        
        Scr:egpRoundedBox(68,vec2(417,483),vec2(150,40))
        Scr:egpMaterial(68,"gui/gradient_up")
        Scr:egpColor(68,vec4(255,255,255,32))
        
        Scr:egpSaveFrame("Menu2")
        
        # Loader
        
        Scr:egpBox(70,vec2(256),vec2(50,30))
        Scr:egpColor(70,vec(200))
        
        Scr:egpBox(71,vec2(256),vec2(50,30))
        Scr:egpColor(71,vec4(32,32,32,128))
        Scr:egpMaterial(71,"gui/gradient_up")
        
        Scr:egpText(72,"...",vec2(256,250))
        Scr:egpAlign(72,1,1)
        Scr:egpSize(72,30)
        Scr:egpColor(72,vec(1))
        
        Meta["ShopSetup",number]=0
        
        timer("SetupShop",1000)
        
        return 1
    }
    
    function number handle_Menu2() {
        if(!Meta["ShopSetup",number]) {
            Scr:egpSetText(72,".":repeat(Time%3))
        } elseif (!Anim["PageCool",number]) {
            local IsHovering=0
            local HoverID=""
            
            foreach(I,V:table=Meta["ShopButtons",table]) {
                if(Scr:hover(V["Index",number])) {
                    #print(I)
                    Scr:egpColor(V["IndexC",number],vec(250))
                    Scr:egpPos(Meta["Tooltip",number],V["Pos",vector2])
                    Scr:egpSetText(Meta["ItemName",number],V["Name",string])
                    Scr:egpSetText(Meta["ItemDesc",number],V["Desc",string])
                    IsHovering=1
                    if(Use) {
                        local Shipment=V["Shipment",string]
                        if(Session["Cart",table][Shipment,number]<V["Count",number]) {
                            Session["Cart",table][Shipment,number]=Session["Cart",table][Shipment,number]+1
                            Session["Total",number]=Session["Total",number]+V["Price",number]
                            Scr:egpSetText(V["CountText",number],Session["Cart",table][I,number]+"/"+V["Count",number])
                            Scr:egpSetText(64,"$"+prettyInt(Session["Total",number]))
                        }
                    }
                } else {
                    Scr:egpColor(V["IndexC",number],vec(230))
                }
            }
            
            foreach(I,V:number=Meta["ToolID",array]){
                Scr:egpAlpha(V,IsHovering ? Meta["ToolAlpha",array][I,number] : 0)
            }
            
            if (!IsHovering) {
                if(Meta["Page",number]<Meta["PageCount",number] & Scr:hover(57)) {
                    Scr:egpColor(57,vec(120))
                    if(Use) {
                        Anim["PageCool",number]=1
                        Meta["Page",number]=clamp(Meta["Page",number]+1,1,Meta["PageCount",number])
                        Scr:egpLoadFrame("Menu2")
                        
                        timer("swapShopFrame",0)
                    }
                } else {
                    Scr:egpColor(57,vec(110))
                }
                
                if(Meta["Page",number]>1 & Scr:hover(58)) {
                    Scr:egpColor(58,vec(120))
                    if(Use) {
                        Anim["PageCool",number]=1
                        Meta["Page",number]=clamp(Meta["Page",number]-1,1,Meta["PageCount",number])
                        Scr:egpLoadFrame("Menu2")
                        
                        timer("swapShopFrame",0)
                    }
                } else {
                    Scr:egpColor(58,vec(110))
                }
                
                if(Scr:hover(66)) {
                    Scr:egpColor(66,vec(160))
                    if(Use) {
                        Scr:egpSaveFrame(2)
                        setMenu(4,0)
                        Meta["NavCool",number]=Time+3
                    }
                } else {
                    Scr:egpColor(66,vec(150))
                }
            }
        }
        
        hb_Handle()
        
        return 1
    }
    
    # Deals
    function number draw_Menu3() {
        hb_Setup()
        return 1
    }
    
    function number handle_Menu3() {
        hb_Handle()
        return 1
    }
    
    # Checkout
    
    function menu4_DrawCart(StartIndex,Recache) {
        local Index=260
        local Iteration=0
        
        #foreach(Shipment,Count:number=Session["Cart",table])
        foreach(I,V:number=Meta["CartTemp",array]){Scr:egpRemove(V)}
        
        Meta["CartTemp",array]=array()
        Meta["RemoveButtons",table]:clear()
        
        for(I=StartIndex,StartIndex+4) {
            local Shipment=Meta["ShipmentOrder",array][I,string]
            if(!Shipment){break}
            
            local Count=Session["Cart",table][Shipment,number]
            
            Iteration++
            
            Scr:egpAlpha(245,0)
            
            # base
            
            local BaseIndex=Index
            Scr:egpBox(Index,vec2(-128,-205+Iteration*55),vec2(190,50))
            Scr:egpParent(Index,211)
            Scr:egpColor(Index,vec(200))
            Meta["CartTemp",array]:pushNumber(Index)
            Index++
            
            # item
            
            local Price=getPrice(Shipment,1)
            local Total=Price*Count
            
            Scr:egpBox(Index,vec2(0,0),vec2(100,40))
            Scr:egpMaterial(Index,Meta["Shipment",table][Shipment,array][6,string])
            Scr:egpParent(Index,BaseIndex)
            Scr:egpAlpha(Index,128)
            Scr:egpColor(Index,vec(1))
            Meta["CartTemp",array]:pushNumber(Index)
            Index++
            
            local ItemLabel=Index
            Scr:egpText(Index,Count+"x "+Meta["Shipment",table][Shipment,array][2,string],vec2(-90,-10))
            Scr:egpAlign(Index,0,1)
            Scr:egpSize(Index,15)
            Scr:egpParent(Index,BaseIndex)
            Scr:egpColor(Index,vec(1))
            Meta["CartTemp",array]:pushNumber(Index)
            Index++
            
            # price
            local PriceLabel=Index
            Scr:egpText(Index,"$"+Total,vec2(-90,10))
            Scr:egpAlign(Index,0,1)
            Scr:egpParent(Index,BaseIndex)
            Scr:egpColor(Index,vec(0,255,0))
            Scr:egpParent(Index,BaseIndex)
            Meta["CartTemp",array]:pushNumber(Index)
            Index++
            
            # remove
            
            local RemIndex=Index
            Scr:egpBox(Index,vec2(75,0),vec2(22))
            Scr:egpColor(Index,vec(230))
            Scr:egpParent(Index,BaseIndex)
            Meta["CartTemp",array]:pushNumber(Index)
            Index++
            
            Scr:egpBox(Index,vec2(),vec2(20))
            Scr:egpColor(Index,vec(200,0,0))
            Scr:egpParent(Index,RemIndex)
            
            Meta["RemoveButtons",table][Shipment,table]=table(
                "shipment"=Shipment,
                "amount"=Count,
                "total"=Total,
                "price"=Price,
                "btn"=Index,
                "label"=ItemLabel,
                "pricelabel"=PriceLabel
            )
            
            Meta["CartTemp",array]:pushNumber(Index)
            Index++
            
            Scr:egpText(Index,"-",vec2())
            Scr:egpParent(Index,RemIndex)
            Scr:egpAlign(Index,1,1)
            Meta["CartTemp",array]:pushNumber(Index)
            Index++
        }
        
        Scr:egpSetText(251,Meta["CurPage",number]+"/"+Meta["MaxPages",number])
        
        if(Recache) {
            foreach(Shipment,Data:table=Meta["RemoveButtons",table]) {
                Scr:cacheUnparent(Data["btn",number])
            }
        }
    }
    
    function number finalizeVend() {
        printColor(vec(255,255,0),"[sShop-F] ",vec(0,255,0),User:name(),vec(255)," has purchased ",vec(0,255,0),Meta["Items",number]+"",vec(255)," items for ",vec(0,255,0),"$"+Meta["Total",number],vec(255),".")
        UserData[UserID,table]["money",number]=UserData[UserID,table]["money",number]-Meta["Total",number]
        
        Meta["Vend",table]=Session["Cart",table]:clone()
        
        setMenu(5)
        
        return 1
    }
    
    function number draw_Menu4() {
        # darken background
        Scr:egpBox(200,vec2(256),vec2(512))
        Scr:egpColor(200,vec4(1,1,1,200))
        
        if(ops()>200) {
            timer("cartThrottle",1000)
            return 0
        }
        
        # radial rotating fog
        local Ang=180
        for(I=201,209) {
            Ang+=36
            Scr:egpBox(I,vec2(256),vec2(768))
            Scr:egpMaterial(I,"gui/gradient_up")
            local Col_Def=randint(128)
            Scr:egpColor(I,vec4(Col_Def,Col_Def,Col_Def,0))
            Scr:egpAngle(I,Ang)
        }
        
        # backmost overlay
        Scr:egpBox(210,vec2(256),vec2(512))
        Scr:egpColor(210,vec4(1,1,1,255))
        Scr:egpMaterial(210,"gui/gradient_up")
        
        # overlay container
        Scr:egpBox(211,vec2(256),vec2(512))
        Scr:egpAlpha(211,0)
        
        # overlay main
        Scr:egpBox(212,vec2(-128,0),vec2(256,512))
        Scr:egpColor(212,vec(200))
        Scr:egpParent(212,211)
        
        # zigzag background
        for(I=213,221) {
            local Y=(I-213)*64
            Scr:egpBox(I,vec2(0,Y-256),vec2(64))
            Scr:egpColor(I,vec(1))    
            Scr:egpAngle(I,45)
            Scr:egpParent(I,211)
        }
        
        # zigzag foreground
        for(I=222,230) {
            local Y=(I-222)*64
            Scr:egpBox(I,vec2(-3,Y-256),vec2(64))
            Scr:egpColor(I,vec(200))
            Scr:egpAngle(I,45)
            Scr:egpParent(I,211)
        }
        
        # cart well
        Scr:egpBox(231,vec2(-128,-30),vec2(204,304))
        Scr:egpColor(231,vec4(255,255,255,128))
        Scr:egpParent(231,211)
        
        Scr:egpBox(232,vec2(-128,-30),vec2(200,300))
        Scr:egpColor(232,vec(128))
        Scr:egpParent(232,211)
        
        Scr:egpBox(233,vec2(-128,-30),vec2(200,300))
        Scr:egpColor(233,vec4(0,0,32,200))
        Scr:egpParent(233,211)
        Scr:egpMaterial(233,"gui/gradient_up")
        
        Scr:egpText(234,"Your Cart",vec2(-128,-198))
        Scr:egpAlign(234,1,1)
        Scr:egpFont(234,"roboto")
        Scr:egpParent(234,211)
        Scr:egpSize(234,40)
        Scr:egpColor(234,vec4(1,1,1,64))
        
        Scr:egpText(235,"Your Cart",vec2(-128,-203))
        Scr:egpAlign(235,1,1)
        Scr:egpFont(235,"roboto")
        Scr:egpParent(235,211)
        Scr:egpSize(235,40)
        Scr:egpColor(235,vec(255,255,0))
        
        ## button group
        # cancel
        Scr:egpBox(236,vec2(-178,185),vec2(90,40))
        Scr:egpParent(236,211)
        Scr:egpColor(236,vec(172,0,0))
        
        Scr:egpBox(237,vec2(-178,180),vec2(90,40))
        Scr:egpColor(237,vec(190,0,0))
        Scr:egpParent(237,211)
        
        Scr:egpText(238,"CANCEL",vec2(-178,180))
        Scr:egpAlign(238,1,1)
        Scr:egpSize(238,22)
        Scr:egpParent(238,211)
        
        # confirm
        Scr:egpBox(239,vec2(-78,185),vec2(90,40))
        Scr:egpParent(239,211)
        Scr:egpColor(239,vec(172))
        
        Scr:egpBox(240,vec2(-78,180),vec2(90,40))
        Scr:egpParent(240,211)
        Scr:egpColor(240,vec(190))
        
        Scr:egpText(241,"CONFIRM",vec2(-78,180))
        Scr:egpAlign(241,1,1)
        Scr:egpSize(241,20)
        Scr:egpParent(241,211)
        
        # you forgot to insert money you moron
        Scr:egpBox(242,vec2(-78,230),vec2(150,25))
        Scr:egpColor(242,vec(1))
        Scr:egpParent(242,211)
        Scr:egpAlpha(242,0)
        
        Scr:egpBox(243,vec2(0,-12),vec2(10))
        Scr:egpColor(243,vec(1))
        Scr:egpAngle(243,45)
        Scr:egpParent(243,242)
        Scr:egpAlpha(243,0)
        
        Scr:egpText(244,"Insufficient Funds",vec2())
        Scr:egpParent(244,242)
        Scr:egpAlign(244,1,1)
        Scr:egpAlpha(244,0)
        
        Scr:egpText(245,"[ Empty ]",vec2(-128,-30))
        Scr:egpAlign(245,1,1)
        Scr:egpColor(245,vec4(255,255,255,64))
        Scr:egpSize(245,30)
        Scr:egpParent(245,211)
        
        # cart pagination
        # left
        Scr:egpBox(246,vec2(-40,140),vec2(30,15))
        Scr:egpParent(246,232)
        Scr:egpAlpha(246,32)
        
        Scr:egpText(247,"<",vec2())
        Scr:egpAlign(247,1,1)
        Scr:egpSize(247,10)
        Scr:egpParent(247,246)
        
        # right
        Scr:egpBox(248,vec2(40,140),vec2(30,15))
        Scr:egpParent(248,232)
        Scr:egpAlpha(248,32)
        
        Scr:egpText(249,">",vec2())
        Scr:egpSize(249,10)
        Scr:egpAlign(249,1,1)
        Scr:egpParent(249,248)
        
        # circle overlay
        
        Scr:egpCircle(250,vec2(0,150),vec2(20))
        Scr:egpParent(250,232)
        Scr:egpColor(250,vec(200))
        
        Scr:egpText(251,"1/1",vec2(0,-5))
        Scr:egpColor(251,vec(1))
        Scr:egpParent(251,250)
        Scr:egpAlign(251,1,1)
        Scr:egpSize(251,10)
        
        # totals - placed here  because of weird clipping
        
        Scr:egpText(252,"Total: ",vec2(-128,141))
        Scr:egpAlign(252,2,1)
        Scr:egpSize(252,25)
        Scr:egpParent(252,211)
        
        Scr:egpText(253,"$0000",vec2(-128,141))
        Scr:egpAlign(253,0,1)
        Scr:egpSize(253,25)
        Scr:egpColor(253,vec(0,255,0))
        Scr:egpParent(253,211)
        
        # arrow pointing to moneypot
        
        Scr:egpBox(254,vec2(400,256),vec2(30,30))
        
        Scr:egpTriangle(255,vec2(-15,-25),vec2(-15,-15),vec2(15,-15))
        Scr:egpParent(255,254)
        
        Scr:egpTriangle(256,vec2(15,-25),vec2(15,-15),vec2(-15,-15))
        Scr:egpParent(256,254)
        
        Scr:egpTriangle(257,vec2(0,35),vec2(-22,15),vec2(22,15))
        Scr:egpParent(257,254)
        
        Scr:egpAngle(254,heading(Scr,Moneypot:entity():pos()))
        
        Scr:egpText(258,"Insert ",vec2(400,300))
        # Scr:egpFont(258,"Arial")
        Scr:egpAlign(258,1,1)
        Scr:egpSize(258,20)
        
        Scr:egpText(259,"Account: $"+UserData[UserID,table]["money",number],vec2(400,320))
        Scr:egpSize(259,15)
        Scr:egpAlign(259,1,1)
        
        # build cart order
        
        Meta["RemoveButtons",table]=table()
        Meta["ShipmentOrder",array]=array()
        Meta["Items",number]=0
        
        foreach(Shipment,Count:number=Session["Cart",table]) {
            Meta["ShipmentOrder",array]:pushString(Shipment)
            Meta["Items",number]=Meta["Items",number]+Count
        }
        
        local Total=recalculateTotals(1,1)
        Meta["Total",number]=Total
        
        Scr:egpSetText(253,"$"+recalculateTotals(1,1))
        Scr:egpSetText(258,"Insert $"+clamp(Total-UserData[UserID,table]["money",number],0,9e99))
        
        Meta["MaxPages",number]=ceil(Meta["ShipmentOrder",array]:count()/5)
        Meta["CurPage",number]=1
        
        # foreground overlay
        Scr:egpBox(295,vec2(256),vec2(512))
        Scr:egpColor(295,vec4(1,1,1,128))
        Scr:egpMaterial(295,"gui/gradient_up")
        
        # draw cart
        menu4_DrawCart(1,0)
        
        Anim["161scroll",number]=0
        Anim["161state",number]=0
        
        Anim["Cart",number]=1
        
        # change confirm color
        if(Meta["Items",number]>0 & UserData[UserID,table]["money",number]>=Meta["Total",number]) {
            Scr:egpColor(239,vec(0,172,0))
            Scr:egpColor(240,vec(0,190,0))
        } else {
            Scr:egpColor(239,vec(172))
            Scr:egpColor(240,vec(190))
        }
        return 1
    }
    
    function number handle_Menu4() {
        if(!Anim["Cart",number]){return 0}
        local Ang=180
        for(I=201,209) {
            Ang+=36+Time%360
            Scr:egpAngle(I,Ang)
        }
        
        switch(Anim["161state",number]) {
            case 0,
                if(Anim["161scroll",number]!=1) {
                    Anim["161scroll",number]=clamp(Anim["161scroll",number]+0.05,0,1)
                    local Smoothen=smoothStep(0,1,Anim["161scroll",number])
                    Scr:egpPos(211,vec2(Smoothen*384-128,256))
                    for(I=201,209) {
                        Scr:egpAlpha(I,Smoothen*64)
                    }
                    for(I=254,259) {
                        Scr:egpAlpha(I,Smoothen*255)
                    }
                    
                    Scr:egpAlpha(210,Smoothen*255)
                } elseif (Anim["161cache",number]==0) {
                    # cache buttons
                    Scr:cacheUnparent(248) # right pagination
                    Scr:cacheUnparent(246) # left pagination
                    Scr:cacheUnparent(237) # cancel
                    Scr:cacheUnparent(240) # confirm
                    
                    # remove items from cart
                    foreach(Shipment,Data:table=Meta["RemoveButtons",table]) {
                        Scr:cacheUnparent(Data["btn",number])
                    }
                    
                    Anim["161cache",number]=1
                } elseif (Anim["161cache",number]==1) {
                
                    # cart pagination
                    if(Scr:hover(246)) {
                        Scr:egpAlpha(246,64)
                        if(Use & Meta["CurPage",number]>1) {
                            Meta["CurPage",number]=Meta["CurPage",number]-1
                            menu4_DrawCart(1+5*Meta["CurPage",number]-5,1)
                        }
                    } else {
                        Scr:egpAlpha(246,32)
                    }
                    
                    if(Scr:hover(248)) {
                        Scr:egpAlpha(248,64)
                        if(Use & Meta["CurPage",number]<Meta["MaxPages",number]) {
                            Meta["CurPage",number]=Meta["CurPage",number]+1
                            menu4_DrawCart(1+5*Meta["CurPage",number]-5,1)
                        }
                    } else {
                        Scr:egpAlpha(248,32)
                    }
                    
                    # checkout button
                    
                    if(Meta["Items",number]>0) {
                        if(UserData[UserID,table]["money",number]>=Meta["Total",number]) {
                            if(Scr:hover(240)) {
                                Scr:egpColor(239,vec(0,192,0))
                                Scr:egpColor(240,vec(0,210,0))
                                if(Use) {
                                    return finalizeVend()
                                }
                            } else {
                                Scr:egpColor(239,vec(0,172,0))
                                Scr:egpColor(240,vec(0,190,0))
                            }
                        } elseif (UserData[UserID,table]["money",number]<Meta["Total",number]) {
                            Scr:egpColor(239,vec(172))
                            Scr:egpColor(240,vec(190))
                            
                            if(Scr:hover(240)) {
                                for(I=242,244) {
                                    Scr:egpAlpha(I,255)
                                }
                            } else {
                                for(I=242,244) {
                                    Scr:egpAlpha(I,0)
                                }
                            }
                        }
                    } else {
                        Scr:egpColor(239,vec(172))
                        Scr:egpColor(240,vec(190))
                        
                        if(Scr:hover(240)) {
                            Scr:egpSetText(244,"Cart is empty.")
                            for(I=242,244) {
                                Scr:egpAlpha(I,255)
                            }
                        } else {
                            for(I=242,244) {
                                Scr:egpAlpha(I,0)
                            }
                        }
                    }
                    
                    # cancel
                    
                    if(Scr:hover(237)) {
                        Scr:egpColor(237,vec(220,0,0))
                        if(Use) {
                            Anim["161state",number]=1
                        }
                    } else {
                        Scr:egpColor(237,vec(190,0,0))
                    }
                    
                    # remove items from cart
                    
                    local RED=vec(200,0,0)
                    local REDDER=vec(230,0,0)
                    
                    foreach(Shipment,Data:table=Meta["RemoveButtons",table]) {
                        local Hover=Scr:hover(Data["btn",number])
                        Scr:egpColor(Data["btn",number],Hover ? REDDER : RED)
                        if(Hover & Use) {
                            local Shipment=Data["shipment",string]
                            local Count=Session["Cart",table][Shipment,number]
                            if(Count>0) {
                                Count--
                                Meta["Items",number]=Meta["Items",number]-1
                                local Total=recalculateTotals(1,1)
                                Meta["Total",number]=Total
                                Session["Cart",table][Shipment,number]=Count
                                Scr:egpSetText(Data["label",number],Count+"x "+Meta["Shipment",table][Shipment,array][2,string])
                                Scr:egpSetText(Data["pricelabel",number],"$"+getPrice(Shipment,Count))
                                Scr:egpSetText(253,"$"+Total)
                                Scr:egpSetText(258,"Insert $"+clamp(Total-UserData[UserID,table]["money",number],0,9e99))
                            }
                        }
                        
                        if(Hover){break}
                    }
                }
            break
            case 1,
                if(Anim["161scroll",number]!=0) {
                    Anim["161scroll",number]=clamp(Anim["161scroll",number]-0.05,0,1)
                    local Smoothen=smoothStep(0,1,Anim["161scroll",number])
                    Scr:egpPos(211,vec2(Smoothen*384-128,256))
                    for(I=201,209) {
                        Scr:egpAlpha(I,Smoothen*64)
                    }
                    for(I=254,259) {
                        Scr:egpAlpha(I,Smoothen*255)
                    }
                    Scr:egpAlpha(210,Smoothen*255)
                } else {
                    setMenu(2)
                }
            break
        }
        
        return 1
    }
    
    function number menu5_Init() {
        if(ops()>500) {
            timer("vendSymbol",100)
            return 0
        }
        
        Anim["Active",number]=0
        
        # sSymbol2 - polymesh
        
        local Offset=vec2(256)
        local Scale=vec2(0.6)
        local Index=6
        
        local BaseCenter=vec2(-167.67,-283.13)
        
        local Map=table(
            # Head
            table(
                array(vec2(55.029,306.545),vec2(31.019,274.995),vec2(83.479,257.645)),
                array(vec2(83.579,257.615),vec2(55.029,306.545),vec2(83.479,257.645)),
                array(vec2(83.579,257.615),vec2(127.458,267.345),vec2(55.029,306.545)),
                array(vec2(127.458,267.345),vec2(52.759,314.125),vec2(55.029,306.545)),
                array(vec2(97.109,459.335),vec2(52.759,314.125),vec2(127.458,267.345)),
                array(vec2(97.109,459.335),vec2(127.458,267.345),vec2(166.599,267.535)),
                array(vec2(97.109,459.335),vec2(166.599,267.535),vec2(239.409,459.335)),
                array(vec2(239.409,459.335),vec2(94.539,491.905),vec2(97.109,459.335)),
                array(vec2(94.539,491.905),vec2(239.409,459.335),vec2(241.979,491.905)),
                array(vec2(94.539,491.905),vec2(241.979,491.905),vec2(135.599,567.665)),
                array(vec2(94.539,491.905),vec2(135.599,567.665),vec2(86.668,534.115)),
                array(vec2(86.668,534.115),vec2(80.199,511.465),vec2(94.539,491.905)),
                array(vec2(101.458,558.455),vec2(86.668,534.115),vec2(135.599,567.665)),
                array(vec2(135.599,567.665),vec2(241.979,491.905),vec2(168.059,568.205)),
                array(vec2(200.918,567.705),vec2(168.059,568.205),vec2(241.979,491.905)),
                array(vec2(241.979,491.905),vec2(249.849,534.125),vec2(200.918,567.705)),
                array(vec2(249.849,534.125),vec2(241.979,491.905),vec2(256.329,511.465)),
                array(vec2(249.849,534.125),vec2(235.059,558.465),vec2(200.918,567.705)),
                array(vec2(166.599,267.535),vec2(169.929,267.535),vec2(239.409,459.335)),
                array(vec2(169.929,267.535),vec2(209.059,267.345),vec2(239.409,459.335)),
                array(vec2(239.409,459.335),vec2(209.059,267.345),vec2(283.759,314.125)),
                array(vec2(283.759,314.125),vec2(209.059,267.345),vec2(281.489,306.555)),
                array(vec2(252.938,257.615),vec2(281.489,306.555),vec2(209.059,267.345)),
                array(vec2(253.039,257.645),vec2(281.489,306.555),vec2(252.938,257.615)),
                array(vec2(281.489,306.555),vec2(253.039,257.645),vec2(305.499,274.995)),
                array(vec2(253.039,257.645),vec2(256.759,246.995),vec2(305.499,274.995)),
                array(vec2(256.759,246.995),vec2(264.219,228.405),vec2(305.499,274.995)),
                array(vec2(256.759,246.995),vec2(253.079,238.475),vec2(264.219,228.405)),
                array(vec2(253.079,238.475),vec2(243.699,216.785),vec2(264.219,228.405)),
                array(vec2(264.219,228.405),vec2(243.699,216.785),vec2(250.329,212.725)),
                array(vec2(243.699,216.785),vec2(233.979,194.275),vec2(250.329,212.725)),
                array(vec2(31.019,274.995),vec2(79.759,246.995),vec2(83.479,257.645)),
                array(vec2(31.019,274.995),vec2(72.299,228.405),vec2(79.759,246.995)),
                array(vec2(79.759,246.995),vec2(72.299,228.405),vec2(83.438,238.475)),
                array(vec2(92.819,216.785),vec2(83.438,238.475),vec2(72.299,228.405)),
                array(vec2(92.819,216.785),vec2(72.299,228.405),vec2(86.188,212.725)),
                array(vec2(92.819,216.785),vec2(86.188,212.725),vec2(102.539,194.275))
            ),
            
            # Left Horn
            table(
                array(vec2(48.409,165.425),vec2(19.719,203.685),vec2(0.589,154.125)),
                array(vec2(47.539,201.075),vec2(19.719,203.685),vec2(48.409,165.425)),
                array(vec2(47.539,201.075),vec2(48.409,165.425),vec2(56.239,183.685)),
                array(vec2(47.539,201.075),vec2(56.239,183.685),vec2(85.799,212.385)),
                array(vec2(71.889,228.035),vec2(47.539,201.075),vec2(85.799,212.385)),
                array(vec2(86.188,212.725),vec2(71.889,228.035),vec2(85.799,212.385)),
                array(vec2(86.188,212.725),vec2(72.299,228.405),vec2(71.889,228.035)),
                array(vec2(0.589,154.125),vec2(23.199,132.385),vec2(48.409,165.425)),
                array(vec2(48.409,165.425),vec2(23.199,132.385),vec2(57.109,131.515)),
                array(vec2(23.199,132.385),vec2(45.799,85.425),vec2(57.109,131.515)),
                array(vec2(57.109,131.515),vec2(45.799,85.425),vec2(71.889,113.255)),
                array(vec2(71.889,113.255),vec2(45.799,85.425),vec2(75.369,69.775)),
                array(vec2(45.799,85.425),vec2(42.329,39.335),vec2(75.369,69.775)),
                array(vec2(42.329,39.335),vec2(57.979,29.775),vec2(75.369,69.775)),
                array(vec2(42.329,39.335),vec2(7.539,1.945),vec2(57.979,29.775))
            ),
            
            # Right Horn
            table(
                array(vec2(264.219,228.405),vec2(250.329,212.725),vec2(264.628,228.035)),
                array(vec2(264.628,228.035),vec2(250.329,212.725),vec2(250.719,212.385)),
                array(vec2(264.628,228.035),vec2(250.719,212.385),vec2(288.979,201.075)),
                array(vec2(250.719,212.385),vec2(280.279,183.685),vec2(288.979,201.075)),
                array(vec2(280.279,183.685),vec2(288.109,165.425),vec2(288.979,201.075)),
                array(vec2(316.799,203.685),vec2(288.979,201.075),vec2(288.109,165.425)),
                array(vec2(335.929,154.125),vec2(316.799,203.685),vec2(288.109,165.425)),
                array(vec2(288.109,165.425),vec2(313.329,132.385),vec2(335.929,154.125)),
                array(vec2(288.109,165.425),vec2(279.409,131.515),vec2(313.329,132.385)),
                array(vec2(279.409,131.515),vec2(290.719,85.425),vec2(313.329,132.385)),
                array(vec2(279.409,131.515),vec2(264.628,113.255),vec2(290.719,85.425)),
                array(vec2(264.628,113.255),vec2(261.148,69.775),vec2(290.719,85.425)),
                array(vec2(290.719,85.425),vec2(261.148,69.775),vec2(294.188,39.335)),
                array(vec2(261.148,69.775),vec2(278.539,29.775),vec2(294.188,39.335)),
                array(vec2(294.188,39.335),vec2(278.539,29.775),vec2(328.979,1.945))
            ),
            
            # Right bit
            table(
                array(vec2(239.849,249.335),vec2(225.499,234.995),vec2(253.079,238.475)),
                array(vec2(225.499,234.995),vec2(243.699,216.785),vec2(253.079,238.475))
            ),
            
            # Left bit
            table(
                array(vec2(96.668,249.335),vec2(83.438,238.475),vec2(111.019,234.995)),
                array(vec2(83.438,238.475),vec2(92.819,216.785),vec2(111.019,234.995))
            ),
            
            # Crystal
            table(
                array(vec2(185.869,159.385),vec2(164.699,198.535),vec2(148.869,159.475)),
                array(vec2(170.369,198.535),vec2(164.699,198.535),vec2(185.869,159.385)),
                array(vec2(185.869,159.385),vec2(148.869,159.475),vec2(148.869,159.215)),
                array(vec2(148.869,159.215),vec2(167.329,128.535),vec2(185.869,159.385)),
                array(vec2(185.869,159.215),vec2(185.869,159.385),vec2(167.329,128.535)),
                array(vec2(167.329,128.535),vec2(167.449,128.535),vec2(185.869,159.215))
            )
        )
        
        # Draw
        
        local Drawn=0
        local Components=Map:count()
        local Topmost=9e99
        local Leftmost=9e99
        local Rightmost=0
        local Bottommost=0
        local ScaleStroke=Scale+vec2(0.1)
        local Crystalbits=table()
        
        for(ID=1,Components) {
            local Part=Map[ID,table]
            local PartCount=Part:count()
            Drawn+=PartCount
            
            local Color=vec()
            switch(ID) {
                case 1,
                    Color=vec(220,200,59)
                break
                case Components,
                    Color=vec(1)
                    Crystalbits[Index,number]=1
                break
                default,
                    Color=vec(200,178,28)
                break
            }
            for(I=1,PartCount) {
                local Triangle=Part[I,array]
                local P1=(Triangle[1,vector2]+BaseCenter)*Scale+Offset
                local P2=(Triangle[2,vector2]+BaseCenter)*Scale+Offset
                local P3=(Triangle[3,vector2]+BaseCenter)*Scale+Offset
                
                Index++
                Scr:egpTriangle(Index,P1,P2,P3)
                Anim["tri",table]["t"+Index,table]=table("index"=Index,"alpha"=0)
                Anim["triorder",array]:pushString("t"+Index)
                Scr:egpColor(Index,Color)
            }
        }
        
        for(I=(Index-Drawn),Index) {
            # Scr:egpColor(I,vec4(hsv2rgb((((Index-I)/Drawn)*360),1,1),0))
            Scr:egpAlpha(I,0)
        }
        
        Scr:egpBox(270,vec2(256),vec2(512))
        Scr:egpColor(270,vec(1))
        Scr:egpMaterial(270,"gui/gradient_up")
        
        Anim["Active",number]=1
    }
    
    # vending menu
    function number draw_Menu5() {
        sexyBG(Scr)
        
        Scr:egpText(3,"Vending in Progress",vec2(256,25))
        Scr:egpAlign(3,1,1)
        Scr:egpSize(3,30)
        
        Scr:egpText(4,"Item 0 of 0",vec2(256,50))
        Scr:egpAlign(4,1,1)
        Scr:egpColor(4,vec(150))
        
        Anim["gradient",number]=0
        Anim["tri",table]=table()
        Anim["triactive",table]=table()
        Anim["triorder",array]=array()
        Anim["maxtri",number]=77
        Anim["finished",number]=0
        
        
        local MaxItems=0
        foreach(Shipment,Count:number=Meta["Vend",table]) {
            MaxItems+=Count
        }
        
        Meta["maxitems",number]=MaxItems
        Meta["vended",number]=0
        
        Scr:egpBox(270,vec2(256),vec2(512))
        Scr:egpColor(270,vec(1))
        Scr:egpMaterial(270,"gui/gradient_up")
        
        timer("vendSymbol",0)
    }
    
    function number handle_Menu5() {
        if(!Anim["Active",number]) {return 0}
        
        foreach(Shipment,Count:number=Meta["Vend",table]) {
            if(Count==0){continue}
            if(Users[Shipment,table]["timer",number]<Time) {
                Users[Shipment,table]["timer",number]=Time+3
                Meta["Vend",table][Shipment,number]=Count-1
                Meta["vended",number]=Meta["vended",number]+1
                # print(Shipment,Meta["Vend",table][Shipment,number])
                Users[Shipment,table]["Ranger",wirelink]["Fire",number]=1
                # print("vend ",Shipment,Meta["vended",number],Meta["maxitems",number])
                local AddTri=ceil((1/Meta["maxitems",number])*Anim["maxtri",number])
                for(I=1,AddTri) {
                    local TriID=Anim["triorder",array]:popString()
                    if(!TriID) {break}
                    Anim["triactive",table][TriID,table]=Anim["tri",table][TriID,table]:clone()
                }
            } else {
                Users[Shipment,table]["Ranger",wirelink]["Fire",number]=0
            }
        }
        
        if(Meta["vended",number]==Meta["maxitems",number] & !Anim["finished",number]) {
            Anim["finished",number]=1
            Anim["falpha",number]=1
            Anim["fadeout",number]=Time+3
        } elseif(Anim["finished",number] & Anim["fadeout",number]<Time) {
            Anim["falpha",number]=clamp(Anim["falpha",number]-0.1,0,1)
            foreach(I,V:table=Anim["tri",table]) {
                Scr:egpAlpha(V["index",number],Anim["falpha",number]*255)
            }
            for(I=1,5) {
                Scr:egpAlpha(I,Anim["falpha",number]*255)
            }
            if(Anim["falpha",number]==0) {setMenu(6)}
        } else {
            Scr:egpSetText(4,"Item "+Meta["vended",number]+" of "+Meta["maxitems",number])
            
            foreach(I,V:table=Anim["triactive",table]) {
                Anim["triactive",table][I,table]["alpha",number]=clamp(V["alpha",number]+randint(10)/100,0,1)
                local Alpha=Anim["triactive",table][I,table]["alpha",number]
                Scr:egpAlpha(V["index",number],Alpha*255)
                if(Alpha>=1){
                    Anim["triactive",table]:removeTable(I)
                }
            }
        }
        
        IdleTimer=0
    }
    
    function number draw_Menu6() {
        sexyBG(Scr)
        
        # overlay
        
        Scr:egpBox(1,vec2(256),vec2(512))
        Scr:egpColor(1,vec(1))
        Scr:egpMaterial(1,"gui/gradient_up")
        
        Scr:egpText(2,"Purchase Completed",vec2(256,230))
        Scr:egpAlign(2,1,1)
        Scr:egpSize(2,35)
        
        local Quips=array(
            "We'd print you a receipt, but we don't have those.",
            "Have a nice day?  Or something...",
            "This sentence is randomly selected.  That's pretty neat.",
            "You should spend some more money.  Y'know, that's pretty cool.",
            "Sample text.  Sample text.  Sample text.",
            "sShop16 v4 - Available soon(tm)"
        )
        
        
        Scr:egpText(3,Quips[randint(Quips:count()),string],vec2(256,256))
        Scr:egpAlign(3,1,1)
        Scr:egpColor(3,vec(200))
        Scr:egpSize(3,15)
        
        # main
        
        Scr:egpBox(4,vec2(201,293),vec2(80,34))
        Scr:egpColor(4,vec(130))
        
        Scr:egpBox(5,vec2(201,290),vec2(80,30))
        Scr:egpColor(5,vec(160))
        Scr:cache(5)
        
        Scr:egpText(6,"Main",vec2(201,290))
        Scr:egpAlign(6,1,1)
        Scr:egpSize(6,25)
        
        # exit
        Scr:egpBox(7,vec2(311,293),vec2(80,34))
        Scr:egpColor(7,vec(130))
        
        Scr:egpBox(8,vec2(311,290),vec2(80,30))
        Scr:egpColor(8,vec(160))
        Scr:cache(8)
        
        Scr:egpText(9,"Exit",vec2(311,290))
        Scr:egpAlign(9,1,1)
        Scr:egpSize(9,25)
    }
    
    function number handle_Menu6() {
        if(Scr:hover(8)) {
            Scr:egpColor(8,vec(180))
            Scr:egpColor(7,vec(150))
            if(Use) {
                User=noentity()
                UseTimeout=Time+2
                UserID=""
                IdleTimer=0
                Session["Cart",table]:clear()
                Anim:clear()
                setMenu(0)
            }
        } else {
            Scr:egpColor(8,vec(160))
            Scr:egpColor(7,vec(130))
        }
        
        if(Scr:hover(5)) {
            Scr:egpColor(5,vec(180))
            Scr:egpColor(4,vec(150))
            if(Use) {
                Session["Cart",table]:clear()
                Anim:clear()
                setMenu(1)
            }
        } else {
            Scr:egpColor(5,vec(160))
            Scr:egpColor(4,vec(130))
        }
    }
    
    # Base Handler
    function number menuHandler() {
        switch(Menu) {
            case 0,
                handle_Menu0()
            break
            case 1,
                handle_Menu1()
            break
            case 2,
                handle_Menu2()
            break
            case 3,
                handle_Menu3()
            break
            case 4,
                handle_Menu4()
            break
            case 5,
                handle_Menu5()
            break
            case 6,
                handle_Menu6()
            break
        }
    }
    
    function number drawMenuHandler() {
        switch(Menu) {
            case 0,
                draw_Menu0()
            break
            case 1,
                draw_Menu1()
            break
            case 2,
                draw_Menu2()
            break
            case 3,
                draw_Menu3()
            break
            case 4,
                draw_Menu4()
            break
            case 5,
                draw_Menu5()
            break
            case 6,
                draw_Menu6()
            break
        }
    }
    
    ###################
    ## Chat Commands ##
    ###################
    
    Chat=table(
        "wire"="selfWire",
        "detect"="addShipments",
        "help"="chatHelp",
        "rhelp"="chatRawHelp"
    )
    
    ChatHelp=table(
        "wire"=table("Wires sShop16 to the nearest EGP and all nearby users."),
        "detect"=table("Redetects all available shipments."),
        "help"=table("Shows this menu."),
        "rhelp"=table("Displays raw function calls for chat functions."),
        "lockdown"=table("Disables/enables sShop16."),
        "discount"=table("Discount system.",array("<item>","<$discount%>","[time]")),
        "bundle"=table("Bundle system.",array("<name> <$discount%> <item> [item] [item] ...")),
        "confirm"=table("Confirms the last command.",array()),
        "decline"=table("Declines the last command.",array())
    )
    
    function number chatHelp(Args:array) {
        foreach(I,V:table=ChatHelp) {
            printColor(vec(0,255,0),"."+I+" ",vec(255,255,0),V[2,array]:concat(" "),vec(255)," - ",V[1,string])
        }
    }
    
    function number chatRawHelp(Args:array) {
        foreach(I,V:string=Chat) {
            printColor(vec(0,255,0),I,vec(255),": ",vec(255,255,0),V)
        }
    }
    
    # Init
    setMenu(0)
    timer("AutoLogout",0)
}

#####################
### Per-Execution ###
#####################

elseif(clk() | UserTrigger) {
    UseHeld=User:keyUse()
    Use=UseHeld & !UseHold & UseTimeout<Time
    UseHold=UseHeld
    Cursor=Scr:egpCursor(User)
    Time=curtime()
    menuHandler()
}

#####################
### Chat Commands ###
#####################

if(chatClk(Owner)) {
    local LastSaid=Owner:lastSaid()
    if(LastSaid:sub(1,1)==".") {
        if(Config["HideChat",number]) {hideChat(1)}
        local Args=LastSaid:sub(2):explode(" ")
        local Command=Args:shiftString()
        if(Chat[Command,string]) {
            Chat[Command,string](Args)
        } else {
            printColor(vec(255,255,0),"[sShop-F] ",vec(255,0,0),Command,vec(255)," is not a valid command.  Say .help for a list.")
        }
    }
}

####################
### Logout Block ###
####################

elseif(clk("AutoLogout")) {
    timer("AutoLogout",1000)
    local CurDist=ScrEnt:pos():distance(User:pos())
    if(User:isValid()) {
        if(!changed(Cursor) & !Use) {
            IdleTimer=clamp(IdleTimer+1,0,200)
            if(IdleTimer==10) {
                Scr:egpBox(297,vec2(256),vec2(512,50))
                Scr:egpColor(297,vec(128,0,0))
                
                Scr:egpBox(298,vec2(256),vec2(512,50))
                Scr:egpMaterial(298,"gui/gradient_up")
                Scr:egpColor(298,vec4(1,1,1,128))
                
                Scr:egpText(299,"Idler logout in "+ceil(20-IdleTimer)+" seconds.",vec2(256))
                Scr:egpAlign(299,1,1)
                Scr:egpSize(299,30)
            } elseif (IdleTimer>10 & IdleTimer%1==0) {
                Scr:egpSetText(299,"Idler logout in "+ceil(20-IdleTimer)+" seconds.")
            }
        } elseif (IdleTimer>0) {
            IdleTimer=0
            Scr:egpRemove(297)
            Scr:egpRemove(298)
            Scr:egpRemove(299)
        }
        
        if(CurDist>200 | IdleTimer>=20) {
            User=noentity()
            UserID=""
            setMenu(0)
            IdleTimer=0
            Session:clear()
        }
    }
}

################
### Triggers ###
################

elseif(clk("SetupShop")) {
    if(ops()>300) {
        timer("SetupShop",100)
    } else {
        for(I=70,72) {Scr:egpRemove(I)}
        Meta["ShopSetup",number]=1
        setupShopPage((Meta["Page",number]-1)*12+1)
    }
}

elseif(clk("cartThrottle")) {
    if(draw_Menu4()) {handle_Menu4()}
}

elseif(clk("swapShopFrame")) {
    if(minquota()==0 | maxquota()<14000) {
        timer("swapShopFrame",100)
    } else {
        Anim["PageCool",number]=0
        setupShopPage((Meta["Page",number]-1)*12+1)
    }
}

elseif(clk("vendSymbol")) {
    menu5_Init()
}

elseif(clk("vendFinished")) {
    setMenu(6)
}



######################
### Money Handling ###
######################

if (User & Moneypot["StoredAmount",number]>LastMoney) {
    local Added=Moneypot["StoredAmount",number]-LastMoney
    LastMoney=Moneypot["StoredAmount",number]
    
    printColor(vec(255,255,0),"[sShop-F] ",vec(255),"User ",vec(0,255,0),User:name(),vec(255)," added ",vec(0,255,0),"$"+Added,vec(255)," to their account.")
    local LastMoney2=UserData[UserID,table]["money",number]
    UserData[UserID,table]["money",number]=LastMoney2+Added
    
    if(Menu==4) {
        Scr:egpSetText(259,"Account: $"+UserData[UserID,table]["money",number])
        Scr:egpSetText(258,"Insert $"+clamp(Meta["Total",number]-UserData[UserID,table]["money",number],0,9e99))
    }
} elseif (Moneypot["StoredAmount",number]<LastMoney) {
    LastMoney=Moneypot["StoredAmount",number]
    printColor(vec(255,255,0),"[sShop-F] ",vec(255),"Moneypot was emptied.")
} elseif (changed(Moneypot)) {
    LastMoney=Moneypot["StoredAmount",number]
    printColor(vec(255,255,0),"[sShop-F] ",vec(255),"Moneypot was connected with ",vec(0,255,0),"$"+Moneypot["StoredAmount",number],vec(255)," in it.  Ignoring.")
}

###############
### Outputs ###
###############

PrivacyDoor=(Menu==0)
MoneyOpen=(Menu==4)
