@name [Zoids] Liger Zero Schneider
@inputs
@outputs 
@persist Cam:wirelink CamDistance Aim:ranger PrevBearing
@persist [Seat Base CamEnt]:entity [Bones FootData]:table
@persist Height TailCount Tail:table TailAngle:angle Bobbing Crouching
@persist DisableUpdate FL1 FL2 FLLength RL1 RL2 RL3 RLLength RLLengthIK
@persist Gaits:table WalkVel WalkCycle WalkDelta FootZDiff
@persist NeckAngle:angle
@persist InAir PrevInAir InWater PrevInWater SwimTime SwimVel
@persist Jumping JumpFract [JumpDest JumpStart]:vector JumpStartAng:angle
@persist [PrevMoveDir MoveDir]:vector [FinalAngle]:angle PrevSpeed PrevSprinting Breaking
@persist Sounds:table SoundBreaking
@persist Roaring RoarTime
@persist Sliding SlideDir:vector
@persist FrontRGHit RearRGHit [FrontRGPos RearRGPos]:vector
@model models/sprops/cuboids/height12/size_1/cube_12x12x12.mdl 

interval(60)
if (first()) {
    #include "LigerLib"
    #include "LigerHcore"
    
    
    DisableUpdate = 0
    Height = 40
    CamDistance = 150
    
    FL1 = 34
    FL2 = 36
    FLLength = FL1 + FL2
    
    RL1 = 34
    RL2 = 20
    RL3 = 32
    RLLength = RL1 + RL2 + RL3
    RLLengthIK = RL2 + RL3
    
    TailCount = 6
    
    Base = entity()
    Base:setAlpha(255)
    Base:setMass(2500)
    
    Angle = Base:angles()
    FinalAngle = Angle
    
    Sounds["roar", array] = array("^npc/dog/dog_angry1.wav",
                                  "^npc/dog/dog_angry2.wav",
                                  "^npc/dog/dog_angry3.wav",
                                  "^npc/dog/dog_growl2.wav",
                                  "^npc/dog/dog_growl3.wav")
        
    
    function setGait(ID, Start, Length) {
        local Tbl = table()
        Start -= floor(Start)
        Length -= floor(Length)
        
        Tbl["start", number] = Start
        Tbl["end", number] = Start + Length
        
        Gaits[ID, table] = Tbl
    }
    
    function number gaitGetFract(Idx, X) {
        local Gait = Gaits[Idx, table]
        
        local Start = Gait["start", number]
        local End = Gait["end", number]
        local GFract = 0
        local GMove = 0
        
        if (X >= Start && X <= End) {
            return (X - Start) / (End - Start)
        }
        
        if (Start < 0) {
            if (X >= abs(Start) && X <= 1) {
                return (X - Start) / (End - Start)
            }
        }
        elseif (End > 1) {
            if (X + 1 >= Start && X + 1 <= End) {                    
                return (X + 1 - Start) / (End - Start)
            }
        }
        
        return 0
    }
    
    function void resetLeg(Str:string) {
        FootData[Str + ".Dest", vector] = FootData[Str + ".Pos", vector]
        FootData[Str + ".Prev", vector] = FootData[Str + ".Pos", vector]
        
        FootData[Str + ".IsMoving", number] = 0
        FootData[Str + ".ShouldMove", number] = 0
    }
    
    function number entity:bearing(Target:vector, Yaw, Mul, Limit) {
        return Yaw - clamp(bearing(This:pos(), ang(0, Yaw, 0), Target) / Mul, -Limit, Limit)
    }
    
    function ranger finalRanger(Pos:vector) {
        return rangerOffset(999999999, Pos, vec(0, 0, -1))
    }
    
    function table findJumpPos(Origin:vector) {
        local AimPos = Aim:pos()
        local AimDist = min(AimPos:distance(Origin), 1000)
        local AimF = Origin + (AimPos - Origin):normalized() * AimDist
        
        local Dist = Origin:distance(AimF)
        local Mid = (Origin + AimF) / 2
        
        local AimNormal = 1 - Aim:hitNormal():dot(vec(0, 0, 1))
        local ZDiff = max(abs(AimF:z() - Origin:z()) / 4, 200 * AimNormal)
        
        local Perp = vec(0, 0, 1) #( ( AimF - Origin ):toAngle() - ang( 90, 0, 0 ) ):forward()
        local MidPerp = Mid + Perp * (Dist / 2 + ZDiff)
        
        local End = AimF + vec(0, 0, 1) * ZDiff
                
        local RG1 = rangerOffset(Origin:distance(MidPerp), Origin, MidPerp - Origin)
        local FinalPos = Origin
        local FinalRanger = noranger()
        
        if (RG1:hit()) {
            local Dot = 1 - RG1:hitNormal():dot(vec(0, 0, 1))
            FinalRanger = finalRanger(RG1:pos() + RG1:hitNormal() * 150 * Dot)
            FinalPos = FinalRanger:pos()
        }
        else {
            local RD2 = rangerOffset(End:distance(MidPerp) * 1.5, MidPerp, End - MidPerp)
            local Dot = 1 - RD2:hitNormal():dot( vec( 0, 0, 1 ) )
            
            if (RD2:hit()) {
                FinalRanger = finalRanger(RD2:pos() + RD2:hitNormal() * 150 * Dot)
                FinalPos = FinalRanger:pos()
            } else {
                FinalRanger = finalRanger(RD2:pos())
                FinalPos = FinalRanger:pos()
            }
        }
        
        
        return table(FinalPos + vec(0, 0, Height), FinalRanger)
    }

    function void playFootSound(I, Sprinting) {
        local SoundPath = "^npc/dog/dog_footstep" + randint(1, 4) + ".wav"
        if (Sprinting) {
            SoundPath = "^npc/dog/dog_footstep_run" + randint(2, 8) + ".wav"
        }
        
        Base:soundPlay("Foot." + I, 0, SoundPath, soundDuration(SoundPath))
    }
    
    function void playBreakSound() {
        Base:soundPlay("Break", 1, "^npc/dog/dog_destroy_door1.wav")
        soundPitch("Break", 140 + random(-5, 10))
    }
    
    function void playJumpSound() {
        #Base:soundPlay("Jump", 1, "^npc/dog/dog_pneumatic" + randint(1, 2) + ".wav")
        #soundPitch("Jump", 100 + random(-10, 10))
        
        Base:soundPlay("Jump", 1, "^physics/nearmiss/whoosh_large1.wav")
        soundPitch("Jump", 255 + random(0, 20))
    }
    
    function void playRoarSound() {
        local Arr = Sounds["roar", array]
        Base:soundPlay("Roar", 2, Arr[randint(1, Arr:count()), string])
        soundPitch("Roar", 100 + random(-40, 80))
    }
    
    hc_createModel(Base, "mech/zoids_liger_zero_schneider")
    
    rangerPersist(1)
    rangerFilter(Base)
    rangerFilter(players())
    
    findIncludeClass("prop_vehicle*")
    findIncludeClass("gmod_wire_cameracontroller")
    
    if (!Seat:isValid() || !CamEnt:isValid()) {
        findInSphere(Base:pos(), 200)
        local Arr = findToTable()
        
        for (I = 1, Arr:count()) {
            local Ent = Arr[I, entity]
            
            if (Ent:owner() != owner()) { continue }
            
            if (!Seat:isValid() && Ent:type():find("prop_vehicle")) {
                Seat = Ent
                Seat:setAlpha(0)
                Seat:setPos(Base:toWorld(vec(0, 0, 10)))
                Seat:setAng(Base:toWorld(ang(0, -90, 0)))
                Seat:propFreeze(1)
                timer("parent", 100)
                
                rangerFilter(Seat)
                
                print("Found seat: " + toString(Seat))
                
                continue
            }
            
            if (!CamEnt:isValid() && Ent:type() == "gmod_wire_cameracontroller") {
                CamEnt = Ent
                
                Cam = CamEnt:wirelink()
                Cam["Activated", number] = 1
                Cam["Parent", entity] = Base
                Cam["Position", vector] = vec(0, 0, 80)
                Cam["Distance", number] = 100
                
                print("Found cam: " + toString(CamEnt))
            }
        }
    }
}

if (clk("parent")) {
    Seat:parentTo(Base)
}

if (hc_finished() && !DisableUpdate) {
    local BaseForward = Base:forward():setZ(0):normalized()
    local BaseRight = Base:right():setZ(0):normalized()
    
    
    local Driver = Seat:driver()
    
    if (Driver:isValid()) {
        Aim = rangerOffset(99999, Driver:shootPos(), Seat:toLocalAxis(Driver:eye()))
    }
    
    #---Movement---#
    ################
    
    local Sprinting = 0
    
    InWater = Base:isUnderWater()
    if (InWater) {
        InAir = 0
    }
    
    if (Breaking) {
        if (!InAir && !InWater) {
            if (!SoundBreaking) {
                playBreakSound()
                SoundBreaking = 1
            }
            
            MoveDir = lerp(MoveDir, vec(), 0.5)
            if (floor(MoveDir:length() * 10) / 10 == 0) {
                MoveDir = vec()
                Breaking = 0
            }
        }
        
        if (InWater) {
            Breaking = 0
        }
    }
    else {
        SoundBreaking = 0
        MoveDir = vec()
        
        local JumpData = findJumpPos(Base:pos())
        local JumpPos = JumpData[1, vector]
        local JumpRG = JumpData[2, ranger]
        
        holoPos(-1, JumpPos)
        holoAng(-1, JumpRG:hitNormal():toAngle() + ang(90, 0, 0))
        local S = 5 + sin(curtime() * 50) * 2
        holoScale(-1, vec(S, S, 0.1))
        holoVisible(-1, players(), 0)
        holoVisible(-1, Driver, 1)
        
        local DistFract = min(JumpPos:distance(Base:pos()) / 1000, 1)
        holoAlpha(-1, DistFract * 255)
        
        #---Inputs---#
        ##############
        
        if (Driver:isValid() && !Roaring) {
            if (!Jumping && !InAir) {
                local BForward = Base:forward()
                
                if (Driver:keyForward()) {
                    if (Driver:keySprint() && !InWater) {
                        Sprinting = 1
                        MoveDir += BForward * 200
                    }
                    else {
                        MoveDir += BForward * 30
                    }
                }
                elseif (Driver:keyBack()) {
                    MoveDir += -BForward * 30
                }
                
                if (Driver:keyRight()) {
                    MoveDir += BaseRight * 20
                }
                elseif (Driver:keyLeft()) {
                    MoveDir += -BaseRight * 20
                }
                
                Crouching = Driver:keyDuck()
            }
            
            if (Driver:keyJump() && !Jumping && (!InAir || (InAir && InWater))) {
                if (Crouching) {
                    Roaring = 1
                    RoarTime = 0
                    Crouching = 0
                    
                    playRoarSound()
                }
                else {
                    if (JumpPos:distance(Base:pos()) > 200) {
                        Jumping = 1
                        JumpFract = 0
                        JumpStart = Base:pos()
                        JumpDest = JumpPos
                        JumpStartAng = Base:angles()
                        
                        playJumpSound()
                    }
                }
            }
        }
        
        ##############
    }
    
    if (owner():keyPressed("up")) {
        MoveDir += Base:forward() * 30
    }
    
    local Speed = MoveDir:length()
    
    if (PrevSprinting && PrevSpeed - 5 > Speed) {
        Breaking = 1
        MoveDir = PrevMoveDir
    }
    
    if (!InAir && PrevInAir) {
        Breaking = 1
    }
    
    ################
    
    #---Gaits---#
    #############
    
    if (Sprinting) {
        setGait(1, 0.95, 0.7) # Right Front
        setGait(2, 0.75, 0.7) # Left Front
        
        setGait(3, 0.1, 0.7) # Right Rear
        setGait(4, 0.3, 0.7) # Left Rear
    
        WalkDelta = 0.2
    }
    else {
        setGait(1, 0.0, 0.5) # Right Front
        setGait(2, 0.5, 0.5) # Left Front
        
        setGait(3, 0.5, 0.3) # Right Rear
        setGait(4, 0.0, 0.3) # Left Rear
        
        WalkDelta = lerp(WalkDelta, 0.05 + Speed * 0.00175, 0.1)
    }
    
    WalkCycle += WalkDelta
    
    #############
    
    
    #---Roaring---#
    ###############
    
    if (Roaring) {
        RoarTime += 0.05
        
        if (RoarTime > 1) {
            Roaring = 0
        }
    }
    
    ###############
    
        
    local Vertebra = Bones["Head.Vertebra", number]
    local Head = Bones["Head.Head", number]
    local Mouth = Bones["Head.Mouth", number]
    
    local BodyFront = Bones["Body.Front", number]
    local BodyRear = Bones["Body.Rear", number] 
    
    #---Front and Rear Legs---#
    ###########################

    local FootZMin = 100000000
    local FootZMax = -100000000
    
    
    
    local Idle = sin(curtime() * 80) * 2 * (1 - min(Speed / 10, 1))
    
    local PlaneAngle = ang()
    
    if (Sprinting) {
        Bobbing = 0
        
        if (FootData["FrontLeg.2.IsMoving", number]) {
            Bobbing = 1
        }
        
        if (FootData["RearLeg.1.IsMoving", number]) {
            Bobbing = -1
        }
        if (PrevSprinting == 0) { Bobbing = 1 }
        
        FootZDiff = 5 + Bobbing * 10
    }
    else {
        FootZDiff = abs(FootData["FrontLeg.1.Pos", vector]:z() - FootData["FrontLeg.2.Pos", vector]:z())
    }
    
    if (!InAir && PrevInAir) {
        FootZDiff = 10
    }
    
    if (FrontRGHit > 0 && RearRGHit > 0) {
        FrontRGPos /= FrontRGHit
        RearRGPos /= RearRGHit
        
        PlaneAngle = angnorm((FrontRGPos - RearRGPos):toAngle())
    }
    
    local PlanePitch = clamp(PlaneAngle:pitch(), -65, 25)
    
    ###########################
        
    #---Tail---#
    ############
    
    local TailDestAng = holoEntity(BodyRear):angles()
    
    if (Crouching) {
        TailDestAng += ang(45, sin(curtime() * 500) * 30, 0)
    }
    
    TailAngle = slerp(quat(TailDestAng + ang(-clamp(Base:vel():z() / 10, -90, 90), clamp(Base:velL():y() / 10, -90, 90), 0)), quat(TailAngle), 0.3):toAngle()
    Tail:unshiftAngle(TailAngle)
    Tail:removeAngle(TailCount + 1)
    
    local AngOffset = ang(-5, 0, 0)
    for (I = 1, TailCount) {
        local ID = Bones["Tail." + I, number]
        
        holoAng(ID, Tail[I, angle] + AngOffset)
        AngOffset -= ang(5, 0, 0)
    }
    
    ############
    
    local Angle = ang(PlanePitch, Base:angles():yaw(), 0)
    
    local DriverPitch = 0
    local Bearing = 0
    if (Driver:isValid()) {
        Bearing = Base:bearing(Aim:pos(), Base:angles():yaw(), 2, 40)
        if (!Roaring) {
            Angle = Angle:setYaw(Bearing)
        }
        
        DriverPitch = clamp(Driver:eyeAngles():pitch(), -30, 30)
    }
    local AngDelta = Bearing - PrevBearing
    
    
    #---Neck---#
    ############
    
    local NeckTarAng = angnorm(ang(PlanePitch / 2, AngDelta * 4, 0))
    local NeckCrouchAngle = ang()
    
    local Diff = NeckTarAng / 2
    
    if (InWater) {
        Diff = Diff:setPitch(-5)
    }
    elseif (Sprinting) {
        Diff = Diff:setPitch(0)
    }
    elseif (Crouching) {
        NeckCrouchAngle = ang(0, 0, 0)
        Diff = ang(0, 0, 0)
    }
    elseif (Roaring) {
        Diff = ang(-5, 0, 0)
    }

    NeckAngle = slerp(quat(NeckAngle), quat(Diff), 0.2):toAngle()
    
    local HeadBobAng = ang(FootZDiff / 2, 0, 0)
    holoAng(BodyFront, Base:toWorld(NeckAngle + HeadBobAng / 2))
    holoAng(BodyRear, Base:toWorld(NeckAngle:setYaw(-NeckAngle:yaw() / 1.5) + HeadBobAng / 3))
    holoAng(Head, holoEntity(BodyFront):toWorld(NeckAngle + NeckCrouchAngle + HeadBobAng / 3 + ang(Idle * 2, 0, 0)))
    
    ############
    
    #---Mouth---#
    #############
    
    local MouthAng = ang(10 + Idle * 2, 0, 0)
    if (Roaring) {
        MouthAng = ang(20 + RoarTime * 20, 0, 0)
    }
        
    holoAng(Mouth, holoEntity(Head):toWorld(MouthAng))
    
    #############
    
    if (WalkCycle > 1) {
        WalkCycle = 0
    }
    
    #---Movement---#
    ################
    
    if (PlanePitch > 5) {
        FootZDiff *= 0.8
    }
    
    local FootZAng = ang(-FootZDiff / 3, 0, 0)
    
    if (Sprinting) {
        FootZAng = ang(-FootZDiff / 1.5, 0, 0)
    }
    
    if ((PlanePitch > 7) || (PlanePitch < -10 && -BaseForward:dot(MoveDir) > 0)) {
        local Fract = min((PlanePitch - 7) / (13 - 7), 1) * 2
        FootZDiff *= (-Fract + 1)
    }
    
    local DestHeight = Height
    
    local RGDist = 100
    if (InAir) { RGDist = 50 }
    local RG = rangerOffsetHull(RGDist, Base:pos(), vec(0, 0, -1), vec(20, 20, 0))
    
    local SlopeDot = RG:hitNormal():dot(BaseForward)
    local SlopeDiff = 0
    
    if (SlopeDot > 0) {
        SlopeDiff = SlopeDot * Base:vel():setZ(0):length() / 8
    } elseif (SlopeDot < 0) {
        SlopeDiff = -SlopeDot * 2 * (1 + Base:vel():setZ(0):length() / 20)
    }
    
    local SideSlopeDot = RG:hitNormal():dot(Base:right())
    if (abs(SideSlopeDot) > 0.3) { # Standing on slope in direction +/- Base:right()
        local DownDot = MoveDir:normalized():dot(RG:hitNormal())
        if (DownDot > 0) { # Moving down slope
            DestHeight -= DownDot * 40
        }
        FootZDiff /= 2 # Too much bobbing
    }
    
    if (Breaking) {
        Angle = Angle:setPitch(PlanePitch + 20)
        DestHeight -= 10
    }
    else {
        if (Sprinting) {
            Angle = Angle:setRoll(-AngDelta * 2)
        }
        else {
            Angle = Angle:setRoll(0)
        }
    }
    
    DestHeight += SlopeDiff
    
    if (Crouching) {
        Angle = Angle:setPitch(Angle:pitch() + 20)
        Idle = 0
        
        DestHeight /= 1.7
    }
    elseif (Roaring) {
        Angle = Angle:setPitch(Angle:pitch() - 50 + RoarTime * 40)
        
        DestHeight *= (1.4 - RoarTime / 2)
    }
    else {
        DestHeight += Idle
        Angle = Angle:setPitch(Angle:pitch() - Idle * 1.5)
    }
    
    DestHeight += clamp(FootZDiff / 1.5, -Height / 1.5, Height / 1.5)
    
    FinalAngle = slerp(quat(FinalAngle), quat(Angle), 0.3):toAngle()
    
    if (Jumping) {
        Base:propGravity(0)
        InAir = 1
        
        local Fract = bezierCurve(vec(0, 0, 0), vec(0, 0.6, 0), vec(1, 0.4, 0), vec(1, 1, 0), JumpFract):y()
        if (Fract >= 1.04) {
            Jumping = 0
            MoveDir = vec(50, 0, 0)
            Breaking = 1
        }
        
        local Highest = JumpStart
        if (JumpDest:z() > JumpStart:z()) { Highest = JumpDest }
        
        local JumpMid = (JumpStart + (JumpDest - JumpStart) * 0.5):setZ(Highest:z() + Height * 10)
        
        local Pos = bezierCurve(JumpStart, JumpMid, JumpDest, Fract)
        
        Base:applyForce(((Pos - Base:pos()) * 4 - Base:vel()) * Base:mass())
        
        local AFract = min(Fract * 3, 1)
        local Ang = ang(0, (JumpDest - JumpMid):toAngle():yaw(), 0)
        local FinalAng = slerp(quat(JumpStartAng), quat(Ang), AFract):toAngle()
        
        FinalAng = FinalAng:setPitch(cosr(Fract * pi() * 1.2) * -25)
        
        local Inertia = shiftL(ang(Base:inertia()))
        Base:applyAngForce((Base:toLocal(FinalAng) * 200 - Base:angVel() * 20) * Inertia)
        
        JumpFract = JumpFract + min(0.035, 1.04)
        
    }
    else {
        if (InWater && RG:distance() > Height) {
            Base:propGravity(0)
            
            local Vel = Base:vel() / vec(10, 10, 4)
            Base:applyForce((vec(0, 0, -1) * 30 + MoveDir - Vel) * Base:mass())
            
            local Inertia = shiftL(ang(Base:inertia()))
            Base:applyAngForce((Base:toLocal(FinalAngle) * 300 - Base:angVel() * 10) * Inertia)
        }
        else {
            if (RG:hit()) {
                Base:propGravity(0)
                
                local Up = vec(0, 0, 1)
                
                local Norm = RG:hitNormal()
                local Forward = (Base:angles()):forward()
                local Right = Norm:cross(Forward)
                
                local FDot = Forward:dot(Up) * 50
                local RDot = Right:dot(Up) * 50
                
                local FFDot = (FDot < 0 ? -max(-FDot - 18, 0) : max(FDot - 30, 0)) * 5
                local FRDot = (RDot < 0 ? -max(-RDot - 28, 0) : max(RDot - 28, 0)) * 5
                
                local MDir = Forward * -FFDot + Right * -FRDot
                SlideDir = mix(MDir, SlideDir, 0.25)
                
                DestHeight -= min(SlideDir:length() / 2, Height / 1.5 )
                
            
                local DiffHeight = DestHeight - RG:distance()
                local Vel = Base:vel() / vec(6, 6, 1.25)
                local Offset = vec(cos(curtime() * 50) / 10, sin(curtime() * 50) / 10, 0)
                
                Base:applyForce(((vec(0, 0, 1) * DiffHeight) * 8 + MoveDir + SlideDir - Vel) * Base:mass())
                
                local Inertia = shiftL(ang(Base:inertia()))
                Base:applyAngForce((Base:toLocal(FinalAngle + FootZAng) * 200 - Base:angVel() * 20) * Inertia)
            
                InAir = 0
            }
            else {
                Base:propGravity(1)
                
                local Inertia = shiftL(ang(Base:inertia()))
                Base:applyAngForce((Base:toLocal(ang(0, Base:angles():yaw(), 0)) * 200 - Base:angVel() * 20) * Inertia)
                
                InAir = 1
            }
        }
    }


    
    FrontRGHit = 0
    FrontRGPos = vec()
    RearRGHit = 0
    RearRGPos = vec()

    for (I = 1, 2) {
        local Side = (I == 1 ? -1 : 1)
        
        if (InWater) {
            local Vel = min(Base:vel():length() / 500, 1)
            SwimVel = lerp(SwimVel, Vel, 0.2)
            
            SwimTime += SwimVel * 60
            
            local T = SwimTime + ((I - 1) * 180)
            local VelOffset = -Base:vel():setZ(0) / 15
            
            local FrontOffset = BaseForward * 15 - Base:up() * Height
            local FrontPaddle = BaseForward * sin(T) * 20 + vec(0, 0, 1) * cos(T) * 8
            local DestFront = holoEntity(Bones["FrontLeg." + I + ".Shoulder3", number]):pos() + FrontPaddle + FrontOffset + VelOffset
            FootData["FrontLeg." + I + ".Pos", vector] = lerp(FootData["FrontLeg." + I + ".Pos", vector], DestFront, 0.7)
            resetLeg("FrontLeg." + I)
            
            local RearOffset = -BaseForward * 35 - Base:up() * Height
            local RearDir = (RearOffset - vec()):normalized()
            
            local RearPaddle = RearDir * (5 + sin(T) * 15) + BaseForward * cos(T) * 10
            local DestRear = holoEntity(Bones["RearLeg." + I + ".Hip3", number]):pos() + RearPaddle + RearOffset + VelOffset
            FootData["RearLeg." + I + ".Pos", vector] = lerp(FootData["RearLeg." + I + ".Pos", vector], DestRear, 0.7)
            resetLeg("RearLeg." + I)
        }
        elseif (InAir) {
            local VelOffset = Base:vel():setZ(0) / 15
            
            local DestFront = holoEntity(Bones["FrontLeg." + I + ".Shoulder3", number]):pos() + BaseForward * 15 - Base:up() * Height + VelOffset / 2
            FootData["FrontLeg." + I + ".Pos", vector] = lerp(FootData["FrontLeg." + I + ".Pos", vector], DestFront, 0.9)
            resetLeg("FrontLeg." + I)
            
            local DestRear = holoEntity(Bones["RearLeg." + I + ".Hip3", number]):pos() - Base:up() * (Height + 5) - VelOffset / 3
            FootData["RearLeg." + I + ".Pos", vector] = lerp(FootData["RearLeg." + I + ".Pos", vector], DestRear, 0.8)
            resetLeg("RearLeg." + I)
        }
        
        #---Front Legs---#
        ##################
        
        if (1) { # Separate locals for front legs
            local Str = "FrontLeg." + I
            
            local Shoulder1    = Bones[Str + ".Shoulder1", number]
            local ShoulderRoll = Bones[Str + ".ShoulderRoll", number]
            local Shoulder3    = Bones[Str + ".Shoulder3", number]
            local Elbow        = Bones[Str + ".Elbow", number]
            local Wrist        = Bones[Str + ".Wrist", number]
            
            local WristAng = Base:angles():setPitch(0)
            if (!InAir && !InWater) {
                local VelOffset = Base:vel() / 5
                local LegOffset = BaseForward * 15
                if (Sprinting) { VelOffset = Base:vel() / 9 }
                if (Breaking) { VelOffset = BaseForward * 10 }
                
                local LRG = rangerOffset(FLLength * 1.5, holoEntity(Shoulder3):pos() + LegOffset + VelOffset, vec(0, 0, -1))
                
                if (LRG:hit()) {
                    FrontRGPos += LRG:pos()
                    FrontRGHit++
                
                    OldNormal = holoEntity(Wrist):up()
                    Normal = LRG:hitNormal()
                    
                    local L = acos(OldNormal:dot(Normal))
                    local Angle = holoEntity(Wrist):angles():rotateAroundAxis(OldNormal:cross(Normal),L)
                    local Yaw = Base:angles():yaw() - holoEntity(Wrist):angles():yaw()
                    
                    WristAng = Angle:rotateAroundAxis(Normal, Yaw)
                }
                
                if (PrevInAir || Roaring) {
                    FootData[Str + ".Pos", vector] = LRG:pos()
                    resetLeg(Str)
                }
                
                if (Breaking) {
                    FootData[Str + ".Pos", vector] = LRG:pos()
                    resetLeg(Str)
                }
                else {
                    local ZDot = abs((LRG:pos() - FootData[Str + ".Pos", vector]):normalized():dot(vec(0, 0, 1)))
                    if (ZDot > 0.9) {
                        FootData[Str + ".Pos", vector ] = LRG:pos()
                    }
                
                    local GFract = gaitGetFract(I, WalkCycle)
                    local GMove = GFract != 0
                    
                    if (GMove) {
                        FootData[Str + ".Dest", vector ] = LRG:pos()
                        
                        if (!FootData[Str + ".IsMoving", number]) {
                            FootData[Str + ".Prev", vector] = FootData[Str + ".Pos", vector]
                            
                            if (FootData[Str + ".Pos", vector ]:distance(LRG:pos()) >= 8) {
                                local Dot = 0
                                if (LRG:hit()) {
                                    Dot = 1 - vec( 0, 0, 1 ):dot(LRG:hitNormal())
                                }
                                
                                if (LRG:distance() <= FLLength + Dot * 100 * clamp((Base:vel():setZ( 0 ):length() / 100), 0, FLLength / 2)) {
                                    FootData[Str + ".ShouldMove", number ] = 1
                                    
                                    playFootSound(I, Sprinting)
                                }
                                else {
                                    FootData[Str + ".Pos", vector] = LRG:pos()
                                    resetLeg(Str)
                                }
                            }
                        }
                        
                        if (FootData[Str + ".ShouldMove", number]) {
                            
                            local Prev = FootData[Str + ".Prev", vector]
                            local Dest = LRG:pos()
                            
                            local Mid = mix(Dest, Prev, 0.4) + vec(0, 0, clamp((Prev:distance(Dest) / 3), 0, Height / 1.5))
                            
                            local Pos = bezierCurve(Prev, Mid, Dest, GFract)
                            FootData[Str + ".Pos", vector] = Pos
                            
                            local WristTilt = min(Speed + 10, 50)
                            WristAng = WristAng:setPitch(WristTilt - (GFract * WristTilt))
                        }
                    }
                    else {
                        FootData[Str + ".ShouldMove", number] = 0
                        if (FootData[Str + ".IsMoving", number]) {
                            FootData[Str + ".Pos", vector] = FootData[Str + ".Dest", vector]
                        }
                    }
                    
                    FootData[Str + ".IsMoving", number] = GMove && FootData[Str + ".ShouldMove", number]
                }
            }
            
            local Dest = FootData[Str + ".Pos", vector] + vec(0, 0, 2)
            
            local DestGroundPos = holoEntity(Shoulder3):pos():setZ(Dest:z())
            local Length = clamp(Dest:distance(DestGroundPos), 0, FLLength)
            
            local DirToHit = (Dest - DestGroundPos)
            local ForwardDir = DirToHit:normalized() * clamp(Length, 0, FLLength)
            local ForwardDot = BaseForward:dot(ForwardDir)
            local IsBehind = ForwardDot < 0
            
            local RightDir = DirToHit:normalized() * clamp(Length, 0, FLLength)
            local RightDot = BaseRight:dot(RightDir)
            local IsOnSide = RightDot >= 0
            
            local StrafePos = DestGroundPos + BaseRight * RightDot
            
            local RollAng = (StrafePos - holoEntity(Shoulder3):pos()):toAngle():pitch()
            if (!IsOnSide) {
                RollAng = -RollAng + 180
            }
            
            local ForwardPos = DestGroundPos + BaseForward * ForwardDot
            
            local HypeAng = (ForwardPos - holoEntity(Shoulder3):pos()):toAngle()
            if (IsBehind) {
                HypeAng = HypeAng:setPitch(-HypeAng:pitch() + 180)
            }
            
            local HypeLength = clamp(Dest:distance(holoEntity(Shoulder3):pos()), 0, FLLength)
            local ShoulderAng = acos((FL1^2 + HypeLength^2 - FL2^2) / (2 * FL1 * HypeLength))
            
            local MidAng = acos((FL1^2 + FL2^2 - HypeLength^2) / (2 * FL1 * FL2))
            
            local CollarDist = Dest:distance(holoEntity(Shoulder1):pos())
            local CollarAng = ((1 - clamp((CollarDist - (FLLength / 1.5)) / (FLLength / 2), 0, 1)) * 90 - 45) * Side
            holoAng(Shoulder1, ang(0, Base:angles():yaw(), CollarAng))
            
            holoAng(ShoulderRoll, ang(0, Base:angles():yaw(), RollAng - 90))
            holoAng(Shoulder3, holoEntity(ShoulderRoll):toWorld(ang(HypeAng:pitch() + ShoulderAng - 90, 0, 0)))
            holoAng(Elbow, holoEntity(Shoulder3):toWorld(ang(MidAng + 180, 0, 0)))
            
            #holoAng(Wrist, WWristtAng)
            
            FootZMin = min(FootZMin, Dest:z())
            FootZMax = max(FootZMax, Dest:z())
        }
        
        ##################
        
        #---Rear Legs---#
        #################
        
        if (1) { # Separate locals for rear legs
            local Str     = "RearLeg." + I
            
            local Hip1    = Bones[Str + ".Hip1", number]
            local HipRoll = Bones[Str + ".HipRoll", number]
            local Hip3    = Bones[Str + ".Hip3", number]
            local Knee1   = Bones[Str + ".Knee1", number]
            local Knee2   = Bones[Str + ".Knee2", number]
            local Ankle   = Bones[Str + ".Ankle", number]
            
            local AnkleAng = Base:angles():setPitch(0)
            
            if (!InAir && !InWater) {
                local VelOffset = Base:vel() / 8
                local LegOffset = Base:right() * -Side * 10 - BaseForward * 10
                if (Sprinting) { VelOffset = Base:vel() / 20 }
                if (Breaking) { VelOffset = -BaseForward * 5 }
            
                local LRG = rangerOffset(RLLength * 1.5, holoEntity(Hip3):pos() + VelOffset + LegOffset, vec(0, 0, -1))
                
                if (LRG:hit()) {
                    RearRGPos += LRG:pos()
                    RearRGHit++
                
                    OldNormal = holoEntity(Ankle):up()
                    Normal = LRG:hitNormal()
                    
                    local L = acos(OldNormal:dot(Normal))
                    local Angle = holoEntity(Ankle):angles():rotateAroundAxis(OldNormal:cross(Normal),L)
                    local Yaw = Base:angles():yaw() - holoEntity(Ankle):angles():yaw()
                    
                    AnkleAng = Angle:rotateAroundAxis(Normal, Yaw)
                }
                
                if (PrevInAir || Roaring) {
                    FootData[Str + ".Pos", vector] = LRG:pos()
                    resetLeg(Str)
                }
                
                if (Breaking) {
                    FootData[Str + ".Pos", vector] = LRG:pos()
                    resetLeg(Str)
                }
                else {
                    local ZDot = abs((LRG:pos() - FootData[Str + ".Pos", vector]):normalized():dot(vec(0, 0, 1)))
                    if (ZDot > 0.9) {
                        FootData[Str + ".Pos", vector ] = LRG:pos()
                    }
                
                    local GFract = gaitGetFract(I + 2, WalkCycle)
                    local GMove = GFract != 0
                    
                    if (GMove) {
                        FootData[Str + ".Dest", vector ] = LRG:pos()
                        
                        if (!FootData[Str + ".IsMoving", number]) {
                            FootData[Str + ".Prev", vector] = FootData[Str + ".Pos", vector]
                            
                            if (FootData[Str + ".Pos", vector ]:distance(LRG:pos()) >= 2) {
                                local Dot = 0
                                if (LRG:hit()) {
                                    Dot = 1 - vec( 0, 0, 1 ):dot(LRG:hitNormal())
                                }
                                
                                if (LRG:distance() <= FLLength + Dot * 100 * clamp((Base:vel():setZ( 0 ):length() / 100), 0, FLLength / 2)) {
                                    FootData[Str + ".ShouldMove", number ] = 1
                                    
                                    playFootSound(2 + I, Sprinting)
                                }
                                else {
                                    FootData[Str + ".Pos", vector] = LRG:pos()
                                    resetLeg(Str)
                                }
                            }
                        }
                        
                        if (FootData[Str + ".ShouldMove", number]) {
                            
                            local Prev = FootData[Str + ".Prev", vector]
                            local Dest = LRG:pos()
                            
                            local Mid = mix(Dest, Prev, 0.6) + vec(0, 0, clamp((Prev:distance(Dest) / 4), 0, Height / 1.5))
                            
                            local Pos = bezierCurve(Prev, Mid, Dest, GFract)
                            FootData[Str + ".Pos", vector] = Pos
                            
                            local AngleTilt = min(Speed + 10, 50)
                            AnkleAng = AnkleAng:setPitch(AngleTilt - (GFract * AngleTilt))
                        }
                    }
                    else {
                        FootData[Str + ".ShouldMove", number] = 0
                        if (FootData[Str + ".IsMoving", number]) {
                            FootData[Str + ".Pos", vector] = FootData[Str + ".Dest", vector]
                        }
                    }
                    
                    FootData[Str + ".IsMoving", number] = GMove && FootData[Str + ".ShouldMove", number]
                }
            }
            
            local Dest = FootData[Str + ".Pos", vector] + vec(0, 0, 2)
            local DestGroundPos = holoEntity(Hip3):pos():setZ(Dest:z())
            
            local Length = clamp(Dest:distance(DestGroundPos), 0, RLLength)
            
            local DirToHit = (Dest - DestGroundPos)
            local ForwardDir = DirToHit:normalized() * clamp(Length, 0, RLLength)
            local ForwardDot = BaseForward:dot(ForwardDir)
            local IsBehind = ForwardDot < 0
            
            local RightDir = DirToHit:normalized() * clamp(Length, 0, RLLength)
            local RightDot = BaseRight:dot(RightDir)
            local IsOnSide = RightDot >= 0
            
            local StrafePos = DestGroundPos + BaseRight * RightDot
            
            local RollAng = (StrafePos - holoEntity(Hip3):pos()):toAngle():pitch()
            if (!IsOnSide) {
                RollAng = -RollAng + 180
            }
            
            local ForwardPos = DestGroundPos + BaseForward * ForwardDot
            
            local HypeAng = (ForwardPos - holoEntity(Hip3):pos()):toAngle()
            if (IsBehind) {
                HypeAng = HypeAng:setPitch(-HypeAng:pitch() + 180)
            }
            
            local HypeLength = clamp(Dest:distance(holoEntity(Knee1):pos()), 0, RLLengthIK)
            
            local HipAng = (1 - clamp(Dest:distance(holoEntity(Hip3):pos()) / (RLLength / 1.1), 0, 1)) * 100
            local Knee1Ang = acos((RL2^2 + HypeLength^2 - RL3^2) / (2 * RL2 * HypeLength))
            
            local Knee2Ang = acos((RL2^2 + RL3^2 - HypeLength^2) / (2 * RL2 * RL3))
            
            local CollarDist = Dest:distance(holoEntity(Hip1):pos())
            local CollarAng = ((1 - clamp((CollarDist - (RLLength / 1.5)) / (RLLength / 2), 0, 1)) * 80 - 45) * Side
            holoAng(Hip1, ang(0, Base:angles():yaw(), CollarAng))
            
            holoAng(HipRoll, ang(0, Base:angles():yaw(), RollAng - 90))
            holoAng(Hip3, holoEntity(HipRoll):toWorld(ang(HypeAng:pitch() - 90 - HipAng, 0, 0)))
            holoAng(Knee1, holoEntity(Hip3):toWorld(ang(Knee1Ang + HipAng * 2, 0, 0)))
            holoAng(Knee2, holoEntity(Knee1):toWorld(ang(Knee2Ang + 180, 0, 0)))
            
            
            holoAng(Ankle, AnkleAng)
            
        }
        
        #################
    }
    
    ################
    
    PrevInAir = InAir
    PrevInWater = InWater
    
    PrevSprinting = Sprinting
    PrevSpeed = Speed
    PrevMoveDir = MoveDir
    
    PrevBearing = Bearing
}



local Initial = hc_generate()
if (Initial) {
    Bones["Body.Front", number] = 1
    Bones["Body.Rear", number]  = 2
    
    Bones["Head.Vertebra", number] = 3
    Bones["Head.Head", number]     = 4
    Bones["Head.Mouth", number]    = 5
    
    Bones["FrontLeg.1.Shoulder1", number]    = 6
    Bones["FrontLeg.1.ShoulderRoll", number] = 7
    Bones["FrontLeg.1.Shoulder3", number]    = 8
    Bones["FrontLeg.1.Elbow", number]        = 9
    Bones["FrontLeg.1.Wrist", number]        = 10
    
    Bones["FrontLeg.2.Shoulder1", number]    = 11
    Bones["FrontLeg.2.ShoulderRoll", number] = 12
    Bones["FrontLeg.2.Shoulder3", number]    = 13
    Bones["FrontLeg.2.Elbow", number]        = 14
    Bones["FrontLeg.2.Wrist", number]        = 15
    
    Bones["RearLeg.1.Hip1", number]  = 16
    Bones["RearLeg.1.HipRoll", number]  = 17
    Bones["RearLeg.1.Hip3", number]  = 18
    Bones["RearLeg.1.Knee1", number] = 19
    Bones["RearLeg.1.Knee2", number] = 20
    Bones["RearLeg.1.Ankle", number] = 21
    
    Bones["RearLeg.2.Hip1", number]  = 22
    Bones["RearLeg.2.HipRoll", number]  = 23
    Bones["RearLeg.2.Hip3", number]  = 24
    Bones["RearLeg.2.Knee1", number] = 25
    Bones["RearLeg.2.Knee2", number] = 26
    Bones["RearLeg.2.Ankle", number] = 27
    
    Bones["Tail.1", number] = 28
    Bones["Tail.2", number] = 29
    Bones["Tail.3", number] = 30
    Bones["Tail.4", number] = 31
    Bones["Tail.5", number] = 32
    Bones["Tail.6", number] = 33
    
    for (I = 1, 2) {
        local Hip = Bones["RearLeg." + I + ".Hip3", number]
        local LRG = rangerOffset(RLLength * 2, holoEntity(Hip):pos(), vec(0, 0, -1))
        FootData["RearLeg." + I + ".Dest", vector] = LRG:pos()
        FootData["RearLeg." + I + ".Pos", vector] = LRG:pos()
        
        
        local Shoulder = Bones["FrontLeg." + I + ".Shoulder3", number]
        local LRG = rangerOffset(FLLength * 2, holoEntity(Shoulder):pos(), vec(0, 0, -1))
        FootData["FrontLeg." + I + ".Dest", vector] = LRG:pos()
        FootData["FrontLeg." + I + ".Pos", vector] = LRG:pos()
    }
    
    for (I = 1, TailCount) {
        Tail[I, angle] = Base:angles()
    }
    
    holoCreate(-1)
    holoModel(-1, "hq_tube")
    holoScale(-1, vec(4, 4, 0.1))
    holoColor(-1, vec(50, 255, 0))
    holoDisableShading(-1, 1)
}


@name [Zoids] Liger Zero Schneider
@inputs
@outputs 
@persist Cam:wirelink CamDistance Aim:ranger PrevBearing
@persist [Seat Base CamEnt]:entity [Bones FootData]:table
@persist Height TailCount Tail:table TailAngle:angle Bobbing Crouching
@persist DisableUpdate FL1 FL2 FLLength RL1 RL2 RL3 RLLength RLLengthIK
@persist Gaits:table WalkVel WalkCycle WalkDelta FootZDiff
@persist NeckAngle:angle
@persist InAir PrevInAir InWater PrevInWater SwimTime SwimVel
@persist Jumping JumpFract [JumpDest JumpStart]:vector JumpStartAng:angle
@persist [PrevMoveDir MoveDir]:vector [FinalAngle]:angle PrevSpeed PrevSprinting Breaking
@persist Sounds:table SoundBreaking
@persist Roaring RoarTime
@persist Sliding SlideDir:vector
@persist FrontRGHit RearRGHit [FrontRGPos RearRGPos]:vector
@model models/sprops/cuboids/height12/size_1/cube_12x12x12.mdl 

interval(60)
if (first()) {
    #include "LigerLib"
    #include "LigerHcore"
    
    
    DisableUpdate = 0
    Height = 40
    CamDistance = 150
    
    FL1 = 34
    FL2 = 36
    FLLength = FL1 + FL2
    
    RL1 = 34
    RL2 = 20
    RL3 = 32
    RLLength = RL1 + RL2 + RL3
    RLLengthIK = RL2 + RL3
    
    TailCount = 6
    
    Base = entity()
    Base:setAlpha(255)
    Base:setMass(2500)
    
    Angle = Base:angles()
    FinalAngle = Angle
    
    Sounds["roar", array] = array("^npc/dog/dog_angry1.wav",
                                  "^npc/dog/dog_angry2.wav",
                                  "^npc/dog/dog_angry3.wav",
                                  "^npc/dog/dog_growl2.wav",
                                  "^npc/dog/dog_growl3.wav")
        
    
    function setGait(ID, Start, Length) {
        local Tbl = table()
        Start -= floor(Start)
        Length -= floor(Length)
        
        Tbl["start", number] = Start
        Tbl["end", number] = Start + Length
        
        Gaits[ID, table] = Tbl
    }
    
    function number gaitGetFract(Idx, X) {
        local Gait = Gaits[Idx, table]
        
        local Start = Gait["start", number]
        local End = Gait["end", number]
        local GFract = 0
        local GMove = 0
        
        if (X >= Start && X <= End) {
            return (X - Start) / (End - Start)
        }
        
        if (Start < 0) {
            if (X >= abs(Start) && X <= 1) {
                return (X - Start) / (End - Start)
            }
        }
        elseif (End > 1) {
            if (X + 1 >= Start && X + 1 <= End) {                    
                return (X + 1 - Start) / (End - Start)
            }
        }
        
        return 0
    }
    
    function void resetLeg(Str:string) {
        FootData[Str + ".Dest", vector] = FootData[Str + ".Pos", vector]
        FootData[Str + ".Prev", vector] = FootData[Str + ".Pos", vector]
        
        FootData[Str + ".IsMoving", number] = 0
        FootData[Str + ".ShouldMove", number] = 0
    }
    
    function number entity:bearing(Target:vector, Yaw, Mul, Limit) {
        return Yaw - clamp(bearing(This:pos(), ang(0, Yaw, 0), Target) / Mul, -Limit, Limit)
    }
    
    function ranger finalRanger(Pos:vector) {
        return rangerOffset(999999999, Pos, vec(0, 0, -1))
    }
    
    function table findJumpPos(Origin:vector) {
        local AimPos = Aim:pos()
        local AimDist = min(AimPos:distance(Origin), 1000)
        local AimF = Origin + (AimPos - Origin):normalized() * AimDist
        
        local Dist = Origin:distance(AimF)
        local Mid = (Origin + AimF) / 2
        
        local AimNormal = 1 - Aim:hitNormal():dot(vec(0, 0, 1))
        local ZDiff = max(abs(AimF:z() - Origin:z()) / 4, 200 * AimNormal)
        
        local Perp = vec(0, 0, 1) #( ( AimF - Origin ):toAngle() - ang( 90, 0, 0 ) ):forward()
        local MidPerp = Mid + Perp * (Dist / 2 + ZDiff)
        
        local End = AimF + vec(0, 0, 1) * ZDiff
                
        local RG1 = rangerOffset(Origin:distance(MidPerp), Origin, MidPerp - Origin)
        local FinalPos = Origin
        local FinalRanger = noranger()
        
        if (RG1:hit()) {
            local Dot = 1 - RG1:hitNormal():dot(vec(0, 0, 1))
            FinalRanger = finalRanger(RG1:pos() + RG1:hitNormal() * 150 * Dot)
            FinalPos = FinalRanger:pos()
        }
        else {
            local RD2 = rangerOffset(End:distance(MidPerp) * 1.5, MidPerp, End - MidPerp)
            local Dot = 1 - RD2:hitNormal():dot( vec( 0, 0, 1 ) )
            
            if (RD2:hit()) {
                FinalRanger = finalRanger(RD2:pos() + RD2:hitNormal() * 150 * Dot)
                FinalPos = FinalRanger:pos()
            } else {
                FinalRanger = finalRanger(RD2:pos())
                FinalPos = FinalRanger:pos()
            }
        }
        
        
        return table(FinalPos + vec(0, 0, Height), FinalRanger)
    }

    function void playFootSound(I, Sprinting) {
        local SoundPath = "^npc/dog/dog_footstep" + randint(1, 4) + ".wav"
        if (Sprinting) {
            SoundPath = "^npc/dog/dog_footstep_run" + randint(2, 8) + ".wav"
        }
        
        Base:soundPlay("Foot." + I, 0, SoundPath, soundDuration(SoundPath))
    }
    
    function void playBreakSound() {
        Base:soundPlay("Break", 1, "^npc/dog/dog_destroy_door1.wav")
        soundPitch("Break", 140 + random(-5, 10))
    }
    
    function void playJumpSound() {
        #Base:soundPlay("Jump", 1, "^npc/dog/dog_pneumatic" + randint(1, 2) + ".wav")
        #soundPitch("Jump", 100 + random(-10, 10))
        
        Base:soundPlay("Jump", 1, "^physics/nearmiss/whoosh_large1.wav")
        soundPitch("Jump", 255 + random(0, 20))
    }
    
    function void playRoarSound() {
        local Arr = Sounds["roar", array]
        Base:soundPlay("Roar", 2, Arr[randint(1, Arr:count()), string])
        soundPitch("Roar", 100 + random(-40, 80))
    }
    
    hc_createModel(Base, "mech/zoids_liger_zero_schneider")
    
    rangerPersist(1)
    rangerFilter(Base)
    rangerFilter(players())
    
    findIncludeClass("prop_vehicle*")
    findIncludeClass("gmod_wire_cameracontroller")
    
    if (!Seat:isValid() || !CamEnt:isValid()) {
        findInSphere(Base:pos(), 200)
        local Arr = findToTable()
        
        for (I = 1, Arr:count()) {
            local Ent = Arr[I, entity]
            
            if (Ent:owner() != owner()) { continue }
            
            if (!Seat:isValid() && Ent:type():find("prop_vehicle")) {
                Seat = Ent
                Seat:setAlpha(0)
                Seat:setPos(Base:toWorld(vec(0, 0, 10)))
                Seat:setAng(Base:toWorld(ang(0, -90, 0)))
                Seat:propFreeze(1)
                timer("parent", 100)
                
                rangerFilter(Seat)
                
                print("Found seat: " + toString(Seat))
                
                continue
            }
            
            if (!CamEnt:isValid() && Ent:type() == "gmod_wire_cameracontroller") {
                CamEnt = Ent
                
                Cam = CamEnt:wirelink()
                Cam["Activated", number] = 1
                Cam["Parent", entity] = Base
                Cam["Position", vector] = vec(0, 0, 80)
                Cam["Distance", number] = 100
                
                print("Found cam: " + toString(CamEnt))
            }
        }
    }
}

if (clk("parent")) {
    Seat:parentTo(Base)
}

if (hc_finished() && !DisableUpdate) {
    local BaseForward = Base:forward():setZ(0):normalized()
    local BaseRight = Base:right():setZ(0):normalized()
    
    
    local Driver = Seat:driver()
    
    if (Driver:isValid()) {
        Aim = rangerOffset(99999, Driver:shootPos(), Seat:toLocalAxis(Driver:eye()))
    }
    
    #---Movement---#
    ################
    
    local Sprinting = 0
    
    InWater = Base:isUnderWater()
    if (InWater) {
        InAir = 0
    }
    
    if (Breaking) {
        if (!InAir && !InWater) {
            if (!SoundBreaking) {
                playBreakSound()
                SoundBreaking = 1
            }
            
            MoveDir = lerp(MoveDir, vec(), 0.5)
            if (floor(MoveDir:length() * 10) / 10 == 0) {
                MoveDir = vec()
                Breaking = 0
            }
        }
        
        if (InWater) {
            Breaking = 0
        }
    }
    else {
        SoundBreaking = 0
        MoveDir = vec()
        
        local JumpData = findJumpPos(Base:pos())
        local JumpPos = JumpData[1, vector]
        local JumpRG = JumpData[2, ranger]
        
        holoPos(-1, JumpPos)
        holoAng(-1, JumpRG:hitNormal():toAngle() + ang(90, 0, 0))
        local S = 5 + sin(curtime() * 50) * 2
        holoScale(-1, vec(S, S, 0.1))
        holoVisible(-1, players(), 0)
        holoVisible(-1, Driver, 1)
        
        local DistFract = min(JumpPos:distance(Base:pos()) / 1000, 1)
        holoAlpha(-1, DistFract * 255)
        
        #---Inputs---#
        ##############
        
        if (Driver:isValid() && !Roaring) {
            if (!Jumping && !InAir) {
                local BForward = Base:forward()
                
                if (Driver:keyForward()) {
                    if (Driver:keySprint() && !InWater) {
                        Sprinting = 1
                        MoveDir += BForward * 200
                    }
                    else {
                        MoveDir += BForward * 30
                    }
                }
                elseif (Driver:keyBack()) {
                    MoveDir += -BForward * 30
                }
                
                if (Driver:keyRight()) {
                    MoveDir += BaseRight * 20
                }
                elseif (Driver:keyLeft()) {
                    MoveDir += -BaseRight * 20
                }
                
                Crouching = Driver:keyDuck()
            }
            
            if (Driver:keyJump() && !Jumping && (!InAir || (InAir && InWater))) {
                if (Crouching) {
                    Roaring = 1
                    RoarTime = 0
                    Crouching = 0
                    
                    playRoarSound()
                }
                else {
                    if (JumpPos:distance(Base:pos()) > 200) {
                        Jumping = 1
                        JumpFract = 0
                        JumpStart = Base:pos()
                        JumpDest = JumpPos
                        JumpStartAng = Base:angles()
                        
                        playJumpSound()
                    }
                }
            }
        }
        
        ##############
    }
    
    if (owner():keyPressed("up")) {
        MoveDir += Base:forward() * 30
    }
    
    local Speed = MoveDir:length()
    
    if (PrevSprinting && PrevSpeed - 5 > Speed) {
        Breaking = 1
        MoveDir = PrevMoveDir
    }
    
    if (!InAir && PrevInAir) {
        Breaking = 1
    }
    
    ################
    
    #---Gaits---#
    #############
    
    if (Sprinting) {
        setGait(1, 0.95, 0.7) # Right Front
        setGait(2, 0.75, 0.7) # Left Front
        
        setGait(3, 0.1, 0.7) # Right Rear
        setGait(4, 0.3, 0.7) # Left Rear
    
        WalkDelta = 0.2
    }
    else {
        setGait(1, 0.0, 0.5) # Right Front
        setGait(2, 0.5, 0.5) # Left Front
        
        setGait(3, 0.5, 0.3) # Right Rear
        setGait(4, 0.0, 0.3) # Left Rear
        
        WalkDelta = lerp(WalkDelta, 0.05 + Speed * 0.00175, 0.1)
    }
    
    WalkCycle += WalkDelta
    
    #############
    
    
    #---Roaring---#
    ###############
    
    if (Roaring) {
        RoarTime += 0.05
        
        if (RoarTime > 1) {
            Roaring = 0
        }
    }
    
    ###############
    
        
    local Vertebra = Bones["Head.Vertebra", number]
    local Head = Bones["Head.Head", number]
    local Mouth = Bones["Head.Mouth", number]
    
    local BodyFront = Bones["Body.Front", number]
    local BodyRear = Bones["Body.Rear", number] 
    
    #---Front and Rear Legs---#
    ###########################

    local FootZMin = 100000000
    local FootZMax = -100000000
    
    
    
    local Idle = sin(curtime() * 80) * 2 * (1 - min(Speed / 10, 1))
    
    local PlaneAngle = ang()
    
    if (Sprinting) {
        Bobbing = 0
        
        if (FootData["FrontLeg.2.IsMoving", number]) {
            Bobbing = 1
        }
        
        if (FootData["RearLeg.1.IsMoving", number]) {
            Bobbing = -1
        }
        if (PrevSprinting == 0) { Bobbing = 1 }
        
        FootZDiff = 5 + Bobbing * 10
    }
    else {
        FootZDiff = abs(FootData["FrontLeg.1.Pos", vector]:z() - FootData["FrontLeg.2.Pos", vector]:z())
    }
    
    if (!InAir && PrevInAir) {
        FootZDiff = 10
    }
    
    if (FrontRGHit > 0 && RearRGHit > 0) {
        FrontRGPos /= FrontRGHit
        RearRGPos /= RearRGHit
        
        PlaneAngle = angnorm((FrontRGPos - RearRGPos):toAngle())
    }
    
    local PlanePitch = clamp(PlaneAngle:pitch(), -65, 25)
    
    ###########################
        
    #---Tail---#
    ############
    
    local TailDestAng = holoEntity(BodyRear):angles()
    
    if (Crouching) {
        TailDestAng += ang(45, sin(curtime() * 500) * 30, 0)
    }
    
    TailAngle = slerp(quat(TailDestAng + ang(-clamp(Base:vel():z() / 10, -90, 90), clamp(Base:velL():y() / 10, -90, 90), 0)), quat(TailAngle), 0.3):toAngle()
    Tail:unshiftAngle(TailAngle)
    Tail:removeAngle(TailCount + 1)
    
    local AngOffset = ang(-5, 0, 0)
    for (I = 1, TailCount) {
        local ID = Bones["Tail." + I, number]
        
        holoAng(ID, Tail[I, angle] + AngOffset)
        AngOffset -= ang(5, 0, 0)
    }
    
    ############
    
    local Angle = ang(PlanePitch, Base:angles():yaw(), 0)
    
    local DriverPitch = 0
    local Bearing = 0
    if (Driver:isValid()) {
        Bearing = Base:bearing(Aim:pos(), Base:angles():yaw(), 2, 40)
        if (!Roaring) {
            Angle = Angle:setYaw(Bearing)
        }
        
        DriverPitch = clamp(Driver:eyeAngles():pitch(), -30, 30)
    }
    local AngDelta = Bearing - PrevBearing
    
    
    #---Neck---#
    ############
    
    local NeckTarAng = angnorm(ang(PlanePitch / 2, AngDelta * 4, 0))
    local NeckCrouchAngle = ang()
    
    local Diff = NeckTarAng / 2
    
    if (InWater) {
        Diff = Diff:setPitch(-5)
    }
    elseif (Sprinting) {
        Diff = Diff:setPitch(0)
    }
    elseif (Crouching) {
        NeckCrouchAngle = ang(0, 0, 0)
        Diff = ang(0, 0, 0)
    }
    elseif (Roaring) {
        Diff = ang(-5, 0, 0)
    }

    NeckAngle = slerp(quat(NeckAngle), quat(Diff), 0.2):toAngle()
    
    local HeadBobAng = ang(FootZDiff / 2, 0, 0)
    holoAng(BodyFront, Base:toWorld(NeckAngle + HeadBobAng / 2))
    holoAng(BodyRear, Base:toWorld(NeckAngle:setYaw(-NeckAngle:yaw() / 1.5) + HeadBobAng / 3))
    holoAng(Head, holoEntity(BodyFront):toWorld(NeckAngle + NeckCrouchAngle + HeadBobAng / 3 + ang(Idle * 2, 0, 0)))
    
    ############
    
    #---Mouth---#
    #############
    
    local MouthAng = ang(10 + Idle * 2, 0, 0)
    if (Roaring) {
        MouthAng = ang(20 + RoarTime * 20, 0, 0)
    }
        
    holoAng(Mouth, holoEntity(Head):toWorld(MouthAng))
    
    #############
    
    if (WalkCycle > 1) {
        WalkCycle = 0
    }
    
    #---Movement---#
    ################
    
    if (PlanePitch > 5) {
        FootZDiff *= 0.8
    }
    
    local FootZAng = ang(-FootZDiff / 3, 0, 0)
    
    if (Sprinting) {
        FootZAng = ang(-FootZDiff / 1.5, 0, 0)
    }
    
    if ((PlanePitch > 7) || (PlanePitch < -10 && -BaseForward:dot(MoveDir) > 0)) {
        local Fract = min((PlanePitch - 7) / (13 - 7), 1) * 2
        FootZDiff *= (-Fract + 1)
    }
    
    local DestHeight = Height
    
    local RGDist = 100
    if (InAir) { RGDist = 50 }
    local RG = rangerOffsetHull(RGDist, Base:pos(), vec(0, 0, -1), vec(20, 20, 0))
    
    local SlopeDot = RG:hitNormal():dot(BaseForward)
    local SlopeDiff = 0
    
    if (SlopeDot > 0) {
        SlopeDiff = SlopeDot * Base:vel():setZ(0):length() / 8
    } elseif (SlopeDot < 0) {
        SlopeDiff = -SlopeDot * 2 * (1 + Base:vel():setZ(0):length() / 20)
    }
    
    local SideSlopeDot = RG:hitNormal():dot(Base:right())
    if (abs(SideSlopeDot) > 0.3) { # Standing on slope in direction +/- Base:right()
        local DownDot = MoveDir:normalized():dot(RG:hitNormal())
        if (DownDot > 0) { # Moving down slope
            DestHeight -= DownDot * 40
        }
        FootZDiff /= 2 # Too much bobbing
    }
    
    if (Breaking) {
        Angle = Angle:setPitch(PlanePitch + 20)
        DestHeight -= 10
    }
    else {
        if (Sprinting) {
            Angle = Angle:setRoll(-AngDelta * 2)
        }
        else {
            Angle = Angle:setRoll(0)
        }
    }
    
    DestHeight += SlopeDiff
    
    if (Crouching) {
        Angle = Angle:setPitch(Angle:pitch() + 20)
        Idle = 0
        
        DestHeight /= 1.7
    }
    elseif (Roaring) {
        Angle = Angle:setPitch(Angle:pitch() - 50 + RoarTime * 40)
        
        DestHeight *= (1.4 - RoarTime / 2)
    }
    else {
        DestHeight += Idle
        Angle = Angle:setPitch(Angle:pitch() - Idle * 1.5)
    }
    
    DestHeight += clamp(FootZDiff / 1.5, -Height / 1.5, Height / 1.5)
    
    FinalAngle = slerp(quat(FinalAngle), quat(Angle), 0.3):toAngle()
    
    if (Jumping) {
        Base:propGravity(0)
        InAir = 1
        
        local Fract = bezierCurve(vec(0, 0, 0), vec(0, 0.6, 0), vec(1, 0.4, 0), vec(1, 1, 0), JumpFract):y()
        if (Fract >= 1.04) {
            Jumping = 0
            MoveDir = vec(50, 0, 0)
            Breaking = 1
        }
        
        local Highest = JumpStart
        if (JumpDest:z() > JumpStart:z()) { Highest = JumpDest }
        
        local JumpMid = (JumpStart + (JumpDest - JumpStart) * 0.5):setZ(Highest:z() + Height * 10)
        
        local Pos = bezierCurve(JumpStart, JumpMid, JumpDest, Fract)
        
        Base:applyForce(((Pos - Base:pos()) * 4 - Base:vel()) * Base:mass())
        
        local AFract = min(Fract * 3, 1)
        local Ang = ang(0, (JumpDest - JumpMid):toAngle():yaw(), 0)
        local FinalAng = slerp(quat(JumpStartAng), quat(Ang), AFract):toAngle()
        
        FinalAng = FinalAng:setPitch(cosr(Fract * pi() * 1.2) * -25)
        
        local Inertia = shiftL(ang(Base:inertia()))
        Base:applyAngForce((Base:toLocal(FinalAng) * 200 - Base:angVel() * 20) * Inertia)
        
        JumpFract = JumpFract + min(0.035, 1.04)
        
    }
    else {
        if (InWater && RG:distance() > Height) {
            Base:propGravity(0)
            
            local Vel = Base:vel() / vec(10, 10, 4)
            Base:applyForce((vec(0, 0, -1) * 30 + MoveDir - Vel) * Base:mass())
            
            local Inertia = shiftL(ang(Base:inertia()))
            Base:applyAngForce((Base:toLocal(FinalAngle) * 300 - Base:angVel() * 10) * Inertia)
        }
        else {
            if (RG:hit()) {
                Base:propGravity(0)
                
                local Up = vec(0, 0, 1)
                
                local Norm = RG:hitNormal()
                local Forward = (Base:angles()):forward()
                local Right = Norm:cross(Forward)
                
                local FDot = Forward:dot(Up) * 50
                local RDot = Right:dot(Up) * 50
                
                local FFDot = (FDot < 0 ? -max(-FDot - 18, 0) : max(FDot - 30, 0)) * 5
                local FRDot = (RDot < 0 ? -max(-RDot - 28, 0) : max(RDot - 28, 0)) * 5
                
                local MDir = Forward * -FFDot + Right * -FRDot
                SlideDir = mix(MDir, SlideDir, 0.25)
                
                DestHeight -= min(SlideDir:length() / 2, Height / 1.5 )
                
            
                local DiffHeight = DestHeight - RG:distance()
                local Vel = Base:vel() / vec(6, 6, 1.25)
                local Offset = vec(cos(curtime() * 50) / 10, sin(curtime() * 50) / 10, 0)
                
                Base:applyForce(((vec(0, 0, 1) * DiffHeight) * 8 + MoveDir + SlideDir - Vel) * Base:mass())
                
                local Inertia = shiftL(ang(Base:inertia()))
                Base:applyAngForce((Base:toLocal(FinalAngle + FootZAng) * 200 - Base:angVel() * 20) * Inertia)
            
                InAir = 0
            }
            else {
                Base:propGravity(1)
                
                local Inertia = shiftL(ang(Base:inertia()))
                Base:applyAngForce((Base:toLocal(ang(0, Base:angles():yaw(), 0)) * 200 - Base:angVel() * 20) * Inertia)
                
                InAir = 1
            }
        }
    }


    
    FrontRGHit = 0
    FrontRGPos = vec()
    RearRGHit = 0
    RearRGPos = vec()

    for (I = 1, 2) {
        local Side = (I == 1 ? -1 : 1)
        
        if (InWater) {
            local Vel = min(Base:vel():length() / 500, 1)
            SwimVel = lerp(SwimVel, Vel, 0.2)
            
            SwimTime += SwimVel * 60
            
            local T = SwimTime + ((I - 1) * 180)
            local VelOffset = -Base:vel():setZ(0) / 15
            
            local FrontOffset = BaseForward * 15 - Base:up() * Height
            local FrontPaddle = BaseForward * sin(T) * 20 + vec(0, 0, 1) * cos(T) * 8
            local DestFront = holoEntity(Bones["FrontLeg." + I + ".Shoulder3", number]):pos() + FrontPaddle + FrontOffset + VelOffset
            FootData["FrontLeg." + I + ".Pos", vector] = lerp(FootData["FrontLeg." + I + ".Pos", vector], DestFront, 0.7)
            resetLeg("FrontLeg." + I)
            
            local RearOffset = -BaseForward * 35 - Base:up() * Height
            local RearDir = (RearOffset - vec()):normalized()
            
            local RearPaddle = RearDir * (5 + sin(T) * 15) + BaseForward * cos(T) * 10
            local DestRear = holoEntity(Bones["RearLeg." + I + ".Hip3", number]):pos() + RearPaddle + RearOffset + VelOffset
            FootData["RearLeg." + I + ".Pos", vector] = lerp(FootData["RearLeg." + I + ".Pos", vector], DestRear, 0.7)
            resetLeg("RearLeg." + I)
        }
        elseif (InAir) {
            local VelOffset = Base:vel():setZ(0) / 15
            
            local DestFront = holoEntity(Bones["FrontLeg." + I + ".Shoulder3", number]):pos() + BaseForward * 15 - Base:up() * Height + VelOffset / 2
            FootData["FrontLeg." + I + ".Pos", vector] = lerp(FootData["FrontLeg." + I + ".Pos", vector], DestFront, 0.9)
            resetLeg("FrontLeg." + I)
            
            local DestRear = holoEntity(Bones["RearLeg." + I + ".Hip3", number]):pos() - Base:up() * (Height + 5) - VelOffset / 3
            FootData["RearLeg." + I + ".Pos", vector] = lerp(FootData["RearLeg." + I + ".Pos", vector], DestRear, 0.8)
            resetLeg("RearLeg." + I)
        }
        
        #---Front Legs---#
        ##################
        
        if (1) { # Separate locals for front legs
            local Str = "FrontLeg." + I
            
            local Shoulder1    = Bones[Str + ".Shoulder1", number]
            local ShoulderRoll = Bones[Str + ".ShoulderRoll", number]
            local Shoulder3    = Bones[Str + ".Shoulder3", number]
            local Elbow        = Bones[Str + ".Elbow", number]
            local Wrist        = Bones[Str + ".Wrist", number]
            
            local WristAng = Base:angles():setPitch(0)
            if (!InAir && !InWater) {
                local VelOffset = Base:vel() / 5
                local LegOffset = BaseForward * 15
                if (Sprinting) { VelOffset = Base:vel() / 9 }
                if (Breaking) { VelOffset = BaseForward * 10 }
                
                local LRG = rangerOffset(FLLength * 1.5, holoEntity(Shoulder3):pos() + LegOffset + VelOffset, vec(0, 0, -1))
                
                if (LRG:hit()) {
                    FrontRGPos += LRG:pos()
                    FrontRGHit++
                
                    OldNormal = holoEntity(Wrist):up()
                    Normal = LRG:hitNormal()
                    
                    local L = acos(OldNormal:dot(Normal))
                    local Angle = holoEntity(Wrist):angles():rotateAroundAxis(OldNormal:cross(Normal),L)
                    local Yaw = Base:angles():yaw() - holoEntity(Wrist):angles():yaw()
                    
                    WristAng = Angle:rotateAroundAxis(Normal, Yaw)
                }
                
                if (PrevInAir || Roaring) {
                    FootData[Str + ".Pos", vector] = LRG:pos()
                    resetLeg(Str)
                }
                
                if (Breaking) {
                    FootData[Str + ".Pos", vector] = LRG:pos()
                    resetLeg(Str)
                }
                else {
                    local ZDot = abs((LRG:pos() - FootData[Str + ".Pos", vector]):normalized():dot(vec(0, 0, 1)))
                    if (ZDot > 0.9) {
                        FootData[Str + ".Pos", vector ] = LRG:pos()
                    }
                
                    local GFract = gaitGetFract(I, WalkCycle)
                    local GMove = GFract != 0
                    
                    if (GMove) {
                        FootData[Str + ".Dest", vector ] = LRG:pos()
                        
                        if (!FootData[Str + ".IsMoving", number]) {
                            FootData[Str + ".Prev", vector] = FootData[Str + ".Pos", vector]
                            
                            if (FootData[Str + ".Pos", vector ]:distance(LRG:pos()) >= 8) {
                                local Dot = 0
                                if (LRG:hit()) {
                                    Dot = 1 - vec( 0, 0, 1 ):dot(LRG:hitNormal())
                                }
                                
                                if (LRG:distance() <= FLLength + Dot * 100 * clamp((Base:vel():setZ( 0 ):length() / 100), 0, FLLength / 2)) {
                                    FootData[Str + ".ShouldMove", number ] = 1
                                    
                                    playFootSound(I, Sprinting)
                                }
                                else {
                                    FootData[Str + ".Pos", vector] = LRG:pos()
                                    resetLeg(Str)
                                }
                            }
                        }
                        
                        if (FootData[Str + ".ShouldMove", number]) {
                            
                            local Prev = FootData[Str + ".Prev", vector]
                            local Dest = LRG:pos()
                            
                            local Mid = mix(Dest, Prev, 0.4) + vec(0, 0, clamp((Prev:distance(Dest) / 3), 0, Height / 1.5))
                            
                            local Pos = bezierCurve(Prev, Mid, Dest, GFract)
                            FootData[Str + ".Pos", vector] = Pos
                            
                            local WristTilt = min(Speed + 10, 50)
                            WristAng = WristAng:setPitch(WristTilt - (GFract * WristTilt))
                        }
                    }
                    else {
                        FootData[Str + ".ShouldMove", number] = 0
                        if (FootData[Str + ".IsMoving", number]) {
                            FootData[Str + ".Pos", vector] = FootData[Str + ".Dest", vector]
                        }
                    }
                    
                    FootData[Str + ".IsMoving", number] = GMove && FootData[Str + ".ShouldMove", number]
                }
            }
            
            local Dest = FootData[Str + ".Pos", vector] + vec(0, 0, 2)
            
            local DestGroundPos = holoEntity(Shoulder3):pos():setZ(Dest:z())
            local Length = clamp(Dest:distance(DestGroundPos), 0, FLLength)
            
            local DirToHit = (Dest - DestGroundPos)
            local ForwardDir = DirToHit:normalized() * clamp(Length, 0, FLLength)
            local ForwardDot = BaseForward:dot(ForwardDir)
            local IsBehind = ForwardDot < 0
            
            local RightDir = DirToHit:normalized() * clamp(Length, 0, FLLength)
            local RightDot = BaseRight:dot(RightDir)
            local IsOnSide = RightDot >= 0
            
            local StrafePos = DestGroundPos + BaseRight * RightDot
            
            local RollAng = (StrafePos - holoEntity(Shoulder3):pos()):toAngle():pitch()
            if (!IsOnSide) {
                RollAng = -RollAng + 180
            }
            
            local ForwardPos = DestGroundPos + BaseForward * ForwardDot
            
            local HypeAng = (ForwardPos - holoEntity(Shoulder3):pos()):toAngle()
            if (IsBehind) {
                HypeAng = HypeAng:setPitch(-HypeAng:pitch() + 180)
            }
            
            local HypeLength = clamp(Dest:distance(holoEntity(Shoulder3):pos()), 0, FLLength)
            local ShoulderAng = acos((FL1^2 + HypeLength^2 - FL2^2) / (2 * FL1 * HypeLength))
            
            local MidAng = acos((FL1^2 + FL2^2 - HypeLength^2) / (2 * FL1 * FL2))
            
            local CollarDist = Dest:distance(holoEntity(Shoulder1):pos())
            local CollarAng = ((1 - clamp((CollarDist - (FLLength / 1.5)) / (FLLength / 2), 0, 1)) * 90 - 45) * Side
            holoAng(Shoulder1, ang(0, Base:angles():yaw(), CollarAng))
            
            holoAng(ShoulderRoll, ang(0, Base:angles():yaw(), RollAng - 90))
            holoAng(Shoulder3, holoEntity(ShoulderRoll):toWorld(ang(HypeAng:pitch() + ShoulderAng - 90, 0, 0)))
            holoAng(Elbow, holoEntity(Shoulder3):toWorld(ang(MidAng + 180, 0, 0)))
            
            #holoAng(Wrist, WWristtAng)
            
            FootZMin = min(FootZMin, Dest:z())
            FootZMax = max(FootZMax, Dest:z())
        }
        
        ##################
        
        #---Rear Legs---#
        #################
        
        if (1) { # Separate locals for rear legs
            local Str     = "RearLeg." + I
            
            local Hip1    = Bones[Str + ".Hip1", number]
            local HipRoll = Bones[Str + ".HipRoll", number]
            local Hip3    = Bones[Str + ".Hip3", number]
            local Knee1   = Bones[Str + ".Knee1", number]
            local Knee2   = Bones[Str + ".Knee2", number]
            local Ankle   = Bones[Str + ".Ankle", number]
            
            local AnkleAng = Base:angles():setPitch(0)
            
            if (!InAir && !InWater) {
                local VelOffset = Base:vel() / 8
                local LegOffset = Base:right() * -Side * 0 - BaseForward * 10
                if (Sprinting) { VelOffset = Base:vel() / 20 }
                if (Breaking) { VelOffset = -BaseForward * 5 }
            
                local LRG = rangerOffset(RLLength * 1.5, holoEntity(Hip3):pos() + VelOffset + LegOffset, vec(0, 0, -1))
                
                if (LRG:hit()) {
                    RearRGPos += LRG:pos()
                    RearRGHit++
                
                    OldNormal = holoEntity(Ankle):up()
                    Normal = LRG:hitNormal()
                    
                    local L = acos(OldNormal:dot(Normal))
                    local Angle = holoEntity(Ankle):angles():rotateAroundAxis(OldNormal:cross(Normal),L)
                    local Yaw = Base:angles():yaw() - holoEntity(Ankle):angles():yaw()
                    
                    AnkleAng = Angle:rotateAroundAxis(Normal, Yaw)
                }
                
                if (PrevInAir || Roaring) {
                    FootData[Str + ".Pos", vector] = LRG:pos()
                    resetLeg(Str)
                }
                
                if (Breaking) {
                    FootData[Str + ".Pos", vector] = LRG:pos()
                    resetLeg(Str)
                }
                else {
                    local ZDot = abs((LRG:pos() - FootData[Str + ".Pos", vector]):normalized():dot(vec(0, 0, 1)))
                    if (ZDot > 0.9) {
                        FootData[Str + ".Pos", vector ] = LRG:pos()
                    }
                
                    local GFract = gaitGetFract(I + 2, WalkCycle)
                    local GMove = GFract != 0
                    
                    if (GMove) {
                        FootData[Str + ".Dest", vector ] = LRG:pos()
                        
                        if (!FootData[Str + ".IsMoving", number]) {
                            FootData[Str + ".Prev", vector] = FootData[Str + ".Pos", vector]
                            
                            if (FootData[Str + ".Pos", vector ]:distance(LRG:pos()) >= 2) {
                                local Dot = 0
                                if (LRG:hit()) {
                                    Dot = 1 - vec( 0, 0, 1 ):dot(LRG:hitNormal())
                                }
                                
                                if (LRG:distance() <= FLLength + Dot * 100 * clamp((Base:vel():setZ( 0 ):length() / 100), 0, FLLength / 2)) {
                                    FootData[Str + ".ShouldMove", number ] = 1
                                    
                                    playFootSound(2 + I, Sprinting)
                                }
                                else {
                                    FootData[Str + ".Pos", vector] = LRG:pos()
                                    resetLeg(Str)
                                }
                            }
                        }
                        
                        if (FootData[Str + ".ShouldMove", number]) {
                            
                            local Prev = FootData[Str + ".Prev", vector]
                            local Dest = LRG:pos()
                            
                            local Mid = mix(Dest, Prev, 0.6) + vec(0, 0, clamp((Prev:distance(Dest) / 4), 0, Height / 1.5))
                            
                            local Pos = bezierCurve(Prev, Mid, Dest, GFract)
                            FootData[Str + ".Pos", vector] = Pos
                            
                            local AngleTilt = min(Speed + 10, 50)
                            AnkleAng = AnkleAng:setPitch(AngleTilt - (GFract * AngleTilt))
                        }
                    }
                    else {
                        FootData[Str + ".ShouldMove", number] = 0
                        if (FootData[Str + ".IsMoving", number]) {
                            FootData[Str + ".Pos", vector] = FootData[Str + ".Dest", vector]
                        }
                    }
                    
                    FootData[Str + ".IsMoving", number] = GMove && FootData[Str + ".ShouldMove", number]
                }
            }
            
            local Dest = FootData[Str + ".Pos", vector] + vec(0, 0, 2)
            local DestGroundPos = holoEntity(Hip3):pos():setZ(Dest:z())
            
            local Length = clamp(Dest:distance(DestGroundPos), 0, RLLength)
            
            local DirToHit = (Dest - DestGroundPos)
            local ForwardDir = DirToHit:normalized() * clamp(Length, 0, RLLength)
            local ForwardDot = BaseForward:dot(ForwardDir)
            local IsBehind = ForwardDot < 0
            
            local RightDir = DirToHit:normalized() * clamp(Length, 0, RLLength)
            local RightDot = BaseRight:dot(RightDir)
            local IsOnSide = RightDot >= 0
            
            local StrafePos = DestGroundPos + BaseRight * RightDot
            
            local RollAng = (StrafePos - holoEntity(Hip3):pos()):toAngle():pitch()
            if (!IsOnSide) {
                RollAng = -RollAng + 180
            }
            
            local ForwardPos = DestGroundPos + BaseForward * ForwardDot
            
            local HypeAng = (ForwardPos - holoEntity(Hip3):pos()):toAngle()
            if (IsBehind) {
                HypeAng = HypeAng:setPitch(-HypeAng:pitch() + 180)
            }
            
            local HypeLength = clamp(Dest:distance(holoEntity(Knee1):pos()), 0, RLLengthIK)
            
            local HipAng = (1 - clamp(Dest:distance(holoEntity(Hip3):pos()) / (RLLength / 1.1), 0, 1)) * 100
            local Knee1Ang = acos((RL2^2 + HypeLength^2 - RL3^2) / (2 * RL2 * HypeLength))
            
            local Knee2Ang = acos((RL2^2 + RL3^2 - HypeLength^2) / (2 * RL2 * RL3))
            
            local CollarDist = Dest:distance(holoEntity(Hip1):pos())
            local CollarAng = ((1 - clamp((CollarDist - (RLLength / 1.5)) / (RLLength / 2), 0, 1)) * 80 - 45) * Side
            holoAng(Hip1, ang(0, Base:angles():yaw(), CollarAng))
            
            holoAng(HipRoll, ang(0, Base:angles():yaw(), RollAng - 90))
            holoAng(Hip3, holoEntity(HipRoll):toWorld(ang(HypeAng:pitch() - 90 - HipAng, 0, 0)))
            holoAng(Knee1, holoEntity(Hip3):toWorld(ang(Knee1Ang + HipAng * 2, 0, 0)))
            holoAng(Knee2, holoEntity(Knee1):toWorld(ang(Knee2Ang + 180, 0, 0)))
            
            
            holoAng(Ankle, AnkleAng)
            
        }
        
        #################
    }
    
    ################
    
    PrevInAir = InAir
    PrevInWater = InWater
    
    PrevSprinting = Sprinting
    PrevSpeed = Speed
    PrevMoveDir = MoveDir
    
    PrevBearing = Bearing
}



local Initial = hc_generate()
if (Initial) {
    Bones["Body.Front", number] = 1
    Bones["Body.Rear", number]  = 2
    
    Bones["Head.Vertebra", number] = 3
    Bones["Head.Head", number]     = 4
    Bones["Head.Mouth", number]    = 5
    
    Bones["FrontLeg.1.Shoulder1", number]    = 6
    Bones["FrontLeg.1.ShoulderRoll", number] = 7
    Bones["FrontLeg.1.Shoulder3", number]    = 8
    Bones["FrontLeg.1.Elbow", number]        = 9
    Bones["FrontLeg.1.Wrist", number]        = 10
    
    Bones["FrontLeg.2.Shoulder1", number]    = 11
    Bones["FrontLeg.2.ShoulderRoll", number] = 12
    Bones["FrontLeg.2.Shoulder3", number]    = 13
    Bones["FrontLeg.2.Elbow", number]        = 14
    Bones["FrontLeg.2.Wrist", number]        = 15
    
    Bones["RearLeg.1.Hip1", number]  = 16
    Bones["RearLeg.1.HipRoll", number]  = 17
    Bones["RearLeg.1.Hip3", number]  = 18
    Bones["RearLeg.1.Knee1", number] = 19
    Bones["RearLeg.1.Knee2", number] = 20
    Bones["RearLeg.1.Ankle", number] = 21
    
    Bones["RearLeg.2.Hip1", number]  = 22
    Bones["RearLeg.2.HipRoll", number]  = 23
    Bones["RearLeg.2.Hip3", number]  = 24
    Bones["RearLeg.2.Knee1", number] = 25
    Bones["RearLeg.2.Knee2", number] = 26
    Bones["RearLeg.2.Ankle", number] = 27
    
    Bones["Tail.1", number] = 28
    Bones["Tail.2", number] = 29
    Bones["Tail.3", number] = 30
    Bones["Tail.4", number] = 31
    Bones["Tail.5", number] = 32
    Bones["Tail.6", number] = 33
    
    for (I = 1, 2) {
        local Hip = Bones["RearLeg." + I + ".Hip3", number]
        local LRG = rangerOffset(RLLength * 2, holoEntity(Hip):pos(), vec(0, 0, -1))
        FootData["RearLeg." + I + ".Dest", vector] = LRG:pos()
        FootData["RearLeg." + I + ".Pos", vector] = LRG:pos()
        
        
        local Shoulder = Bones["FrontLeg." + I + ".Shoulder3", number]
        local LRG = rangerOffset(FLLength * 2, holoEntity(Shoulder):pos(), vec(0, 0, -1))
        FootData["FrontLeg." + I + ".Dest", vector] = LRG:pos()
        FootData["FrontLeg." + I + ".Pos", vector] = LRG:pos()
    }
    
    for (I = 1, TailCount) {
        Tail[I, angle] = Base:angles()
    }
    
    holoCreate(-1)
    holoModel(-1, "hq_tube")
    holoScale(-1, vec(4, 4, 0.1))
    holoColor(-1, vec(50, 255, 0))
    holoDisableShading(-1, 1)
}


