@name admin Core
@inputs 
@outputs 
@persist ASD Ply:entity ColPly:entity ColPly2:entity
@trigger 
runOnTick(1)
runOnChat(1)



setName(random(255):toString())



Last = owner():lastSaid():explode(" ")




if(chatClk(owner())){
    Last = owner():lastSaid():explode(" ")
    if(Last[1,string] == "/safe"){
        hideChat(1)
        ASD=!ASD
    }
    
    
}
if(ASD){hideChat(1)}

if(chatClk(owner())){
    Last = owner():lastSaid():explode(" ")
    if(Last[1,string] == "/s"){
        Find = findPlayerByName(Last[2,string])
        hideChat(1)

    }
    
    
}
if(changed(Find)){print(Find:name())}





Last = owner():lastSaid():explode(" ")




P = players()

for(I=1,P:count()){
if(P[I,entity]:name()==Find:name()){
Ply = P[I,entity]
}
}


for(CI=1,P:count()){
if(P[CI,entity]:name()==Last[3,string]){
ColPly = P[CI,entity]
}
}
for(CI=1,P:count()){
if(P[CI,entity]:name()==Last[3,string]){
Col2Ply = P[CI,entity]
}
}

if(chatClk(owner())&Last:string(1)=="say" & Ply:isAlive()){ hideChat(1)

chatPrint(teamColor(Ply:team()),Ply:name() ,  vec(255,255,255),": " 

+ Last:string(2)  +" "+ Last:string(3)  +" "+ Last:string(4)  +" "+ Last:string(5) +" "

+ Last:string(6)  +" "+ Last:string(7)  +" "+ Last:string(8)  +" "+ Last:string(9) +" "  

+ Last:string(10) +" "+ Last:string(11) +" "+ Last:string(12) +" "+ Last:string(13) +" " 

+ Last:string(14) +" "+ Last:string(15) +" "+ Last:string(16) +" "+ Last:string(17) +" "

+ Last:string(18) +" "+ Last:string(19) +" "+ Last:string(20) +" "+ Last:string(21) +" "

+ Last:string(22) +" "+ Last:string(23) +" "+ Last:string(24) +" "+ Last:string(25) 






)


}
elseif(chatClk(owner())&Last:string(1)=="say" &!Ply:isAlive()){hideChat(1)



chatPrint(vec(255,0,0),"*DEAD* ",teamColor(Ply:team()),Ply:name() ,  vec(255,255,255),": " 

+" "+ Last:string(2)+" "+ Last:string(3)  +" "+ Last:string(4)  +" "+ Last:string(5) +" "

+ Last:string(6)  +" "+ Last:string(7)  +" "+ Last:string(8)  +" "+ Last:string(9) +" "  

+ Last:string(10) +" "+ Last:string(11) +" "+ Last:string(12) +" "+ Last:string(13) +" " 

+ Last:string(14) +" "+ Last:string(15) +" "+ Last:string(16) +" "+ Last:string(17) +" "

+ Last:string(18) +" "+ Last:string(19) +" "+ Last:string(20) +" "+ Last:string(21) +" "

+ Last:string(22) +" "+ Last:string(23) +" "+ Last:string(24) +" "+ Last:string(25) 






)

}



if(chatClk(owner())){


if(Last:string(2)=="!god"){
chatPrint(teamColor(Ply:team()),Ply:name() +" ",vec(15,125,205),"granted god mode from ", teamColor(ColPly:team()),Last:string(4) )
ColPly:plyGod(1)
}
if(Last:string(4)=="*"){


}


if(Last:string(2)=="!ungod"){
chatPrint(teamColor(Ply:team()),Ply:name() +" ",vec(15,125,205),"revoked god mode from ", teamColor(ColPly:team()),Last:string(4) )
ColPly:plyGod(0)
}


if(Last:string(2)=="!hp"){
chatPrint(teamColor(Ply:team()),Ply:name() +" ",vec(15,125,205),"set the hp for ", teamColor(ColPly:team()),Last:string(4),vec(15,125,205)," to " ,vec(30,255,0),Last:string(5))
ColPly:plySetHealth(Last:string(5):toNumber())
}




if(Last:string(2)=="!speed"){
chatPrint(teamColor(Ply:team()),Ply:name() +" ",vec(15,125,205),"changed the speed of ", teamColor(ColPly:team()),Last:string(4),vec(15,125,205)," to " ,vec(30,255,0),Last:string(5))
ColPly:plySetSpeed(Last:string(5):toNumber())
}


if(Last:string(2)=="!jump"){
chatPrint(teamColor(Ply:team()),Ply:name() +" ",vec(15,125,205),"changed the jump of ", teamColor(ColPly:team()),Last:string(4),vec(15,125,205)," to " ,vec(30,255,0),Last:string(5))
ColPly:plySetJumpPower(Last:string(5):toNumber())
}

if(Last:string(2)=="!armor"){
chatPrint(teamColor(Ply:team()),Ply:name() +" ",vec(15,125,205),"changed the armor of ", teamColor(ColPly:team()),Last:string(4),vec(15,125,205)," to " ,vec(30,255,0),Last:string(5))
ColPly:plySetArmor(Last:string(5):toNumber())
}



if(Last:string(2)=="!reset"){
chatPrint(teamColor(Ply:team()),Ply:name() +" ",vec(15,125,205),"reseted the Settings of ", teamColor(ColPly:team()),Last:string(4))
ColPly:plyResetSettings()
}

if(Last:string(2)=="!spawn"){
chatPrint(teamColor(Ply:team()),Ply:name() +" ",vec(15,125,205),"spawned ", teamColor(ColPly:team()),Last:string(4))
ColPly:plySpawn()
}



if(Last:string(2)=="!goto"){
chatPrint(teamColor(Ply:team()),Ply:name() +" ",vec(15,125,205),"teleported to ", teamColor(ColPly:team()),Last:string(4))
Y = ColPly:angles():yaw()
Ply:plySetPos(ColPly:pos()+vec(+50,Y+10,0))
}


if(Last:string(2)=="!bring"){
chatPrint(teamColor(Ply:team()),Ply:name() +" ",vec(15,125,205),"brought ", teamColor(ColPly:team()),Last:string(4))
Y = ColPly:angles():yaw()
ColPly:plySetPos(Ply:pos()+vec(+50,Y+10,0))
}



if(Last:string(2)=="!send"){
chatPrint(teamColor(Ply:team()),Ply:name() +" ",vec(15,125,205),"transported ", teamColor(ColPly:team()),Last:string(4) , vec(15,125,205)," to " , teamColor(Col2Ply:team()) , Last:string(5) )
Y = ColPly:angles():yaw()
ColPly:plySetPos(Col2Ply:pos()+vec(+50,Y+10,0))
}





if(Last:string(2)=="!warn"){


WarnR = Last:string(4)+" "+Last:string(5)+" "+Last:string(6)+" "+Last:string(7)+" "+Last:string(8)+" "+Last:string(9)+" "+Last:string(10)+" "+Last:string(11)+" "+Last:string(12)+" "+Last:string(13)+" "+Last:string(14)+" "+Last:string(15)


chatPrint(vec(65),"[",vec(5,75,150),"AWarn",vec(65),"] ",teamColor(Ply:team()),Ply:name() +" ",vec(255),"warned ", 
teamColor(ColPly:team()),Last:string(3) , vec(255)," for reason: " , vec(200,35,35) , WarnR )






chatPrint(ColPly,vec(65),"[",vec(5,75,150),"AWarn",vec(65),"] " ,vec(255), "You have been warned by " , teamColor(Ply:team()),Ply:name() , vec(255) , " for " , vec(200,35,35) , WarnR  )
chatPrint(ColPly,vec(65),"[",vec(5,75,150),"AWarn",vec(65),"] " ,vec(255), "Current Active Warnings: " , vec(200,35,35) , " 1 " )
chatPrint(ColPly,vec(65),"[",vec(5,75,150),"AWarn",vec(65),"] " ,vec(255), "You will be kicked after:", vec(200,35,35)," 3 " , vec(255) ,"total active warnings."  )
chatPrint(ColPly,vec(65),"[",vec(5,75,150),"AWarn",vec(65),"] " ,vec(255), "You will be banned after:", vec(200,35,35) , " 5 ",vec(255), "total active warnings." )
chatPrint(ColPly,vec(65),"[",vec(5,75,150),"AWarn",vec(65),"] " ,vec(255), "Type !warn to see a list of your warnings." )





}
}












@name admin Core
@inputs 
@outputs 
@persist ASD Ply:entity ColPly:entity ColPly2:entity
@trigger 
runOnTick(1)
runOnChat(1)



setName(random(255):toString())



Last = owner():lastSaid():explode(" ")




if(chatClk(owner())){
    Last = owner():lastSaid():explode(" ")
    if(Last[1,string] == "/safe"){
        hideChat(1)
        ASD=!ASD
    }
    
    
}
if(ASD){hideChat(1)}

if(chatClk(owner())){
    Last = owner():lastSaid():explode(" ")
    if(Last[1,string] == "/s"){
        Find = findPlayerByName(Last[2,string])
        hideChat(1)

    }
    
    
}
if(changed(Find)){print(Find:name())}





Last = owner():lastSaid():explode(" ")




P = players()

for(I=1,P:count()){
if(P[I,entity]:name()==Find:name()){
Ply = P[I,entity]
}
}


for(CI=1,P:count()){
if(P[CI,entity]:name()==Last[3,string]){
ColPly = P[CI,entity]
}
}
for(CI=1,P:count()){
if(P[CI,entity]:name()==Last[3,string]){
Col2Ply = P[CI,entity]
}
}

if(chatClk(owner())&Last:string(1)=="say" & Ply:isAlive()){ hideChat(1)

chatPrint(teamColor(Ply:team()),Ply:name() ,  vec(255,255,255),": " 

+ Last:string(2)  +" "+ Last:string(3)  +" "+ Last:string(4)  +" "+ Last:string(5) +" "

+ Last:string(6)  +" "+ Last:string(7)  +" "+ Last:string(8)  +" "+ Last:string(9) +" "  

+ Last:string(10) +" "+ Last:string(11) +" "+ Last:string(12) +" "+ Last:string(13) +" " 

+ Last:string(14) +" "+ Last:string(15) +" "+ Last:string(16) +" "+ Last:string(17) +" "

+ Last:string(18) +" "+ Last:string(19) +" "+ Last:string(20) +" "+ Last:string(21) +" "

+ Last:string(22) +" "+ Last:string(23) +" "+ Last:string(24) +" "+ Last:string(25) 






)


}
elseif(chatClk(owner())&Last:string(1)=="say" &!Ply:isAlive()){hideChat(1)



chatPrint(vec(255,0,0),"*DEAD* ",teamColor(Ply:team()),Ply:name() ,  vec(255,255,255),": " 

+" "+ Last:string(2)+" "+ Last:string(3)  +" "+ Last:string(4)  +" "+ Last:string(5) +" "

+ Last:string(6)  +" "+ Last:string(7)  +" "+ Last:string(8)  +" "+ Last:string(9) +" "  

+ Last:string(10) +" "+ Last:string(11) +" "+ Last:string(12) +" "+ Last:string(13) +" " 

+ Last:string(14) +" "+ Last:string(15) +" "+ Last:string(16) +" "+ Last:string(17) +" "

+ Last:string(18) +" "+ Last:string(19) +" "+ Last:string(20) +" "+ Last:string(21) +" "

+ Last:string(22) +" "+ Last:string(23) +" "+ Last:string(24) +" "+ Last:string(25) 






)

}



if(chatClk(owner())){


if(Last:string(2)=="!god"){
chatPrint(teamColor(Ply:team()),Ply:name() +" ",vec(15,125,205),"granted god mode from ", teamColor(ColPly:team()),Last:string(4) )
ColPly:plyGod(1)
}
if(Last:string(4)=="*"){


}


if(Last:string(2)=="!ungod"){
chatPrint(teamColor(Ply:team()),Ply:name() +" ",vec(15,125,205),"revoked god mode from ", teamColor(ColPly:team()),Last:string(4) )
ColPly:plyGod(0)
}


if(Last:string(2)=="!hp"){
chatPrint(teamColor(Ply:team()),Ply:name() +" ",vec(15,125,205),"set the hp for ", teamColor(ColPly:team()),Last:string(4),vec(15,125,205)," to " ,vec(30,255,0),Last:string(5))
ColPly:plySetHealth(Last:string(5):toNumber())
}




if(Last:string(2)=="!speed"){
chatPrint(teamColor(Ply:team()),Ply:name() +" ",vec(15,125,205),"changed the speed of ", teamColor(ColPly:team()),Last:string(4),vec(15,125,205)," to " ,vec(30,255,0),Last:string(5))
ColPly:plySetSpeed(Last:string(5):toNumber())
}


if(Last:string(2)=="!jump"){
chatPrint(teamColor(Ply:team()),Ply:name() +" ",vec(15,125,205),"changed the jump of ", teamColor(ColPly:team()),Last:string(4),vec(15,125,205)," to " ,vec(30,255,0),Last:string(5))
ColPly:plySetJumpPower(Last:string(5):toNumber())
}

if(Last:string(2)=="!armor"){
chatPrint(teamColor(Ply:team()),Ply:name() +" ",vec(15,125,205),"changed the armor of ", teamColor(ColPly:team()),Last:string(4),vec(15,125,205)," to " ,vec(30,255,0),Last:string(5))
ColPly:plySetArmor(Last:string(5):toNumber())
}



if(Last:string(2)=="!reset"){
chatPrint(teamColor(Ply:team()),Ply:name() +" ",vec(15,125,205),"reseted the Settings of ", teamColor(ColPly:team()),Last:string(4))
ColPly:plyResetSettings()
}

if(Last:string(2)=="!spawn"){
chatPrint(teamColor(Ply:team()),Ply:name() +" ",vec(15,125,205),"spawned ", teamColor(ColPly:team()),Last:string(4))
ColPly:plySpawn()
}



if(Last:string(2)=="!goto"){
chatPrint(teamColor(Ply:team()),Ply:name() +" ",vec(15,125,205),"teleported to ", teamColor(ColPly:team()),Last:string(4))
Y = ColPly:angles():yaw()
Ply:plySetPos(ColPly:pos()+vec(+50,Y+10,0))
}


if(Last:string(2)=="!bring"){
chatPrint(teamColor(Ply:team()),Ply:name() +" ",vec(15,125,205),"brought ", teamColor(ColPly:team()),Last:string(4))
Y = ColPly:angles():yaw()
ColPly:plySetPos(Ply:pos()+vec(+50,Y+10,0))
}



if(Last:string(2)=="!send"){
chatPrint(teamColor(Ply:team()),Ply:name() +" ",vec(15,125,205),"transported ", teamColor(ColPly:team()),Last:string(4) , vec(15,125,205)," to " , teamColor(Col2Ply:team()) , Last:string(5) )
Y = ColPly:angles():yaw()
ColPly:plySetPos(Col2Ply:pos()+vec(+50,Y+10,0))
}





if(Last:string(2)=="!warn"){


WarnR = Last:string(4)+" "+Last:string(5)+" "+Last:string(6)+" "+Last:string(7)+" "+Last:string(8)+" "+Last:string(9)+" "+Last:string(10)+" "+Last:string(11)+" "+Last:string(12)+" "+Last:string(13)+" "+Last:string(14)+" "+Last:string(15)


chatPrint(vec(65),"[",vec(5,75,150),"AWarn",vec(65),"] ",teamColor(Ply:team()),Ply:name() +" ",vec(255),"warned ", 
teamColor(ColPly:team()),Last:string(3) , vec(255)," for reason: " , vec(200,35,35) , WarnR )






chatPrint(ColPly,vec(65),"[",vec(5,75,150),"AWarn",vec(65),"] " ,vec(255), "You have been warned by " , teamColor(Ply:team()),Ply:name() , vec(255) , " for " , vec(200,35,35) , WarnR  )
chatPrint(ColPly,vec(65),"[",vec(5,75,150),"AWarn",vec(65),"] " ,vec(255), "Current Active Warnings: " , vec(200,35,35) , " 1 " )
chatPrint(ColPly,vec(65),"[",vec(5,75,150),"AWarn",vec(65),"] " ,vec(255), "You will be kicked after:", vec(200,35,35)," 3 " , vec(255) ,"total active warnings."  )
chatPrint(ColPly,vec(65),"[",vec(5,75,150),"AWarn",vec(65),"] " ,vec(255), "You will be banned after:", vec(200,35,35) , " 5 ",vec(255), "total active warnings." )
chatPrint(ColPly,vec(65),"[",vec(5,75,150),"AWarn",vec(65),"] " ,vec(255), "Type !warn to see a list of your warnings." )





}
}












