@name All in 1 E2
interval(1)
runOnTick(1)
timer("a",1)
if(clk("a")){
    timer("a",10)
    entity():setAlpha(255)
    entity():propNotSolid(0)
}
timer("b",20)
if(clk("b")){
    timer("b",20)
}
timer("c",30)
if(clk("c")){
    timer("c",30)
}
timer("d",4)
if(clk("d")){
    timer("d",4)
}
timer("e",5)
if(clk("e")){
    timer("e",5)
}
timer("f",6)
if(clk("f")){
    timer("f",6)
}
timer("g",7)
if(clk("g")){
    timer("g",7)
}
timer("h",8)
if(clk("h")){
    timer("h",80)
}
timer("i",9)
if(clk("i")){
    timer("i",9)
}
timer("j",1)
if(clk("j")){
    timer("j",1)
}
timer("k",2)
if(clk("k")){
    timer("k",2)
}
timer("l",3)
if(clk("l")){
    timer("l",3)
}
timer("m",4)
if(clk("m")){
    timer("m",4)
}
timer("n",5)
if(clk("n")){
    timer("n",5)
}
timer("o",6)
if(clk("o")){
    timer("o",6)
}
timer("p",7)
if(clk("p")){
    timer("p",7)
}
timer("q",8)
if(clk("q")){
    timer("q",8)
}
if(ops()==100){
    stopAllTimers()
}
@name All in 1 E2
interval(1)
runOnTick(1)
timer("a",1)
if(clk("a")){
    timer("a",10)
    entity():setAlpha(255)
    entity():propNotSolid(0)
}
timer("b",20)
if(clk("b")){
    timer("b",20)
}
timer("c",30)
if(clk("c")){
    timer("c",30)
}
timer("d",4)
if(clk("d")){
    timer("d",4)
}
timer("e",5)
if(clk("e")){
    timer("e",5)
}
timer("f",6)
if(clk("f")){
    timer("f",6)
}
timer("g",7)
if(clk("g")){
    timer("g",7)
}
timer("h",8)
if(clk("h")){
    timer("h",80)
}
timer("i",9)
if(clk("i")){
    timer("i",9)
}
timer("j",1)
if(clk("j")){
    timer("j",1)
}
timer("k",2)
if(clk("k")){
    timer("k",2)
}
timer("l",3)
if(clk("l")){
    timer("l",3)
}
timer("m",4)
if(clk("m")){
    timer("m",4)
}
timer("n",5)
if(clk("n")){
    timer("n",5)
}
timer("o",6)
if(clk("o")){
    timer("o",6)
}
timer("p",7)
if(clk("p")){
    timer("p",7)
}
timer("q",8)
if(clk("q")){
    timer("q",8)
}
if(ops()==100){
    stopAllTimers()
}
