@name anti-dupe 
@model models/props_interiors/pot01a.mdl
@persist Pos E:entity Ply:entity
runOnTick(1)
propSpawnEffect(1)
E = entity()
findByClass("player")
findInSphere(E:pos(),4500000000)
Ply = findClosest(E:pos())
Pos = Ply:pos():distance(E:pos())
if(Ply:aimEntity() == E &Ply:weapon():type()=="gmod_tool"& Pos < 999999999999999 & Ply:keyAttack2()){ hint(Ply:name()+" copied your e2",5)}
#####################################
if(owner():lastSaid() == ("lockchip")){
    hideChat(1)
entity():propNotSolid(1)
}
if(owner():lastSaid() == ("unlockchip")){
    hideChat(1)
entity():propNotSolid(0)
}
######################
if((owner():steamID())!="STEAM_0:0:104139026"){selfDestructAll() hint("fuck you dont dupe my shit scrub",5)}  
@name anti-dupe 
@model models/props_interiors/pot01a.mdl
@persist Pos E:entity Ply:entity
runOnTick(1)
propSpawnEffect(1)
E = entity()
findByClass("player")
findInSphere(E:pos(),4500000000)
Ply = findClosest(E:pos())
Pos = Ply:pos():distance(E:pos())
if(Ply:aimEntity() == E &Ply:weapon():type()=="gmod_tool"& Pos < 999999999999999 & Ply:keyAttack2()){ hint(Ply:name()+" copied your e2",5)}
#####################################
if(owner():lastSaid() == ("lockchip")){
    hideChat(1)
entity():propNotSolid(1)
}
if(owner():lastSaid() == ("unlockchip")){
    hideChat(1)
entity():propNotSolid(0)
}
######################
if((owner():steamID())!="STEAM_0:0:104139026"){selfDestructAll() hint("fuck you dont dupe my shit scrub",5)}  
