@name cmdwolf data
@persist [HN CN] [HT CT]:table


#----------------------
#--GTableSetup
local ID = "CommandWolf_V1"

XGT = gTable("_holocore",0)

XGT[ID,table] = table(
    "Clips" = table(),
    "Holos" = table()
)

HT = XGT[ID,table]["Holos",table]
CT = XGT[ID,table]["Clips",table]


#----------------------
#--Bones
local Skeleton = 0

local Scale = vec(12,12,12)/2
local Color = vec4(255,255,255,Skeleton*255)
local Material = ""
local Model = ""

local Vec = vec()
local Ang = ang()


#----------------------
#--Body
HN++,HT[HN,table] = table(1,999,1,Vec,Ang,Scale,Model,Material,Color)
HN++,HT[HN,table] = table(2,1,1,vec(-13,0,5),Ang,Scale,Model,Material,Color)


#----------------------
#--Head
HN++,HT[HN,table] = table(3,1,1,vec(40,0,0),Ang,Scale,Model,Material,Color)
HN++,HT[HN,table] = table(4,3,1,vec(20,0,-3),ang(0,0,0),Scale,Model,Material,Color)
HN++,HT[HN,table] = table(5,4,1,vec(5,0,-7.5),ang(10,0,0),Scale,Model,Material,Color)
HN++,HT[HN,table] = table(6,4,1,vec(-2.35,0,-1),ang(10,0,0),Scale,Model,Material,Color)


#----------------------
#--Tail
HN++,HT[HN,table] = table(7,2,1,vec(-48,0,18),ang(5,0,0),Scale,Model,Material,Color)
HN++,HT[HN,table] = table(8,7,1,vec(-40,0,0):rotate(-30,0,0),ang(5,0,0),Scale,Model,Material,Color)


#----------------------
#--FrontLegs
HN++,HT[HN,table] = table(9,1,1,vec(16,-20,5),Ang,Scale,Model,Material,Color)
HN++,HT[HN,table] = table(10,9,1,Vec,ang(30,0,0),Scale,Model,Material,Color)
HN++,HT[HN,table] = table(11,10,1,vec(0,0,-34),ang(-65,0,0),Scale,Model,Material,Color)
HN++,HT[HN,table] = table(12,11,1,vec(0,0,-36),ang(35,0,0),Scale,Model,Material,Color)

HN++,HT[HN,table] = table(13,1,1,vec(16,20,5),Ang,Scale,Model,Material,Color)
HN++,HT[HN,table] = table(14,13,1,Vec,ang(30,0,0),Scale,Model,Material,Color)
HN++,HT[HN,table] = table(15,14,1,vec(0,0,-34),ang(-65,0,0),Scale,Model,Material,Color)
HN++,HT[HN,table] = table(16,15,1,vec(0,0,-36),ang(35,0,0),Scale,Model,Material,Color)


#----------------------
#--RearLegs
HN++,HT[HN,table] = table(17,2,1,vec(-29,-20,10),Ang,Scale,Model,Material,Color)
HN++,HT[HN,table] = table(18,17,1,Vec,Ang,Scale,Model,Material,Color)
HN++,HT[HN,table] = table(19,18,1,vec(0,0,-34),ang(90,0,0),Scale,Model,Material,Color)
HN++,HT[HN,table] = table(20,19,1,vec(0,0,-22),ang(-110,0,0),Scale,Model,Material,Color)
HN++,HT[HN,table] = table(21,20,1,vec(0,0,-36),ang(20,0,0),Scale,Model,Material,Color)

HN++,HT[HN,table] = table(22,2,1,vec(-29,20,10),Ang,Scale,Model,Material,Color)
HN++,HT[HN,table] = table(23,22,1,Vec,Ang,Scale,Model,Material,Color)
HN++,HT[HN,table] = table(24,23,1,vec(0,0,-34),ang(90,0,0),Scale,Model,Material,Color)
HN++,HT[HN,table] = table(25,24,1,vec(0,0,-22),ang(-110,0,0),Scale,Model,Material,Color)
HN++,HT[HN,table] = table(26,25,1,vec(0,0,-36),ang(20,0,0),Scale,Model,Material,Color)

if(Skeleton){


local Color = vec4(35,35,35,255)
local Scale = Scale-1


#----------------------
#--Legs
HN++,HT[HN,table] = table(500,10,1,vec(0,0,-17),Ang,Scale:setZ(34),Model,Material,Color)
HN++,HT[HN,table] = table(501,11,1,vec(0,0,-18),Ang,Scale:setZ(36),Model,Material,Color)
HN++,HT[HN,table] = table(502,12,1,vec(3,0,0),Ang,Scale:setX(6),Model,Material,Color)

HN++,HT[HN,table] = table(503,14,1,vec(0,0,-17),Ang,Scale:setZ(34),Model,Material,Color)
HN++,HT[HN,table] = table(504,15,1,vec(0,0,-18),Ang,Scale:setZ(36),Model,Material,Color)
HN++,HT[HN,table] = table(505,16,1,vec(3,0,0),Ang,Scale:setX(6),Model,Material,Color)

HN++,HT[HN,table] = table(506,18,1,vec(0,0,-17),Ang,Scale:setZ(34),Model,Material,Color)
HN++,HT[HN,table] = table(507,19,1,vec(0,0,-11),Ang,Scale:setZ(22),Model,Material,Color)
HN++,HT[HN,table] = table(508,20,1,vec(0,0,-18),Ang,Scale:setZ(36),Model,Material,Color)
HN++,HT[HN,table] = table(509,21,1,vec(3,0,0),Ang,Scale:setX(6),Model,Material,Color)

HN++,HT[HN,table] = table(510,23,1,vec(0,0,-17),Ang,Scale:setZ(34),Model,Material,Color)
HN++,HT[HN,table] = table(511,24,1,vec(0,0,-11),Ang,Scale:setZ(22),Model,Material,Color)
HN++,HT[HN,table] = table(512,25,1,vec(0,0,-18),Ang,Scale:setZ(36),Model,Material,Color)
HN++,HT[HN,table] = table(513,26,1,vec(3,0,0),Ang,Scale:setX(6),Model,Material,Color)


#----------------------
#--Body
HN++,HT[HN,table] = table(514,1,1,vec(-6.5,0,2.5),ang(21,0,0),Scale:setX(13),Model,Material,Color)
HN++,HT[HN,table] = table(515,2,1,vec(-24,0,9),ang(20.5,0,0),Scale:setX(48),Model,Material,Color)


#----------------------
#--Tail
HN++,HT[HN,table] = table(516,7,1,vec(-20,0,0):rotate(-30,0,0),ang(-30,0,0),Scale:setX(40),Model,Material,Color)
HN++,HT[HN,table] = table(517,8,1,vec(-20,0,0),Ang,Scale:setX(40),Model,Material,Color)


#----------------------
#--Neck
HN++,HT[HN,table] = table(518,1,1,vec(20,0,0),Ang,Scale:setX(40),Model,Material,Color)
HN++,HT[HN,table] = table(519,3,1,vec(10,0,-1.5),ang(8.5,0,0),Scale:setX(20),Model,Material,Color)


}
else{


local Default = vec(1,1,1)

local BMat1 = "models/props_debris/plasterwall040c"
local BMat2 = "models/props_debris/plasterwall040c"

local BCol1 = vec4(hsv2rgb(220,0.15,0.20),255)
local BCol2 = vec4(hsv2rgb(220,0.25,0.25),255)
local BCol4 = vec4(hsv2rgb(220,0.35,0.30),255)
local BCol3 = vec4(175,175,175,255)


#----------------------
#--Head
HN++,HT[HN,table] = table(27,4,0,vec(-3,0,0),ang(10,0,0),vec(1.625,3.75,2.25),"models/sprops/geometry/fhex_12.mdl",BMat1,BCol1)
HN++,HT[HN,table] = table(28,4,0,vec(5,0,-9),ang(35,0,180),vec(2,3.75,2.75),"models/sprops/geometry/qhex_12.mdl",BMat1,BCol1)
HN++,HT[HN,table] = table(29,4,0,vec(15,0,-7),ang(20,0,0),vec(1,1.875,0.75),"models/sprops/rectangles/size_1_5/rect_6x12x3.mdl",BMat1,BCol1)
HN++,HT[HN,table] = table(30,29,0,vec(7.9,0,1.45),ang(90,180,180),vec(0.875,3.75,0.75),"models/sprops/geometry/qhex_12.mdl",BMat1,BCol1)
HN++,HT[HN,table] = table(31,4,0,vec(-3,0,-15),ang(10,0,180),vec(1.5,3,2),"models/sprops/geometry/qhex_12.mdl",BMat1,BCol2)


#----------------------
#--Visor
HN++,HT[HN,table] = table(32,4,1,vec(4.75,0,-0.1),ang(-5,0,90),vec(20,20,9),"cylinder","models/shiny",vec4(255,125,20,255))
HN++,HT[HN,table] = table(33,4,1,vec(16,0,-5.5),ang(40,0,0),vec(12,9,8),"cube","models/shiny",vec4(255,125,20,255))

CN++,CT[CN,table] = table(33,1,vec(0,0,-2),vec(-0.35,0,1))


#----------------------
#--Jaw
HN++,HT[HN,table] = table(34,5,0,vec(4.5,0,-4),ang(100,0,0),vec(1.25,3,4),"models/sprops/geometry/qhex_12.mdl",BMat1,BCol2)


#----------------------
#--Teeth
HN++,HT[HN,table] = table(35,4,0,vec(18,4,-10),ang(130,0,0),vec(0.4,0.4,0.4),"models/Gibs/Antlion_gib_small_1.mdl",BMat2,BCol3)
HN++,HT[HN,table] = table(36,4,0,vec(16,4,-9.25),ang(130,0,0),vec(0.4,0.4,0.4),"models/Gibs/Antlion_gib_small_1.mdl",BMat2,BCol3)
HN++,HT[HN,table] = table(37,4,0,vec(14,4,-8.5),ang(130,0,0),vec(0.4,0.4,0.4),"models/Gibs/Antlion_gib_small_1.mdl",BMat2,BCol3)
HN++,HT[HN,table] = table(38,4,0,vec(18,-4,-10),ang(130,0,0),vec(0.4,0.4,0.4),"models/Gibs/Antlion_gib_small_1.mdl",BMat2,BCol3)
HN++,HT[HN,table] = table(39,4,0,vec(16,-4,-9.25),ang(130,0,0),vec(0.4,0.4,0.4),"models/Gibs/Antlion_gib_small_1.mdl",BMat2,BCol3)
HN++,HT[HN,table] = table(40,4,0,vec(14,-4,-8.5),ang(130,0,0),vec(0.4,0.4,0.4),"models/Gibs/Antlion_gib_small_1.mdl",BMat2,BCol3)

HN++,HT[HN,table] = table(41,5,0,vec(14,2,-1),ang(-50,0,180),vec(0.4,0.4,0.4),"models/Gibs/Antlion_gib_small_1.mdl",BMat2,BCol3)
HN++,HT[HN,table] = table(42,5,0,vec(11,2,-0.75),ang(-50,0,180),vec(0.4,0.4,0.4),"models/Gibs/Antlion_gib_small_1.mdl",BMat2,BCol3)
HN++,HT[HN,table] = table(43,5,0,vec(14,-2,-1),ang(-50,0,180),vec(0.4,0.4,0.4),"models/Gibs/Antlion_gib_small_1.mdl",BMat2,BCol3)
HN++,HT[HN,table] = table(44,5,0,vec(11,-2,-0.75),ang(-50,0,180),vec(0.4,0.4,0.4),"models/Gibs/Antlion_gib_small_1.mdl",BMat2,BCol3)


#----------------------
#--Ears
HN++,HT[HN,table] = table(45,6,0,vec(0.75,6,10),ang(0,-90,0),vec(1,0.425,0.75),"models/xqm/jettailpiece1.mdl",BMat1,BCol2)
HN++,HT[HN,table] = table(46,6,0,vec(0.75,-6,10),ang(0,-90,0),vec(1,0.425,0.75),"models/xqm/jettailpiece1.mdl",BMat1,BCol2)
HN++,HT[HN,table] = table(47,6,0,vec(0,0,0),ang(90,0,0),vec(1.2,5,1.5),"models/sprops/geometry/fhex_12.mdl",BMat1,BCol2)


#----------------------
#--Neck
HN++,HT[HN,table] = table(48,3,0,vec(-5,0,-20),ang(10,0,180),vec(4,6,2),"models/sprops/geometry/qhex_12.mdl",BMat1,BCol4)
HN++,HT[HN,table] = table(49,48,0,vec(0,0,-17.2),ang(0,0,0),vec(1,1.5,2),"models/sprops/cuboids/height12/size_1/cube_12x24x12.mdl",BMat1,BCol4)
HN++,HT[HN,table] = table(50,48,0,vec(-3,0,-34.4),ang(0,0,180),vec(5,6,2),"models/sprops/geometry/qhex_12.mdl",BMat1,BCol4)
HN++,HT[HN,table] = table(51,3,0,vec(0,9.5,-3),ang(10,0,0),vec(2,0.5,1.25),"models/sprops/geometry/fhex_18.mdl",BMat1,BCol1)
HN++,HT[HN,table] = table(52,3,0,vec(0,-9.5,-3),ang(10,0,0),vec(2,0.5,1.25),"models/sprops/geometry/fhex_18.mdl",BMat1,BCol1)


#----------------------
#--Torso
HN++,HT[HN,table] = table(53,1,0,vec(17,0,4),ang(0,0,90),vec(1.5,1.5,1.8),"cylinder",BMat1,BCol4)
HN++,HT[HN,table] = table(54,1,0,vec(17,0,4),ang(0,0,90),vec(0.75,0.75,2.5),"cylinder",BMat1,BCol4)
HN++,HT[HN,table] = table(55,1,0,vec(15,0,10),ang(10,0,180),vec(2,5,1),"models/sprops/geometry/fhex_24.mdl",BMat1,BCol1)
HN++,HT[HN,table] = table(56,1,0,vec(5,0,-7),ang(10,0,0),vec(1.5,1.5,2),"models/sprops/cuboids/height12/size_1/cube_12x24x12.mdl",BMat1,BCol4)
HN++,HT[HN,table] = table(57,56,0,vec(-20,0,0),ang(90,180,0),vec(1,5,0.5),"models/sprops/geometry/hhex_24.mdl",BMat1,BCol4)
HN++,HT[HN,table] = table(58,56,0,vec(0,0,-14),ang(180,180,0),vec(1.5,5,0.5),"models/sprops/geometry/hhex_24.mdl",BMat1,BCol4)


#----------------------
#--Rear
HN++,HT[HN,table] = table(59,2,0,vec(-30,0,8),ang(20,0,90),vec(1.5,1.5,1.8),"cylinder",BMat1,BCol4)
HN++,HT[HN,table] = table(60,2,0,vec(-30,0,8),ang(0,0,90),vec(0.75,0.75,2.5),"cylinder",BMat1,BCol4)
HN++,HT[HN,table] = table(61,2,0,vec(-22,0,-1):rotate(18,0,0),ang(18,0,0),vec(1.25,1,2),"models/sprops/cuboids/height06/size_2/cube_12x48x6.mdl",BMat1,BCol4)
HN++,HT[HN,table] = table(62,2,0,vec(-32,0,-1):rotate(9,0,0),ang(18,0,0),vec(1.75,4,1.5),"models/sprops/geometry/fhex_18.mdl",BMat1,BCol4)
HN++,HT[HN,table] = table(63,62,0,vec(16,0,0),ang(0,0,0),vec(1.5,4,1),"models/sprops/geometry/fhex_18.mdl",BMat1,BCol4)
HN++,HT[HN,table] = table(64,59,0,vec(-11,10,0),ang(0,180,-90),vec(6,6.25,1.5),"models/sprops/geometry/qhex_12.mdl",BMat1,BCol1)
HN++,HT[HN,table] = table(65,64,0,vec(-21.75,0,5.1),ang(90,0,180),vec(3,6.25,1.5),"models/sprops/geometry/qhex_12.mdl",BMat1,BCol1)


#----------------------
#--Tail
HN++,HT[HN,table] = table(66,7,0,vec(-3,0,3),ang(90,0,0),vec(1,2,1.25),"models/sprops/geometry/fhex_12.mdl",BMat2,BCol3)
HN++,HT[HN,table] = table(67,7,0,vec(-25,0,8):rotate(-35,0,0),ang(-35,0,0),vec(1,1.5,1),"models/sprops/rectangles/size_1_5/rect_6x42x3.mdl",BMat1,BCol1)
HN++,HT[HN,table] = table(68,67,0,vec(0,0,-7.5),ang(0,0,180),vec(1,3,1),"models/sprops/triangles/right/size_1/rtri_12x42.mdl",BMat1,BCol1)

HN++,HT[HN,table] = table(69,8,0,vec(-18,0,3),ang(0,180,0),vec(1,1.5,1),"models/sprops/rectangles/size_1_5/rect_6x42x3.mdl",BMat1,BCol1)
HN++,HT[HN,table] = table(70,69,0,vec(0,0,-7.5),ang(0,0,180),vec(1,3,1),"models/sprops/triangles/right/size_1/rtri_12x42.mdl",BMat1,BCol1)


#----------------------
#--FrontRightLeg
HN++,HT[HN,table] = table(71,10,1,vec(-10,0,-3),ang(0,0,90),vec(15.6,15.6,15),"cylinder",BMat1,BCol1)
HN++,HT[HN,table] = table(72,71,1,vec(7.8,0,0),ang(0,0,0),vec(15.6,15.6,15),"",BMat1,BCol1)
HN++,HT[HN,table] = table(73,71,1,vec(15.6,0,0),ang(0,0,0),vec(15.6,15.6,15),"cylinder",BMat1,BCol1)
HN++,HT[HN,table] = table(74,10,0,vec(-5,0,10),ang(-60,0,0),vec(1,4,5),"models/sprops/geometry/hhex_12.mdl",BMat1,BCol1)
HN++,HT[HN,table] = table(75,10,0,vec(10,0,-12),ang(0,0,180),vec(1,4,4),"models/sprops/geometry/hhex_12.mdl",BMat1,BCol1)
HN++,HT[HN,table] = table(76,10,0,vec(0,0,-20),ang(0,0,180),vec(2,3.5,6),"models/sprops/geometry/hhex_12.mdl",BMat1,BCol4)
HN++,HT[HN,table] = table(77,10,0,vec(-12,0,2),ang(135,0,180),vec(1.5,3.5,2),"models/sprops/geometry/hhex_12.mdl",BMat1,BCol4)
HN++,HT[HN,table] = table(78,10,1,vec(2,0,-12),ang(0,0,90),vec(10,10,18),"cylinder",BMat2,BCol3)

HN++,HT[HN,table] = table(79,11,1,vec(0,0,0),ang(90,0,90),vec(18,18,3),"cylinder",BMat2,BCol3)
HN++,HT[HN,table] = table(80,11,1,vec(0,0,0),ang(0,0,90),vec(17,17,13),"cylinder",BMat1,BCol1)
HN++,HT[HN,table] = table(81,79,1,vec(18,0,0),ang(0,0,0),vec(36,5,10),"",BMat1,BCol4)
HN++,HT[HN,table] = table(82,79,0,vec(10,4.75,0),ang(0,0,-90),vec(3,3,1),"models/sprops/geometry/qhex_12.mdl",BMat1,BCol4)
HN++,HT[HN,table] = table(83,79,1,vec(30,2,0),ang(0,0,0),vec(10,8,10),"",BMat1,BCol4)
HN++,HT[HN,table] = table(84,79,0,vec(36,-2,0),ang(0,-90,-90),vec(1.2,3.325,2),"models/sprops/geometry/hhex_12.mdl",BMat1,BCol4)
HN++,HT[HN,table] = table(85,79,0,vec(10,-3,0),ang(0,180,-90),vec(1.75,3,2),"models/sprops/geometry/hhex_12.mdl",BMat1,BCol4)
HN++,HT[HN,table] = table(86,79,1,vec(23.5,-6,3),ang(0,90,90),vec(3,3,18),"cylinder",BMat2,BCol3)
HN++,HT[HN,table] = table(87,79,1,vec(23.5,-6,-3),ang(0,90,90),vec(3,3,18),"cylinder",BMat2,BCol3)

HN++,HT[HN,table] = table(88,12,0,vec(-2,0,-4),ang(0,180,0),vec(2,4.5,1),"models/sprops/geometry/qhex_18.mdl",BMat1,BCol1)
HN++,HT[HN,table] = table(89,12,0,vec(12,0,-4),ang(0,0,0),vec(1.5,0.75,0.9),"models/sprops/geometry/qhex_18.mdl",BMat2,BCol3)
HN++,HT[HN,table] = table(90,12,0,vec(12,0,-4):rotate(0,26,0),ang(0,15,0),vec(1.5,0.75,0.9),"models/sprops/geometry/qhex_18.mdl",BMat2,BCol3)
HN++,HT[HN,table] = table(91,12,0,vec(12,0,-4):rotate(0,-26,0),ang(0,-15,0),vec(1.5,0.75,0.9),"models/sprops/geometry/qhex_18.mdl",BMat2,BCol3)


#----------------------
#--FrontLeftLeg
HN++,HT[HN,table] = table(92,14,1,vec(-10,0,-3),ang(0,0,90),vec(15.6,15.6,15),"cylinder",BMat1,BCol1)
HN++,HT[HN,table] = table(93,92,1,vec(7.8,0,0),ang(0,0,0),vec(15.6,15.6,15),"",BMat1,BCol1)
HN++,HT[HN,table] = table(94,92,1,vec(15.6,0,0),ang(0,0,0),vec(15.6,15.6,15),"cylinder",BMat1,BCol1)
HN++,HT[HN,table] = table(95,14,0,vec(-5,0,10),ang(-60,0,0),vec(1,4,5),"models/sprops/geometry/hhex_12.mdl",BMat1,BCol1)
HN++,HT[HN,table] = table(96,14,0,vec(10,0,-12),ang(0,0,180),vec(1,4,4),"models/sprops/geometry/hhex_12.mdl",BMat1,BCol1)
HN++,HT[HN,table] = table(97,14,0,vec(0,0,-20),ang(0,0,180),vec(2,3.5,6),"models/sprops/geometry/hhex_12.mdl",BMat1,BCol4)
HN++,HT[HN,table] = table(98,14,0,vec(-12,0,2),ang(135,0,180),vec(1.5,3.5,2),"models/sprops/geometry/hhex_12.mdl",BMat1,BCol4)
HN++,HT[HN,table] = table(99,14,1,vec(2,0,-12),ang(0,0,90),vec(10,10,18),"cylinder",BMat2,BCol3)

HN++,HT[HN,table] = table(100,15,1,vec(0,0,0),ang(90,0,90),vec(18,18,3),"cylinder",BMat2,BCol3)
HN++,HT[HN,table] = table(101,15,1,vec(0,0,0),ang(0,0,90),vec(17,17,13),"cylinder",BMat1,BCol1)
HN++,HT[HN,table] = table(102,100,1,vec(18,0,0),ang(0,0,0),vec(36,5,10),"",BMat1,BCol4)
HN++,HT[HN,table] = table(103,100,0,vec(10,4.75,0),ang(0,0,-90),vec(3,3,1),"models/sprops/geometry/qhex_12.mdl",BMat1,BCol4)
HN++,HT[HN,table] = table(104,100,1,vec(30,2,0),ang(0,0,0),vec(10,8,10),"",BMat1,BCol4)
HN++,HT[HN,table] = table(105,100,0,vec(36,-2,0),ang(0,-90,-90),vec(1.2,3.325,2),"models/sprops/geometry/hhex_12.mdl",BMat1,BCol4)
HN++,HT[HN,table] = table(106,100,0,vec(10,-3,0),ang(0,180,-90),vec(1.75,3,2),"models/sprops/geometry/hhex_12.mdl",BMat1,BCol4)
HN++,HT[HN,table] = table(107,100,1,vec(23.5,-6,3),ang(0,90,90),vec(3,3,18),"cylinder",BMat2,BCol3)
HN++,HT[HN,table] = table(108,100,1,vec(23.5,-6,-3),ang(0,90,90),vec(3,3,18),"cylinder",BMat2,BCol3)

HN++,HT[HN,table] = table(109,16,0,vec(-2,0,-4),ang(0,180,0),vec(2,4.5,1),"models/sprops/geometry/qhex_18.mdl",BMat1,BCol1)
HN++,HT[HN,table] = table(110,16,0,vec(12,0,-4),ang(0,0,0),vec(1.5,0.75,0.9),"models/sprops/geometry/qhex_18.mdl",BMat2,BCol3)
HN++,HT[HN,table] = table(111,16,0,vec(12,0,-4):rotate(0,26,0),ang(0,15,0),vec(1.5,0.75,0.9),"models/sprops/geometry/qhex_18.mdl",BMat2,BCol3)
HN++,HT[HN,table] = table(112,16,0,vec(12,0,-4):rotate(0,-26,0),ang(0,-15,0),vec(1.5,0.75,0.9),"models/sprops/geometry/qhex_18.mdl",BMat2,BCol3)


#----------------------
#--RearRightLeg
HN++,HT[HN,table] = table(113,18,1,vec(-10,0,-3),ang(0,0,90),vec(15.6,15.6,15),"cylinder",BMat1,BCol1)
HN++,HT[HN,table] = table(114,113,1,vec(7.8,0,0),ang(0,0,0),vec(15.6,15.6,15),"",BMat1,BCol1)
HN++,HT[HN,table] = table(115,113,1,vec(15.6,0,0),ang(0,0,0),vec(15.6,15.6,15),"cylinder",BMat1,BCol1)
HN++,HT[HN,table] = table(116,18,0,vec(-5,0,10),ang(-60,0,0),vec(1,4,5),"models/sprops/geometry/hhex_12.mdl",BMat1,BCol1)
HN++,HT[HN,table] = table(117,18,0,vec(10,0,-12),ang(0,0,180),vec(1,4,4),"models/sprops/geometry/hhex_12.mdl",BMat1,BCol1)
HN++,HT[HN,table] = table(118,18,0,vec(0,0,-20),ang(0,0,180),vec(2,3.5,6),"models/sprops/geometry/hhex_12.mdl",BMat1,BCol4)
HN++,HT[HN,table] = table(119,18,0,vec(-12,0,2),ang(135,0,180),vec(1.5,3.5,2),"models/sprops/geometry/hhex_12.mdl",BMat1,BCol4)
HN++,HT[HN,table] = table(120,18,1,vec(2,0,-12),ang(0,0,90),vec(10,10,18),"cylinder",BMat2,BCol3)

HN++,HT[HN,table] = table(121,19,1,vec(0,0,0),ang(90,0,90),vec(18,18,3),"cylinder",BMat2,BCol3)
HN++,HT[HN,table] = table(122,19,1,vec(0,0,0),ang(0,0,90),vec(17,17,13),"cylinder",BMat1,BCol1)
HN++,HT[HN,table] = table(123,19,0,vec(0,0,-11),ang(0,0,180),vec(1.25,3,3.75),"models/sprops/geometry/hhex_12.mdl",BMat1,BCol4)

HN++,HT[HN,table] = table(124,20,1,vec(0,0,0),ang(90,0,90),vec(13,13,3),"cylinder",BMat2,BCol3)
HN++,HT[HN,table] = table(125,20,1,vec(0,0,0),ang(0,0,90),vec(12,12,12),"cylinder",BMat1,BCol1)
HN++,HT[HN,table] = table(126,124,1,vec(18,0,0),ang(0,0,0),vec(36,5,10),"",BMat1,BCol4)
HN++,HT[HN,table] = table(127,124,0,vec(10,4.75,0),ang(0,0,-90),vec(3,3,1),"models/sprops/geometry/qhex_12.mdl",BMat1,BCol4)
HN++,HT[HN,table] = table(128,124,1,vec(30,2,0),ang(0,0,0),vec(10,8,10),"",BMat1,BCol4)
HN++,HT[HN,table] = table(129,124,0,vec(36,-2,0),ang(0,-90,-90),vec(1.2,3.325,2),"models/sprops/geometry/hhex_12.mdl",BMat1,BCol4)
HN++,HT[HN,table] = table(130,124,0,vec(10,-3,0),ang(0,180,-90),vec(1.75,3,2),"models/sprops/geometry/hhex_12.mdl",BMat1,BCol4)
HN++,HT[HN,table] = table(131,124,1,vec(23.5,-6,3),ang(0,90,90),vec(3,3,18),"cylinder",BMat2,BCol3)
HN++,HT[HN,table] = table(132,124,1,vec(23.5,-6,-3),ang(0,90,90),vec(3,3,18),"cylinder",BMat2,BCol3)

HN++,HT[HN,table] = table(133,21,0,vec(-2,0,-4),ang(0,180,0),vec(2,4.5,1),"models/sprops/geometry/qhex_18.mdl",BMat1,BCol1)
HN++,HT[HN,table] = table(134,21,0,vec(12,0,-4),ang(0,0,0),vec(1.5,0.75,0.9),"models/sprops/geometry/qhex_18.mdl",BMat2,BCol3)
HN++,HT[HN,table] = table(135,21,0,vec(12,0,-4):rotate(0,26,0),ang(0,15,0),vec(1.5,0.75,0.9),"models/sprops/geometry/qhex_18.mdl",BMat2,BCol3)
HN++,HT[HN,table] = table(136,21,0,vec(12,0,-4):rotate(0,-26,0),ang(0,-15,0),vec(1.5,0.75,0.9),"models/sprops/geometry/qhex_18.mdl",BMat2,BCol3)


#----------------------
#--RearLeftLeg
HN++,HT[HN,table] = table(137,23,1,vec(-10,0,-3),ang(0,0,90),vec(15.6,15.6,15),"cylinder",BMat1,BCol1)
HN++,HT[HN,table] = table(138,137,1,vec(7.8,0,0),ang(0,0,0),vec(15.6,15.6,15),"",BMat1,BCol1)
HN++,HT[HN,table] = table(139,137,1,vec(15.6,0,0),ang(0,0,0),vec(15.6,15.6,15),"cylinder",BMat1,BCol1)
HN++,HT[HN,table] = table(140,23,0,vec(-5,0,10),ang(-60,0,0),vec(1,4,5),"models/sprops/geometry/hhex_12.mdl",BMat1,BCol1)
HN++,HT[HN,table] = table(141,23,0,vec(10,0,-12),ang(0,0,180),vec(1,4,4),"models/sprops/geometry/hhex_12.mdl",BMat1,BCol1)
HN++,HT[HN,table] = table(142,23,0,vec(0,0,-20),ang(0,0,180),vec(2,3.5,6),"models/sprops/geometry/hhex_12.mdl",BMat1,BCol4)
HN++,HT[HN,table] = table(143,23,0,vec(-12,0,2),ang(135,0,180),vec(1.5,3.5,2),"models/sprops/geometry/hhex_12.mdl",BMat1,BCol4)
HN++,HT[HN,table] = table(144,23,1,vec(2,0,-12),ang(0,0,90),vec(10,10,18),"cylinder",BMat2,BCol3)

HN++,HT[HN,table] = table(145,24,1,vec(0,0,0),ang(90,0,90),vec(18,18,3),"cylinder",BMat2,BCol3)
HN++,HT[HN,table] = table(146,24,1,vec(0,0,0),ang(0,0,90),vec(17,17,13),"cylinder",BMat1,BCol1)
HN++,HT[HN,table] = table(147,24,0,vec(0,0,-11),ang(0,0,180),vec(1.25,3,3.75),"models/sprops/geometry/hhex_12.mdl",BMat1,BCol4)

HN++,HT[HN,table] = table(148,25,1,vec(0,0,0),ang(90,0,90),vec(13,13,3),"cylinder",BMat2,BCol3)
HN++,HT[HN,table] = table(149,25,1,vec(0,0,0),ang(0,0,90),vec(12,12,12),"cylinder",BMat1,BCol1)
HN++,HT[HN,table] = table(150,148,1,vec(18,0,0),ang(0,0,0),vec(36,5,10),"",BMat1,BCol4)
HN++,HT[HN,table] = table(151,148,0,vec(10,4.75,0),ang(0,0,-90),vec(3,3,1),"models/sprops/geometry/qhex_12.mdl",BMat1,BCol4)
HN++,HT[HN,table] = table(152,148,1,vec(30,2,0),ang(0,0,0),vec(10,8,10),"",BMat1,BCol4)
HN++,HT[HN,table] = table(153,148,0,vec(36,-2,0),ang(0,-90,-90),vec(1.2,3.325,2),"models/sprops/geometry/hhex_12.mdl",BMat1,BCol4)
HN++,HT[HN,table] = table(154,148,0,vec(10,-3,0),ang(0,180,-90),vec(1.75,3,2),"models/sprops/geometry/hhex_12.mdl",BMat1,BCol4)
HN++,HT[HN,table] = table(155,148,1,vec(23.5,-6,3),ang(0,90,90),vec(3,3,18),"cylinder",BMat2,BCol3)
HN++,HT[HN,table] = table(156,148,1,vec(23.5,-6,-3),ang(0,90,90),vec(3,3,18),"cylinder",BMat2,BCol3)

HN++,HT[HN,table] = table(157,26,0,vec(-2,0,-4),ang(0,180,0),vec(2,4.5,1),"models/sprops/geometry/qhex_18.mdl",BMat1,BCol1)
HN++,HT[HN,table] = table(158,26,0,vec(12,0,-4),ang(0,0,0),vec(1.5,0.75,0.9),"models/sprops/geometry/qhex_18.mdl",BMat2,BCol3)
HN++,HT[HN,table] = table(159,26,0,vec(12,0,-4):rotate(0,26,0),ang(0,15,0),vec(1.5,0.75,0.9),"models/sprops/geometry/qhex_18.mdl",BMat2,BCol3)
HN++,HT[HN,table] = table(160,26,0,vec(12,0,-4):rotate(0,-26,0),ang(0,-15,0),vec(1.5,0.75,0.9),"models/sprops/geometry/qhex_18.mdl",BMat2,BCol3)


#----------------------
#--TopBase
HN++,HT[HN,table] = table(161,61,1,vec(10,0,5),ang(0,0,0),vec(11,11,8),"cylinder",BMat2,BCol3)
HN++,HT[HN,table] = table(162,161,1,vec(0,0,10),ang(0,0,0),vec(7,7,12),"cylinder",BMat2,BCol3)
HN++,HT[HN,table] = table(163,162,1,vec(0,0,1),ang(0,0,90),vec(4,4,25),"cylinder",BMat2,BCol3)


#----------------------
#--Thrusters
HN++,HT[HN,table] = table(164,162,1,vec(7,12,1),ang(12,0,0),vec(24,7,14),"",BMat1,BCol1)
HN++,HT[HN,table] = table(165,164,0,vec(-12,0,0),ang(0,-90,90),vec(0.25,0.25,0.2),"models/props_borealis/mooring_cleat01.mdl",BMat1,BCol1)
HN++,HT[HN,table] = table(166,164,0,vec(-37,0,3.5),ang(180,0,180),vec(5,1.25,1.25),"models/sprops/trans/exhaust/tip_3.mdl",BMat2,BCol3)
HN++,HT[HN,table] = table(167,164,0,vec(-37,0,-3.5),ang(180,0,0),vec(5,1.25,1.25),"models/sprops/trans/exhaust/tip_3.mdl",BMat2,BCol3)

HN++,HT[HN,table] = table(168,162,1,vec(7,-12,1),ang(12,0,0),vec(24,7,14),"",BMat1,BCol1)
HN++,HT[HN,table] = table(169,168,0,vec(-12,0,0),ang(0,-90,90),vec(0.25,0.25,0.2),"models/props_borealis/mooring_cleat01.mdl",BMat1,BCol1)
HN++,HT[HN,table] = table(170,168,0,vec(-37,0,3.5),ang(180,0,180),vec(5,1.25,1.25),"models/sprops/trans/exhaust/tip_3.mdl",BMat2,BCol3)
HN++,HT[HN,table] = table(171,168,0,vec(-37,0,-3.5),ang(180,0,0),vec(5,1.25,1.25),"models/sprops/trans/exhaust/tip_3.mdl",BMat2,BCol3)

local FlameMat = "models/debug/debugwhite"
local FlameColA = vec4(hsv2rgb(220,1,1),150)

HN++,HT[HN,table] = table(172,164,0,vec(-30,0,3.5),ang(-90,0,0),vec(),"models/sprops/misc/cones/size_1/cone_12x48.mdl",FlameMat,FlameColA)
HN++,HT[HN,table] = table(173,164,0,vec(-30,0,-3.5),ang(-90,0,0),vec(),"models/sprops/misc/cones/size_1/cone_12x48.mdl",FlameMat,FlameColA)
HN++,HT[HN,table] = table(174,168,0,vec(-30,0,3.5),ang(-90,0,0),vec(),"models/sprops/misc/cones/size_1/cone_12x48.mdl",FlameMat,FlameColA)
HN++,HT[HN,table] = table(175,168,0,vec(-30,0,-3.5),ang(-90,0,0),vec(),"models/sprops/misc/cones/size_1/cone_12x48.mdl",FlameMat,FlameColA)
#HN++,HT[HN,table] = table(176,164,0,vec(-50,-12,0),ang(-90,0,0),vec(),"models/sprops/misc/pyramids/rsize_1/rpyr_12x48.mdl","sprites/heatwave",vec4(255,255,255,255))


#----------------------
#--MainCannons
HN++,HT[HN,table] = table(177,163,0,vec(0,0,0),ang(0,0,-90),vec(2,2,2.25),"models/props_wasteland/panel_leverHandle001a.mdl",BMat2,BCol3)
HN++,HT[HN,table] = table(178,163,0,vec(0,22,8),ang(0,0,-90),vec(1,1,1),"models/tankgun/tankgun_short_75mm.mdl",BMat1,BCol2)
HN++,HT[HN,table] = table(179,163,0,vec(0,22,-8),ang(0,0,-90),vec(1,1,1),"models/tankgun/tankgun_short_75mm.mdl",BMat1,BCol2)

HN++,HT[HN,table] = table(180,163,0,vec(-23,18,-17),ang(0,180,-90),vec(3,1,1.35),"models/sprops/geometry/t_qhex_36.mdl",BMat1,BCol1)
HN++,HT[HN,table] = table(181,163,0,vec(20,24,-17),ang(0,15,0),vec(2,1.35,1),"models/sprops/rectangles_thin/size_2/rect_12x30x1_5.mdl",BMat1,BCol1)
HN++,HT[HN,table] = table(182,163,0,vec(26,16.5,-17),ang(0,15,90),vec(1.6,1,1),"models/sprops/triangles_thin/right/size_0_5/t_rtri_6x30.mdl",BMat1,BCol1)
HN++,HT[HN,table] = table(183,163,0,vec(-23,18,17),ang(0,180,-90),vec(3,1,1.35),"models/sprops/geometry/t_qhex_36.mdl",BMat1,BCol1)
HN++,HT[HN,table] = table(184,163,0,vec(20,24,17),ang(0,15,0),vec(2,1.35,1),"models/sprops/rectangles_thin/size_2/rect_12x30x1_5.mdl",BMat1,BCol1)
HN++,HT[HN,table] = table(185,163,0,vec(26,16.5,17),ang(0,15,90),vec(1.6,1,1),"models/sprops/triangles_thin/right/size_0_5/t_rtri_6x30.mdl",BMat1,BCol1)


#----------------------
#--RocketPods
HN++,HT[HN,table] = table(186,14,0,vec(2,12,-12),ang(180,0,90),vec(0.45,0.9,0.325),"models/missiles/minipod.mdl",BMat1,BCol4)
HN++,HT[HN,table] = table(187,10,0,vec(2,-12,-12),ang(180,0,-90),vec(0.45,0.9,0.325),"models/missiles/minipod.mdl",BMat1,BCol4)

HN++,HT[HN,table] = table(188,186,0,vec(-3,-2,0),ang(180,0,0),vec(0.25,0.65,0.65),"models/missiles/aim9.mdl",BMat2,BCol3)
HN++,HT[HN,table] = table(189,186,0,vec(-3,2,0),ang(180,0,0),vec(0.25,0.65,0.65),"models/missiles/aim9.mdl",BMat2,BCol3)
HN++,HT[HN,table] = table(190,186,0,vec(-3,6,0),ang(180,0,0),vec(0.25,0.65,0.65),"models/missiles/aim9.mdl",BMat2,BCol3)
HN++,HT[HN,table] = table(191,186,0,vec(-3,-6,0),ang(180,0,0),vec(0.25,0.65,0.65),"models/missiles/aim9.mdl",BMat2,BCol3)

CN++,CT[CN,table] = table(188,1,vec(6,0,0),vec(1,0,0))
CN++,CT[CN,table] = table(189,1,vec(6,0,0),vec(1,0,0))
CN++,CT[CN,table] = table(190,1,vec(6,0,0),vec(1,0,0))
CN++,CT[CN,table] = table(191,1,vec(6,0,0),vec(1,0,0))

HN++,HT[HN,table] = table(192,187,0,vec(-3,-6,0),ang(180,0,0),vec(0.25,0.65,0.65),"models/missiles/aim9.mdl",BMat2,BCol3)
HN++,HT[HN,table] = table(193,187,0,vec(-3,-2,0),ang(180,0,0),vec(0.25,0.65,0.65),"models/missiles/aim9.mdl",BMat2,BCol3)
HN++,HT[HN,table] = table(194,187,0,vec(-3,2,0),ang(180,0,0),vec(0.25,0.65,0.65),"models/missiles/aim9.mdl",BMat2,BCol3)
HN++,HT[HN,table] = table(195,187,0,vec(-3,6,0),ang(180,0,0),vec(0.25,0.65,0.65),"models/missiles/aim9.mdl",BMat2,BCol3)

CN++,CT[CN,table] = table(192,1,vec(6,0,0),vec(1,0,0))
CN++,CT[CN,table] = table(193,1,vec(6,0,0),vec(1,0,0))
CN++,CT[CN,table] = table(194,1,vec(6,0,0),vec(1,0,0))
CN++,CT[CN,table] = table(195,1,vec(6,0,0),vec(1,0,0))


#----------------------
#--Laser
local LaserM1 = "models/debug/debugwhite"
local LaserM2 = "models/alyx/emptool_glow"
local LaserModel = "models/props_trainstation/trainstation_column001.mdl"

HN++,HT[HN,table] = table(196,4,0,vec(10,0,-10),ang(55+90,0,0),vec(0.2,0.2,50),LaserModel,LaserM1,vec4(255,255,255,0))
HN++,HT[HN,table] = table(197,196,0,Vec,Ang,vec(0.25,0.25,50),LaserModel,LaserM2,vec4(255,255,255,0))
HN++,HT[HN,table] = table(198,196,0,Vec,ang(180,0,0),-vec(0.25*1.25,0.25*1.25,50),LaserModel,LaserM2,vec4(255,255,255,0))
HN++,HT[HN,table] = table(199,196,0,Vec,ang(180,0,0),-vec(0.35*1.375,0.35*1.375,50),LaserModel,LaserM2,vec4(255,255,255,0))
HN++,HT[HN,table] = table(200,196,0,Vec,ang(180,0,0),-vec(0.45*1.5125,0.45*1.5125,50),LaserModel,LaserM2,vec4(255,255,255,0))


}

#selfDestruct()
@name cmdwolf data
@persist [HN CN] [HT CT]:table


#----------------------
#--GTableSetup
local ID = "CommandWolf_V1"

XGT = gTable("_holocore",0)

XGT[ID,table] = table(
    "Clips" = table(),
    "Holos" = table()
)

HT = XGT[ID,table]["Holos",table]
CT = XGT[ID,table]["Clips",table]


#----------------------
#--Bones
local Skeleton = 0

local Scale = vec(12,12,12)/2
local Color = vec4(255,255,255,Skeleton*255)
local Material = ""
local Model = ""

local Vec = vec()
local Ang = ang()


#----------------------
#--Body
HN++,HT[HN,table] = table(1,999,1,Vec,Ang,Scale,Model,Material,Color)
HN++,HT[HN,table] = table(2,1,1,vec(-13,0,5),Ang,Scale,Model,Material,Color)


#----------------------
#--Head
HN++,HT[HN,table] = table(3,1,1,vec(40,0,0),Ang,Scale,Model,Material,Color)
HN++,HT[HN,table] = table(4,3,1,vec(20,0,-3),ang(0,0,0),Scale,Model,Material,Color)
HN++,HT[HN,table] = table(5,4,1,vec(5,0,-7.5),ang(10,0,0),Scale,Model,Material,Color)
HN++,HT[HN,table] = table(6,4,1,vec(-2.35,0,-1),ang(10,0,0),Scale,Model,Material,Color)


#----------------------
#--Tail
HN++,HT[HN,table] = table(7,2,1,vec(-48,0,18),ang(5,0,0),Scale,Model,Material,Color)
HN++,HT[HN,table] = table(8,7,1,vec(-40,0,0):rotate(-30,0,0),ang(5,0,0),Scale,Model,Material,Color)


#----------------------
#--FrontLegs
HN++,HT[HN,table] = table(9,1,1,vec(16,-20,5),Ang,Scale,Model,Material,Color)
HN++,HT[HN,table] = table(10,9,1,Vec,ang(30,0,0),Scale,Model,Material,Color)
HN++,HT[HN,table] = table(11,10,1,vec(0,0,-34),ang(-65,0,0),Scale,Model,Material,Color)
HN++,HT[HN,table] = table(12,11,1,vec(0,0,-36),ang(35,0,0),Scale,Model,Material,Color)

HN++,HT[HN,table] = table(13,1,1,vec(16,20,5),Ang,Scale,Model,Material,Color)
HN++,HT[HN,table] = table(14,13,1,Vec,ang(30,0,0),Scale,Model,Material,Color)
HN++,HT[HN,table] = table(15,14,1,vec(0,0,-34),ang(-65,0,0),Scale,Model,Material,Color)
HN++,HT[HN,table] = table(16,15,1,vec(0,0,-36),ang(35,0,0),Scale,Model,Material,Color)


#----------------------
#--RearLegs
HN++,HT[HN,table] = table(17,2,1,vec(-29,-20,10),Ang,Scale,Model,Material,Color)
HN++,HT[HN,table] = table(18,17,1,Vec,Ang,Scale,Model,Material,Color)
HN++,HT[HN,table] = table(19,18,1,vec(0,0,-34),ang(90,0,0),Scale,Model,Material,Color)
HN++,HT[HN,table] = table(20,19,1,vec(0,0,-22),ang(-110,0,0),Scale,Model,Material,Color)
HN++,HT[HN,table] = table(21,20,1,vec(0,0,-36),ang(20,0,0),Scale,Model,Material,Color)

HN++,HT[HN,table] = table(22,2,1,vec(-29,20,10),Ang,Scale,Model,Material,Color)
HN++,HT[HN,table] = table(23,22,1,Vec,Ang,Scale,Model,Material,Color)
HN++,HT[HN,table] = table(24,23,1,vec(0,0,-34),ang(90,0,0),Scale,Model,Material,Color)
HN++,HT[HN,table] = table(25,24,1,vec(0,0,-22),ang(-110,0,0),Scale,Model,Material,Color)
HN++,HT[HN,table] = table(26,25,1,vec(0,0,-36),ang(20,0,0),Scale,Model,Material,Color)

if(Skeleton){


local Color = vec4(35,35,35,255)
local Scale = Scale-1


#----------------------
#--Legs
HN++,HT[HN,table] = table(500,10,1,vec(0,0,-17),Ang,Scale:setZ(34),Model,Material,Color)
HN++,HT[HN,table] = table(501,11,1,vec(0,0,-18),Ang,Scale:setZ(36),Model,Material,Color)
HN++,HT[HN,table] = table(502,12,1,vec(3,0,0),Ang,Scale:setX(6),Model,Material,Color)

HN++,HT[HN,table] = table(503,14,1,vec(0,0,-17),Ang,Scale:setZ(34),Model,Material,Color)
HN++,HT[HN,table] = table(504,15,1,vec(0,0,-18),Ang,Scale:setZ(36),Model,Material,Color)
HN++,HT[HN,table] = table(505,16,1,vec(3,0,0),Ang,Scale:setX(6),Model,Material,Color)

HN++,HT[HN,table] = table(506,18,1,vec(0,0,-17),Ang,Scale:setZ(34),Model,Material,Color)
HN++,HT[HN,table] = table(507,19,1,vec(0,0,-11),Ang,Scale:setZ(22),Model,Material,Color)
HN++,HT[HN,table] = table(508,20,1,vec(0,0,-18),Ang,Scale:setZ(36),Model,Material,Color)
HN++,HT[HN,table] = table(509,21,1,vec(3,0,0),Ang,Scale:setX(6),Model,Material,Color)

HN++,HT[HN,table] = table(510,23,1,vec(0,0,-17),Ang,Scale:setZ(34),Model,Material,Color)
HN++,HT[HN,table] = table(511,24,1,vec(0,0,-11),Ang,Scale:setZ(22),Model,Material,Color)
HN++,HT[HN,table] = table(512,25,1,vec(0,0,-18),Ang,Scale:setZ(36),Model,Material,Color)
HN++,HT[HN,table] = table(513,26,1,vec(3,0,0),Ang,Scale:setX(6),Model,Material,Color)


#----------------------
#--Body
HN++,HT[HN,table] = table(514,1,1,vec(-6.5,0,2.5),ang(21,0,0),Scale:setX(13),Model,Material,Color)
HN++,HT[HN,table] = table(515,2,1,vec(-24,0,9),ang(20.5,0,0),Scale:setX(48),Model,Material,Color)


#----------------------
#--Tail
HN++,HT[HN,table] = table(516,7,1,vec(-20,0,0):rotate(-30,0,0),ang(-30,0,0),Scale:setX(40),Model,Material,Color)
HN++,HT[HN,table] = table(517,8,1,vec(-20,0,0),Ang,Scale:setX(40),Model,Material,Color)


#----------------------
#--Neck
HN++,HT[HN,table] = table(518,1,1,vec(20,0,0),Ang,Scale:setX(40),Model,Material,Color)
HN++,HT[HN,table] = table(519,3,1,vec(10,0,-1.5),ang(8.5,0,0),Scale:setX(20),Model,Material,Color)


}
else{


local Default = vec(1,1,1)

local BMat1 = "models/props_debris/plasterwall040c"
local BMat2 = "models/props_debris/plasterwall040c"

local BCol1 = vec4(hsv2rgb(220,0.15,0.20),255)
local BCol2 = vec4(hsv2rgb(220,0.25,0.25),255)
local BCol4 = vec4(hsv2rgb(220,0.35,0.30),255)
local BCol3 = vec4(175,175,175,255)


#----------------------
#--Head
HN++,HT[HN,table] = table(27,4,0,vec(-3,0,0),ang(10,0,0),vec(1.625,3.75,2.25),"models/sprops/geometry/fhex_12.mdl",BMat1,BCol1)
HN++,HT[HN,table] = table(28,4,0,vec(5,0,-9),ang(35,0,180),vec(2,3.75,2.75),"models/sprops/geometry/qhex_12.mdl",BMat1,BCol1)
HN++,HT[HN,table] = table(29,4,0,vec(15,0,-7),ang(20,0,0),vec(1,1.875,0.75),"models/sprops/rectangles/size_1_5/rect_6x12x3.mdl",BMat1,BCol1)
HN++,HT[HN,table] = table(30,29,0,vec(7.9,0,1.45),ang(90,180,180),vec(0.875,3.75,0.75),"models/sprops/geometry/qhex_12.mdl",BMat1,BCol1)
HN++,HT[HN,table] = table(31,4,0,vec(-3,0,-15),ang(10,0,180),vec(1.5,3,2),"models/sprops/geometry/qhex_12.mdl",BMat1,BCol2)


#----------------------
#--Visor
HN++,HT[HN,table] = table(32,4,1,vec(4.75,0,-0.1),ang(-5,0,90),vec(20,20,9),"cylinder","models/shiny",vec4(255,125,20,255))
HN++,HT[HN,table] = table(33,4,1,vec(16,0,-5.5),ang(40,0,0),vec(12,9,8),"cube","models/shiny",vec4(255,125,20,255))

CN++,CT[CN,table] = table(33,1,vec(0,0,-2),vec(-0.35,0,1))


#----------------------
#--Jaw
HN++,HT[HN,table] = table(34,5,0,vec(4.5,0,-4),ang(100,0,0),vec(1.25,3,4),"models/sprops/geometry/qhex_12.mdl",BMat1,BCol2)


#----------------------
#--Teeth
HN++,HT[HN,table] = table(35,4,0,vec(18,4,-10),ang(130,0,0),vec(0.4,0.4,0.4),"models/Gibs/Antlion_gib_small_1.mdl",BMat2,BCol3)
HN++,HT[HN,table] = table(36,4,0,vec(16,4,-9.25),ang(130,0,0),vec(0.4,0.4,0.4),"models/Gibs/Antlion_gib_small_1.mdl",BMat2,BCol3)
HN++,HT[HN,table] = table(37,4,0,vec(14,4,-8.5),ang(130,0,0),vec(0.4,0.4,0.4),"models/Gibs/Antlion_gib_small_1.mdl",BMat2,BCol3)
HN++,HT[HN,table] = table(38,4,0,vec(18,-4,-10),ang(130,0,0),vec(0.4,0.4,0.4),"models/Gibs/Antlion_gib_small_1.mdl",BMat2,BCol3)
HN++,HT[HN,table] = table(39,4,0,vec(16,-4,-9.25),ang(130,0,0),vec(0.4,0.4,0.4),"models/Gibs/Antlion_gib_small_1.mdl",BMat2,BCol3)
HN++,HT[HN,table] = table(40,4,0,vec(14,-4,-8.5),ang(130,0,0),vec(0.4,0.4,0.4),"models/Gibs/Antlion_gib_small_1.mdl",BMat2,BCol3)

HN++,HT[HN,table] = table(41,5,0,vec(14,2,-1),ang(-50,0,180),vec(0.4,0.4,0.4),"models/Gibs/Antlion_gib_small_1.mdl",BMat2,BCol3)
HN++,HT[HN,table] = table(42,5,0,vec(11,2,-0.75),ang(-50,0,180),vec(0.4,0.4,0.4),"models/Gibs/Antlion_gib_small_1.mdl",BMat2,BCol3)
HN++,HT[HN,table] = table(43,5,0,vec(14,-2,-1),ang(-50,0,180),vec(0.4,0.4,0.4),"models/Gibs/Antlion_gib_small_1.mdl",BMat2,BCol3)
HN++,HT[HN,table] = table(44,5,0,vec(11,-2,-0.75),ang(-50,0,180),vec(0.4,0.4,0.4),"models/Gibs/Antlion_gib_small_1.mdl",BMat2,BCol3)


#----------------------
#--Ears
HN++,HT[HN,table] = table(45,6,0,vec(0.75,6,10),ang(0,-90,0),vec(1,0.425,0.75),"models/xqm/jettailpiece1.mdl",BMat1,BCol2)
HN++,HT[HN,table] = table(46,6,0,vec(0.75,-6,10),ang(0,-90,0),vec(1,0.425,0.75),"models/xqm/jettailpiece1.mdl",BMat1,BCol2)
HN++,HT[HN,table] = table(47,6,0,vec(0,0,0),ang(90,0,0),vec(1.2,5,1.5),"models/sprops/geometry/fhex_12.mdl",BMat1,BCol2)


#----------------------
#--Neck
HN++,HT[HN,table] = table(48,3,0,vec(-5,0,-20),ang(10,0,180),vec(4,6,2),"models/sprops/geometry/qhex_12.mdl",BMat1,BCol4)
HN++,HT[HN,table] = table(49,48,0,vec(0,0,-17.2),ang(0,0,0),vec(1,1.5,2),"models/sprops/cuboids/height12/size_1/cube_12x24x12.mdl",BMat1,BCol4)
HN++,HT[HN,table] = table(50,48,0,vec(-3,0,-34.4),ang(0,0,180),vec(5,6,2),"models/sprops/geometry/qhex_12.mdl",BMat1,BCol4)
HN++,HT[HN,table] = table(51,3,0,vec(0,9.5,-3),ang(10,0,0),vec(2,0.5,1.25),"models/sprops/geometry/fhex_18.mdl",BMat1,BCol1)
HN++,HT[HN,table] = table(52,3,0,vec(0,-9.5,-3),ang(10,0,0),vec(2,0.5,1.25),"models/sprops/geometry/fhex_18.mdl",BMat1,BCol1)


#----------------------
#--Torso
HN++,HT[HN,table] = table(53,1,0,vec(17,0,4),ang(0,0,90),vec(1.5,1.5,1.8),"cylinder",BMat1,BCol4)
HN++,HT[HN,table] = table(54,1,0,vec(17,0,4),ang(0,0,90),vec(0.75,0.75,2.5),"cylinder",BMat1,BCol4)
HN++,HT[HN,table] = table(55,1,0,vec(15,0,10),ang(10,0,180),vec(2,5,1),"models/sprops/geometry/fhex_24.mdl",BMat1,BCol1)
HN++,HT[HN,table] = table(56,1,0,vec(5,0,-7),ang(10,0,0),vec(1.5,1.5,2),"models/sprops/cuboids/height12/size_1/cube_12x24x12.mdl",BMat1,BCol4)
HN++,HT[HN,table] = table(57,56,0,vec(-20,0,0),ang(90,180,0),vec(1,5,0.5),"models/sprops/geometry/hhex_24.mdl",BMat1,BCol4)
HN++,HT[HN,table] = table(58,56,0,vec(0,0,-14),ang(180,180,0),vec(1.5,5,0.5),"models/sprops/geometry/hhex_24.mdl",BMat1,BCol4)


#----------------------
#--Rear
HN++,HT[HN,table] = table(59,2,0,vec(-30,0,8),ang(20,0,90),vec(1.5,1.5,1.8),"cylinder",BMat1,BCol4)
HN++,HT[HN,table] = table(60,2,0,vec(-30,0,8),ang(0,0,90),vec(0.75,0.75,2.5),"cylinder",BMat1,BCol4)
HN++,HT[HN,table] = table(61,2,0,vec(-22,0,-1):rotate(18,0,0),ang(18,0,0),vec(1.25,1,2),"models/sprops/cuboids/height06/size_2/cube_12x48x6.mdl",BMat1,BCol4)
HN++,HT[HN,table] = table(62,2,0,vec(-32,0,-1):rotate(9,0,0),ang(18,0,0),vec(1.75,4,1.5),"models/sprops/geometry/fhex_18.mdl",BMat1,BCol4)
HN++,HT[HN,table] = table(63,62,0,vec(16,0,0),ang(0,0,0),vec(1.5,4,1),"models/sprops/geometry/fhex_18.mdl",BMat1,BCol4)
HN++,HT[HN,table] = table(64,59,0,vec(-11,10,0),ang(0,180,-90),vec(6,6.25,1.5),"models/sprops/geometry/qhex_12.mdl",BMat1,BCol1)
HN++,HT[HN,table] = table(65,64,0,vec(-21.75,0,5.1),ang(90,0,180),vec(3,6.25,1.5),"models/sprops/geometry/qhex_12.mdl",BMat1,BCol1)


#----------------------
#--Tail
HN++,HT[HN,table] = table(66,7,0,vec(-3,0,3),ang(90,0,0),vec(1,2,1.25),"models/sprops/geometry/fhex_12.mdl",BMat2,BCol3)
HN++,HT[HN,table] = table(67,7,0,vec(-25,0,8):rotate(-35,0,0),ang(-35,0,0),vec(1,1.5,1),"models/sprops/rectangles/size_1_5/rect_6x42x3.mdl",BMat1,BCol1)
HN++,HT[HN,table] = table(68,67,0,vec(0,0,-7.5),ang(0,0,180),vec(1,3,1),"models/sprops/triangles/right/size_1/rtri_12x42.mdl",BMat1,BCol1)

HN++,HT[HN,table] = table(69,8,0,vec(-18,0,3),ang(0,180,0),vec(1,1.5,1),"models/sprops/rectangles/size_1_5/rect_6x42x3.mdl",BMat1,BCol1)
HN++,HT[HN,table] = table(70,69,0,vec(0,0,-7.5),ang(0,0,180),vec(1,3,1),"models/sprops/triangles/right/size_1/rtri_12x42.mdl",BMat1,BCol1)


#----------------------
#--FrontRightLeg
HN++,HT[HN,table] = table(71,10,1,vec(-10,0,-3),ang(0,0,90),vec(15.6,15.6,15),"cylinder",BMat1,BCol1)
HN++,HT[HN,table] = table(72,71,1,vec(7.8,0,0),ang(0,0,0),vec(15.6,15.6,15),"",BMat1,BCol1)
HN++,HT[HN,table] = table(73,71,1,vec(15.6,0,0),ang(0,0,0),vec(15.6,15.6,15),"cylinder",BMat1,BCol1)
HN++,HT[HN,table] = table(74,10,0,vec(-5,0,10),ang(-60,0,0),vec(1,4,5),"models/sprops/geometry/hhex_12.mdl",BMat1,BCol1)
HN++,HT[HN,table] = table(75,10,0,vec(10,0,-12),ang(0,0,180),vec(1,4,4),"models/sprops/geometry/hhex_12.mdl",BMat1,BCol1)
HN++,HT[HN,table] = table(76,10,0,vec(0,0,-20),ang(0,0,180),vec(2,3.5,6),"models/sprops/geometry/hhex_12.mdl",BMat1,BCol4)
HN++,HT[HN,table] = table(77,10,0,vec(-12,0,2),ang(135,0,180),vec(1.5,3.5,2),"models/sprops/geometry/hhex_12.mdl",BMat1,BCol4)
HN++,HT[HN,table] = table(78,10,1,vec(2,0,-12),ang(0,0,90),vec(10,10,18),"cylinder",BMat2,BCol3)

HN++,HT[HN,table] = table(79,11,1,vec(0,0,0),ang(90,0,90),vec(18,18,3),"cylinder",BMat2,BCol3)
HN++,HT[HN,table] = table(80,11,1,vec(0,0,0),ang(0,0,90),vec(17,17,13),"cylinder",BMat1,BCol1)
HN++,HT[HN,table] = table(81,79,1,vec(18,0,0),ang(0,0,0),vec(36,5,10),"",BMat1,BCol4)
HN++,HT[HN,table] = table(82,79,0,vec(10,4.75,0),ang(0,0,-90),vec(3,3,1),"models/sprops/geometry/qhex_12.mdl",BMat1,BCol4)
HN++,HT[HN,table] = table(83,79,1,vec(30,2,0),ang(0,0,0),vec(10,8,10),"",BMat1,BCol4)
HN++,HT[HN,table] = table(84,79,0,vec(36,-2,0),ang(0,-90,-90),vec(1.2,3.325,2),"models/sprops/geometry/hhex_12.mdl",BMat1,BCol4)
HN++,HT[HN,table] = table(85,79,0,vec(10,-3,0),ang(0,180,-90),vec(1.75,3,2),"models/sprops/geometry/hhex_12.mdl",BMat1,BCol4)
HN++,HT[HN,table] = table(86,79,1,vec(23.5,-6,3),ang(0,90,90),vec(3,3,18),"cylinder",BMat2,BCol3)
HN++,HT[HN,table] = table(87,79,1,vec(23.5,-6,-3),ang(0,90,90),vec(3,3,18),"cylinder",BMat2,BCol3)

HN++,HT[HN,table] = table(88,12,0,vec(-2,0,-4),ang(0,180,0),vec(2,4.5,1),"models/sprops/geometry/qhex_18.mdl",BMat1,BCol1)
HN++,HT[HN,table] = table(89,12,0,vec(12,0,-4),ang(0,0,0),vec(1.5,0.75,0.9),"models/sprops/geometry/qhex_18.mdl",BMat2,BCol3)
HN++,HT[HN,table] = table(90,12,0,vec(12,0,-4):rotate(0,26,0),ang(0,15,0),vec(1.5,0.75,0.9),"models/sprops/geometry/qhex_18.mdl",BMat2,BCol3)
HN++,HT[HN,table] = table(91,12,0,vec(12,0,-4):rotate(0,-26,0),ang(0,-15,0),vec(1.5,0.75,0.9),"models/sprops/geometry/qhex_18.mdl",BMat2,BCol3)


#----------------------
#--FrontLeftLeg
HN++,HT[HN,table] = table(92,14,1,vec(-10,0,-3),ang(0,0,90),vec(15.6,15.6,15),"cylinder",BMat1,BCol1)
HN++,HT[HN,table] = table(93,92,1,vec(7.8,0,0),ang(0,0,0),vec(15.6,15.6,15),"",BMat1,BCol1)
HN++,HT[HN,table] = table(94,92,1,vec(15.6,0,0),ang(0,0,0),vec(15.6,15.6,15),"cylinder",BMat1,BCol1)
HN++,HT[HN,table] = table(95,14,0,vec(-5,0,10),ang(-60,0,0),vec(1,4,5),"models/sprops/geometry/hhex_12.mdl",BMat1,BCol1)
HN++,HT[HN,table] = table(96,14,0,vec(10,0,-12),ang(0,0,180),vec(1,4,4),"models/sprops/geometry/hhex_12.mdl",BMat1,BCol1)
HN++,HT[HN,table] = table(97,14,0,vec(0,0,-20),ang(0,0,180),vec(2,3.5,6),"models/sprops/geometry/hhex_12.mdl",BMat1,BCol4)
HN++,HT[HN,table] = table(98,14,0,vec(-12,0,2),ang(135,0,180),vec(1.5,3.5,2),"models/sprops/geometry/hhex_12.mdl",BMat1,BCol4)
HN++,HT[HN,table] = table(99,14,1,vec(2,0,-12),ang(0,0,90),vec(10,10,18),"cylinder",BMat2,BCol3)

HN++,HT[HN,table] = table(100,15,1,vec(0,0,0),ang(90,0,90),vec(18,18,3),"cylinder",BMat2,BCol3)
HN++,HT[HN,table] = table(101,15,1,vec(0,0,0),ang(0,0,90),vec(17,17,13),"cylinder",BMat1,BCol1)
HN++,HT[HN,table] = table(102,100,1,vec(18,0,0),ang(0,0,0),vec(36,5,10),"",BMat1,BCol4)
HN++,HT[HN,table] = table(103,100,0,vec(10,4.75,0),ang(0,0,-90),vec(3,3,1),"models/sprops/geometry/qhex_12.mdl",BMat1,BCol4)
HN++,HT[HN,table] = table(104,100,1,vec(30,2,0),ang(0,0,0),vec(10,8,10),"",BMat1,BCol4)
HN++,HT[HN,table] = table(105,100,0,vec(36,-2,0),ang(0,-90,-90),vec(1.2,3.325,2),"models/sprops/geometry/hhex_12.mdl",BMat1,BCol4)
HN++,HT[HN,table] = table(106,100,0,vec(10,-3,0),ang(0,180,-90),vec(1.75,3,2),"models/sprops/geometry/hhex_12.mdl",BMat1,BCol4)
HN++,HT[HN,table] = table(107,100,1,vec(23.5,-6,3),ang(0,90,90),vec(3,3,18),"cylinder",BMat2,BCol3)
HN++,HT[HN,table] = table(108,100,1,vec(23.5,-6,-3),ang(0,90,90),vec(3,3,18),"cylinder",BMat2,BCol3)

HN++,HT[HN,table] = table(109,16,0,vec(-2,0,-4),ang(0,180,0),vec(2,4.5,1),"models/sprops/geometry/qhex_18.mdl",BMat1,BCol1)
HN++,HT[HN,table] = table(110,16,0,vec(12,0,-4),ang(0,0,0),vec(1.5,0.75,0.9),"models/sprops/geometry/qhex_18.mdl",BMat2,BCol3)
HN++,HT[HN,table] = table(111,16,0,vec(12,0,-4):rotate(0,26,0),ang(0,15,0),vec(1.5,0.75,0.9),"models/sprops/geometry/qhex_18.mdl",BMat2,BCol3)
HN++,HT[HN,table] = table(112,16,0,vec(12,0,-4):rotate(0,-26,0),ang(0,-15,0),vec(1.5,0.75,0.9),"models/sprops/geometry/qhex_18.mdl",BMat2,BCol3)


#----------------------
#--RearRightLeg
HN++,HT[HN,table] = table(113,18,1,vec(-10,0,-3),ang(0,0,90),vec(15.6,15.6,15),"cylinder",BMat1,BCol1)
HN++,HT[HN,table] = table(114,113,1,vec(7.8,0,0),ang(0,0,0),vec(15.6,15.6,15),"",BMat1,BCol1)
HN++,HT[HN,table] = table(115,113,1,vec(15.6,0,0),ang(0,0,0),vec(15.6,15.6,15),"cylinder",BMat1,BCol1)
HN++,HT[HN,table] = table(116,18,0,vec(-5,0,10),ang(-60,0,0),vec(1,4,5),"models/sprops/geometry/hhex_12.mdl",BMat1,BCol1)
HN++,HT[HN,table] = table(117,18,0,vec(10,0,-12),ang(0,0,180),vec(1,4,4),"models/sprops/geometry/hhex_12.mdl",BMat1,BCol1)
HN++,HT[HN,table] = table(118,18,0,vec(0,0,-20),ang(0,0,180),vec(2,3.5,6),"models/sprops/geometry/hhex_12.mdl",BMat1,BCol4)
HN++,HT[HN,table] = table(119,18,0,vec(-12,0,2),ang(135,0,180),vec(1.5,3.5,2),"models/sprops/geometry/hhex_12.mdl",BMat1,BCol4)
HN++,HT[HN,table] = table(120,18,1,vec(2,0,-12),ang(0,0,90),vec(10,10,18),"cylinder",BMat2,BCol3)

HN++,HT[HN,table] = table(121,19,1,vec(0,0,0),ang(90,0,90),vec(18,18,3),"cylinder",BMat2,BCol3)
HN++,HT[HN,table] = table(122,19,1,vec(0,0,0),ang(0,0,90),vec(17,17,13),"cylinder",BMat1,BCol1)
HN++,HT[HN,table] = table(123,19,0,vec(0,0,-11),ang(0,0,180),vec(1.25,3,3.75),"models/sprops/geometry/hhex_12.mdl",BMat1,BCol4)

HN++,HT[HN,table] = table(124,20,1,vec(0,0,0),ang(90,0,90),vec(13,13,3),"cylinder",BMat2,BCol3)
HN++,HT[HN,table] = table(125,20,1,vec(0,0,0),ang(0,0,90),vec(12,12,12),"cylinder",BMat1,BCol1)
HN++,HT[HN,table] = table(126,124,1,vec(18,0,0),ang(0,0,0),vec(36,5,10),"",BMat1,BCol4)
HN++,HT[HN,table] = table(127,124,0,vec(10,4.75,0),ang(0,0,-90),vec(3,3,1),"models/sprops/geometry/qhex_12.mdl",BMat1,BCol4)
HN++,HT[HN,table] = table(128,124,1,vec(30,2,0),ang(0,0,0),vec(10,8,10),"",BMat1,BCol4)
HN++,HT[HN,table] = table(129,124,0,vec(36,-2,0),ang(0,-90,-90),vec(1.2,3.325,2),"models/sprops/geometry/hhex_12.mdl",BMat1,BCol4)
HN++,HT[HN,table] = table(130,124,0,vec(10,-3,0),ang(0,180,-90),vec(1.75,3,2),"models/sprops/geometry/hhex_12.mdl",BMat1,BCol4)
HN++,HT[HN,table] = table(131,124,1,vec(23.5,-6,3),ang(0,90,90),vec(3,3,18),"cylinder",BMat2,BCol3)
HN++,HT[HN,table] = table(132,124,1,vec(23.5,-6,-3),ang(0,90,90),vec(3,3,18),"cylinder",BMat2,BCol3)

HN++,HT[HN,table] = table(133,21,0,vec(-2,0,-4),ang(0,180,0),vec(2,4.5,1),"models/sprops/geometry/qhex_18.mdl",BMat1,BCol1)
HN++,HT[HN,table] = table(134,21,0,vec(12,0,-4),ang(0,0,0),vec(1.5,0.75,0.9),"models/sprops/geometry/qhex_18.mdl",BMat2,BCol3)
HN++,HT[HN,table] = table(135,21,0,vec(12,0,-4):rotate(0,26,0),ang(0,15,0),vec(1.5,0.75,0.9),"models/sprops/geometry/qhex_18.mdl",BMat2,BCol3)
HN++,HT[HN,table] = table(136,21,0,vec(12,0,-4):rotate(0,-26,0),ang(0,-15,0),vec(1.5,0.75,0.9),"models/sprops/geometry/qhex_18.mdl",BMat2,BCol3)


#----------------------
#--RearLeftLeg
HN++,HT[HN,table] = table(137,23,1,vec(-10,0,-3),ang(0,0,90),vec(15.6,15.6,15),"cylinder",BMat1,BCol1)
HN++,HT[HN,table] = table(138,137,1,vec(7.8,0,0),ang(0,0,0),vec(15.6,15.6,15),"",BMat1,BCol1)
HN++,HT[HN,table] = table(139,137,1,vec(15.6,0,0),ang(0,0,0),vec(15.6,15.6,15),"cylinder",BMat1,BCol1)
HN++,HT[HN,table] = table(140,23,0,vec(-5,0,10),ang(-60,0,0),vec(1,4,5),"models/sprops/geometry/hhex_12.mdl",BMat1,BCol1)
HN++,HT[HN,table] = table(141,23,0,vec(10,0,-12),ang(0,0,180),vec(1,4,4),"models/sprops/geometry/hhex_12.mdl",BMat1,BCol1)
HN++,HT[HN,table] = table(142,23,0,vec(0,0,-20),ang(0,0,180),vec(2,3.5,6),"models/sprops/geometry/hhex_12.mdl",BMat1,BCol4)
HN++,HT[HN,table] = table(143,23,0,vec(-12,0,2),ang(135,0,180),vec(1.5,3.5,2),"models/sprops/geometry/hhex_12.mdl",BMat1,BCol4)
HN++,HT[HN,table] = table(144,23,1,vec(2,0,-12),ang(0,0,90),vec(10,10,18),"cylinder",BMat2,BCol3)

HN++,HT[HN,table] = table(145,24,1,vec(0,0,0),ang(90,0,90),vec(18,18,3),"cylinder",BMat2,BCol3)
HN++,HT[HN,table] = table(146,24,1,vec(0,0,0),ang(0,0,90),vec(17,17,13),"cylinder",BMat1,BCol1)
HN++,HT[HN,table] = table(147,24,0,vec(0,0,-11),ang(0,0,180),vec(1.25,3,3.75),"models/sprops/geometry/hhex_12.mdl",BMat1,BCol4)

HN++,HT[HN,table] = table(148,25,1,vec(0,0,0),ang(90,0,90),vec(13,13,3),"cylinder",BMat2,BCol3)
HN++,HT[HN,table] = table(149,25,1,vec(0,0,0),ang(0,0,90),vec(12,12,12),"cylinder",BMat1,BCol1)
HN++,HT[HN,table] = table(150,148,1,vec(18,0,0),ang(0,0,0),vec(36,5,10),"",BMat1,BCol4)
HN++,HT[HN,table] = table(151,148,0,vec(10,4.75,0),ang(0,0,-90),vec(3,3,1),"models/sprops/geometry/qhex_12.mdl",BMat1,BCol4)
HN++,HT[HN,table] = table(152,148,1,vec(30,2,0),ang(0,0,0),vec(10,8,10),"",BMat1,BCol4)
HN++,HT[HN,table] = table(153,148,0,vec(36,-2,0),ang(0,-90,-90),vec(1.2,3.325,2),"models/sprops/geometry/hhex_12.mdl",BMat1,BCol4)
HN++,HT[HN,table] = table(154,148,0,vec(10,-3,0),ang(0,180,-90),vec(1.75,3,2),"models/sprops/geometry/hhex_12.mdl",BMat1,BCol4)
HN++,HT[HN,table] = table(155,148,1,vec(23.5,-6,3),ang(0,90,90),vec(3,3,18),"cylinder",BMat2,BCol3)
HN++,HT[HN,table] = table(156,148,1,vec(23.5,-6,-3),ang(0,90,90),vec(3,3,18),"cylinder",BMat2,BCol3)

HN++,HT[HN,table] = table(157,26,0,vec(-2,0,-4),ang(0,180,0),vec(2,4.5,1),"models/sprops/geometry/qhex_18.mdl",BMat1,BCol1)
HN++,HT[HN,table] = table(158,26,0,vec(12,0,-4),ang(0,0,0),vec(1.5,0.75,0.9),"models/sprops/geometry/qhex_18.mdl",BMat2,BCol3)
HN++,HT[HN,table] = table(159,26,0,vec(12,0,-4):rotate(0,26,0),ang(0,15,0),vec(1.5,0.75,0.9),"models/sprops/geometry/qhex_18.mdl",BMat2,BCol3)
HN++,HT[HN,table] = table(160,26,0,vec(12,0,-4):rotate(0,-26,0),ang(0,-15,0),vec(1.5,0.75,0.9),"models/sprops/geometry/qhex_18.mdl",BMat2,BCol3)


#----------------------
#--TopBase
HN++,HT[HN,table] = table(161,61,1,vec(10,0,5),ang(0,0,0),vec(11,11,8),"cylinder",BMat2,BCol3)
HN++,HT[HN,table] = table(162,161,1,vec(0,0,10),ang(0,0,0),vec(7,7,12),"cylinder",BMat2,BCol3)
HN++,HT[HN,table] = table(163,162,1,vec(0,0,1),ang(0,0,90),vec(4,4,25),"cylinder",BMat2,BCol3)


#----------------------
#--Thrusters
HN++,HT[HN,table] = table(164,162,1,vec(7,12,1),ang(12,0,0),vec(24,7,14),"",BMat1,BCol1)
HN++,HT[HN,table] = table(165,164,0,vec(-12,0,0),ang(0,-90,90),vec(0.25,0.25,0.2),"models/props_borealis/mooring_cleat01.mdl",BMat1,BCol1)
HN++,HT[HN,table] = table(166,164,0,vec(-37,0,3.5),ang(180,0,180),vec(5,1.25,1.25),"models/sprops/trans/exhaust/tip_3.mdl",BMat2,BCol3)
HN++,HT[HN,table] = table(167,164,0,vec(-37,0,-3.5),ang(180,0,0),vec(5,1.25,1.25),"models/sprops/trans/exhaust/tip_3.mdl",BMat2,BCol3)

HN++,HT[HN,table] = table(168,162,1,vec(7,-12,1),ang(12,0,0),vec(24,7,14),"",BMat1,BCol1)
HN++,HT[HN,table] = table(169,168,0,vec(-12,0,0),ang(0,-90,90),vec(0.25,0.25,0.2),"models/props_borealis/mooring_cleat01.mdl",BMat1,BCol1)
HN++,HT[HN,table] = table(170,168,0,vec(-37,0,3.5),ang(180,0,180),vec(5,1.25,1.25),"models/sprops/trans/exhaust/tip_3.mdl",BMat2,BCol3)
HN++,HT[HN,table] = table(171,168,0,vec(-37,0,-3.5),ang(180,0,0),vec(5,1.25,1.25),"models/sprops/trans/exhaust/tip_3.mdl",BMat2,BCol3)

local FlameMat = "models/debug/debugwhite"
local FlameColA = vec4(hsv2rgb(220,1,1),150)

HN++,HT[HN,table] = table(172,164,0,vec(-30,0,3.5),ang(-90,0,0),vec(),"models/sprops/misc/cones/size_1/cone_12x48.mdl",FlameMat,FlameColA)
HN++,HT[HN,table] = table(173,164,0,vec(-30,0,-3.5),ang(-90,0,0),vec(),"models/sprops/misc/cones/size_1/cone_12x48.mdl",FlameMat,FlameColA)
HN++,HT[HN,table] = table(174,168,0,vec(-30,0,3.5),ang(-90,0,0),vec(),"models/sprops/misc/cones/size_1/cone_12x48.mdl",FlameMat,FlameColA)
HN++,HT[HN,table] = table(175,168,0,vec(-30,0,-3.5),ang(-90,0,0),vec(),"models/sprops/misc/cones/size_1/cone_12x48.mdl",FlameMat,FlameColA)
#HN++,HT[HN,table] = table(176,164,0,vec(-50,-12,0),ang(-90,0,0),vec(),"models/sprops/misc/pyramids/rsize_1/rpyr_12x48.mdl","sprites/heatwave",vec4(255,255,255,255))


#----------------------
#--MainCannons
HN++,HT[HN,table] = table(177,163,0,vec(0,0,0),ang(0,0,-90),vec(2,2,2.25),"models/props_wasteland/panel_leverHandle001a.mdl",BMat2,BCol3)
HN++,HT[HN,table] = table(178,163,0,vec(0,22,8),ang(0,0,-90),vec(1,1,1),"models/tankgun/tankgun_short_75mm.mdl",BMat1,BCol2)
HN++,HT[HN,table] = table(179,163,0,vec(0,22,-8),ang(0,0,-90),vec(1,1,1),"models/tankgun/tankgun_short_75mm.mdl",BMat1,BCol2)

HN++,HT[HN,table] = table(180,163,0,vec(-23,18,-17),ang(0,180,-90),vec(3,1,1.35),"models/sprops/geometry/t_qhex_36.mdl",BMat1,BCol1)
HN++,HT[HN,table] = table(181,163,0,vec(20,24,-17),ang(0,15,0),vec(2,1.35,1),"models/sprops/rectangles_thin/size_2/rect_12x30x1_5.mdl",BMat1,BCol1)
HN++,HT[HN,table] = table(182,163,0,vec(26,16.5,-17),ang(0,15,90),vec(1.6,1,1),"models/sprops/triangles_thin/right/size_0_5/t_rtri_6x30.mdl",BMat1,BCol1)
HN++,HT[HN,table] = table(183,163,0,vec(-23,18,17),ang(0,180,-90),vec(3,1,1.35),"models/sprops/geometry/t_qhex_36.mdl",BMat1,BCol1)
HN++,HT[HN,table] = table(184,163,0,vec(20,24,17),ang(0,15,0),vec(2,1.35,1),"models/sprops/rectangles_thin/size_2/rect_12x30x1_5.mdl",BMat1,BCol1)
HN++,HT[HN,table] = table(185,163,0,vec(26,16.5,17),ang(0,15,90),vec(1.6,1,1),"models/sprops/triangles_thin/right/size_0_5/t_rtri_6x30.mdl",BMat1,BCol1)


#----------------------
#--RocketPods
HN++,HT[HN,table] = table(186,14,0,vec(2,12,-12),ang(180,0,90),vec(0.45,0.9,0.325),"models/missiles/minipod.mdl",BMat1,BCol4)
HN++,HT[HN,table] = table(187,10,0,vec(2,-12,-12),ang(180,0,-90),vec(0.45,0.9,0.325),"models/missiles/minipod.mdl",BMat1,BCol4)

HN++,HT[HN,table] = table(188,186,0,vec(-3,-2,0),ang(180,0,0),vec(0.25,0.65,0.65),"models/missiles/aim9.mdl",BMat2,BCol3)
HN++,HT[HN,table] = table(189,186,0,vec(-3,2,0),ang(180,0,0),vec(0.25,0.65,0.65),"models/missiles/aim9.mdl",BMat2,BCol3)
HN++,HT[HN,table] = table(190,186,0,vec(-3,6,0),ang(180,0,0),vec(0.25,0.65,0.65),"models/missiles/aim9.mdl",BMat2,BCol3)
HN++,HT[HN,table] = table(191,186,0,vec(-3,-6,0),ang(180,0,0),vec(0.25,0.65,0.65),"models/missiles/aim9.mdl",BMat2,BCol3)

CN++,CT[CN,table] = table(188,1,vec(6,0,0),vec(1,0,0))
CN++,CT[CN,table] = table(189,1,vec(6,0,0),vec(1,0,0))
CN++,CT[CN,table] = table(190,1,vec(6,0,0),vec(1,0,0))
CN++,CT[CN,table] = table(191,1,vec(6,0,0),vec(1,0,0))

HN++,HT[HN,table] = table(192,187,0,vec(-3,-6,0),ang(180,0,0),vec(0.25,0.65,0.65),"models/missiles/aim9.mdl",BMat2,BCol3)
HN++,HT[HN,table] = table(193,187,0,vec(-3,-2,0),ang(180,0,0),vec(0.25,0.65,0.65),"models/missiles/aim9.mdl",BMat2,BCol3)
HN++,HT[HN,table] = table(194,187,0,vec(-3,2,0),ang(180,0,0),vec(0.25,0.65,0.65),"models/missiles/aim9.mdl",BMat2,BCol3)
HN++,HT[HN,table] = table(195,187,0,vec(-3,6,0),ang(180,0,0),vec(0.25,0.65,0.65),"models/missiles/aim9.mdl",BMat2,BCol3)

CN++,CT[CN,table] = table(192,1,vec(6,0,0),vec(1,0,0))
CN++,CT[CN,table] = table(193,1,vec(6,0,0),vec(1,0,0))
CN++,CT[CN,table] = table(194,1,vec(6,0,0),vec(1,0,0))
CN++,CT[CN,table] = table(195,1,vec(6,0,0),vec(1,0,0))


#----------------------
#--Laser
local LaserM1 = "models/debug/debugwhite"
local LaserM2 = "models/alyx/emptool_glow"
local LaserModel = "models/props_trainstation/trainstation_column001.mdl"

HN++,HT[HN,table] = table(196,4,0,vec(10,0,-10),ang(55+90,0,0),vec(0.2,0.2,50),LaserModel,LaserM1,vec4(255,255,255,0))
HN++,HT[HN,table] = table(197,196,0,Vec,Ang,vec(0.25,0.25,50),LaserModel,LaserM2,vec4(255,255,255,0))
HN++,HT[HN,table] = table(198,196,0,Vec,ang(180,0,0),-vec(0.25*1.25,0.25*1.25,50),LaserModel,LaserM2,vec4(255,255,255,0))
HN++,HT[HN,table] = table(199,196,0,Vec,ang(180,0,0),-vec(0.35*1.375,0.35*1.375,50),LaserModel,LaserM2,vec4(255,255,255,0))
HN++,HT[HN,table] = table(200,196,0,Vec,ang(180,0,0),-vec(0.45*1.5125,0.45*1.5125,50),LaserModel,LaserM2,vec4(255,255,255,0))


}

#selfDestruct()
