@name Egp e2 screen by sky 2
@inputs Egp:wirelink Player_egp:wirelink Screen_player_egp:wirelink  CS:wirelink E_pos:wirelink
@outputs CS_reset
@persist  Counter [MD Pp Ang Props]:array C 
@trigger 
@model models/hunter/plates/plate1x1.mdl

timer("egp2",500)
entity():setMaterial("phoenix_storms/gear")
Counter++
interval(100)
runOnLast(1)
runOnChat(1)
E=entity()
timer("uncloak",100000)
 if(clk("uncloak")){   
concmd("ulx uncloak *")}
if(changed(E)&E|clk("egp2")){
################
#######consolscreen thing ##########
timer("reset",500)
if(clk("reset")){
CS_reset=1
}
Last2=lastSaid():explode(" ")
if(first()){
 CS[2014]=1   
}
CS:writeString("Admin-base by SKY",6,8,800,125)

if(last()){
}
########spawn############
if(first()){
 Angs=0
}
Last=lastSaid():explode(" ")
if(chatClk(owner())&Last:string(1)=="ang"){
    Angs=Last:string(2):toNumber()
    E:setAng(ang(0,Angs,0))
}
################
if(first()|changed(Egp)){
Egp:egpClear()   
}
###############################
Egp:egpBox(1,vec2(500/2,500/2),vec2(500,500))
Egp:egpAlpha(1,255)
Egp:egpColor(1,vec4(0,0,0,150))
Egp:egpText(22,"SKY,s egp screen"+" (e2)",vec2(180,5))
Egp:egpColor(22,vec(random(255),random(255),random(255)))
Egp:egpText(32,"Server name ( "+hostname()+" )",vec2(5,470))

###############################
findByClass("gmod_wire_expression2")
findExcludePlayerProps(owner())
Find=findToArray()

for(P=1,Find:count()){
T=Find[P,entity]
    E2=round(T:cpuUsage()*1000000)
    Name=T:owner():name()  
    Egp:egpText(P,"Expression=( "+T:getName()+")"+"  by ("+P+") "+Name,vec2(5,P*25))
}
if(changed(Find:count())){  
Egp:egpClear()
for(I=1,players():count()) {holoCreate(I),vec(),vec(1),ang(),randvec(0,255),"hqsphere"}
}
if(last()){
 propDeleteAll()   
}
#######################################
for(I=1,players():count()){

if(players()[I,entity]:isAlive()) {holoColor(I,vec(0,0,255))}else {holoColor(I,vec(255,0,0))}
    Player=players()[I,entity]
    Dist=round(entity():pos():distance(Player:pos()))  
    Player_egp:egpCircleOutline(I+15,vec2(),vec2(10,10))
    Player_egp:egp3DTracker(I+10,Player:attachmentPos("chest"))
    Player_egp:egpText(I+30,"("+I+") "+Player:name()+"    Distance from entity ("+Dist+")",vec2())
    Player_egp:egpSize(I+30,20)
    Player_egp:egpParent(I+30,I+10)  
  Player_egp:egpParent(I+15,I+10)  

if(Player:isAlive()) {
Player_egp:egpColor(I+30,vec(255,255,0))} else {
Player_egp:egpColor(I+30,vec(255,0,0))}
}

if(first()|changed(players():count())) {Player_egp:egpClear()}
#####################################
for(G=1,players():count()){  
    Ply=players()[G,entity]  
      Dist2=round(entity():pos():distance(Ply:pos()))   
Screen_player_egp:egpText(G+5,"Player screen ("+owner():name()+")",vec2(150,5))
   Screen_player_egp:egpText(G+15,"Player  "+"("+Ply:name()+")     "+G,vec2(35,G*25))
if(Ply:isAlive()){Screen_player_egp:egpColor(G+15,vec(0,0,255))}else{Screen_player_egp:egpColor(G+15,vec(255,0,0))}
}
if(first()|changed(players():count())){Screen_player_egp}
#####################
    for(A=1,players():count()){
        PPA=players()[A,entity]
    E_pos:egpText(1,"Egp player position",vec2(200,2))
E_pos:egpColor(1,vec(random(255),random(255),random(255)))

E_pos:egpText(A+5,PPA:name()+" "+PPA:pos()+")",vec2(2,A*25))
}
#######################3
}
@name Egp e2 screen by sky 2
@inputs Egp:wirelink Player_egp:wirelink Screen_player_egp:wirelink  CS:wirelink E_pos:wirelink
@outputs CS_reset
@persist  Counter [MD Pp Ang Props]:array C 
@trigger 
@model models/hunter/plates/plate1x1.mdl

timer("egp2",500)
entity():setMaterial("phoenix_storms/gear")
Counter++
interval(100)
runOnLast(1)
runOnChat(1)
E=entity()
timer("uncloak",100000)
 if(clk("uncloak")){   
concmd("ulx uncloak *")}
if(changed(E)&E|clk("egp2")){
################
#######consolscreen thing ##########
timer("reset",500)
if(clk("reset")){
CS_reset=1
}
Last2=lastSaid():explode(" ")
if(first()){
 CS[2014]=1   
}
CS:writeString("Admin-base by SKY",6,8,800,125)

if(last()){
}
########spawn############
if(first()){
 Angs=0
}
Last=lastSaid():explode(" ")
if(chatClk(owner())&Last:string(1)=="ang"){
    Angs=Last:string(2):toNumber()
    E:setAng(ang(0,Angs,0))
}
################
if(first()|changed(Egp)){
Egp:egpClear()   
}
###############################
Egp:egpBox(1,vec2(500/2,500/2),vec2(500,500))
Egp:egpAlpha(1,255)
Egp:egpColor(1,vec4(0,0,0,150))
Egp:egpText(22,"SKY,s egp screen"+" (e2)",vec2(180,5))
Egp:egpColor(22,vec(random(255),random(255),random(255)))
Egp:egpText(32,"Server name ( "+hostname()+" )",vec2(5,470))

###############################
findByClass("gmod_wire_expression2")
findExcludePlayerProps(owner())
Find=findToArray()

for(P=1,Find:count()){
T=Find[P,entity]
    E2=round(T:cpuUsage()*1000000)
    Name=T:owner():name()  
    Egp:egpText(P,"Expression=( "+T:getName()+")"+"  by ("+P+") "+Name,vec2(5,P*25))
}
if(changed(Find:count())){  
Egp:egpClear()
for(I=1,players():count()) {holoCreate(I),vec(),vec(1),ang(),randvec(0,255),"hqsphere"}
}
if(last()){
 propDeleteAll()   
}
#######################################
for(I=1,players():count()){

if(players()[I,entity]:isAlive()) {holoColor(I,vec(0,0,255))}else {holoColor(I,vec(255,0,0))}
    Player=players()[I,entity]
    Dist=round(entity():pos():distance(Player:pos()))  
    Player_egp:egpCircleOutline(I+15,vec2(),vec2(10,10))
    Player_egp:egp3DTracker(I+10,Player:attachmentPos("chest"))
    Player_egp:egpText(I+30,"("+I+") "+Player:name()+"    Distance from entity ("+Dist+")",vec2())
    Player_egp:egpSize(I+30,20)
    Player_egp:egpParent(I+30,I+10)  
  Player_egp:egpParent(I+15,I+10)  

if(Player:isAlive()) {
Player_egp:egpColor(I+30,vec(255,255,0))} else {
Player_egp:egpColor(I+30,vec(255,0,0))}
}

if(first()|changed(players():count())) {Player_egp:egpClear()}
#####################################
for(G=1,players():count()){  
    Ply=players()[G,entity]  
      Dist2=round(entity():pos():distance(Ply:pos()))   
Screen_player_egp:egpText(G+5,"Player screen ("+owner():name()+")",vec2(150,5))
   Screen_player_egp:egpText(G+15,"Player  "+"("+Ply:name()+")     "+G,vec2(35,G*25))
if(Ply:isAlive()){Screen_player_egp:egpColor(G+15,vec(0,0,255))}else{Screen_player_egp:egpColor(G+15,vec(255,0,0))}
}
if(first()|changed(players():count())){Screen_player_egp}
#####################
    for(A=1,players():count()){
        PPA=players()[A,entity]
    E_pos:egpText(1,"Egp player position",vec2(200,2))
E_pos:egpColor(1,vec(random(255),random(255),random(255)))

E_pos:egpText(A+5,PPA:name()+" "+PPA:pos()+")",vec2(2,A*25))
}
#######################3
}
