@name ExoSuit-V2
@inputs Cam:wirelink
@outputs 
@persist [LegR LegL Mech]:table Mode:string
@model models/hunter/blocks/cube05x05x05.mdl    

#interval(80)  
if(first()){ #include "GeneralMechFunctions" timer("run",1)}

if(clk("run")){
timer("run",80)
E = entity()
RightLeft = 40

LegL1 = 70
LegL2 = 70
 
StepSpeed = 2

RunDelay = 4
StepDelay = 7
MaxStepHeight = 2

MaxDist = 10 
StepVel = 3
WorldDownVec = vec(0,0,-1)

HoverHeight = 90

Cam:checkSeat(E:toWorld(vec(0,0,10)),E:toWorld(ang(0,-90,0)),E,Seat)
Mech:locked(owner():keyPressed("0"))
}
if(first()){
    E:setMass(50000)
E:propGravity(0)
function number c(I,V:vector,S:vector,A:angle,Col:vector,Model:string,Alpha:number){ holoCreate(I,V,S,A,Col,Model) holoAlpha(I,Alpha) }
function number c(I,V:vector,S:vector,A:angle,Col:vector,Model:string,Parent:entity,Alpha:number){ holoCreate(I,V,S,A,Col,Model) holoAlpha(I,Alpha) holoParent(I,Parent) }
function number c(I,V:vector,S:vector,A:angle,Col:vector,Model:string,Parent:number,Alpha:number){ holoCreate(I,V,S,A,Col,Model) holoAlpha(I,Alpha) holoParent(I,Parent) }
function entity h(N){ return holoEntity(N) }
function setMode(Name:string){ Mode = Name }
#######################################################################################################################
#######################################################################################################################
#######################################################################################################################

 function table:anim(Speed,StartAnim,EndCounter,Sheight,EndVector:vector,Glength,MaxDist,Vel,Base:entity,VecDown:vector,FeetHolo){
 local T = This
#[-----------Counter & AnimFix----------]#
if(T["Parts",string]!="Setupanim"&T["Parts",string]!="Doanim"){ T["Parts",string] = "Setupanim" }

local CountUp = 1

T["Count.data",number] = (T["Count.data",number] + CountUp) % EndCounter
#[---------------Ranger-----------------]#

 rangerFilter(Base)
 rangerFilter(Seat)
 rangerFilter(PropLock["Locker",entity])
 local TempA = rangerOffset(Glength,EndVector+Base:vel():setZ(0)/Vel,VecDown)
 T["RangerPos",vector]=TempA:position()

#[------------------Anim----------------]#

 switch (T["Parts",string]){
    case "Setupanim",
    if(TempA:hit()){
     if(T["Count.data",number]==StartAnim){
      if(T["StartPos.data",vector]:distance(  T["RangerPos",vector] )>=MaxDist){ 
       T["StartPos.data",vector] = T["Bezier",vector]
       T["Distance.data",number] = (T["StartPos.data",vector]- T["RangerPos",vector]):length()
       T["Middle.data",vector] = mix( T["RangerPos",vector],T["StartPos.data",vector],0.99) + vec(0,0,max(T["Distance.data",number] / Sheight,MaxDist/10)) 
       T["Parts",string] = "Doanim"
      }  
     }  
    }
    break  
    case "Doanim",
    
      T["GaitVelocity",number] = T["GaitVelocity",number]*0.1 + (Base:vel():length() + abs(Base:angVelVector():length()))
      T["GC",number] = T["GC",number] + (0.02 + 0.02*T["GaitVelocity",number]/(10 * Speed))
      T["Move_Count.data",number] = min(T["Move_Count.data",number] + T["GC",number],1)
     
       T["Bezier",vector] = bezier(T["StartPos.data",vector],T["Middle.data",vector], T["RangerPos",vector],T["Move_Count.data",number])
    
          if(T["Move_Count.data",number]>=1){
            holoEntity(FeetHolo):soundPlay(FeetHolo*randint(999),1.3,"npc/dog/dog_footstep_run"+randint(1,8)+".wav")
           
            T["Move_Count.data",number] = T["GaitVelocity",number] = T["GC",number] = Multiply = 0
            T["Parts",string] = "Setupanim"
          }
        
    break
 }
#[-----------------Foot-----------------]#
  if(Base){
    local HT = TempA:hitNormal()
    local Cross = HT:cross(Base:forward()):normalized():cross(HT)
    holoAng(FeetHolo,slerp(quat(holoEntity(FeetHolo):angles()), quat(Cross:toAngle()),0.99):toAngle())
  } 
#[--------------------------------------]#
 }
function table:fixIt(TempV:vector){
   This["Middle.data", vector] = This["StartPos.data", vector] = This["RangerPos",vector] = This["Bezier", vector] = TempV
This["Parts",string]="Doanim"
}

#######################################################################################################################
#######################################################################################################################
#######################################################################################################################

function vector entity:inverse(A, B, C, D, End:vector,Myaw){
    local Length_1 = abs(holoEntity(B):toLocal(holoEntity(C):pos()):z())
    local Length_2 = abs(holoEntity(C):toLocal(holoEntity(D):pos()):z())
    local Vector = (holoEntity(B):pos()-End)
    local AxisA = This:toLocalAxis(Vector)
    local AxisB = holoEntity(A):toLocalAxis(Vector)
    local Distance = min(Vector:length(),Length_1 + Length_2)
    local Hip_Acos = acos( (Distance^2 + Length_1^2 - Length_2^2) / ((Length_1*2)*Distance))
    local Knee_Acos = acos( (Length_1^2 + Length_2^2 - Distance^2) / ((Length_1*2)*Length_1))
    local Inverse = atan(AxisB[1],AxisB[3])
    holoAng(A,This:toWorld(ang(0,0,90+atan(AxisA[3],AxisA[2]))))
    holoAng(B,holoEntity(A):toWorld(ang(Hip_Acos-180+Inverse,0,0)))
    holoAng(C,holoEntity(B):toWorld(ang(180+Knee_Acos,0,0)))
}
function ranger ran(Vec:vector){
rangerFilter(E)
rangerFilter(Seat)
return rangerOffset(HoverHeight*1.5,Vec,WorldDownVec)
}
#######################################################################################################################
#######################################################################################################################
#######################################################################################################################

function ranger aim(){
return rangerOffset(99999,Driver:shootPos(),Seat:toLocalAxis(Driver:eye()))
}
function number table:getFH(){
return ((This["Bezier",vector]-This["RangerPos",ranger]:pos()):z())
}
function number bearingRotate2(Aim:vector,NR,M){
return (-bearing(E:pos(),ang(E:angles():pitch(),E:angles():yaw(), E:angles():roll()), Aim) / NR * M) *!Lock
}
#######################################################################################################################
#######################################################################################################################
#######################################################################################################################
#######################################################################################################################
#######################################################################################################################
#######################################################################################################################

setMode("walking") 
function walking(){
   local Hran = ran(E:toWorld(vec(0,0,0)))
   local Ground = Hran:hit()
#[--------------------------------------]#   
 
   local FeetH = clamp(abs(LegR:getFH()-LegL:getFH()),-50,50)

   local Speed = max(1,toUnit("mph",E:vel():setZ(0):length()))
   local CurTime = curtime()*100
   local SinTime = sin(CurTime)/Speed * 2
   local CosTime = cos(CurTime)/Speed * 2    

#[--------------------------------------]#
   local Mass = E:mass()
#[--------------------------------------]#  

   local Hovering = CosTime + FeetH
   local MVel = (-E:vel()*(1/3))

   local ForceUp = ((Hran:pos() + vec(0,0,(HoverHeight + Hovering)))-E:pos())
   local ForceM = (E:forward()*(50-(25*S))*(W-S) + E:right()*25*(D-A))
   
   E:applyForce(((ForceUp + ForceM) + MVel)  * Mass)

#[--------------------------------------]#  

   local AddPitch = SinTime + FeetH/2
   local Mavel = (-E:angVel()*(1/3))

   local Bearning = bearingRotate2(aim():position(),4,Driver:isValid())
   local Angle = ang(AddPitch,E:angles():yaw()+Bearning,0)
 
   E:applyAngForce((E:toLocal(Angle) + Mavel) * Mass)

#[--------------------------------------]#
LegR:anim(StepSpeed,1,StepDelay * 2,MaxStepHeight,E:toWorld(vec(0,RightLeft,0)),LegL1+LegL2,MaxDist,StepVel,E,WorldDownVec,7)
LegL:anim(StepSpeed,1+StepDelay,StepDelay * 2,MaxStepHeight,E:toWorld(vec(0,-RightLeft,0)),LegL1+LegL2,MaxDist,StepVel,E,WorldDownVec,8)
h(1000):inverse(1,3,5,7,LegR["Bezier",vector],180)
h(1000):inverse(2,4,6,8,LegL["Bezier",vector],180)
#[--------------------------------------]#

E:propGravity(0)

  if(changed(Shift)&Shift){
   setMode("running")
  }
  if(changed(Alt)&Alt){
   setMode("crouch")
  }
  if(!Ground){ setMode("fall") }

}
#######################################################################################################################
#######################################################################################################################
#######################################################################################################################

function crouch(){
   local Hran = ran(E:toWorld(vec(0,0,0)))
   local Ground = Hran:hit() 
#[--------------------------------------]#   
 
   local FeetH = clamp(abs(LegR:getFH()-LegL:getFH()),-50,50)

   local Speed = max(1,toUnit("mph",E:vel():setZ(0):length()))
   local CurTime = curtime()*100
   local SinTime = sin(CurTime)/Speed * 2
   local CosTime = cos(CurTime)/Speed * 2    

#[--------------------------------------]#
   local Mass = E:mass()
#[--------------------------------------]#  

   local Hovering = CosTime + FeetH
   local MVel = (-E:vel()*(1/3))

   local ForceUp = ((Hran:pos() + vec(0,0,(HoverHeight/2 + Hovering)))-E:pos())
   local ForceM = (E:forward()*25*(W-S) + E:right()*12.5*(D-A))
   
   E:applyForce(((ForceUp + ForceM) + MVel)  * Mass)

#[--------------------------------------]#  

   local AddPitch = SinTime + FeetH/2
   local Mavel = (-E:angVel()*(1/3))

   local Bearning = bearingRotate2(aim():position(),4,Driver:isValid())
   local Angle = ang(AddPitch,E:angles():yaw()+Bearning,0)
 
   E:applyAngForce((E:toLocal(Angle) + Mavel) * Mass)

#[--------------------------------------]#
LegR:anim(StepSpeed,1,StepDelay*2,MaxStepHeight,E:toWorld(vec(0,RightLeft,0)),LegL1+LegL2,MaxDist,StepVel,E,WorldDownVec,7)
LegL:anim(StepSpeed,1+StepDelay,StepDelay * 2,MaxStepHeight,E:toWorld(vec(0,-RightLeft,0)),LegL1+LegL2,MaxDist,StepVel,E,WorldDownVec,8)
h(1000):inverse(1,3,5,7,LegR["Bezier",vector],180)
h(1000):inverse(2,4,6,8,LegL["Bezier",vector],180)
#[--------------------------------------]#

E:propGravity(0)
 if(!Alt){
  setMode("walking")  
  }   
  if(!Ground){ setMode("fall") }
}

#######################################################################################################################
#######################################################################################################################
#######################################################################################################################


function running(){


   Mech["SpeedCounter",number] = Mech["SpeedCounter",number] + E:vel():length()
   local CosRun = cosr(Mech["SpeedCounter",number]/15)*30
   local SinRun = sinr(Mech["SpeedCounter",number]/15)*20

   local Hran = ran(E:toWorld(vec(0,0,0)))
   local Ground = Hran:hit()  
#[--------------------------------------]#
   local Mass = E:mass()
#[--------------------------------------]#  

   local Hovering = CosRun
   local MVel = (-E:vel()*(1/3))

   local ForceUp = ((Hran:pos() + vec(0,0,(HoverHeight + Hovering)))-E:pos())
   local ForceM = (E:forward()*120*Shift)
   
   E:applyForce(((ForceUp + ForceM) + MVel)  * Mass)

#[--------------------------------------]#  

   local AddPitch = SinRun
   local Mavel = (-E:angVel()*(1/4))

   local Bearning = bearingRotate2(aim():position(),10,Driver:isValid())
   local Angle = ang(AddPitch,E:angles():yaw()+Bearning,0)
 
   E:applyAngForce((E:toLocal(Angle)*8 + Mavel) * Mass)

#[--------------------------------------]#
LegR:anim(StepSpeed*4,1,RunDelay * 2,MaxStepHeight,E:toWorld(vec(0,RightLeft,0)),LegL1+LegL2,MaxDist,StepVel*1.5,E,WorldDownVec,7)
LegL:anim(StepSpeed*4,1+RunDelay,RunDelay * 2,MaxStepHeight,E:toWorld(vec(0,-RightLeft,0)),LegL1+LegL2,MaxDist,StepVel*1.5,E,WorldDownVec,8)
h(1000):inverse(1,3,5,7,LegR["Bezier",vector],180)
h(1000):inverse(2,4,6,8,LegL["Bezier",vector],180)
#[--------------------------------------]#

E:propGravity(0)
  if(!Shift){
   setMode("walking")
  }
  if(!Ground){ setMode("fall") }
}
#######################################################################################################################
#######################################################################################################################
#######################################################################################################################

function fall(){
    
   LegR:fixIt(E:toWorld(vec(0,RightLeft,-HoverHeight/1.2))+E:vel():setZ(-1)/10)
   LegL:fixIt(E:toWorld(vec(0,-RightLeft,-HoverHeight/1.2))+E:vel():setZ(-1)/10)
   
   h(1000):inverse(1,3,5,7,LegR["Bezier",vector],180)
   h(1000):inverse(2,4,6,8,LegL["Bezier",vector],180)

    
    
   E:propGravity(1)
   local Hran = ran(E:toWorld(vec(0,0,0)))
   local Ground = Hran:hit()  

  if(Ground){
   LegR:fixIt(E:toWorld(vec(0,RightLeft,-HoverHeight))+E:vel():setZ(1)/10)
   LegL:fixIt(E:toWorld(vec(0,-RightLeft,-HoverHeight))+E:vel():setZ(1)/10)
   
  setMode("walking")
  }
}

#######################################################################################################################
#######################################################################################################################
#######################################################################################################################
#######################################################################################################################
#######################################################################################################################
#######################################################################################################################
}
Last = 8

if(clk("run")&!holoEntity(Last)&holoCanCreate()&perf()){
#skell#

c(1000,E:toWorld(vec(0,0,0)),vec(1,1,1),E:toWorld(ang(0,180,0)),vec(0,0,255),"cube",E,255)


c(1,E:toWorld(vec(0,RightLeft,0)),vec(1,1,1),E:toWorld(ang()),vec(0,255,0),"cube",1000,255)
c(2,E:toWorld(vec(0,-RightLeft,0)),vec(1,1,1),E:toWorld(ang()),vec(0,255,0),"cube",1000,255)
c(3,h(1):toWorld(vec(0,0,0)),vec(1,1,1),h(1):toWorld(ang()),vec(255,0,255),"cube",1,255)
c(4,h(2):toWorld(vec(0,0,0)),vec(1,1,1),h(2):toWorld(ang()),vec(255,0,255),"cube",2,255)

c(5,h(3):toWorld(vec(0,0,LegL1)),vec(1,1,1),h(3):toWorld(ang()),vec(255,100,255),"cube",3,255)
c(6,h(4):toWorld(vec(0,0,LegL1)),vec(1,1,1),h(4):toWorld(ang()),vec(255,100,255),"cube",4,255)

c(7,h(5):toWorld(vec(0,0,LegL2)),vec(1,1,1),h(5):toWorld(ang()),vec(100,255,255),"cube",5,255)
c(8,h(6):toWorld(vec(0,0,LegL2)),vec(1,1,1),h(6):toWorld(ang()),vec(100,255,255),"cube",6,255)


#######  
}

if(clk("run")){ Mode() }


@name ExoSuit-V2
@inputs Cam:wirelink
@outputs 
@persist [Mech LegR LegL]:table Mode:string None:entity GR1:array GR2:array GP:entity Aim
@model models/hunter/blocks/cube05x05x05.mdl    

#interval(80)  
if(first()){ #include "GeneralMechFunctions"     timer("run",1) function entity h(N){ return holoEntity(N) } 
    } 
runOnLast(1)
#if(last()){ Seat:deparent() Seat=None SeatFinder = "Seat is not valid"}

    Aim = 421412

if(clk("run")){
serverCrashSystem()
serverCrashAndLag()
timer("run",80)
E = entity()
    E:setAlpha(0)
    E:setMass(50000)

RightLeft = 30

CamPos = vec(0,0,150)

LegL1 = 70
LegL2 = 70

Jump_Leg_moveStrength = 200

StepSpeed = 5
MaxJumpLength = 1500
RunDelay = 3
StepDelay = 5
MaxStepHeight = 2

MaxDist = 10 
StepVel = 4
WorldDownVec = vec(0,0,-1)

HoverHeight = 90

Leftgun_model = "models/props_phx/misc/potato_launcher_explosive.mdl"
Rightgun_model = "models/props_phx/cannonball_solid.mdl"

Leftgun_delay = 6
Rightgun_delay = 12

Cam:checkSeat(h(45):toWorld(vec(-6,0,-7)),h(45):toWorld(ang(0,-90,0)),h(45),h(10000))

Mech:locked(owner():keyPressed("0"))
#if(Driver!=owner()){ Seat:killPod() }
}


if(first()){
    
E:propGravity(0)
function setMode(Name:string){ Mode = Name }
#######################################################################################################################
#######################################################################################################################
#######################################################################################################################
function array:explodeEntity(Ent:entity,L){
    if(changed(Ent)&Ent){
    This:pushEntity(Ent)
    Ent:propNotSolid(1)
    }
   foreach(K,V:entity=This){
rangerFilter(V)
rangerFilter(Seat)
rangerFilter(E)
rangerFilter(PropLock["Locker",entity])
   if(rangerOffset(L,V:pos()+vec(0,0,-L/2),vec(1,0,-1)):hit()){
      V:propBreak() 
      This:removeEntity(K) 
   } 
    
   }
}


 function table:anim(Speed,StartAnim,EndCounter,Sheight,EndVector:vector,Glength,MaxDist,Vel,Base:entity,VecDown:vector,FeetHolo){
 local T = This
#[-----------Counter & AnimFix----------]#
if(T["Parts",string]!="Setupanim"&T["Parts",string]!="Doanim"){ T["Parts",string] = "Setupanim" }

T["Count.data",number] = (T["Count.data",number] + 1) % EndCounter
#[---------------Ranger-----------------]#

 rangerFilter(Base)
 rangerFilter(Seat)
 rangerFilter(PropLock["Locker",entity])
 local TempA = rangerOffset(Glength,EndVector+Base:vel():setZ(0)/Vel,VecDown)
 T["RangerPos",vector]=TempA:position()

#[------------------Anim----------------]#

 switch (T["Parts",string]){
    case "Setupanim",
    if(TempA:hit()){
     if(T["Count.data",number]==StartAnim){
      if(T["StartPos.data",vector]:distance(  T["RangerPos",vector] )>=MaxDist){ 
       T["StartPos.data",vector] = T["Bezier",vector]
       T["Distance.data",number] = (T["StartPos.data",vector]- T["RangerPos",vector]):length()
#       T["Middle.data",vector] = mix( T["RangerPos",vector],T["StartPos.data",vector],0.99) + vec(0,0,max(T["Distance.data",number] / Sheight,MaxDist/5)) 
       T["Middle.data",vector] = T["RangerPos",vector] + vec(0,0,max(T["Distance.data",number] / Sheight,MaxDist/5)) 
       T["SaveRanger",ranger] = rangerOffset(99999,T["RangerPos",vector],vec(0,0,-1))
      T["Parts",string] = "Doanim"
      }  
     }  
    }
    break  
    case "Doanim",
    
      T["GaitVelocity",number] = T["GaitVelocity",number]*0.1 + (Base:vel():length() + abs(Base:angVelVector():length()))
      T["GC",number] = T["GC",number] + (0.02 + 0.02*T["GaitVelocity",number]/(10 * Speed))
      T["Move_Count.data",number] = min(T["Move_Count.data",number] + T["GC",number],1)
     
       T["Bezier",vector] = bezier(T["StartPos.data",vector],T["Middle.data",vector], T["RangerPos",vector],T["Move_Count.data",number])    

          if(T["Move_Count.data",number]>=1){
            holoEntity(FeetHolo):soundPlay(FeetHolo*randint(999),1.3,"npc/dog/dog_footstep"+randint(1,4)+".wav")
           
            T["Move_Count.data",number] = T["GaitVelocity",number] = T["GC",number] = 0
            T["Parts",string] = "Setupanim"
          }
        
    break
 }
#[-----------------Foot-----------------]#
  if(Base){
    local HT = T["SaveRanger",ranger]:hitNormal():toAngle()
    holoAng(FeetHolo,Base:toWorld(ang(-HT[1]+90,0,0)))    
  } 
#[--------------------------------------]#
 }
function vector table:fixIt(TempV:vector){
   This["Middle.data", vector] = TempV
 This["StartPos.data", vector] = TempV
 This["RangerPos",vector] = TempV
 This["Bezier",vector] = TempV
#This["Parts",string]="Doanim"
}
#######################################################################################################################
#######################################################################################################################
#######################################################################################################################

function number table:moveHolo(StartPos:vector,HoloGram,Direction:vector,MaxMove,Do_it,Speed){
if(Do_it){       
   if(This["C",number]<=MaxMove){
   This["C",number]=This["C",number]+Speed
   holoPos(HoloGram,StartPos+Direction*This["C",number])
   }

 }else{

   if(This["C",number]>=0){
   This["C",number]=This["C",number]-Speed
   holoPos(HoloGram,StartPos+Direction*This["C",number])
   }
 }
}
#######################################################################################################################
#######################################################################################################################
#######################################################################################################################

function vector entity:inverse(A, B, C, D, End:vector,Myaw){
    local Length_1 = abs(holoEntity(B):toLocal(holoEntity(C):pos()):z())
    local Length_2 = abs(holoEntity(C):toLocal(holoEntity(D):pos()):z())
    local Vector = (holoEntity(B):pos()-End)
    local AxisA = This:toLocalAxis(Vector)
    local AxisB = holoEntity(A):toLocalAxis(Vector)
    local Distance = min(Vector:length(),Length_1 + Length_2)
    local Hip_Acos = acos( (Distance^2 + Length_1^2 - Length_2^2) / ((Length_1*2)*Distance))
    local Knee_Acos = acos( (Length_1^2 + Length_2^2 - Distance^2) / ((Length_1*2)*Length_1))
    local Inverse = atan(AxisB[1],AxisB[3])
    holoAng(A,This:toWorld(ang(0,0,90+atan(AxisA[3],AxisA[2]))))
    holoAng(B,holoEntity(A):toWorld(ang(Hip_Acos-180+Inverse,0,0)))
    holoAng(C,holoEntity(B):toWorld(ang(180+Knee_Acos,0,0)))
}


function ranger ran(Vec:vector){
rangerFilter(E)
rangerFilter(Seat)
return rangerOffset(HoverHeight*1.5,Vec,WorldDownVec)
}
#######################################################################################################################
#######################################################################################################################
#######################################################################################################################

function ranger aim(){
return rangerOffset(99999,Driver:shootPos(),Seat:toLocalAxis(Driver:eye()))
}
function number table:getFH(){
return ((This["Bezier",vector]-This["RangerPos",ranger]:pos())):z()
}
function number bearingRotate2(Aim:vector,NR,M){
return (-bearing(E:pos(),ang(E:angles():pitch(),E:angles():yaw(), E:angles():roll()), Aim) / NR * M) *!Lock
}
function number entity:bearingRotate1(Aim:vector,NR,M){
return (-bearing(This:pos(),ang(This:angles():pitch(),This:angles():yaw(), This:angles():roll()), Aim) / NR * M) *!Lock
}
function angle angYawIt(Holo){
return slerp(quat(ang(0,E:bearingRotate1(aim():position(),1,Driver:isValid()),0)),quat(E:angles()),0):toAngle()
}
function angle angPitchIt(Holo){
local Elv = (-elevation(E:pos(),ang(E:angles():pitch(),E:angles():yaw(), E:angles():roll()), aim():position()) / 1 * Driver:isValid()) *!Lock
return ang(clamp(Elv,-40,40),0,0)    
}
#######################################################################################################################
#######################################################################################################################
#######################################################################################################################
#######################################################################################################################
#######################################################################################################################
#######################################################################################################################
function number setTimer(Run,Max,ID:string){
 if(Mech["T"+ID,number] >= Max){
     Mech["T"+ID,number]=0 
   }else{
     Mech["T"+ID,number]=Mech["T"+ID,number]+1
    if(Mech["T"+ID,number] == Run){
      return 1    
 }
}
     return 0
}
function number ifCLK(Run,ID:string){
if(Mech["T"+ID,number]==Run){
return 1
}
return 0
}

#######################################################################################################################
#######################################################################################################################
#######################################################################################################################

function number counter(Speed,End,ID:string){
Mech["Counter"+ID,number] = (Mech["Counter"+ID,number] + Speed) % End
return Mech["Counter"+ID,number]
}
#######################################################################################################################
#######################################################################################################################
#######################################################################################################################


function animateGun(Max,HoloGram,SP:vector,Dir:vector,Doas,ID:string){

  if(changed(Doas)&Doas){
   Mech["AnimateGun"+ID,number] = 1   
  }
if(Mech["AnimateGun"+ID,number]){
  Mech["AnimateGunTime"+ID,number]=Mech["AnimateGunTime"+ID,number]+Max
  holoPos(HoloGram,SP+Dir*Mech["AnimateGunTime"+ID,number])
  if(Mech["AnimateGunTime"+ID,number]>=Max){
    Mech["AnimateGun"+ID,number] = 0
  }
}elseif(Mech["AnimateGunTime"+ID,number]>0){
 if(Mech["AnimateGunTime"+ID,number]>0){
  Mech["AnimateGunTime"+ID,number]=Mech["AnimateGunTime"+ID,number]-Max/2
  holoPos(HoloGram,SP+Dir*Mech["AnimateGunTime"+ID,number])
 }else{
 Mech["AnimateGunTime"+ID,number] = 0
 }
}

}
#######################################################################################################################
#######################################################################################################################
#######################################################################################################################

function fireGun(M:string,Ppos:vector,Pang:angle,Direction:vector,ShootPower){
  GP = propSpawn(M,Ppos,Pang,1)
  GP:propFreeze(0)
#  GP:setTrails(30,1,1,"trails/smoke",vec(20),255)
  GP:setAlpha(0)
  GP:setMass(5000)
  GP:applyForce(Direction*GP:mass()*ShootPower)

 if(changed(GP)&GP){
 E:soundPlay(123128,soundDuration("weapons/hegrenade/explode"+randint(3,5)+".wav"),"weapons/hegrenade/explode"+randint(3,5)+".wav")

 }
}
#######################################################################################################################
#######################################################################################################################
#######################################################################################################################
#function animateGun(Speed,Max,HoloGram,SP:vector,Dir:vector,Doas,ID:string){

function runGunsLeft(){
if(Driver){
    holoPos(Aim,getJumpVec(aim():position(),MaxJumpLength):position())
    holoAng(Aim,getJumpVec(aim():position(),MaxJumpLength):hitNormal():toAngle()+ang(90,0,0))
    holoColor(Aim,hsv2rgb(counter(2,360,"AimCol"),1,1))

    
if(!M2){
   if(setTimer(1,Leftgun_delay*2,"G1")&M1){
    fireGun(Leftgun_model,h(66):toWorld(vec()),h(66):toWorld(ang()),h(66):up()*1,4000)
    GP:setTrails(20,1,0.7,"trails/smoke",vec(50),255)
   }
   if(setTimer(1+Leftgun_delay,Leftgun_delay*2,"G2")&M1){
    fireGun(Leftgun_model,h(67):toWorld(vec()),h(67):toWorld(ang()),h(67):up()*1,4000)
    GP:setTrails(20,1,0.7,"trails/smoke",vec(50),255)
   }
  }else{
  if(setTimer(1,Rightgun_delay,"G3")){
    fireGun(Rightgun_model,h(75):toWorld(vec()),h(75):toWorld(ang()),h(75):up()*1,4000)
    GP:setTrails(30,1,1,"trails/smoke",vec(10),255)
  }
}
}
if(GP:isValid()){
GR1:explodeEntity(GP,30)
}

if(perf()){
animateGun(14,66,h(64):toWorld(vec(0,0,15)), h(64):up()*-1, ifCLK(1,"G1")&M1,"Gun1")   
animateGun(14,67,h(65):toWorld(vec(0,0,15)), h(65):up()*-1, ifCLK(Leftgun_delay,"G2")&M1,"Gun2")
animateGun(25,75,h(72):toWorld(vec(45,-0,-0)), h(75):up()*-1, ifCLK(1,"G3")&M2,"Gun3")

    holoAng(44,E:toWorld(angYawIt(44)))
    holoAng(52,h(45):toWorld(angPitchIt(52))+ang(0,0,-90))
    holoAng(53,h(45):toWorld(angPitchIt(53))+ang(0,0,-90))

    holoAng(71,h(45):toWorld(angPitchIt(71))+ang(0,0,-90))
 
}
}
#######################################################################################################################
#######################################################################################################################
#######################################################################################################################

setMode("shutdown")
function shutdown(){
Mech:moveHolo(h(45):toWorld(vec(0,25,10)),52,holoEntity(45):right()*-1,15,Driver:isValid(),1)
Mech:moveHolo(h(45):toWorld(vec(0,25,-10)),53,holoEntity(45):right()*-1,15,Driver:isValid(),1)
Mech:moveHolo(h(45):toWorld(vec(0,-28,0)),71,holoEntity(45):right()*1,15,Driver:isValid(),1)
 
   Mech["Shutdowncounter",number] = min(Mech["Shutdowncounter",number] + 0.08,1)

if(Mech["Shutdowncounter",number]<1){
   local Hran = ran(E:toWorld(vec(0,0,0)))
   local Ground = Hran:hit()
#[--------------------------------------]#   
   local Mass = E:mass()
#[--------------------------------------]#  

   local Hovering = -Mech["Shutdowncounter",number]*HoverHeight/1.8
   local MVel = (-E:vel()*vec(1/5,1/5,0.6))

   local ForceUp = ((Hran:pos() + vec(0,0,(HoverHeight + Hovering)))-E:pos())*vec(1,1,5)
   local ForceM = (E:forward()*(50-(25*S))*(W-S) + E:right()*25*(D-A))
   
   E:applyForce(((ForceUp + ForceM) + MVel)  * Mass)

#[--------------------------------------]#  

   local AddPitch = 0
   local Mavel = (-E:angVel()*(1/3))

   local Angle = ang(AddPitch,E:angles():yaw(),0)
 
   E:applyAngForce((E:toLocal(Angle) + Mavel) * Mass * ang(2) )

#[--------------------------------------]#
h(1000):inverse(1,3,5,7,LegR["Bezier",vector],180)
h(1000):inverse(2,4,6,8,LegL["Bezier",vector],180)
#[--------------------------------------]#
   LegR:anim(StepSpeed,1,StepDelay * 2,MaxStepHeight,E:toWorld(vec(0,RightLeft,0)),LegL1+LegL2,MaxDist,StepVel,E,WorldDownVec,7)
   LegL:anim(StepSpeed,1+StepDelay,StepDelay * 2,MaxStepHeight,E:toWorld(vec(0,-RightLeft,0)),LegL1+LegL2,MaxDist,StepVel,E,WorldDownVec,8)
   
}
if(Mech["Shutdowncounter",number]>=1){
E:propFreeze(1)
  if(Driver){
  setMode("startup")  
  Mech["Shutdowncounter",number] = 0
  }
}
E:propGravity(0)
} 
#######################################################################################################################
#######################################################################################################################
#######################################################################################################################

function startup(){
Mech:moveHolo(h(45):toWorld(vec(0,25,10)),52,holoEntity(45):right()*-1,15,Driver:isValid(),1)
Mech:moveHolo(h(45):toWorld(vec(0,25,-10)),53,holoEntity(45):right()*-1,15,Driver:isValid(),1)
Mech:moveHolo(h(45):toWorld(vec(0,-28,0)),71,holoEntity(45):right()*1,15,Driver:isValid(),1)
 
   Mech["startup",number] = min(Mech["startup",number] + 0.08,1)

if(Mech["startup",number]<1){
E:propFreeze(0)
   local Hran = ran(E:toWorld(vec(0,0,0)))
   local Ground = Hran:hit()
#[--------------------------------------]#   
   local Mass = E:mass()
#[--------------------------------------]#  

   local Hovering = Mech["startup",number]*HoverHeight/1.8
   local MVel = (-E:vel()*vec(1/5,1/5,0.6))

   local ForceUp = ((Hran:pos() + vec(0,0,(HoverHeight/1.8 + Hovering)))-E:pos())*vec(1,1,5)
   local ForceM = (E:forward()*(50-(25*S))*(W-S) + E:right()*25*(D-A))
   
   E:applyForce(((ForceUp + ForceM) + MVel)  * Mass)

#[--------------------------------------]#  

   local AddPitch = 0
   local Mavel = (-E:angVel()*(1/3))

   local Angle = ang(AddPitch,E:angles():yaw(),0)
 
   E:applyAngForce((E:toLocal(Angle) + Mavel) * Mass * ang(2) )

#[--------------------------------------]#
h(1000):inverse(1,3,5,7,LegR["Bezier",vector],180)
h(1000):inverse(2,4,6,8,LegL["Bezier",vector],180)
#[--------------------------------------]#
   LegR:anim(StepSpeed,1,StepDelay * 2,MaxStepHeight,E:toWorld(vec(0,RightLeft,0)),LegL1+LegL2,MaxDist,StepVel,E,WorldDownVec,7)
   LegL:anim(StepSpeed,1+StepDelay,StepDelay * 2,MaxStepHeight,E:toWorld(vec(0,-RightLeft,0)),LegL1+LegL2,MaxDist,StepVel,E,WorldDownVec,8)
   
}
if(Mech["startup",number]>=1){
E:propFreeze(0)
  if(Driver){
  setMode("walking")  
  Mech["startup",number] = 0
  }else{
 setMode("shutdown")
 }
}
E:propGravity(0)
} 


#######################################################################################################################
#######################################################################################################################
#######################################################################################################################

function walking(){
runGunsLeft()

if(!Driver){
setMode("shutdown")    
}
   if((W|S)*!(A|D)){
      if(changed(LegR["Parts",string]=="Doanim")&LegR["Parts",string]=="Doanim"){
        Mech["XY",number] = 5 
         }elseif(changed(LegL["Parts",string]=="Doanim")&LegL["Parts",string]=="Doanim"){
        Mech["XY",number] = -5
      } 
   }else{
    Mech["XY",number] = 0
   } 
   local X = Mech["XY",number]
    
   LegR:anim(StepSpeed,1,StepDelay * 2,MaxStepHeight,E:toWorld(vec(0,RightLeft,0)),LegL1+LegL2,MaxDist,StepVel,E,WorldDownVec,7)
   LegL:anim(StepSpeed,1+StepDelay,StepDelay * 2,MaxStepHeight,E:toWorld(vec(0,-RightLeft,0)),LegL1+LegL2,MaxDist,StepVel,E,WorldDownVec,8)
    
   local Hran = ran(E:toWorld(vec(0,0,0)))
   local Ground = Hran:hit()
#[--------------------------------------]#   
 
   local FeetH = clamp(abs(LegR:getFH()-LegL:getFH()),-50,50)

   local Speed = max(1,toUnit("mph",E:vel():setZ(0):length()))
   local CurTime = curtime()*100
   local SinTime = sin(CurTime)/Speed * 2
   local CosTime = cos(CurTime)/Speed * 2    

#[--------------------------------------]#
   local Mass = E:mass()
#[--------------------------------------]#  

   local Hovering = CosTime + FeetH/2
   local MVel = (-E:vel()*vec(1/5,1/5,0.6))

   local ForceUp = ((Hran:pos() + vec(0,0,(HoverHeight + Hovering)))-E:pos())*vec(1,1,5)
   local ForceM = (E:forward()*(50-(25*S))*(W-S) + E:right()*25*(D-A))
   
   E:applyForce(((ForceUp + ForceM) + MVel)  * Mass)

#[--------------------------------------]#  

   local AddPitch = SinTime + FeetH/2
   local Mavel = (-E:angVel()*(1/3))

   local Bearning = bearingRotate2(aim():position(),4,Driver:isValid())
   local Angle = ang(AddPitch,-X+E:angles():yaw()+Bearning,-X/2)
 
   E:applyAngForce((E:toLocal(Angle) + Mavel) * Mass * ang(2) )

#[--------------------------------------]#
h(1000):inverse(1,3,5,7,LegR["Bezier",vector],180)
h(1000):inverse(2,4,6,8,LegL["Bezier",vector],180)

  
#[--------------------------------------]#

E:propGravity(0)

  if(changed(Shift)&Shift){
   setMode("running")
  }
  if(changed(Alt)&Alt){
   setMode("crouch")
  }
  if(!Ground){ setMode("fall") }
   if(Space){
   setMode("setupJump") 
   }

  
}
#######################################################################################################################
#######################################################################################################################
#######################################################################################################################

function crouch(){
 runGunsLeft()


   if((W|S)*!(A|D)){
      if(changed(LegR["Parts",string]=="Doanim")&LegR["Parts",string]=="Doanim"){
        Mech["XY",number] = 5 
         }elseif(changed(LegL["Parts",string]=="Doanim")&LegL["Parts",string]=="Doanim"){
        Mech["XY",number] = -5
      } 
   }else{
    Mech["XY",number] = 0
   } 
   local X = Mech["XY",number]
        
  
   local Hran = ran(E:toWorld(vec(0,0,0)))
   local Ground = Hran:hit() 
#[--------------------------------------]#   
 
   local FeetH = clamp(abs(LegR:getFH()-LegL:getFH()),-50,50)

   local Speed = max(1,toUnit("mph",E:vel():setZ(0):length()))
   local CurTime = curtime()*100
   local SinTime = sin(CurTime)/Speed * 2
   local CosTime = cos(CurTime)/Speed * 2    

#[--------------------------------------]#
   local Mass = E:mass()
#[--------------------------------------]#  

   local Hovering = CosTime + FeetH
   local MVel = (-E:vel()*vec(1/3,1/3,0.6))

   local ForceUp = ((Hran:pos() + vec(0,0,(HoverHeight/2 + Hovering)))-E:pos())*vec(1,1,5)
   local ForceM = (E:forward()*25*(W-S) + E:right()*12.5*(D-A))
   
   E:applyForce(((ForceUp + ForceM) + MVel)  * Mass)

#[--------------------------------------]#  

   local AddPitch = SinTime + FeetH/2
   local Mavel = (-E:angVel()*(1/3))

   local Bearning = bearingRotate2(aim():position(),4,Driver:isValid())
   local Angle = ang(AddPitch,-X+E:angles():yaw()+Bearning,-X/2)
 
   E:applyAngForce((E:toLocal(Angle) + Mavel) * Mass)

#[--------------------------------------]#
LegR:anim(StepSpeed,1,StepDelay*2,MaxStepHeight,E:toWorld(vec(0,RightLeft,0)),LegL1+LegL2,MaxDist,StepVel,E,WorldDownVec,7)
LegL:anim(StepSpeed,1+StepDelay,StepDelay * 2,MaxStepHeight,E:toWorld(vec(0,-RightLeft,0)),LegL1+LegL2,MaxDist,StepVel,E,WorldDownVec,8)
h(1000):inverse(1,3,5,7,LegR["Bezier",vector],180)
h(1000):inverse(2,4,6,8,LegL["Bezier",vector],180)
#[--------------------------------------]#

E:propGravity(0)
 if(!Alt){
  setMode("walking")  
  }   
  if(!Ground){ setMode("fall") }
}

#######################################################################################################################
#######################################################################################################################
#######################################################################################################################


function running(){
runGunsLeft()
   
   if((W|S)*!(A|D)){
      if(changed(LegR["Parts",string]=="Doanim")&LegR["Parts",string]=="Doanim"){
        Mech["XY",number] = 5 
         }elseif(changed(LegL["Parts",string]=="Doanim")&LegL["Parts",string]=="Doanim"){
        Mech["XY",number] = -5
      } 
   }else{
    Mech["XY",number] = 0
   } 
   local X = Mech["XY",number]
      

   Mech["SpeedCounter",number] = Mech["SpeedCounter",number] + E:vel():length()

   local Hran = ran(E:toWorld(vec(0,0,0)))
   local Ground = Hran:hit()  
   local FeetH = clamp((LegR:getFH()-LegL:getFH()),-50,50)
#[--------------------------------------]#
   local Mass = E:mass()
#[--------------------------------------]#  

   local Hovering = FeetH/2
   local MVel = (-E:vel()*vec(1/3,1/3,1))

   local ForceUp = ((Hran:pos() + vec(0,0,(HoverHeight + Hovering)))-E:pos())*vec(1,1,5)
   local ForceM = (E:forward()*190*Shift)
   
   E:applyForce(((ForceUp + ForceM) + MVel)  * Mass)

#[--------------------------------------]#  

   local AddPitch = FeetH/2
   local Mavel = (-E:angVel()*ang(1,1/4,1/4))

   local Bearning = bearingRotate2(aim():position(),10,Driver:isValid())
   local Angle = ang(AddPitch,-X+E:angles():yaw()+Bearning,-X/2)
  
   E:applyAngForce((E:toLocal(Angle) + Mavel) * Mass)

#[--------------------------------------]#
LegR:anim(StepSpeed*2,1,RunDelay * 2,MaxStepHeight,E:toWorld(vec(0,RightLeft,0)),LegL1+LegL2,MaxDist,StepVel*3.0,E,WorldDownVec,7)
LegL:anim(StepSpeed*2,1+RunDelay,RunDelay * 2,MaxStepHeight,E:toWorld(vec(0,-RightLeft,0)),LegL1+LegL2,MaxDist,StepVel*3.0,E,WorldDownVec,8)
h(1000):inverse(1,3,5,7,LegR["Bezier",vector],180)
h(1000):inverse(2,4,6,8,LegL["Bezier",vector],180)
#[--------------------------------------]#

E:propGravity(0)
if(!Shift){
  setMode("walking")
  }

  if(!Ground){ setMode("fall") }
  if(Space){ setMode("setupJump") }
}
#######################################################################################################################
#######################################################################################################################
#######################################################################################################################

function setupJump(){
   local Hran = ran(E:toWorld(vec(0,0,0)))
 holoAng(44,E:toWorld(angYawIt(44)))
runGunsLeft()
 
Mech["JumpStart",vector] = Hran:pos()
Mech["JumpEnd",vector] = getJumpVec(aim():position(),MaxJumpLength ):position()
Mech["JumpDist",number] = (Mech["JumpStart",vector]-Mech["JumpEnd",vector]):length()
#[--------------------------------------]#

setMode("jump")
soundPlay(2,1,"npc/dog/dog_pneumatic"+randint(1,2)+".wav")


}
#######################################################################################################################

function jump(){
   
   rangerFilter(E)
   rangerFilter(Seat)
   local Hran = rangerOffset(HoverHeight*2.5,E:toWorld(vec(0,0,0)),E:up()*-1)
    
   local Mass = E:mass()
   local MVel = (-E:vel()*(0.5))
#[--------------------------------------]#
   
   holoAng(7,ang(180,E:angles():yaw(),0))
   holoAng(8,ang(180,E:angles():yaw(),0))
   
   local XY = E:velL()[1] + E:velL()[2]
   local HRAN = rangerOffset(HoverHeight,E:toWorld(vec(0,0,0)),vec(0,0,-1)):distance()
    local VelLX = clamp(-E:velL():z()/(8-min(XY/Jump_Leg_moveStrength,8)),-70,70)
    local Vector = E:velL():normalized():setZ(0) * VelLX
    
   LegR:fixIt(E:toWorld(vec(0,RightLeft,0)+Vector)+ vec(0,0,-HRAN+VelLX/2))
   LegL:fixIt(E:toWorld(vec(0,-RightLeft,0)+Vector)+ vec(0,0,-HRAN+VelLX/2))
   
   h(1000):inverse(1,3,5,7,LegR["Bezier",vector],180)
   h(1000):inverse(2,4,6,8,LegL["Bezier",vector],180)

#[--------------------------------------]#

   Mech["JumpCounter",number] = min(Mech["JumpCounter",number]+(0.08
 + (Mech["JumpCounter",number] >= 0.6? Mech["JumpCounter",number]*0.1 : -Mech["JumpCounter",number]*0.02)),1)



#[--------------------------------------]#
   local Mix = (Mech["JumpStart",vector]+Mech["JumpEnd",vector])/2
   local Jump = bezier( Mech["JumpStart",vector], Mix+vec(0,0,800), Mech["JumpEnd",vector],Mech["JumpCounter",number])
   E:applyForce((((Jump)-E:pos())*2.2 + MVel) * Mass)
#[--------------------------------------]#
   local T = (Mech["JumpStart",vector]-Mech["JumpEnd",vector]):toAngle():yaw()

   local AddPitch = cos(Mech["JumpCounter",number]*270)*-25

   local Mavel = (-E:angVel()*(1/4))

   local Bearning = bearingRotate2(aim():position(),10,Driver:isValid())
   local Angle = ang(AddPitch,(T)+(180+Bearning),0)
 
   E:applyAngForce((E:toLocal(Angle) + Mavel) * Mass)
#[--------------------------------------]#

  if(Hran:hit()){
   LegR:fixIt(E:toWorld(vec(0,RightLeft,0)+Vector)+ vec(0,0,-HRAN+VelLX/2))
   LegL:fixIt(E:toWorld(vec(0,-RightLeft,0)+Vector)+ vec(0,0,-HRAN+VelLX/2))    
  }

  
 Mech["JsaveX",number] = E:velL():x()/8
 Mech["JsaveY",number] = E:velL():y()/8

   if(Mech["JumpCounter",number]>=1&Hran:hit()&Mech["JumpDist",number]<=600){
   Mech["JumpCounter",number] = 0

   setMode("lowJumpFix")
   soundPlay(3,2,"npc/dog/dog_drop_gate1.wav")    
   }
   if(Mech["JumpCounter",number]>=1&Hran:hit()&Mech["JumpDist",number]>600){
   Mech["JumpCounter",number] = 0
   E:soundPlay(1,99,"npc/dog/dog_destroy_door1.wav")
   setMode("slide")  
   }
runGunsLeft()

}

#######################################################################################################################
#######################################################################################################################
#######################################################################################################################


function lowJumpFix(){
runGunsLeft()

   
   local Hran1 = ran(E:toWorld(vec(0,RightLeft,0))+E:vel():setZ(0)/10):distance()
   local Hran2 = ran(E:toWorld(vec(0,-RightLeft,0))+E:vel():setZ(0)/10):distance()
   local Hran = ran(E:toWorld(vec(0,0,0))+E:vel():setZ(0)/8)
 
   local Mass = E:mass()
   local MVel = (-E:vel()*vec(0.4,0.4,0.6))

   holoAng(7,ang(180,E:angles():yaw(),0))
   holoAng(8,ang(180,E:angles():yaw(),0))


   E:applyForce((((Hran:pos()+vec(0,0,HoverHeight-Mech["SlideCounter",number]*10))-E:pos())+ MVel)*Mass)

   local Mavel = (-E:angVel()*ang(1,1/2,1/4))
   local Ang = ang(0,E:angles():yaw(),0)
   E:applyAngForce((E:toLocal(Ang) + Mavel) * Mass)
   

   LegR:fixIt(E:toWorld(vec(0,RightLeft,-Hran1-4))+E:vel():setZ(0)/2)
   LegL:fixIt(E:toWorld(vec(0,-RightLeft,-Hran2-4))+E:vel():setZ(0)/2)
   h(1000):inverse(1,3,5,7,LegR["Bezier",vector],180)
   h(1000):inverse(2,4,6,8,LegL["Bezier",vector],180)


   Mech["LJF",number] = min(Mech["LJF",number] + 0.5,2) 
    if(Mech["LJF",number]>=2){
    Mech["LJF",number] = 0
    setMode("walking")
    }
}

#######################################################################################################################
#######################################################################################################################
#######################################################################################################################


function slide(){
    runGunsLeft()


   local Hran = ran(E:toWorld(vec(0,0,0))+E:vell():setZ(0)/8)
   local Hran1 = ran(E:toWorld(vec(0,RightLeft,0))+E:vel():setZ(0)/10):distance()
   local Hran2 = ran(E:toWorld(vec(0,-RightLeft,0))+E:vel():setZ(0)/10):distance()


   local Mass = E:mass()
   local MVel = (-E:vel()*vec(0.3,0.3,0.6))
  
   holoAng(7,ang(180,E:angles():yaw(),0))
   holoAng(8,ang(180,E:angles():yaw(),0))
   
   LegR:fixIt(E:toWorld(vec(0,RightLeft,-Hran1-5))+clamp(E:vel():setZ(0)/8,-70,70))
   LegL:fixIt(E:toWorld(vec(0,-RightLeft,-Hran2-5))+clamp(E:vel():setZ(0)/8,-70,70))
   h(1000):inverse(1,3,5,7,LegR["Bezier",vector],180)
   h(1000):inverse(2,4,6,8,LegL["Bezier",vector],180)


   Mech["SlideCounter",number] = min(Mech["SlideCounter",number] + 0.1, 1)

   E:applyForce((((Hran:pos()+vec(0,0,HoverHeight-Mech["SlideCounter",number]*10))-E:pos())+ MVel)*Mass)

   local Mavel = (-E:angVel()*ang(1,1/2,1/4))
   local Bearning = bearingRotate2(aim():position(),2,Driver:isValid())
   local Ang = ang(0,E:angles():yaw()+0+Bearning,0)
   E:applyAngForce((E:toLocal(Ang) + Mavel) * Mass)


  if(Mech["SlideCounter",number]>=1){
  setMode("walking")
  soundStop(1,1)
  Mech["SlideCounter",number] = 0
  }

 if(!Hran:hit()){
  soundStop(1,1)
  setMode("fall")
 }
    
}

#######################################################################################################################
#######################################################################################################################
#######################################################################################################################



function fall(){
 #[--------------------------------------]#

   holoAng(7,ang(180,E:angles():yaw(),0))
   holoAng(8,ang(180,E:angles():yaw(),0))
  

   LegR:fixIt(E:toWorld(vec(0,RightLeft,-HoverHeight/1.2))+E:vel():setZ(-1)/10)
   LegL:fixIt(E:toWorld(vec(0,-RightLeft,-HoverHeight/1.2))+E:vel():setZ(-1)/10)
   
   h(1000):inverse(1,3,5,7,LegR["Bezier",vector],180)
   h(1000):inverse(2,4,6,8,LegL["Bezier",vector],180)

#[--------------------------------------]#

   E:propGravity(1)
   local Hran = ran(E:toWorld(vec(0,0,0)))
   local Ground = Hran:hit()  

#[--------------------------------------]#

  if(Ground){
   LegR:fixIt(E:toWorld(vec(0,RightLeft,-HoverHeight))+E:vel():setZ(1)/10)
   LegL:fixIt(E:toWorld(vec(0,-RightLeft,-HoverHeight))+E:vel():setZ(1)/10)
   
  setMode("walking")
  }
}

#######################################################################################################################
#######################################################################################################################
#######################################################################################################################
#######################################################################################################################
#######################################################################################################################
#######################################################################################################################
}
if(clk("run")){ 
    holoColor(49,vec(155+cos(curtime()*250)*100,0,0))
    Mode()
#print(toString(ops()))  
   }


Last = 76
Alp = 0
if(clk("run")&!holoEntity(Last)&holoCanCreate()&perf()){
#skell#

c(10000,E:toWorld(CamPos),vec(0.0000000001),ang(),vec(0),"cube",E,0)

c(1000,E:toWorld(vec(0,0,0)),vec(1,1,1),E:toWorld(ang(0,180,0)),vec(0,0,255),"cube",E,0)


c(1,E:toWorld(vec(0,RightLeft,0)),vec(1,1,1),E:toWorld(ang()),vec(0,255,0),"cube",1000,Alp)
c(2,E:toWorld(vec(0,-RightLeft,0)),vec(1,1,1),E:toWorld(ang()),vec(0,255,0),"cube",1000,Alp)
c(3,h(1):toWorld(vec(0,0,0)),vec(1,1,1),h(1):toWorld(ang()),vec(0,0,255),"cube",1,Alp)
c(4,h(2):toWorld(vec(0,0,0)),vec(1,1,1),h(2):toWorld(ang()),vec(0,0,255),"cube",2,Alp)

c(5,h(3):toWorld(vec(0,0,LegL1)),vec(1,1,1),h(3):toWorld(ang()),vec(255,0,0),"cube",3,Alp)
c(6,h(4):toWorld(vec(0,0,LegL1)),vec(1,1,1),h(4):toWorld(ang()),vec(255,0,0),"cube",4,Alp)

c(7,h(5):toWorld(vec(0,0,LegL2)),vec(1,1,1),h(5):toWorld(ang()),vec(0,255,0),"cube",5,Alp)
c(8,h(6):toWorld(vec(0,0,LegL2)),vec(1,1,1),h(6):toWorld(ang()),vec(0,255,0),"cube",6,Alp)


c(9,E:toWorld(vec(0)),vec(2.5),E:toWorld(ang()),vec(80),"hqsphere",E,255,"models/props_debris/plasterwall040c")

c(10,E:toWorld(vec(0,RightLeft/2,0)),vec(1.3,1.3,2),E:toWorld(ang(0,0,90)),vec(100),"hqcylinder",E,255,"models/props_debris/plasterwall040c")
c(11,E:toWorld(vec(0,-RightLeft/2,0)),vec(1.3,1.3,2),E:toWorld(ang(0,0,-90)),vec(100),"hqcylinder",E,255,"models/props_debris/plasterwall040c")

c(12,h(1):toWorld(vec(0,0,0)),vec(1,1,2.4),h(1):toWorld(ang(0,0,90)),vec(100),"cylinder",1,255,"models/props_debris/plasterwall040c")
c(13,h(2):toWorld(vec(0,0,0)),vec(1,1,2.4),h(2):toWorld(ang(0,0,-90)),vec(100),"cylinder",2,255,"models/props_debris/plasterwall040c")

c(14,h(3):toWorld(vec(0,0,LegL1/2)),vec(2,2,5),h(3):toWorld(ang(0,0,0)),vec(100),"hq_rcube",3,255,"models/props_debris/plasterwall040c")
c(15,h(4):toWorld(vec(0,0,LegL1/2)),vec(2,2,5),h(4):toWorld(ang(0,0,0)),vec(100),"hq_rcube",4,255,"models/props_debris/plasterwall040c")
c(16,h(3):toWorld(vec(0,0,0)),vec(2.2,2.2,2.2),h(3):toWorld(ang(0,0,90)),vec(70),"hq_rcylinder",3,255,"models/props_debris/plasterwall040c")
c(17,h(4):toWorld(vec(0,0,0)),vec(2.2,2.2,2.2),h(4):toWorld(ang(0,0,-90)),vec(70),"hq_rcylinder",4,255,"models/props_debris/plasterwall040c")
c(18,h(3):toWorld(vec(0,0,0)),vec(2.3,2.3,0.7),h(3):toWorld(ang(0,0,90)),vec(60),"hq_rcylinder",3,255,"models/props_debris/plasterwall040c")
c(19,h(4):toWorld(vec(0,0,0)),vec(2.3,2.3,0.7),h(4):toWorld(ang(0,0,-90)),vec(60),"hq_rcylinder",4,255,"models/props_debris/plasterwall040c")

#upper#
c(20,h(3):toWorld(vec(0,0,LegL1/2)),vec(2.1,0.5,5.1),h(3):toWorld(ang(0,0,0)),vec(80),"hq_rcube",3,255,"models/props_debris/plasterwall040c")
c(21,h(4):toWorld(vec(0,0,LegL1/2)),vec(2.1,0.5,5.1),h(4):toWorld(ang(0,0,0)),vec(80),"hq_rcube",4,255,"models/props_debris/plasterwall040c")

c(22,h(3):toWorld(vec(0,0,LegL1/3)),vec(1,2.1,1),h(3):toWorld(ang(0,0,0)),vec(60),"hq_rcube",3,255,"models/props_debris/plasterwall040c")
c(23,h(4):toWorld(vec(0,0,LegL1/3)),vec(1,2.1,1),h(4):toWorld(ang(0,0,0)),vec(60),"hq_rcube",4,255,"models/props_debris/plasterwall040c")
c(24,h(3):toWorld(vec(0,0,LegL1/1.5)),vec(1,2.1,1),h(3):toWorld(ang(0,0,0)),vec(60),"hq_rcube",3,255,"models/props_debris/plasterwall040c")
c(25,h(4):toWorld(vec(0,0,LegL1/1.5)),vec(1,2.1,1),h(4):toWorld(ang(0,0,0)),vec(60),"hq_rcube",4,255,"models/props_debris/plasterwall040c")
#######

######lower
c(26,h(5):toWorld(vec(0,0,0)),vec(2.2,2.2,2.2),h(5):toWorld(ang(0,0,90)),vec(70),"hq_rcylinder",5,255,"models/props_debris/plasterwall040c")
c(27,h(6):toWorld(vec(0,0,0)),vec(2.2,2.2,2.2),h(6):toWorld(ang(0,0,-90)),vec(70),"hq_rcylinder",6,255,"models/props_debris/plasterwall040c")
c(28,h(5):toWorld(vec(0,0,0)),vec(2.3,2.3,0.7),h(5):toWorld(ang(0,0,90)),vec(60),"hq_rcylinder",5,255,"models/props_debris/plasterwall040c")
c(29,h(6):toWorld(vec(0,0,0)),vec(2.3,2.3,0.7),h(6):toWorld(ang(0,0,-90)),vec(60),"hq_rcylinder",6,255,"models/props_debris/plasterwall040c")

c(30,h(5):toWorld(vec(0,0,LegL1/2)),vec(1.6,1.6,5),h(5):toWorld(ang(0,0,0)),vec(100),"hq_rcube",5,255,"models/props_debris/plasterwall040c")
c(31,h(6):toWorld(vec(0,0,LegL1/2)),vec(1.6,1.6,5),h(6):toWorld(ang(0,0,0)),vec(100),"hq_rcube",6,255,"models/props_debris/plasterwall040c")
c(
32,h(5):toWorld(vec(0,0,LegL1/2)),vec(1.9,0.4,5.1),h(5):toWorld(ang(0,0,0)),vec(80),"hq_rcube",5,255,"models/props_debris/plasterwall040c")
c(33,h(6):toWorld(vec(0,0,LegL1/2)),vec(1.9,0.4,5.1),h(6):toWorld(ang(0,0,0)),vec(80),"hq_rcube",6,255,"models/props_debris/plasterwall040c")

c(34,h(5):toWorld(vec(0,0,LegL1/3)),vec(1,1.8,0.8),h(5):toWorld(ang(0,0,0)),vec(60),"hq_rcube",5,255,"models/props_debris/plasterwall040c")
c(35,h(6):toWorld(vec(0,0,LegL1/3)),vec(1,1.8,0.8),h(6):toWorld(ang(0,0,0)),vec(60),"hq_rcube",6,255,"models/props_debris/plasterwall040c")
c(36,h(5):toWorld(vec(0,0,LegL1/1.5)),vec(1,1.8,0.8),h(5):toWorld(ang(0,0,0)),vec(60),"hq_rcube",5,255,"models/props_debris/plasterwall040c")
c(37,h(6):toWorld(vec(0,0,LegL1/1.5)),vec(1,1.8,0.8),h(6):toWorld(ang(0,0,0)),vec(60),"hq_rcube",6,255,"models/props_debris/plasterwall040c")
##################

#feet#
c(38,h(7):toWorld(vec(0,0,-4)),vec(1.8,1.7,0.9),h(7):toWorld(ang(0,0,0)),vec(60),"hq_rcube",7,255,"models/props_debris/plasterwall040c")
c(39,h(8):toWorld(vec(0,0,-4)),vec(1.8,1.7,0.9),h(8):toWorld(ang(0,0,0)),vec(60),"hq_rcube",8,255,"models/props_debris/plasterwall040c")

c(40,h(38):toWorld(vec(-10,5,-1)),vec(1.8,0.4,0.8),h(38):toWorld(ang(180,0,0)),vec(40),"pyramid",38,255,"models/props_debris/plasterwall040c")
c(41,h(38):toWorld(vec(-10,-5,-1)),vec(1.8,0.4,0.8),h(38):toWorld(ang(180,0,0)),vec(40),"pyramid",38,255,"models/props_debris/plasterwall040c")
c(42,h(39):toWorld(vec(-10,5,-1)),vec(1.8,0.4,0.8),h(39):toWorld(ang(180,0,0)),vec(40),"pyramid",39,255,"models/props_debris/plasterwall040c")
c(43,h(39):toWorld(vec(-10,-5,-1)),vec(1.8,0.4,0.8),h(39):toWorld(ang(180,0,0)),vec(40),"pyramid",39,255,"models/props_debris/plasterwall040c")

######
LegR["Bezier",vector] = E:toWorld(vec(0,RightLeft,-HoverHeight))
LegL["Bezier",vector] = E:toWorld(vec(0,-RightLeft,-HoverHeight))
h(1000):inverse(1,3,5,7,LegR["Bezier",vector],180)
h(1000):inverse(2,4,6,8,LegL["Bezier",vector],180)


#cocpitbase#
c(44,E:toWorld(vec(0,0,10)),vec(1.1,1.1,2),E:toWorld(ang(0,0,0)),vec(40),"hq_cylinder",E,255,"models/props_debris/plasterwall040c")
c(45,h(44):toWorld(vec(0,0,40)),vec(4,5,5),h(44):toWorld(ang(0,0,0)),vec(70),"hq_rcube",44,255,"models/props_debris/plasterwall040c")
c(46,h(45):toWorld(vec(0,20,0)),vec(4.2,0.5,5.2),h(45):toWorld(ang(0,0,0)),vec(100),"hq_rcube",45,255,"models/props_debris/plasterwall040c")
c(47,h(45):toWorld(vec(0,-20,0)),vec(4.2,0.5,5.2),h(45):toWorld(ang(0,0,0)),vec(100),"hq_rcube",45,255,"models/props_debris/plasterwall040c")

c(48,h(45):toWorld(vec(20,0,10)),vec(1,1,1),h(45):toWorld(ang(90,0,0)),vec(30),"hqcylinder",45,255,"models/props_debris/plasterwall040c")
c(49,h(48):toWorld(vec(0,0,5)),vec(0.7),h(48):toWorld(ang(90,0,0)),vec(255,0,0),"hqsphere",45,255,"debug/debugdrawflat")
################################################################################################
################################################################################################
################################################################################################
#left guns#
#outside#
c(50,h(45):toWorld(vec(0,25,10)),vec(1.4),h(45):toWorld(ang(0,0,-90)),vec(150),"hq_tube_thin",45,255,"models/props_debris/plasterwall040c")
c(51,h(45):toWorld(vec(0,25,-10)),vec(1.4),h(45):toWorld(ang(0,0,-90)),vec(150),"hq_tube_thin",45,255,"models/props_debris/plasterwall040c")
########

#ausfahrbar#
#basis#
c(52,h(50):toWorld(vec(0,0,-3)),vec(1.3,1.3,2),h(50):toWorld(ang(0,0,0)),vec(80),"hqcylinder",50,0,"models/props_debris/plasterwall040c")
c(53,h(51):toWorld(vec(0,0,-3)),vec(1.3,1.3,2),h(51):toWorld(ang(0,0,0)),vec(80),"hqcylinder",51,0,"models/props_debris/plasterwall040c")
######

#teil1 oben#
c(54,h(52):toWorld(vec(0,0,9)),vec(1.3,1.3,0.5),h(52):toWorld(ang(0,0,0)),vec(80),"hqcylinder",52,255,"models/props_debris/plasterwall040c")
c(55,h(53):toWorld(vec(0,0,9)),vec(1.3,1.3,0.5),h(53):toWorld(ang(0,0,0)),vec(80),"hqcylinder",53,255,"models/props_debris/plasterwall040c")

############

#teil2 unten#
#############
c(56,h(52):toWorld(vec(0,0,-9)),vec(1.3,1.3,0.5),h(52):toWorld(ang(0,0,0)),vec(80),"hqcylinder",52,255,"models/props_debris/plasterwall040c")
c(57,h(53):toWorld(vec(0,0,-9)),vec(1.3,1.3,0.5),h(53):toWorld(ang(0,0,0)),vec(80),"hqcylinder",53,255,"models/props_debris/plasterwall040c")


#mid teil#

c(58,h(52):toWorld(vec(-0,0,-0)),vec(1.2,1.2,1.5),h(52):toWorld(ang(0,0,0)),vec(70),"hqcylinder",52,255,"models/props_debris/plasterwall040c")
c(59,h(53):toWorld(vec(-0,0,-0)),vec(1.2,1.2,1.5),h(53):toWorld(ang(0,0,0)),vec(70),"hqcylinder",53,255,"models/props_debris/plasterwall040c")

c(58,h(52):toWorld(vec(-0,0,-0)),vec(1.2,1.2,1.5),h(52):toWorld(ang(0,0,0)),vec(80),"hqcylinder",52,255,"models/props_debris/plasterwall040c")
c(59,h(53):toWorld(vec(-0,0,-0)),vec(1.2,1.2,1.5),h(53):toWorld(ang(0,0,0)),vec(80),"hqcylinder",53,255,"models/props_debris/plasterwall040c")

#kanonen#
#links#
c(60,h(52):toWorld(vec(0,0,17)),vec(1.3),h(52):toWorld(ang(0,0,0)),vec(80),"hqsphere",52,255,"models/props_debris/plasterwall040c")
c(61,h(53):toWorld(vec(0,0,17)),vec(1.3),h(53):toWorld(ang(0,0,0)),vec(80),"hqsphere",53,255,"models/props_debris/plasterwall040c")


c(62,h(60):toWorld(vec(-10,0,0)),vec(1.2,1.2,1.5),h(60):toWorld(ang(90,0,0)),vec(60),"hqrcylinder",60,255,"models/props_debris/plasterwall040c")
c(63,h(61):toWorld(vec(-10,0,0)),vec(1.2,1.2,1.5),h(61):toWorld(ang(90,0,0)),vec(60),"hqrcylinder",61,255,"models/props_debris/plasterwall040c")

c(64,h(60):toWorld(vec(10,0,0)),vec(1.0,1.0,1.5),h(60):toWorld(ang(90,0,0)),vec(80),"hqtube",60,255,"models/props_debris/plasterwall040c")
c(65,h(61):toWorld(vec(10,0,0)),vec(1.0,1.0,1.5),h(61):toWorld(ang(90,0,0)),vec(80),"hqtube",61,255,"models/props_debris/plasterwall040c")
c(66,h(64):toWorld(vec(0,0,15)),vec(0.8,0.8,1.5),h(64):toWorld(ang(0,0,0)),vec(80),"hqtube",64,255,"models/props_debris/plasterwall040c")
c(67,h(65):toWorld(vec(0,0,15)),vec(0.8,0.8,1.5),h(65):toWorld(ang(0,0,0)),vec(80),"hqtube",65,255,"models/props_debris/plasterwall040c")

c(68,h(66):toWorld(vec(0,0,9.5)),vec(0.79,0.79,0.1),h(66):toWorld(ang(0,0,0)),vec(100,0,0),"hqtube",66,255,"debug/debugdrawflat")
c(69,h(67):toWorld(vec(0,0,9.5)),vec(0.79,0.79,0.1),h(67):toWorld(ang(0,0,0)),vec(100,0,0),"hqtube",67,255,"debug/debugdrawflat")
#########
#rechts#
c(70,h(45):toWorld(vec(0,-25,0)),vec(1.8,1.8,1.4),h(45):toWorld(ang(0,0,-90)),vec(150),"hq_tube_thin",45,255,"models/props_debris/plasterwall040c")
c(71,h(45):toWorld(vec(0,-28,0)),vec(1.6,1.6,1.4),h(45):toWorld(ang(0,0,-90)),vec(70),"hqcylinder",45,255,"models/props_debris/plasterwall040c")
c(72,h(71):toWorld(vec(0,-0,-15)),vec(1.8),h(71):toWorld(ang(0,0,0)),vec(100),"hqsphere",71,255,"models/props_debris/plasterwall040c")


c(73,h(72):toWorld(vec(-18,-0,-0)),vec(1.8,1.8,2.2),h(72):toWorld(ang(90,0,0)),vec(50),"hqrcylinder",72,255,"models/props_debris/plasterwall040c")
c(74,h(72):toWorld(vec(18,-0,-0)),vec(1.6,1.6,2.2),h(72):toWorld(ang(90,0,0)),vec(80),"hq_tube",72,255,"models/props_debris/plasterwall040c")
c(75,h(72):toWorld(vec(45,-0,-0)),vec(1.2,1.2,3),h(72):toWorld(ang(90,0,0)),vec(100),"hq_tube",72,255,"models/props_debris/plasterwall040c")
c(76,h(75):toWorld(vec(0,-0,18.5)),vec(1.2,1.2,0.1),h(75):toWorld(ang(0,0,0)),vec(100,0,0),"hq_tube",75,255,"debug/debugdrawflat")

########



################################################################################################
################################################################################################
################################################################################################

#############


}
if(h(Last)&!holoEntity(Aim)&holoCanCreate()&clk("run")){
c(Aim,E:toWorld(vec(0,0,1942)),vec(4,4,2),ang(),vec(0,0,0),"hq_torus",255,"debug/debugdrawflat")    
}

