@name Fuchikoma V0.95
@inputs [Pod LARMC RARMC TAILC  H1P H2P H3P H4P K1P K2P K3P K4P]:entity [ADV Cam]:wirelink
@outputs Active Debug StandV:vector Pitch Roll N 
@persist [Pod Base]:entity
@persist Active Debug StandH Mass
@persist [RangerLF RangerRF RangerLB RangerRB RangerC]:ranger 
@persist [RangerLF2 RangerRF2 RangerLB2 RangerRB2]:ranger 
@persist [RangerW1 RangerW2 RangerW3 RangerW4]:ranger
@persist [LF_Holo RF_Holo LB_Holo RB_Holo]:entity
@persist [POSH]:entity 
@persist [LF_Holo2 RF_Holo2 LB_Holo2 RB_Holo2]:entity
@persist [StandV]:vector X Pitch Roll 

@persist [HO1 HO2 HO3 HO4]:entity  
@persist [HI1 HI2 HI3 HI4]:entity
@persist [K1 K2 K3 K4]:entity
@persist [HP1 HP2 HP3 HP4]:vector
@persist HD1 HD2 HD3 HD4
@persist KL FL KLSquared FLSquared 
@persist [W1 W2 W3 W4]:entity
@persist StepH TIME Toggle TempAng:angle TempPos:vector
@persist [LARM RARM TAIL]:entity
@persist [C1 C2 C3]:vector [M1 M2 M3]:string




@outputs Trigger Toggle Thump ChckDist ChckYaw 
@outputs FLR1 FRR1 BLR1 BRR1
@outputs FLR2 FRR2 BLR2 BRR2 
@outputs Mode Speed Speed2
@outputs [Base LARM RARM TAIL H1P H2P H3P H4P K1P K2P K3P K4P]:entity
@model models/sprops/cuboids/height12/size_1/cube_12x12x12.mdl
interval(100)
if(first()|dupefinished()){
    runOnChat(1)
    
    C1 = vec(255,255,255)
    C2 = vec(255,255,255)
    C3 = vec(255,255,255)
    
    
    M1 = "sprops/sprops_grid_12x12" 
    M2 = "sprops/sprops_grid_orange_12x12"
    M3 = ""
    
    
    ###############################
    #####      TO DO LIST     ##### 
    ###############################
    
    ###    REMOVE 14 holos
    
    ###    ADJUST holo numbers 
    
    ###    ADD Holo Legs
    
    ###    ADD SOUND
    
    ###    CAMERA STUFF
    
    
    
    
    runOnLast(1)
    
    Mode = 0
    
    Debug = 1
    
    Toggle = 0
    
    StandH = 65
    KL = 40
    FL = 60
    
    Step1 = 0
    Step2 = 0
    
    StepH = 20
    
    KLSquared = KL^2
    FLSquared = FL^2
    
    HP1 = vec(11.5,25,-17)
    HP2 = vec(11.5,-25,-17)
    HP3 = vec(-11.5,25,-17)
    HP4 = vec(-11.5,-25,-17)
    
    Mat1 = "sprops/sprops_grid_12x12"
    Mat2 = "sprops/sprops_grid_orange_12x12"
    Mat3 = "sprops/sprops_grid_12x12"
    MatE = "models/debug/debugwhite"
    Col1 = vec(255)
    Col2 = vec(255)
    Col3 = vec(64)
    ColE = vec(200)
    
    
    
    
    
   
    Base = entity()  
    Base:propGravity(0)
    Base:setMass(5000)
    Mass = Base:mass() 
    rangerPersist(1)
    rangerFilter(Base)
    rangerHitEntities(0)
    rangerFilter(players())
    
    N++ #2  1  ##Ranger## 
    LF_Holo = holoCreate(N,Base:toWorld(vec(0,0,0)))
    holoScale(N,vec(0.25*Debug))
    holoColor(N,vec(0,255,0))
    
    N++ #3  2  ##Ranger##
    RF_Holo = holoCreate(N,Base:toWorld(vec(0,0,0)))
    holoScale(N,vec(0.25*Debug))
    holoColor(N,vec(0,255,0))
    
    N++ #4  3  ##Ranger##
    LB_Holo = holoCreate(N,Base:toWorld(vec(0,0,0)))
    holoScale(N,vec(0.25*Debug))
    holoColor(N,vec(0,255,0))
    
    N++ #5  4  ##Ranger##
    RB_Holo = holoCreate(N,Base:toWorld(vec(0,0,0)))
    holoScale(N,vec(0.25*Debug))
    holoColor(N,vec(0,255,0))
    
    N++ #7 5   ##Center Ranger##
    POSH = holoCreate(N,Base:toWorld(vec(0,0,0)))
    holoAng(N,Base:toWorld(ang(0,0,0)))
    holoScale(N,vec(0.25*Debug))
    holoColor(N,vec(0,255,255))
    
    #####################################################################
    #####################################################################
    #####################################################################

    N++ #16 6    ##Ranger##
    LF_Holo2 = holoCreate(N,Base:toWorld(vec(0,0,0)))
    holoScale(N,vec(0.25*Debug))
    holoColor(N,vec(0,0,0))
    
    N++ #17 7   ##Ranger##
    RF_Holo2 = holoCreate(N,Base:toWorld(vec(0,0,0)))
    holoScale(N,vec(0.25*Debug))
    holoColor(N,vec(0,0,0))
    
    N++ #18 8   ##Ranger##
    LB_Holo2 = holoCreate(N,Base:toWorld(vec(0,0,0)))
    holoScale(N,vec(0.25*Debug))
    holoColor(N,vec(0,0,0))
    
    N++ #19 9   ##Ranger##
    RB_Holo2 = holoCreate(N,Base:toWorld(vec(0,0,0)))
    holoScale(N,vec(0.25*Debug))
    holoColor(N,vec(0,0,0))
    
    ##############################################################
    
    N++ #20 10
    HO1 = holoCreate(N,Base:toWorld(HP1),vec(0)*Debug)
    holoAng(N,Base:toWorld(ang(0,90,0)))
    holoParent(N,Base)
    
    N++ #21 11
    HO2 = holoCreate(N,Base:toWorld(HP2),vec(0)*Debug)
    holoAng(N,Base:toWorld(ang(0,90,0)))
    holoParent(N,Base)

    N++ #22 12
    HO3 = holoCreate(N,Base:toWorld(HP3),vec(0)*Debug)
    holoAng(N,Base:toWorld(ang(0,90,0)))
    holoParent(N,Base)

    N++ #23 13
    HO4 = holoCreate(N,Base:toWorld(HP4),vec(0)*Debug)
    holoAng(N,Base:toWorld(ang(0,90,0)))
    holoParent(N,Base)
    
##########################################

#########################################
########### HIP INNER ###################
#########################################

    N++  #24 14
    HI1 = holoCreate(N,HO1:toWorld(vec(0,0,0)))
    holoModel(N,"hq_sphere")
    holoScale(N,vec(1.25))
    holoColor(N,vec(64))
    holoParent(N,HO1)
    
    N++ #25 15
    HI2 = holoCreate(N,HO2:toWorld(vec(0,0,0)))
    holoModel(N,"hq_sphere")
    holoScale(N,vec(1.25))
    holoColor(N,vec(64))
    holoParent(N,HO2)
    
    N++ #26 16
    HI3 = holoCreate(N,HO3:toWorld(vec(0,0,0)))
    holoModel(N,"hq_sphere")
    holoScale(N,vec(1.25))
    holoColor(N,vec(64))
    holoParent(N,HO3)
    
    N++ #27 17
    HI4 = holoCreate(N,HO4:toWorld(vec(0,0,0)))
    holoModel(N,"hq_sphere")
    holoScale(N,vec(1.25))
    holoColor(N,vec(64))
    holoParent(N,HO4)


    

##############################################
########### KNEE POSITIONS ###################
##############################################

    N++ #28 18
    K1 = holoCreate(N,HI1:toWorld(vec(0,0,KL)))
    holoModel(N,"hq_sphere")
    holoScale(N,vec(1))
    holoColor(N,vec(64))
    holoParent(N,HI1)
    
    N++ #29 19  
    K2 = holoCreate(N,HI2:toWorld(vec(0,0,KL)))
    holoModel(N,"hq_sphere")
    holoScale(N,vec(1))
    holoColor(N,vec(64))
    holoParent(N,HI2)
    
    N++ #30 20   
    K3 = holoCreate(N,HI3:toWorld(vec(0,0,KL)))
    holoModel(N,"hq_sphere")
    holoScale(N,vec(1))
    holoColor(N,vec(64))
    holoParent(N,HI3)
    
    N++ #31 21   
    K4 = holoCreate(N,HI4:toWorld(vec(0,0,KL)))
    holoModel(N,"hq_sphere")
    holoScale(N,vec(1))
    holoColor(N,vec(64))
    holoParent(N,HI4)

    N++ #32 22
    LARM = holoCreate(N,Base:toWorld(vec(50,15,-10)))
    holoAng(N,Base:toWorld(ang(0,0,0)))
    holoModel(N,"hq_sphere")
    holoScale(N,vec(1.15))
    holoColor(N,vec(64))
    holoParent(N,Base)
    
    N++ #33 23
    RARM = holoCreate(N,Base:toWorld(vec(50,-15,-10)))
    holoAng(N,Base:toWorld(ang(0,0,0)))
    holoModel(N,"hq_sphere")
    holoScale(N,vec(1.15))
    holoColor(N,vec(64))
    holoParent(N,Base)
    
    N++ #34 24
    TAIL = holoCreate(N,Base:toWorld(vec(-60,0,-10)))
    holoAng(N,Base:toWorld(ang(0,0,0)))
    holoModel(N,"hq_sphere")
    holoScale(N,vec(2))
    holoColor(N,vec(64))
    holoParent(N,Base)
    
    N++ #39 25
    W1 = holoCreate(N,Base:toWorld(vec(0,0,0)))
    holoAng(N,Base:toWorld(ang(0,0,0)))
    holoModel(N,"cube")
    holoScale(N,vec(0.25,0.25,0.25))
    holoColor(N,vec(255,0,255))
   
    
    N++ #40 26
    W2 = holoCreate(N,Base:toWorld(vec(0,0,0)))
    holoAng(N,Base:toWorld(ang(0,0,0)))
    holoModel(N,"cube")
    holoScale(N,vec(0.25,0.25,0.25))
    holoColor(N,vec(255,0,255))
    
    
    N++ #41 27
    W3 = holoCreate(N,Base:toWorld(vec(0,0,0)))
    holoAng(N,Base:toWorld(ang(0,0,0)))
    holoModel(N,"cube")
    holoScale(N,vec(0.25,0.25,0.25))
    holoColor(N,vec(255,0,255))
    
    
    N++ #42 28
    W4 = holoCreate(N,Base:toWorld(vec(0,0,0)))
    holoAng(N,Base:toWorld(ang(0,0,0)))
    holoModel(N,"cube")
    holoScale(N,vec(0.25,0.25,0.25))
    holoColor(N,vec(255,0,255))
    
    N++ #29
    holoCreate(N,Base:toWorld(vec(0,0,-16)))
    holoAng(N,Base:toWorld(ang(180,0,0)))
    holoModel(N,"models/sprops/misc/fittings/cred_12_9_tall.mdl")
    holoScale(N,vec(3.5,3.5,1))
    holoColor(N,C1)
    holoMaterial(N,M1) 
    holoParent(N,Base)
    
    N++ #30
    holoCreate(N,Base:toWorld(vec(-30,0,-10)))
    holoAng(N,Base:toWorld(ang(-90,0,0)))
    holoModel(N,"models/sprops/misc/fittings/cred_12_9_tall.mdl")
    holoScale(N,vec(2,2,4))
    holoColor(N,C2)
    holoMaterial(N,M2) 
    holoParent(N,Base)
    
    N++ #31
    holoCreate(N,Base:toWorld(vec(10,20,-17)))
    holoAng(N,Base:toWorld(ang(90,75,0)))
    holoModel(N,"models/sprops/misc/fittings/cred_12_9_tall.mdl")
    holoScale(N,vec(0.8,0.8,1))
    holoColor(N,C2)
    holoMaterial(N,M2) 
    holoParent(N,Base)
    
    N++ #32
    holoCreate(N,Base:toWorld(vec(10,-20,-17)))
    holoAng(N,Base:toWorld(ang(90,-75,0)))
    holoModel(N,"models/sprops/misc/fittings/cred_12_9_tall.mdl")
    holoScale(N,vec(0.8,0.8,1))
    holoColor(N,C2)
    holoMaterial(N,M2) 
    holoParent(N,Base)
    
    N++ #33
    holoCreate(N,Base:toWorld(vec(-10,20,-17)))
    holoAng(N,Base:toWorld(ang(90,105,0)))
    holoModel(N,"models/sprops/misc/fittings/cred_12_9_tall.mdl")
    holoScale(N,vec(0.8,0.8,1))
    holoColor(N,C2)
    holoMaterial(N,M2) 
    holoParent(N,Base)
    
    N++ #34
    holoCreate(N,Base:toWorld(vec(-10,-20,-17)))
    holoAng(N,Base:toWorld(ang(90,-105,0)))
    holoModel(N,"models/sprops/misc/fittings/cred_12_9_tall.mdl")
    holoScale(N,vec(0.8,0.8,1))
    holoColor(N,C2)
    holoMaterial(N,M2) 
    holoParent(N,Base)
    
    N++ #35
    holoCreate(N,LARM:toWorld(vec(25,5.7,-6.65)))
    holoAng(N,LARM:toWorld(ang(0,-90,-90)))
    holoModel(N,"models/props_junk/garbage_plasticbottle002a.mdl")
    holoScale(N,vec(1.25,1,2.5))
    holoColor(N,C1)
    holoMaterial(N,M1) 
    holoParent(N,LARM)
    
    N++ #36
    holoCreate(N,RARM:toWorld(vec(25,-5.7,-6.65)))
    holoAng(N,RARM:toWorld(ang(0,-90,-90)))
    holoModel(N,"models/props_junk/garbage_plasticbottle002a.mdl")
    holoScale(N,vec(1.25,1,2.5))
    holoColor(N,C1)
    holoMaterial(N,M1) 
    holoParent(N,RARM)
    
    N++ #37
    holoCreate(N,HI1:toWorld(vec(0,0,20)))
    holoAng(N,HI1:toWorld(ang(0,180,0)))
    holoModel(N,"models/Items/car_battery01.mdl")
    holoScale(N,vec(1.25,0.85,3))
    holoColor(N,C2)
    holoMaterial(N,M2) 
    holoParent(N,HI1)
    
    N++ #38
    holoCreate(N,HI2:toWorld(vec(0,0,20)))
    holoAng(N,HI2:toWorld(ang(0,180,0)))
    holoModel(N,"models/Items/car_battery01.mdl")
    holoScale(N,vec(1.25,0.85,3))
    holoColor(N,C2)
    holoMaterial(N,M2) 
    holoParent(N,HI2)
    
    N++ #39
    holoCreate(N,HI3:toWorld(vec(0,0,20)))
    holoAng(N,HI3:toWorld(ang(0,180,0)))
    holoModel(N,"models/Items/car_battery01.mdl")
    holoScale(N,vec(1.25,0.85,3))
    holoColor(N,C2)
    holoMaterial(N,M2) 
    holoParent(N,HI3)
    
    N++ #40
    holoCreate(N,HI4:toWorld(vec(0,0,20)))
    holoAng(N,HI4:toWorld(ang(0,180,0)))
    holoModel(N,"models/Items/car_battery01.mdl")
    holoScale(N,vec(1.25,0.85,3))
    holoColor(N,C2)
    holoMaterial(N,M2) 
    holoParent(N,HI4)
    
    N++ #41
    holoCreate(N,K1:toWorld(vec(0,0,20)))
    holoAng(N,K1:toWorld(ang(0,-90,0)))
    holoModel(N,"models/props_junk/garbage_plasticbottle002a.mdl")
    holoScale(N,vec(4,1.5,3.5))
    holoColor(N,C1)
    holoMaterial(N,M1) 
    holoParent(N,K1)
    
    N++ #42
    holoCreate(N,K2:toWorld(vec(0,0,20)))
    holoAng(N,K2:toWorld(ang(0,-90,0)))
    holoModel(N,"models/props_junk/garbage_plasticbottle002a.mdl")
    holoScale(N,vec(4,1.5,3.5))
    holoColor(N,C1)
    holoMaterial(N,M1) 
    holoParent(N,K2)
    
    N++ #43
    holoCreate(N,K3:toWorld(vec(0,0,20)))
    holoAng(N,K3:toWorld(ang(0,-90,0)))
    holoModel(N,"models/props_junk/garbage_plasticbottle002a.mdl")
    holoScale(N,vec(4,1.5,3.5))
    holoColor(N,C1)
    holoMaterial(N,M1) 
    holoParent(N,K3)
    
    N++ #44
    holoCreate(N,K4:toWorld(vec(0,0,20)))
    holoAng(N,K4:toWorld(ang(0,-90,0)))
    holoModel(N,"models/props_junk/garbage_plasticbottle002a.mdl")
    holoScale(N,vec(4,1.5,3.5))
    holoColor(N,C1)
    holoMaterial(N,M1) 
    holoParent(N,K4)
    
    N++ #45
    holoCreate(N,K1:toWorld(vec(0,0,55)))
    holoAng(N,K1:toWorld(ang(0,90,0)))
    holoModel(N,"models/sprops/trans/wheel_a/t_wheel15.mdl")
    holoScale(N,vec(1))
    holoColor(N,C2)
    holoMaterial(N,"") 
    holoParent(N,K1)
    
    N++ #46
    holoCreate(N,K2:toWorld(vec(0,0,55)))
    holoAng(N,K2:toWorld(ang(0,90,0)))
    holoModel(N,"models/sprops/trans/wheel_a/t_wheel15.mdl")
    holoScale(N,vec(1))
    holoColor(N,C2)
    holoMaterial(N,"") 
    holoParent(N,K2)
    
    N++ #47
    holoCreate(N,K3:toWorld(vec(0,0,55)))
    holoAng(N,K3:toWorld(ang(0,90,0)))
    holoModel(N,"models/sprops/trans/wheel_a/t_wheel15.mdl")
    holoScale(N,vec(1))
    holoColor(N,C2)
    holoMaterial(N,"") 
    holoParent(N,K3)
    
    N++ #48
    holoCreate(N,K4:toWorld(vec(0,0,55)))
    holoAng(N,K4:toWorld(ang(0,90,0)))
    holoModel(N,"models/sprops/trans/wheel_a/t_wheel15.mdl")
    holoScale(N,vec(1))
    holoColor(N,C2)
    holoMaterial(N,"") 
    holoParent(N,K4)

    
    
    
    
   
    
    
  
    
    

    timer("Move",100)
    
}    
    if(clk("Move")){
    TAILC:setPos(TAIL:toWorld(vec(0,0,0)))
    TAILC:setAng(TAIL:toWorld(ang(0,0,0)))
    
    LARMC:setPos(LARM:toWorld(vec(9,5.75,-4.5)))
    LARMC:setAng(LARM:toWorld(ang(0,0,0)))
    
    RARMC:setPos(RARM:toWorld(vec(9,-5.75,-4.5)))
    RARMC:setAng(RARM:toWorld(ang(0,0,0)))
    
    H1P:setPos(HI1:toWorld(vec(0,0,20)))
    H1P:setAng(HI1:toWorld(ang(90,0,0)))
    
    H2P:setPos(HI2:toWorld(vec(0,0,20)))
    H2P:setAng(HI2:toWorld(ang(90,0,0)))
    
    H3P:setPos(HI3:toWorld(vec(0,0,20)))
    H3P:setAng(HI3:toWorld(ang(90,0,0)))
    
    H4P:setPos(HI4:toWorld(vec(0,0,20)))
    H4P:setAng(HI4:toWorld(ang(90,0,0)))
    
    K1P:setPos(K1:toWorld(vec(0,0,20)))
    K1P:setAng(K1:toWorld(ang(90,0,0)))
    
    K2P:setPos(K2:toWorld(vec(0,0,20)))
    K2P:setAng(K2:toWorld(ang(90,0,0)))
    
    K3P:setPos(K3:toWorld(vec(0,0,20)))
    K3P:setAng(K3:toWorld(ang(90,0,0)))
    
    K4P:setPos(K4:toWorld(vec(0,0,20)))
    K4P:setAng(K4:toWorld(ang(90,0,0)))
    
    
    timer("Parent",100)}
    
    if(clk("Parent")){
    TAILC:parentTo(TAIL)
    LARMC:parentTo(LARM)
    RARMC:parentTo(RARM)
    
    H1P:parentTo(HI1)
    H2P:parentTo(HI2)
    H3P:parentTo(HI3)
    H4P:parentTo(HI4)
    
    K1P:parentTo(K1)
    K2P:parentTo(K2)
    K3P:parentTo(K3)
    K4P:parentTo(K4)
    
    
    }
    
    if(owner():keyPressed("M")){Active = 1}

    if(changed(Active)&Active){
    Base:soundPlay(1,0,"acf_extra/airfx/hominglockaquired1.wav")
    
    
    }

    
   
        
    if(Active){
            
            
      
            
            
        X++    
        holoAng(22,Base:toWorld(ang(5*cos(X*5),0,0)))  #Changed
        holoAng(23,Base:toWorld(ang(5*cos(X*5),0,0)))  #Changed
        holoAng(24,Base:toWorld(ang(-5*cos(X*5),-Base:angVel():yaw()/20,0))) #Changed
        
        
        StepS = (Base:vel()*vec(1,1,0)):length() / 50 
        
        Mouse1 = ADV:number("Mouse1")
        Mouse2 = ADV:number("Mouse2")


        W = ADV:number("W")
        A = ADV:number("A")
        S = ADV:number("S")
        D = ADV:number("D")
        
        #W = owner():keyForward()
        #A = owner():keyLeft()
        #S = owner():keyBack()
        #D = owner():keyRight()
        
        Shift = ADV:number("Shift")
        #Space = owner():keyJump()
        Space = ADV:number("Space")
        Alt = ADV:number("Alt")
        #Alt = owner():keyWalk()
        Ctrl = ADV:number("Ctrl")

        F = ADV:number("Light")
        R = ADV:number("R")
        
        
        if(changed(Alt)&Alt){Mode = !Mode}
        
        RangerP = rangerOffsetHull(999 , Base:toWorld(vec(0,0,0)) , -Base:up() , vec(1))
        holoPos(5,RangerP:pos())
    
        
        if(changed(!Mode)&Mode){Base:soundPlay(4,0,"acf_extra/vehiclefx/engines/nekomanta.wav"),soundPitch(4,50)}
        if(changed(!Space)&Space){Base:soundPlay(2,0,"acf_extra/airfx/rpg_fire.wav"),soundPitch(2,150)}
        
        
        
        if(RangerP:distance()>StandH+20){
        Base:propGravity(1)    
        holoPos(25,Base:toWorld(vec(30,30,-50)))   #Changed
        holoPos(26,Base:toWorld(vec(30,-30,-50)))  #Changed
        holoPos(27,Base:toWorld(vec(-30,30,-50)))  #Changed
        holoPos(28,Base:toWorld(vec(-30,-30,-50))) #Changed
        
        Ang = Base:toLocal(ang(0,Base:angles():yaw(),0))*Mass-Base:angVel()*Mass/3
        Base:applyAngForce(Ang)
        
        
        }else{
        
        
        Base:propGravity(0)    
        
        RangerLF = rangerOffsetHull(100 , Base:toWorld(vec(20,20,10)) , Base:forward()+ -Base:right() + -Base:up()*2  , vec(1))
        holoPos(1,RangerLF:pos()) #Changed
        
        RangerRF = rangerOffsetHull(100 , Base:toWorld(vec(20,-20,10)) , Base:forward()+ Base:right() + -Base:up()*2  , vec(1))
        holoPos(2,RangerRF:pos()) #Changed
        
        RangerLB = rangerOffsetHull(100 , Base:toWorld(vec(-20,20,10)) , -Base:forward()+ -Base:right() + -Base:up()*2  , vec(1))
        holoPos(3,RangerLB:pos()) #Changed
        
        RangerRB = rangerOffsetHull(100 , Base:toWorld(vec(-20,-20,10)) , -Base:forward()+ Base:right() + -Base:up()*2  , vec(1))
        holoPos(4,RangerRB:pos()) #Changed
        
        RangerLF2 = rangerOffsetHull(999 , RangerLF:pos() , -Base:forward() + Base:right()  , vec(1))
        holoPos(6,RangerLF2:pos()) #Changed
        
        RangerRF2 = rangerOffsetHull(999 , RangerRF:pos() , -Base:forward() + -Base:right()  , vec(1))
        holoPos(7,RangerRF2:pos()) #Changed
        
        RangerLB2 = rangerOffsetHull(999 , RangerLB:pos() , Base:forward() + Base:right()  , vec(1))
        holoPos(8,RangerLB2:pos()) #Changed
        
        RangerRB2 = rangerOffsetHull(999 , RangerRB:pos() , Base:forward() + -Base:right()  , vec(1))
        holoPos(9,RangerRB2:pos()) #Changed
        
        if(RangerLF:hit()){FLH = Base:toLocal(holoEntity(1):pos()):z()}else{FLH = Base:toLocal(holoEntity(6):pos()):z()} #Changed
        if(RangerRF:hit()){FRH = Base:toLocal(holoEntity(2):pos()):z()}else{FRH = Base:toLocal(holoEntity(7):pos()):z()} #Changed
        if(RangerLB:hit()){RLH = Base:toLocal(holoEntity(3):pos()):z()}else{RLH = Base:toLocal(holoEntity(8):pos()):z()} #Changed
        if(RangerRB:hit()){RRH = Base:toLocal(holoEntity(4):pos()):z()}else{RRH = Base:toLocal(holoEntity(9):pos()):z()} #Changed

        Pitch = (FLH+FRH-RLH-RRH)
        Roll = (FLH+RLH-FRH-RRH)
    
        FCenter = ((holoEntity(1):pos()+holoEntity(2):pos())/2) #Changed
        RCenter = ((holoEntity(3):pos()+holoEntity(4):pos())/2) #Changed
        
        YawCenter = Base:toLocal((FCenter-RCenter):toAngle()):yaw() 
        TargetAngle = ang(-Pitch+(5*cos(X*5))+15*(Mode*(W-S)),YawCenter+(15*(A-D)),Roll+15*(Mode*(D-A)))    
        
        Base:applyAngForce((TargetAngle)*Mass-Base:angVel()*Mass/5)    
    
        StandV = (POSH:pos()-Base:pos()+(Base:up()*(StandH+(3*cos(X*5))+ (500*Space))) + (Base:forward()*(Speed*(W-S) + (500*Space)))        )*Mass-Base:vel()*Mass/2
        Base:applyForce(StandV)
        
    }
        
           
        
        ######################################
        ######### INVERSE KIN ################
        ######################################
        
        
        HD1 = min(HO1:pos():distance(W1:pos()), KL + FL)
        HD2 = min(HO2:pos():distance(W2:pos()), KL + FL)
        HD3 = min(HO3:pos():distance(W3:pos()), KL + FL)
        HD4 = min(HO4:pos():distance(W4:pos()), KL + FL)     
    
        FLR1 = -acos((FLSquared - KLSquared - HD1^2) / (-2*KL*HD1)) #### hip1
        FLR2 = -acos((HD1^2 - FLSquared - KLSquared) / (-2*KL*FL)) #### knee1

        FRR1 = -acos((FLSquared - KLSquared - HD2^2) / (-2*KL*HD2)) #### hip2
        FRR2 = -acos((HD2^2 - FLSquared - KLSquared) / (-2*KL*FL)) #### knee2
    
        BLR1 = -acos((FLSquared - KLSquared - HD3^2) / (-2*KL*HD3)) #### hip2
        BLR2 = -acos((HD3^2 - FLSquared - KLSquared) / (-2*KL*FL)) #### knee2
    
        BRR1 = -acos((FLSquared - KLSquared - HD4^2) / (-2*KL*HD4)) #### hip2
        BRR2 = -acos((HD4^2 - FLSquared - KLSquared) / (-2*KL*FL)) #### knee2

        # HipInner
        holoAng(14,Base:toWorld(ang(90-HO1:elevation(W1:pos())+FLR1,90-HO1:bearing(W1:pos()),0))) #Changed
        holoAng(15,Base:toWorld(ang(90-HO2:elevation(W2:pos())+FRR1,90-HO2:bearing(W2:pos()),0))) #Changed
        holoAng(16,Base:toWorld(ang(90-HO3:elevation(W3:pos())+BLR1,90-HO3:bearing(W3:pos()),0))) #Changed
        holoAng(17,Base:toWorld(ang(90-HO4:elevation(W4:pos())+BRR1,90-HO4:bearing(W4:pos()),0))) #Changed

        # Knee Pos
        holoAng(18,HI1:toWorld(ang(FLR2+180,0,0))) #Changed
        holoAng(19,HI2:toWorld(ang(FRR2+180,0,0))) #Changed
        holoAng(20,HI3:toWorld(ang(BLR2+180,0,0))) #Changed
        holoAng(21,HI4:toWorld(ang(BRR2+180,0,0))) #Changed
        
        
        
 
    
 if(Mode == 0){
        soundStop(4,1)
    
        Speed = 50
    
        ChckDist = !inrange((Base:pos()*vec(20,20,0)):distance(TempPos*vec(20,20,0)),-50,50)
        ChckYaw  = !inrange((Base:angles()-TempAng):yaw(),-2,2)
 
        Trigger = (ChckYaw|ChckDist)  ? 1 : Trigger 
            
if(Trigger){    
    TIME += 0.45 
      
    if(TIME > 1) {
    
    Trigger = 0
    TIME    = 0
    Toggle  = Toggle+1
    soundStop(3,0)

    

    if((Toggle > 2)){Toggle = 1, TempPos = Base:pos(), TempAng = Base:angles()}
    if(changed(Toggle)&Toggle){Base:soundPlay(3,0,"npc/dog/dog_footstep2.wav"),soundPitch(3,100)} 
    if(changed(Toggle)&Toggle){Base:soundPlay(4,0,"acf_extra/airfx/bomb_reload.wav"),soundPitch(5,150)}     
    }



    if(Toggle == 1){ ######################################  

    RangerW1 = rangerOffsetHull(999 , Base:toWorld(vec(60,60,50)) , -Base:up() + (Base:forward()/3*(W-S))  , vec(1))
    RangerW4 = rangerOffsetHull(999 , Base:toWorld(vec(-60,-60,50)) , -Base:up() + (Base:forward()/3*(W-S))  , vec(1))

    Start1 = W1:pos()
    Start2 = W4:pos()

    Attr1 = (Start1 + RangerW1:pos())*0.5 + W1:up()*StepH
    Attr2 = (Start2 + RangerW4:pos())*0.5 + W4:up()*StepH
    
    Curve1 = mix(mix(RangerW1:pos(), Attr1, TIME), mix(Attr1, Start1, TIME), TIME)
    Curve2 = mix(mix(RangerW4:pos(), Attr2, TIME), mix(Attr2, Start2, TIME), TIME)
    
    holoPos(25, Curve1) #Changed
    holoPos(28, Curve2) #Changed
    holoAng(25, Base:angles()) #Changed
    holoAng(28, Base:angles()) #Changed
    
}

    if(Toggle == 2){     ####################################

 

    RangerW2 = rangerOffsetHull(999 , Base:toWorld(vec(60,-60,50)) , -Base:up() + (Base:forward()/3*(W-S))  , vec(1))
    RangerW3 = rangerOffsetHull(999 , Base:toWorld(vec(-60,60,50)) , -Base:up() + (Base:forward()/3*(W-S))  , vec(1))
    
    

    Start1 = W2:pos()
    Start2 = W3:pos()

    Attr1 = (Start1 + RangerW2:pos())*0.5 + W2:up()*StepH
    Attr2 = (Start2 + RangerW3:pos())*0.5 + W3:up()*StepH
    
    Curve1 = mix(mix(RangerW2:pos(), Attr1, TIME), mix(Attr1, Start1, TIME), TIME)
    Curve2 = mix(mix(RangerW3:pos(), Attr2, TIME), mix(Attr2, Start2, TIME), TIME)
    
    holoPos(26, Curve1) #Changed
    holoPos(27, Curve2) #Changed
    holoAng(26, Base:angles()) #Changed
    holoAng(27, Base:angles()) #Changed
    

  
 
}}}






if(Mode == 1){

    
    
    Speed = 250
    

    
    
    RangerW1 = rangerOffsetHull(999 , Base:toWorld(vec(60,60,50)) , -Base:up() + (Base:forward()/2*(W-S))   , vec(1))
    RangerW2 = rangerOffsetHull(999 , Base:toWorld(vec(60,-60,50)) , -Base:up() + (Base:forward()/2*(W-S))  , vec(1))
    RangerW3 = rangerOffsetHull(999 , Base:toWorld(vec(-60,60,50)) , -Base:up() + (Base:forward()/2*(W-S))  , vec(1))
    RangerW4 = rangerOffsetHull(999 , Base:toWorld(vec(-60,-60,50)) , -Base:up() + (Base:forward()/2*(W-S)) , vec(1))
    
    holoPos(25,RangerW1:pos()) #Changed
    holoPos(26,RangerW2:pos()) #Changed
    holoPos(27,RangerW3:pos()) #Changed
    holoPos(28,RangerW4:pos()) #Changed
    

    
    
    
    
    
    
    
    
    
    
    
}   
        
    
    

    
   
            
            
    
}   


if(last()){
     
    LARMC:deparent()
    RARMC:deparent() 
    
    TAILC:deparent() 
    
    H1P:deparent()
    H2P:deparent()
    H3P:deparent()
    H4P:deparent()
    
    K1P:deparent()
    K2P:deparent()
    K3P:deparent()
    K4P:deparent()
    
    
    
    
}
   
    
    
    
    

   
    
    
    
    
    
    
    
    
    
    
    
    
    
    
    
    
    
    
    
    
    

@name Fuchikoma V0.95
@inputs [Pod LARMC RARMC TAILC  H1P H2P H3P H4P K1P K2P K3P K4P]:entity [ADV Cam]:wirelink
@outputs Active Debug StandV:vector Pitch Roll N 
@persist [Pod Base]:entity
@persist Active Debug StandH Mass
@persist [RangerLF RangerRF RangerLB RangerRB RangerC]:ranger 
@persist [RangerLF2 RangerRF2 RangerLB2 RangerRB2]:ranger 
@persist [RangerW1 RangerW2 RangerW3 RangerW4]:ranger
@persist [LF_Holo RF_Holo LB_Holo RB_Holo]:entity
@persist [POSH]:entity 
@persist [LF_Holo2 RF_Holo2 LB_Holo2 RB_Holo2]:entity
@persist [StandV]:vector X Pitch Roll 

@persist [HO1 HO2 HO3 HO4]:entity  
@persist [HI1 HI2 HI3 HI4]:entity
@persist [K1 K2 K3 K4]:entity
@persist [HP1 HP2 HP3 HP4]:vector
@persist HD1 HD2 HD3 HD4
@persist KL FL KLSquared FLSquared 
@persist [W1 W2 W3 W4]:entity
@persist StepH TIME Toggle TempAng:angle TempPos:vector
@persist [LARM RARM TAIL]:entity
@persist [C1 C2 C3]:vector [M1 M2 M3]:string




@outputs Trigger Toggle Thump ChckDist ChckYaw 
@outputs FLR1 FRR1 BLR1 BRR1
@outputs FLR2 FRR2 BLR2 BRR2 
@outputs Mode Speed Speed2
@outputs [Base LARM RARM TAIL H1P H2P H3P H4P K1P K2P K3P K4P]:entity
@model models/sprops/cuboids/height12/size_1/cube_12x12x12.mdl
interval(100)
if(first()|dupefinished()){
    runOnChat(1)
    
    C1 = vec(255,255,255)
    C2 = vec(255,255,255)
    C3 = vec(255,255,255)
    
    
    M1 = "sprops/sprops_grid_12x12" 
    M2 = "sprops/sprops_grid_orange_12x12"
    M3 = ""
    
    
    ###############################
    #####      TO DO LIST     ##### 
    ###############################
    
    ###    REMOVE 14 holos
    
    ###    ADJUST holo numbers 
    
    ###    ADD Holo Legs
    
    ###    ADD SOUND
    
    ###    CAMERA STUFF
    
    
    
    
    runOnLast(1)
    
    Mode = 0
    
    Debug = 1
    
    Toggle = 0
    
    StandH = 65
    KL = 40
    FL = 60
    
    Step1 = 0
    Step2 = 0
    
    StepH = 20
    
    KLSquared = KL^2
    FLSquared = FL^2
    
    HP1 = vec(11.5,25,-17)
    HP2 = vec(11.5,-25,-17)
    HP3 = vec(-11.5,25,-17)
    HP4 = vec(-11.5,-25,-17)
    
    Mat1 = "sprops/sprops_grid_12x12"
    Mat2 = "sprops/sprops_grid_orange_12x12"
    Mat3 = "sprops/sprops_grid_12x12"
    MatE = "models/debug/debugwhite"
    Col1 = vec(255)
    Col2 = vec(255)
    Col3 = vec(64)
    ColE = vec(200)
    
    
    
    
    
   
    Base = entity()  
    Base:propGravity(0)
    Base:setMass(5000)
    Mass = Base:mass() 
    rangerPersist(1)
    rangerFilter(Base)
    rangerHitEntities(0)
    rangerFilter(players())
    
    N++ #2  1  ##Ranger## 
    LF_Holo = holoCreate(N,Base:toWorld(vec(0,0,0)))
    holoScale(N,vec(0.25*Debug))
    holoColor(N,vec(0,255,0))
    
    N++ #3  2  ##Ranger##
    RF_Holo = holoCreate(N,Base:toWorld(vec(0,0,0)))
    holoScale(N,vec(0.25*Debug))
    holoColor(N,vec(0,255,0))
    
    N++ #4  3  ##Ranger##
    LB_Holo = holoCreate(N,Base:toWorld(vec(0,0,0)))
    holoScale(N,vec(0.25*Debug))
    holoColor(N,vec(0,255,0))
    
    N++ #5  4  ##Ranger##
    RB_Holo = holoCreate(N,Base:toWorld(vec(0,0,0)))
    holoScale(N,vec(0.25*Debug))
    holoColor(N,vec(0,255,0))
    
    N++ #7 5   ##Center Ranger##
    POSH = holoCreate(N,Base:toWorld(vec(0,0,0)))
    holoAng(N,Base:toWorld(ang(0,0,0)))
    holoScale(N,vec(0.25*Debug))
    holoColor(N,vec(0,255,255))
    
    #####################################################################
    #####################################################################
    #####################################################################

    N++ #16 6    ##Ranger##
    LF_Holo2 = holoCreate(N,Base:toWorld(vec(0,0,0)))
    holoScale(N,vec(0.25*Debug))
    holoColor(N,vec(0,0,0))
    
    N++ #17 7   ##Ranger##
    RF_Holo2 = holoCreate(N,Base:toWorld(vec(0,0,0)))
    holoScale(N,vec(0.25*Debug))
    holoColor(N,vec(0,0,0))
    
    N++ #18 8   ##Ranger##
    LB_Holo2 = holoCreate(N,Base:toWorld(vec(0,0,0)))
    holoScale(N,vec(0.25*Debug))
    holoColor(N,vec(0,0,0))
    
    N++ #19 9   ##Ranger##
    RB_Holo2 = holoCreate(N,Base:toWorld(vec(0,0,0)))
    holoScale(N,vec(0.25*Debug))
    holoColor(N,vec(0,0,0))
    
    ##############################################################
    
    N++ #20 10
    HO1 = holoCreate(N,Base:toWorld(HP1),vec(0)*Debug)
    holoAng(N,Base:toWorld(ang(0,90,0)))
    holoParent(N,Base)
    
    N++ #21 11
    HO2 = holoCreate(N,Base:toWorld(HP2),vec(0)*Debug)
    holoAng(N,Base:toWorld(ang(0,90,0)))
    holoParent(N,Base)

    N++ #22 12
    HO3 = holoCreate(N,Base:toWorld(HP3),vec(0)*Debug)
    holoAng(N,Base:toWorld(ang(0,90,0)))
    holoParent(N,Base)

    N++ #23 13
    HO4 = holoCreate(N,Base:toWorld(HP4),vec(0)*Debug)
    holoAng(N,Base:toWorld(ang(0,90,0)))
    holoParent(N,Base)
    
##########################################

#########################################
########### HIP INNER ###################
#########################################

    N++  #24 14
    HI1 = holoCreate(N,HO1:toWorld(vec(0,0,0)))
    holoModel(N,"hq_sphere")
    holoScale(N,vec(1.25))
    holoColor(N,vec(64))
    holoParent(N,HO1)
    
    N++ #25 15
    HI2 = holoCreate(N,HO2:toWorld(vec(0,0,0)))
    holoModel(N,"hq_sphere")
    holoScale(N,vec(1.25))
    holoColor(N,vec(64))
    holoParent(N,HO2)
    
    N++ #26 16
    HI3 = holoCreate(N,HO3:toWorld(vec(0,0,0)))
    holoModel(N,"hq_sphere")
    holoScale(N,vec(1.25))
    holoColor(N,vec(64))
    holoParent(N,HO3)
    
    N++ #27 17
    HI4 = holoCreate(N,HO4:toWorld(vec(0,0,0)))
    holoModel(N,"hq_sphere")
    holoScale(N,vec(1.25))
    holoColor(N,vec(64))
    holoParent(N,HO4)


    

##############################################
########### KNEE POSITIONS ###################
##############################################

    N++ #28 18
    K1 = holoCreate(N,HI1:toWorld(vec(0,0,KL)))
    holoModel(N,"hq_sphere")
    holoScale(N,vec(1))
    holoColor(N,vec(64))
    holoParent(N,HI1)
    
    N++ #29 19  
    K2 = holoCreate(N,HI2:toWorld(vec(0,0,KL)))
    holoModel(N,"hq_sphere")
    holoScale(N,vec(1))
    holoColor(N,vec(64))
    holoParent(N,HI2)
    
    N++ #30 20   
    K3 = holoCreate(N,HI3:toWorld(vec(0,0,KL)))
    holoModel(N,"hq_sphere")
    holoScale(N,vec(1))
    holoColor(N,vec(64))
    holoParent(N,HI3)
    
    N++ #31 21   
    K4 = holoCreate(N,HI4:toWorld(vec(0,0,KL)))
    holoModel(N,"hq_sphere")
    holoScale(N,vec(1))
    holoColor(N,vec(64))
    holoParent(N,HI4)

    N++ #32 22
    LARM = holoCreate(N,Base:toWorld(vec(50,15,-10)))
    holoAng(N,Base:toWorld(ang(0,0,0)))
    holoModel(N,"hq_sphere")
    holoScale(N,vec(1.15))
    holoColor(N,vec(64))
    holoParent(N,Base)
    
    N++ #33 23
    RARM = holoCreate(N,Base:toWorld(vec(50,-15,-10)))
    holoAng(N,Base:toWorld(ang(0,0,0)))
    holoModel(N,"hq_sphere")
    holoScale(N,vec(1.15))
    holoColor(N,vec(64))
    holoParent(N,Base)
    
    N++ #34 24
    TAIL = holoCreate(N,Base:toWorld(vec(-60,0,-10)))
    holoAng(N,Base:toWorld(ang(0,0,0)))
    holoModel(N,"hq_sphere")
    holoScale(N,vec(2))
    holoColor(N,vec(64))
    holoParent(N,Base)
    
    N++ #39 25
    W1 = holoCreate(N,Base:toWorld(vec(0,0,0)))
    holoAng(N,Base:toWorld(ang(0,0,0)))
    holoModel(N,"cube")
    holoScale(N,vec(0.25,0.25,0.25))
    holoColor(N,vec(255,0,255))
   
    
    N++ #40 26
    W2 = holoCreate(N,Base:toWorld(vec(0,0,0)))
    holoAng(N,Base:toWorld(ang(0,0,0)))
    holoModel(N,"cube")
    holoScale(N,vec(0.25,0.25,0.25))
    holoColor(N,vec(255,0,255))
    
    
    N++ #41 27
    W3 = holoCreate(N,Base:toWorld(vec(0,0,0)))
    holoAng(N,Base:toWorld(ang(0,0,0)))
    holoModel(N,"cube")
    holoScale(N,vec(0.25,0.25,0.25))
    holoColor(N,vec(255,0,255))
    
    
    N++ #42 28
    W4 = holoCreate(N,Base:toWorld(vec(0,0,0)))
    holoAng(N,Base:toWorld(ang(0,0,0)))
    holoModel(N,"cube")
    holoScale(N,vec(0.25,0.25,0.25))
    holoColor(N,vec(255,0,255))
    
    N++ #29
    holoCreate(N,Base:toWorld(vec(0,0,-16)))
    holoAng(N,Base:toWorld(ang(180,0,0)))
    holoModel(N,"models/sprops/misc/fittings/cred_12_9_tall.mdl")
    holoScale(N,vec(3.5,3.5,1))
    holoColor(N,C1)
    holoMaterial(N,M1) 
    holoParent(N,Base)
    
    N++ #30
    holoCreate(N,Base:toWorld(vec(-30,0,-10)))
    holoAng(N,Base:toWorld(ang(-90,0,0)))
    holoModel(N,"models/sprops/misc/fittings/cred_12_9_tall.mdl")
    holoScale(N,vec(2,2,4))
    holoColor(N,C2)
    holoMaterial(N,M2) 
    holoParent(N,Base)
    
    N++ #31
    holoCreate(N,Base:toWorld(vec(10,20,-17)))
    holoAng(N,Base:toWorld(ang(90,75,0)))
    holoModel(N,"models/sprops/misc/fittings/cred_12_9_tall.mdl")
    holoScale(N,vec(0.8,0.8,1))
    holoColor(N,C2)
    holoMaterial(N,M2) 
    holoParent(N,Base)
    
    N++ #32
    holoCreate(N,Base:toWorld(vec(10,-20,-17)))
    holoAng(N,Base:toWorld(ang(90,-75,0)))
    holoModel(N,"models/sprops/misc/fittings/cred_12_9_tall.mdl")
    holoScale(N,vec(0.8,0.8,1))
    holoColor(N,C2)
    holoMaterial(N,M2) 
    holoParent(N,Base)
    
    N++ #33
    holoCreate(N,Base:toWorld(vec(-10,20,-17)))
    holoAng(N,Base:toWorld(ang(90,105,0)))
    holoModel(N,"models/sprops/misc/fittings/cred_12_9_tall.mdl")
    holoScale(N,vec(0.8,0.8,1))
    holoColor(N,C2)
    holoMaterial(N,M2) 
    holoParent(N,Base)
    
    N++ #34
    holoCreate(N,Base:toWorld(vec(-10,-20,-17)))
    holoAng(N,Base:toWorld(ang(90,-105,0)))
    holoModel(N,"models/sprops/misc/fittings/cred_12_9_tall.mdl")
    holoScale(N,vec(0.8,0.8,1))
    holoColor(N,C2)
    holoMaterial(N,M2) 
    holoParent(N,Base)
    
    N++ #35
    holoCreate(N,LARM:toWorld(vec(25,5.7,-6.65)))
    holoAng(N,LARM:toWorld(ang(0,-90,-90)))
    holoModel(N,"models/props_junk/garbage_plasticbottle002a.mdl")
    holoScale(N,vec(1.25,1,2.5))
    holoColor(N,C1)
    holoMaterial(N,M1) 
    holoParent(N,LARM)
    
    N++ #36
    holoCreate(N,RARM:toWorld(vec(25,-5.7,-6.65)))
    holoAng(N,RARM:toWorld(ang(0,-90,-90)))
    holoModel(N,"models/props_junk/garbage_plasticbottle002a.mdl")
    holoScale(N,vec(1.25,1,2.5))
    holoColor(N,C1)
    holoMaterial(N,M1) 
    holoParent(N,RARM)
    
    N++ #37
    holoCreate(N,HI1:toWorld(vec(0,0,20)))
    holoAng(N,HI1:toWorld(ang(0,180,0)))
    holoModel(N,"models/Items/car_battery01.mdl")
    holoScale(N,vec(1.25,0.85,3))
    holoColor(N,C2)
    holoMaterial(N,M2) 
    holoParent(N,HI1)
    
    N++ #38
    holoCreate(N,HI2:toWorld(vec(0,0,20)))
    holoAng(N,HI2:toWorld(ang(0,180,0)))
    holoModel(N,"models/Items/car_battery01.mdl")
    holoScale(N,vec(1.25,0.85,3))
    holoColor(N,C2)
    holoMaterial(N,M2) 
    holoParent(N,HI2)
    
    N++ #39
    holoCreate(N,HI3:toWorld(vec(0,0,20)))
    holoAng(N,HI3:toWorld(ang(0,180,0)))
    holoModel(N,"models/Items/car_battery01.mdl")
    holoScale(N,vec(1.25,0.85,3))
    holoColor(N,C2)
    holoMaterial(N,M2) 
    holoParent(N,HI3)
    
    N++ #40
    holoCreate(N,HI4:toWorld(vec(0,0,20)))
    holoAng(N,HI4:toWorld(ang(0,180,0)))
    holoModel(N,"models/Items/car_battery01.mdl")
    holoScale(N,vec(1.25,0.85,3))
    holoColor(N,C2)
    holoMaterial(N,M2) 
    holoParent(N,HI4)
    
    N++ #41
    holoCreate(N,K1:toWorld(vec(0,0,20)))
    holoAng(N,K1:toWorld(ang(0,-90,0)))
    holoModel(N,"models/props_junk/garbage_plasticbottle002a.mdl")
    holoScale(N,vec(4,1.5,3.5))
    holoColor(N,C1)
    holoMaterial(N,M1) 
    holoParent(N,K1)
    
    N++ #42
    holoCreate(N,K2:toWorld(vec(0,0,20)))
    holoAng(N,K2:toWorld(ang(0,-90,0)))
    holoModel(N,"models/props_junk/garbage_plasticbottle002a.mdl")
    holoScale(N,vec(4,1.5,3.5))
    holoColor(N,C1)
    holoMaterial(N,M1) 
    holoParent(N,K2)
    
    N++ #43
    holoCreate(N,K3:toWorld(vec(0,0,20)))
    holoAng(N,K3:toWorld(ang(0,-90,0)))
    holoModel(N,"models/props_junk/garbage_plasticbottle002a.mdl")
    holoScale(N,vec(4,1.5,3.5))
    holoColor(N,C1)
    holoMaterial(N,M1) 
    holoParent(N,K3)
    
    N++ #44
    holoCreate(N,K4:toWorld(vec(0,0,20)))
    holoAng(N,K4:toWorld(ang(0,-90,0)))
    holoModel(N,"models/props_junk/garbage_plasticbottle002a.mdl")
    holoScale(N,vec(4,1.5,3.5))
    holoColor(N,C1)
    holoMaterial(N,M1) 
    holoParent(N,K4)
    
    N++ #45
    holoCreate(N,K1:toWorld(vec(0,0,55)))
    holoAng(N,K1:toWorld(ang(0,90,0)))
    holoModel(N,"models/sprops/trans/wheel_a/t_wheel15.mdl")
    holoScale(N,vec(1))
    holoColor(N,C2)
    holoMaterial(N,"") 
    holoParent(N,K1)
    
    N++ #46
    holoCreate(N,K2:toWorld(vec(0,0,55)))
    holoAng(N,K2:toWorld(ang(0,90,0)))
    holoModel(N,"models/sprops/trans/wheel_a/t_wheel15.mdl")
    holoScale(N,vec(1))
    holoColor(N,C2)
    holoMaterial(N,"") 
    holoParent(N,K2)
    
    N++ #47
    holoCreate(N,K3:toWorld(vec(0,0,55)))
    holoAng(N,K3:toWorld(ang(0,90,0)))
    holoModel(N,"models/sprops/trans/wheel_a/t_wheel15.mdl")
    holoScale(N,vec(1))
    holoColor(N,C2)
    holoMaterial(N,"") 
    holoParent(N,K3)
    
    N++ #48
    holoCreate(N,K4:toWorld(vec(0,0,55)))
    holoAng(N,K4:toWorld(ang(0,90,0)))
    holoModel(N,"models/sprops/trans/wheel_a/t_wheel15.mdl")
    holoScale(N,vec(1))
    holoColor(N,C2)
    holoMaterial(N,"") 
    holoParent(N,K4)

    
    
    
    
   
    
    
  
    
    

    timer("Move",100)
    
}    
    if(clk("Move")){
    TAILC:setPos(TAIL:toWorld(vec(0,0,0)))
    TAILC:setAng(TAIL:toWorld(ang(0,0,0)))
    
    LARMC:setPos(LARM:toWorld(vec(9,5.75,-4.5)))
    LARMC:setAng(LARM:toWorld(ang(0,0,0)))
    
    RARMC:setPos(RARM:toWorld(vec(9,-5.75,-4.5)))
    RARMC:setAng(RARM:toWorld(ang(0,0,0)))
    
    H1P:setPos(HI1:toWorld(vec(0,0,20)))
    H1P:setAng(HI1:toWorld(ang(90,0,0)))
    
    H2P:setPos(HI2:toWorld(vec(0,0,20)))
    H2P:setAng(HI2:toWorld(ang(90,0,0)))
    
    H3P:setPos(HI3:toWorld(vec(0,0,20)))
    H3P:setAng(HI3:toWorld(ang(90,0,0)))
    
    H4P:setPos(HI4:toWorld(vec(0,0,20)))
    H4P:setAng(HI4:toWorld(ang(90,0,0)))
    
    K1P:setPos(K1:toWorld(vec(0,0,20)))
    K1P:setAng(K1:toWorld(ang(90,0,0)))
    
    K2P:setPos(K2:toWorld(vec(0,0,20)))
    K2P:setAng(K2:toWorld(ang(90,0,0)))
    
    K3P:setPos(K3:toWorld(vec(0,0,20)))
    K3P:setAng(K3:toWorld(ang(90,0,0)))
    
    K4P:setPos(K4:toWorld(vec(0,0,20)))
    K4P:setAng(K4:toWorld(ang(90,0,0)))
    
    
    timer("Parent",100)}
    
    if(clk("Parent")){
    TAILC:parentTo(TAIL)
    LARMC:parentTo(LARM)
    RARMC:parentTo(RARM)
    
    H1P:parentTo(HI1)
    H2P:parentTo(HI2)
    H3P:parentTo(HI3)
    H4P:parentTo(HI4)
    
    K1P:parentTo(K1)
    K2P:parentTo(K2)
    K3P:parentTo(K3)
    K4P:parentTo(K4)
    
    
    }
    
    if(owner():keyPressed("M")){Active = 1}

    if(changed(Active)&Active){
    Base:soundPlay(1,0,"acf_extra/airfx/hominglockaquired1.wav")
    
    
    }

    
   
        
    if(Active){
            
            
      
            
            
        X++    
        holoAng(22,Base:toWorld(ang(5*cos(X*5),0,0)))  #Changed
        holoAng(23,Base:toWorld(ang(5*cos(X*5),0,0)))  #Changed
        holoAng(24,Base:toWorld(ang(-5*cos(X*5),-Base:angVel():yaw()/20,0))) #Changed
        
        
        StepS = (Base:vel()*vec(1,1,0)):length() / 50 
        
        Mouse1 = ADV:number("Mouse1")
        Mouse2 = ADV:number("Mouse2")


        W = ADV:number("W")
        A = ADV:number("A")
        S = ADV:number("S")
        D = ADV:number("D")
        
        #W = owner():keyForward()
        #A = owner():keyLeft()
        #S = owner():keyBack()
        #D = owner():keyRight()
        
        Shift = ADV:number("Shift")
        #Space = owner():keyJump()
        Space = ADV:number("Space")
        Alt = ADV:number("Alt")
        #Alt = owner():keyWalk()
        Ctrl = ADV:number("Ctrl")

        F = ADV:number("Light")
        R = ADV:number("R")
        
        
        if(changed(Alt)&Alt){Mode = !Mode}
        
        RangerP = rangerOffsetHull(999 , Base:toWorld(vec(0,0,0)) , -Base:up() , vec(1))
        holoPos(5,RangerP:pos())
    
        
        if(changed(!Mode)&Mode){Base:soundPlay(4,0,"acf_extra/vehiclefx/engines/nekomanta.wav"),soundPitch(4,50)}
        if(changed(!Space)&Space){Base:soundPlay(2,0,"acf_extra/airfx/rpg_fire.wav"),soundPitch(2,150)}
        
        
        
        if(RangerP:distance()>StandH+20){
        Base:propGravity(1)    
        holoPos(25,Base:toWorld(vec(30,30,-50)))   #Changed
        holoPos(26,Base:toWorld(vec(30,-30,-50)))  #Changed
        holoPos(27,Base:toWorld(vec(-30,30,-50)))  #Changed
        holoPos(28,Base:toWorld(vec(-30,-30,-50))) #Changed
        
        Ang = Base:toLocal(ang(0,Base:angles():yaw(),0))*Mass-Base:angVel()*Mass/3
        Base:applyAngForce(Ang)
        
        
        }else{
        
        
        Base:propGravity(0)    
        
        RangerLF = rangerOffsetHull(100 , Base:toWorld(vec(20,20,10)) , Base:forward()+ -Base:right() + -Base:up()*2  , vec(1))
        holoPos(1,RangerLF:pos()) #Changed
        
        RangerRF = rangerOffsetHull(100 , Base:toWorld(vec(20,-20,10)) , Base:forward()+ Base:right() + -Base:up()*2  , vec(1))
        holoPos(2,RangerRF:pos()) #Changed
        
        RangerLB = rangerOffsetHull(100 , Base:toWorld(vec(-20,20,10)) , -Base:forward()+ -Base:right() + -Base:up()*2  , vec(1))
        holoPos(3,RangerLB:pos()) #Changed
        
        RangerRB = rangerOffsetHull(100 , Base:toWorld(vec(-20,-20,10)) , -Base:forward()+ Base:right() + -Base:up()*2  , vec(1))
        holoPos(4,RangerRB:pos()) #Changed
        
        RangerLF2 = rangerOffsetHull(999 , RangerLF:pos() , -Base:forward() + Base:right()  , vec(1))
        holoPos(6,RangerLF2:pos()) #Changed
        
        RangerRF2 = rangerOffsetHull(999 , RangerRF:pos() , -Base:forward() + -Base:right()  , vec(1))
        holoPos(7,RangerRF2:pos()) #Changed
        
        RangerLB2 = rangerOffsetHull(999 , RangerLB:pos() , Base:forward() + Base:right()  , vec(1))
        holoPos(8,RangerLB2:pos()) #Changed
        
        RangerRB2 = rangerOffsetHull(999 , RangerRB:pos() , Base:forward() + -Base:right()  , vec(1))
        holoPos(9,RangerRB2:pos()) #Changed
        
        if(RangerLF:hit()){FLH = Base:toLocal(holoEntity(1):pos()):z()}else{FLH = Base:toLocal(holoEntity(6):pos()):z()} #Changed
        if(RangerRF:hit()){FRH = Base:toLocal(holoEntity(2):pos()):z()}else{FRH = Base:toLocal(holoEntity(7):pos()):z()} #Changed
        if(RangerLB:hit()){RLH = Base:toLocal(holoEntity(3):pos()):z()}else{RLH = Base:toLocal(holoEntity(8):pos()):z()} #Changed
        if(RangerRB:hit()){RRH = Base:toLocal(holoEntity(4):pos()):z()}else{RRH = Base:toLocal(holoEntity(9):pos()):z()} #Changed

        Pitch = (FLH+FRH-RLH-RRH)
        Roll = (FLH+RLH-FRH-RRH)
    
        FCenter = ((holoEntity(1):pos()+holoEntity(2):pos())/2) #Changed
        RCenter = ((holoEntity(3):pos()+holoEntity(4):pos())/2) #Changed
        
        YawCenter = Base:toLocal((FCenter-RCenter):toAngle()):yaw() 
        TargetAngle = ang(-Pitch+(5*cos(X*5))+15*(Mode*(W-S)),YawCenter+(15*(A-D)),Roll+15*(Mode*(D-A)))    
        
        Base:applyAngForce((TargetAngle)*Mass-Base:angVel()*Mass/5)    
    
        StandV = (POSH:pos()-Base:pos()+(Base:up()*(StandH+(3*cos(X*5))+ (500*Space))) + (Base:forward()*(Speed*(W-S) + (500*Space)))        )*Mass-Base:vel()*Mass/2
        Base:applyForce(StandV)
        
    }
        
           
        
        ######################################
        ######### INVERSE KIN ################
        ######################################
        
        
        HD1 = min(HO1:pos():distance(W1:pos()), KL + FL)
        HD2 = min(HO2:pos():distance(W2:pos()), KL + FL)
        HD3 = min(HO3:pos():distance(W3:pos()), KL + FL)
        HD4 = min(HO4:pos():distance(W4:pos()), KL + FL)     
    
        FLR1 = -acos((FLSquared - KLSquared - HD1^2) / (-2*KL*HD1)) #### hip1
        FLR2 = -acos((HD1^2 - FLSquared - KLSquared) / (-2*KL*FL)) #### knee1

        FRR1 = -acos((FLSquared - KLSquared - HD2^2) / (-2*KL*HD2)) #### hip2
        FRR2 = -acos((HD2^2 - FLSquared - KLSquared) / (-2*KL*FL)) #### knee2
    
        BLR1 = -acos((FLSquared - KLSquared - HD3^2) / (-2*KL*HD3)) #### hip2
        BLR2 = -acos((HD3^2 - FLSquared - KLSquared) / (-2*KL*FL)) #### knee2
    
        BRR1 = -acos((FLSquared - KLSquared - HD4^2) / (-2*KL*HD4)) #### hip2
        BRR2 = -acos((HD4^2 - FLSquared - KLSquared) / (-2*KL*FL)) #### knee2

        # HipInner
        holoAng(14,Base:toWorld(ang(90-HO1:elevation(W1:pos())+FLR1,90-HO1:bearing(W1:pos()),0))) #Changed
        holoAng(15,Base:toWorld(ang(90-HO2:elevation(W2:pos())+FRR1,90-HO2:bearing(W2:pos()),0))) #Changed
        holoAng(16,Base:toWorld(ang(90-HO3:elevation(W3:pos())+BLR1,90-HO3:bearing(W3:pos()),0))) #Changed
        holoAng(17,Base:toWorld(ang(90-HO4:elevation(W4:pos())+BRR1,90-HO4:bearing(W4:pos()),0))) #Changed

        # Knee Pos
        holoAng(18,HI1:toWorld(ang(FLR2+180,0,0))) #Changed
        holoAng(19,HI2:toWorld(ang(FRR2+180,0,0))) #Changed
        holoAng(20,HI3:toWorld(ang(BLR2+180,0,0))) #Changed
        holoAng(21,HI4:toWorld(ang(BRR2+180,0,0))) #Changed
        
        
        
 
    
 if(Mode == 0){
        soundStop(4,1)
    
        Speed = 50
    
        ChckDist = !inrange((Base:pos()*vec(20,20,0)):distance(TempPos*vec(20,20,0)),-50,50)
        ChckYaw  = !inrange((Base:angles()-TempAng):yaw(),-2,2)
 
        Trigger = (ChckYaw|ChckDist)  ? 1 : Trigger 
            
if(Trigger){    
    TIME += 0.45 
      
    if(TIME > 1) {
    
    Trigger = 0
    TIME    = 0
    Toggle  = Toggle+1
    soundStop(3,0)

    

    if((Toggle > 2)){Toggle = 1, TempPos = Base:pos(), TempAng = Base:angles()}
    if(changed(Toggle)&Toggle){Base:soundPlay(3,0,"npc/dog/dog_footstep2.wav"),soundPitch(3,100)} 
    if(changed(Toggle)&Toggle){Base:soundPlay(4,0,"acf_extra/airfx/bomb_reload.wav"),soundPitch(5,150)}     
    }



    if(Toggle == 1){ ######################################  

    RangerW1 = rangerOffsetHull(999 , Base:toWorld(vec(60,60,50)) , -Base:up() + (Base:forward()/3*(W-S))  , vec(1))
    RangerW4 = rangerOffsetHull(999 , Base:toWorld(vec(-60,-60,50)) , -Base:up() + (Base:forward()/3*(W-S))  , vec(1))

    Start1 = W1:pos()
    Start2 = W4:pos()

    Attr1 = (Start1 + RangerW1:pos())*0.5 + W1:up()*StepH
    Attr2 = (Start2 + RangerW4:pos())*0.5 + W4:up()*StepH
    
    Curve1 = mix(mix(RangerW1:pos(), Attr1, TIME), mix(Attr1, Start1, TIME), TIME)
    Curve2 = mix(mix(RangerW4:pos(), Attr2, TIME), mix(Attr2, Start2, TIME), TIME)
    
    holoPos(25, Curve1) #Changed
    holoPos(28, Curve2) #Changed
    holoAng(25, Base:angles()) #Changed
    holoAng(28, Base:angles()) #Changed
    
}

    if(Toggle == 2){     ####################################

 

    RangerW2 = rangerOffsetHull(999 , Base:toWorld(vec(60,-60,50)) , -Base:up() + (Base:forward()/3*(W-S))  , vec(1))
    RangerW3 = rangerOffsetHull(999 , Base:toWorld(vec(-60,60,50)) , -Base:up() + (Base:forward()/3*(W-S))  , vec(1))
    
    

    Start1 = W2:pos()
    Start2 = W3:pos()

    Attr1 = (Start1 + RangerW2:pos())*0.5 + W2:up()*StepH
    Attr2 = (Start2 + RangerW3:pos())*0.5 + W3:up()*StepH
    
    Curve1 = mix(mix(RangerW2:pos(), Attr1, TIME), mix(Attr1, Start1, TIME), TIME)
    Curve2 = mix(mix(RangerW3:pos(), Attr2, TIME), mix(Attr2, Start2, TIME), TIME)
    
    holoPos(26, Curve1) #Changed
    holoPos(27, Curve2) #Changed
    holoAng(26, Base:angles()) #Changed
    holoAng(27, Base:angles()) #Changed
    

  
 
}}}






if(Mode == 1){

    
    
    Speed = 250
    

    
    
    RangerW1 = rangerOffsetHull(999 , Base:toWorld(vec(60,60,50)) , -Base:up() + (Base:forward()/2*(W-S))   , vec(1))
    RangerW2 = rangerOffsetHull(999 , Base:toWorld(vec(60,-60,50)) , -Base:up() + (Base:forward()/2*(W-S))  , vec(1))
    RangerW3 = rangerOffsetHull(999 , Base:toWorld(vec(-60,60,50)) , -Base:up() + (Base:forward()/2*(W-S))  , vec(1))
    RangerW4 = rangerOffsetHull(999 , Base:toWorld(vec(-60,-60,50)) , -Base:up() + (Base:forward()/2*(W-S)) , vec(1))
    
    holoPos(25,RangerW1:pos()) #Changed
    holoPos(26,RangerW2:pos()) #Changed
    holoPos(27,RangerW3:pos()) #Changed
    holoPos(28,RangerW4:pos()) #Changed
    

    
    
    
    
    
    
    
    
    
    
    
}   
        
    
    

    
   
            
            
    
}   


if(last()){
     
    LARMC:deparent()
    RARMC:deparent() 
    
    TAILC:deparent() 
    
    H1P:deparent()
    H2P:deparent()
    H3P:deparent()
    H4P:deparent()
    
    K1P:deparent()
    K2P:deparent()
    K3P:deparent()
    K4P:deparent()
    
    
    
    
}
   
    
    
    
    

   
    
    
    
    
    
    
    
    
    
    
    
    
    
    
    
    
    
    
    
    
    

