@name 
@inputs 
@outputs 
@persist TT Timer E:entity I Up
@trigger 
runOnTick(1)
runOnChat(1)

Y = 50
 X = 100000000000000000000000000000000
timer("lol",100)
holoColor(2,vec(random(255),random(255),random(255)))


entity():setColor(random(255),random(255),random(255))
runOnTick(1)
if (first()){EE = entity()
hint("funny thing",999)}

findIncludeClass("prop")
findIncludeClass("player")
Fsphere = findInSphere(entity():pos(), 100)
if(Fsphere > 0){
O = findClosest(entity():pos())  
O:propGravity(0)
O:plySetGravity(Y)
}
holoCreate(2)
holoModel(2,"hq_sphere")
holoScale(2,vec(15,15,15))
holoColor(2,vec(random(255),random(255),random(255)))
  holoMaterial(2,"models/alyx/emptool_glow")
holoParent(2,EE)
@name 
@inputs 
@outputs 
@persist TT Timer E:entity I Up
@trigger 
runOnTick(1)
runOnChat(1)

Y = 50
 X = 100000000000000000000000000000000
timer("lol",100)
holoColor(2,vec(random(255),random(255),random(255)))


entity():setColor(random(255),random(255),random(255))
runOnTick(1)
if (first()){EE = entity()
hint("funny thing",999)}

findIncludeClass("prop")
findIncludeClass("player")
Fsphere = findInSphere(entity():pos(), 100)
if(Fsphere > 0){
O = findClosest(entity():pos())  
O:propGravity(0)
O:plySetGravity(Y)
}
holoCreate(2)
holoModel(2,"hq_sphere")
holoScale(2,vec(15,15,15))
holoColor(2,vec(random(255),random(255),random(255)))
  holoMaterial(2,"models/alyx/emptool_glow")
holoParent(2,EE)
