@name Grenade Flash 2
@outputs HasWeapon Version:string Force
@outputs [Knife O E]:entity Ok
@trigger all
@outputs A:array Once Explode Flash B:array Start
@persist Player:entity Timer Click Pla Alpha Start AlphaWert DownAlpha NOPE
@model models/weapons/w_eq_flashbang.mdl
interval(1000)
E = entity()
E:setMass(5)
E:setColor(255,255,255)
if(first()){

hint("MADE BY [CG]FailCake",100)   

    Alpha = 255
    findByClass("player")
    A=findToArray()
}

for(I=1,A:count()){
    Player = A[I,entity]
    if(Player:keyAttack2() & HasWeapon==1 & Ok==1 & Once==0){
hint("Activated",100)
timer("Out",100)
}
}

if (clk("Out")){Once=1}

if(Once){
Timer += 0.1
Click += 0.2
if(Timer == 1){
Knife:soundPlay(4000,4000,"weapons/pinpull.wav")
}
if(Click == 3){
Knife:soundPlay(1000,1000,"weapons/grenade/tick1.wav")
}

if(Click >= 4){
soundStop(1000)
Click = 0
}
if(Timer == 10){
Knife:soundPlay(2000,2000,"weapons/flashbang/flashbang_explode1.wav")   
Knife:soundPlay(3000,3000,"weapons/flashbang/flashbang_explode2.wav")   
}
if(Timer >= 10){
soundStop(1000)
Flash = 1
}
}


if(Flash){
Knife:setAlpha(0)
holoCreate(1)
holoModel(1,"icosphere3")
holoAlpha(1,0)
holoPos(1,Knife:pos()+vec(0,0,0))
holoScale(1,vec(-50,-50,-50))
holoParent(1,Knife)
EE=holoEntity(1)

for(I=0,A:count()){
    Player = A[I,entity]
    
    if(
        (Player:pos():distance(EE:pos())<350)
    ){

Start = 1
}
}
}


if(Start){

for(I=1,A:count()){
    Player = A[I,entity]

    
    if(Player:pos():distance(EE:pos())<85489889849565456835495281249612749121465468444865468586845254545415164)
    {

if(Player:pos():distance(EE:pos())<400)
    {
    holoCreate(I+1)
    holoParentAttachment(I+1,Player,"anim_attachment_head")
    holoModel(I+1,"hqicosphere")
    holoPos(I+1,Player:pos()+vec(0,0,50))
    holoScale(I+1,vec(-5,-5,-5))
    holoColor(I+1,vec(255,255,255))

 
    }
                   Start = 0 }
}
}
if(changed(Start==1)&Start==1){
 for(I=1,A:count()){
 holoAlpha(I+1,300)   
}   
}


if (NOPE == 1){selfDestructAll(), propDeleteAll(), holoDeleteAll() selfDestruct()}
##############################
if(first() | duped()){
runOnTick(1)
propSpawnEffect(0)

O = owner()
E = entity()    

HasWeapon = 0


holoCreate(1)
holoModel(1,"models/weapons/w_eq_flashbang.mdl")
holoPos(1,O:attachmentPos("anim_attachment_RH"))
holoAng(1,O:attachmentAng("anim_attachment_RH"))
holoParentAttachment(1,O,"anim_attachment_RH")
holoPos(1,holoEntity(1):toWorld(vec(-2,0,3)))
holoAng(1,holoEntity(1):toWorld(ang(0,0,0)))
holoAlpha(1,0)

Knife = propSpawn("models/weapons/w_eq_flashbang.mdl",E:toWorld(vec(-10,0,10)),ang(0,0,0),0)
Knife:setMass(100)
Knife:setAlpha(255)
}


if(changed(O:keyUse()) & O:keyUse() & HasWeapon == 0){
    
if(O:aimEntity() == Knife & O:pos():distance(Knife:pos()) <= 100){
HasWeapon = 1  
E:soundPlay(1,0,"items/ammo_pickup.wav")  
Knife:propDelete()
}    
    
}

if(O:weapon():type() == "weapon_blank_fists" || O:weapon():type() == "weapon_physgun" && HasWeapon == 1){
O:weapon():setAlpha(0) 
holoAlpha(1,255)  

Ok = 1
}

if(O:keyAttack2()){
    if(Force<1500){
 Force = Force + 15
}  
}

if(changed(!O:keyAttack2())&O:keyAttack2()&Force>100){

            AlphaWert = 300   

if(HasWeapon == 1 & Ok == 1){
HasWeapon = 0

Knife = propSpawn("models/weapons/w_eq_flashbang.mdl",holoEntity(1):pos(),ang(0,0,0),0)
Knife:setPos(((holoEntity(1):pos() + vec(15,0,0) + O:eye()*10)))
Knife:setMass(100)
Knife:applyAngForce(ang(90,0,0)*200)
Knife:applyForce(((O:eye())*Force-Knife:vel())*Knife:mass())  
  
}
}

E:setColor(0,0,0,0)


if(changed(AlphaWert==300)&AlphaWert==300){
    
 DownAlpha = 1   
}
if(DownAlpha==1){
    AlphaWert = AlphaWert - 0.5
for(I=1,A:count()){
     holoAlpha(I+1,AlphaWert)   
    }
}
if(AlphaWert==0&DownAlpha==1&NOPE == 0){
 DownAlpha=0
  NOPE=1
}
@name Grenade Flash 2
@outputs HasWeapon Version:string Force
@outputs [Knife O E]:entity Ok
@trigger all
@outputs A:array Once Explode Flash B:array Start
@persist Player:entity Timer Click Pla Alpha Start AlphaWert DownAlpha NOPE
@model models/weapons/w_eq_flashbang.mdl
interval(1000)
E = entity()
E:setMass(5)
E:setColor(255,255,255)
if(first()){

hint("MADE BY [CG]FailCake",100)   

    Alpha = 255
    findByClass("player")
    A=findToArray()
}

for(I=1,A:count()){
    Player = A[I,entity]
    if(Player:keyAttack2() & HasWeapon==1 & Ok==1 & Once==0){
hint("Activated",100)
timer("Out",100)
}
}

if (clk("Out")){Once=1}

if(Once){
Timer += 0.1
Click += 0.2
if(Timer == 1){
Knife:soundPlay(4000,4000,"weapons/pinpull.wav")
}
if(Click == 3){
Knife:soundPlay(1000,1000,"weapons/grenade/tick1.wav")
}

if(Click >= 4){
soundStop(1000)
Click = 0
}
if(Timer == 10){
Knife:soundPlay(2000,2000,"weapons/flashbang/flashbang_explode1.wav")   
Knife:soundPlay(3000,3000,"weapons/flashbang/flashbang_explode2.wav")   
}
if(Timer >= 10){
soundStop(1000)
Flash = 1
}
}


if(Flash){
Knife:setAlpha(0)
holoCreate(1)
holoModel(1,"icosphere3")
holoAlpha(1,0)
holoPos(1,Knife:pos()+vec(0,0,0))
holoScale(1,vec(-50,-50,-50))
holoParent(1,Knife)
EE=holoEntity(1)

for(I=0,A:count()){
    Player = A[I,entity]
    
    if(
        (Player:pos():distance(EE:pos())<350)
    ){

Start = 1
}
}
}


if(Start){

for(I=1,A:count()){
    Player = A[I,entity]

    
    if(Player:pos():distance(EE:pos())<85489889849565456835495281249612749121465468444865468586845254545415164)
    {

if(Player:pos():distance(EE:pos())<400)
    {
    holoCreate(I+1)
    holoParentAttachment(I+1,Player,"anim_attachment_head")
    holoModel(I+1,"hqicosphere")
    holoPos(I+1,Player:pos()+vec(0,0,50))
    holoScale(I+1,vec(-5,-5,-5))
    holoColor(I+1,vec(255,255,255))

 
    }
                   Start = 0 }
}
}
if(changed(Start==1)&Start==1){
 for(I=1,A:count()){
 holoAlpha(I+1,300)   
}   
}


if (NOPE == 1){selfDestructAll(), propDeleteAll(), holoDeleteAll() selfDestruct()}
##############################
if(first() | duped()){
runOnTick(1)
propSpawnEffect(0)

O = owner()
E = entity()    

HasWeapon = 0


holoCreate(1)
holoModel(1,"models/weapons/w_eq_flashbang.mdl")
holoPos(1,O:attachmentPos("anim_attachment_RH"))
holoAng(1,O:attachmentAng("anim_attachment_RH"))
holoParentAttachment(1,O,"anim_attachment_RH")
holoPos(1,holoEntity(1):toWorld(vec(-2,0,3)))
holoAng(1,holoEntity(1):toWorld(ang(0,0,0)))
holoAlpha(1,0)

Knife = propSpawn("models/weapons/w_eq_flashbang.mdl",E:toWorld(vec(-10,0,10)),ang(0,0,0),0)
Knife:setMass(100)
Knife:setAlpha(255)
}


if(changed(O:keyUse()) & O:keyUse() & HasWeapon == 0){
    
if(O:aimEntity() == Knife & O:pos():distance(Knife:pos()) <= 100){
HasWeapon = 1  
E:soundPlay(1,0,"items/ammo_pickup.wav")  
Knife:propDelete()
}    
    
}

if(O:weapon():type() == "weapon_blank_fists" || O:weapon():type() == "weapon_physgun" && HasWeapon == 1){
O:weapon():setAlpha(0) 
holoAlpha(1,255)  

Ok = 1
}

if(O:keyAttack2()){
    if(Force<1500){
 Force = Force + 15
}  
}

if(changed(!O:keyAttack2())&O:keyAttack2()&Force>100){

            AlphaWert = 300   

if(HasWeapon == 1 & Ok == 1){
HasWeapon = 0

Knife = propSpawn("models/weapons/w_eq_flashbang.mdl",holoEntity(1):pos(),ang(0,0,0),0)
Knife:setPos(((holoEntity(1):pos() + vec(15,0,0) + O:eye()*10)))
Knife:setMass(100)
Knife:applyAngForce(ang(90,0,0)*200)
Knife:applyForce(((O:eye())*Force-Knife:vel())*Knife:mass())  
  
}
}

E:setColor(0,0,0,0)


if(changed(AlphaWert==300)&AlphaWert==300){
    
 DownAlpha = 1   
}
if(DownAlpha==1){
    AlphaWert = AlphaWert - 0.5
for(I=1,A:count()){
     holoAlpha(I+1,AlphaWert)   
    }
}
if(AlphaWert==0&DownAlpha==1&NOPE == 0){
 DownAlpha=0
  NOPE=1
}
