@name holoFollower 
@inputs 
@outputs 
@persist Follow Find:entity C
@trigger 
C++
runOnTick(1)
E=entity()
runOnChat(1)
if(first()){
 holoCreate(1,entity():toWorld(vec(0,0,10)),vec(0.1,0.1,0.1),ang(),vec(100,100,100),"cube")   

holoCreate(2,entity():toWorld(vec(0,0,10)),vec(1,1,1),ang(0,0,0),vec(100,100,100),"models/Combine_Scanner.mdl")   
holoParent(2,1)
}
Last=owner():lastSaid():explode(" ")
if(chatClk(owner())&Last:string(1)=="/follow"){Follow=1
    hideChat(1)
    Find=findPlayerByName(Last:string(2))}
if(Follow==1){
Dist=round(Find:pos():distance(holoEntity(1):pos()))
Ang=round(Find:pos()+vec(0,0,50)-holoEntity(1):pos()):toAngle()
if(Find:isAlive()){
holoAng(1,Ang+ang(0,0,0))
}else{
holoAng(1,Ang+ang(35,cos(C*6)*12,0))
}

if(Dist>100){
holoPos(1,holoEntity(1):pos()+holoEntity(1):forward()*5)    
}
if(Dist<120){
    holoPos(1,holoEntity(1):pos()+holoEntity(1):forward()*-5)    
}
if(Dist>300){
        holoPos(1,holoEntity(1):pos()+holoEntity(1):forward()*20)    
}
}
if(chatClk(owner())&owner():lastSaid()=="/stop"){Follow=0 hideChat(1)}

holoPos(1,holoEntity(1):pos()+vec(0,0,cos(C*5)*0.05))
if(changed(E)&E){
 soundPlay(1,999999,"")   
}
@name holoFollower 
@inputs 
@outputs 
@persist Follow Find:entity C
@trigger 
C++
runOnTick(1)
E=entity()
runOnChat(1)
if(first()){
 holoCreate(1,entity():toWorld(vec(0,0,10)),vec(0.1,0.1,0.1),ang(),vec(100,100,100),"cube")   

holoCreate(2,entity():toWorld(vec(0,0,10)),vec(1,1,1),ang(0,0,0),vec(100,100,100),"models/Combine_Scanner.mdl")   
holoParent(2,1)
}
Last=owner():lastSaid():explode(" ")
if(chatClk(owner())&Last:string(1)=="/follow"){Follow=1
    hideChat(1)
    Find=findPlayerByName(Last:string(2))}
if(Follow==1){
Dist=round(Find:pos():distance(holoEntity(1):pos()))
Ang=round(Find:pos()+vec(0,0,50)-holoEntity(1):pos()):toAngle()
if(Find:isAlive()){
holoAng(1,Ang+ang(0,0,0))
}else{
holoAng(1,Ang+ang(35,cos(C*6)*12,0))
}

if(Dist>100){
holoPos(1,holoEntity(1):pos()+holoEntity(1):forward()*5)    
}
if(Dist<120){
    holoPos(1,holoEntity(1):pos()+holoEntity(1):forward()*-5)    
}
if(Dist>300){
        holoPos(1,holoEntity(1):pos()+holoEntity(1):forward()*20)    
}
}
if(chatClk(owner())&owner():lastSaid()=="/stop"){Follow=0 hideChat(1)}

holoPos(1,holoEntity(1):pos()+vec(0,0,cos(C*5)*0.05))
if(changed(E)&E){
 soundPlay(1,999999,"")   
}
