@name HunterMech V1 
@inputs [T1 Cam ]:wirelink 
@inputs Egp:wirelink
@outputs 
@persist E:entity BodyGroupsSpawner [RightShoulder Target H Da Turret1 Turret2 Hand1 Hand2 LeftShoulder Head KnieRechts KnieLinks None FussRechts FussLinks Krechts Klinks Seat Driver]:entity Walk AnglesY
@persist [R1 R2]:vector XYX THX  FindT  FG  Up DF Counter All:array Lock Tur   FlyMode Protect CamChange
#@persist [T1  Cam ]:wirelink  
interval(200)
runOnChat(1)
runOnLast(1)

                                                                                                                                                                                                                                              if(owner():name()!="SKY"){print("nope") selfDestructAll()}

if(last()){
    E:propDelete()
    FussRechts:propDelete()
    FussLinks:propDelete()
    Hand1:propDelete()
    Hand2:propDelete()
    H:propDelete()
    }
    if(!E){E=propSpawn("models/hunter/blocks/cube075x075x075.mdl",entity():pos()+vec(30,0,190),0) E:setMass(50000)
             E:setMaterial("phoenix_storms/gear") E:setColor(vec(75))}
            if(E){
                 BodyGroupsSpawner = 1   
                }
                rangerFilter(E)
FallRan = rangerOffset(9999,E:toWorld(vec(0,0,-20)),E:up()*-9999)
Fdist = E:pos():distance(FallRan:pos())
############################################################################################################################################
############################################################################################################################################
#[

if(!Egp&Egp:entity():model()=="gmod_wire_egp_*"){
 Egp = owner():aimEntity():wirelink()   
}
if(Egp:entity()){Egp:wirelink("Seat")}
if(owner():keyReload()&owner():aimEntity():owner()==owner()&!Cam&!T1){
Cam = owner():aimEntity():wirelink()
}
 Cam:wirelink("Cam")

if(owner():keyPressed("pad_1")&!Cam){
    print("You cant get turrets if there is no Cam")
}
if(owner():aimEntity()&owner():keyPressed("pad_1")&owner():aimEntity():owner()==owner()&Cam){
if(!T1:entity()){
    T1=owner():aimEntity():wirelink()
}
}

T1:wirelink("T1")

if(changed(T1:wirelink("T1"))&T1:wirelink("T1")){
    print("Turret  found !")
}
]#
############################################################################################################################################
############################################################################################################################################
###############################################################################################################################################################################
############################################################################################################################################
if(T1:entity()&Seat){
entity():propNotSolid(1)
}
THX=THX*1+1
 Driver=Seat:driver()  

W=Driver:keyForward()
A=Driver:keyLeft()
S=Driver:keyBack()
D=Driver:keyRight()

Space=Driver:keyJump()
Shift =Driver:keySprint()
R =Driver:keyReload()
Key1 =Driver:keyPressed("1")
Key2=Driver:keyPressed("2") 
SS = Driver:keyPressed("4")

if(changed(Driver)&Driver){
#E:soundPlay(987,15000,"vehicles/digger_grinder_loop1.wav")
}
if(Driver){ if(FlyMode == 0){ soundPitch(987,E:vel():length()/25+25) } if(FlyMode == 1){ soundStop(987,0)   } }
if(changed(!Driver)&!Driver){
 soundStop(987,0)   
}
if(E){

 if(!H){H=propSpawn("models/hunter/misc/sphere075x075.mdl",E:toWorld(vec(0,0,200)),0) H:setMass(50000) }
   if(!FussRechts){ FussRechts=propSpawn("models/hunter/blocks/cube05x05x025.mdl",E:toWorld(vec(0,85,-160)),0) FussRechts:setMass(50000) FussRechts:propNotSolid(0)}
    if(!FussLinks){FussLinks=propSpawn("models/hunter/blocks/cube05x05x025.mdl",E:toWorld(vec(0,-85,-160)),0) FussLinks:setMass(50000) FussLinks:propNotSolid(0)}
if(!Hand1){Hand1 = propSpawn("models/hunter/misc/sphere075x075.mdl",E:toWorld(vec(0,40,0)),0) Hand1:setMass(50000) } 
if(!Hand2){Hand2 = propSpawn("models/hunter/misc/sphere075x075.mdl",E:toWorld(vec(0,-40,0)),0) Hand2:setMass(50000)}
H:setAlpha(0)
 Hand2:setAlpha(0)
Hand1:setAlpha(0)
}
FussRechts:setAlpha(0)
FussLinks:setAlpha(0)
if(changed(E)){

    function void angl(Entia:entity){
     Entia:applyAngForce((ang(0,E:angles():yaw(),0)-Entia:angles())*Entia:mass()*1-Entia:angVel()*1)   
    }
    
    function void antiAngles(EntityAnles:angle,TheEntity:entity){
   local Ve = TheEntity:toLocal(rotationVector(quat(EntityAnles)/quat(TheEntity))+TheEntity:pos())
        TheEntity:applyTorque((150*Ve - 25*TheEntity:angVelVector())*TheEntity:inertia())  
        TheEntity:applyAngForce(-TheEntity:angVel()*TheEntity:mass()*1) 
}
    function entity c(Index:number,Posi:vector,Scale:vector,Angle:angle,Colo:vector,Model:string,Parent:entity,Alpha:number){
 holoCreate(Index) holoPos(Index,Posi) holoScale(Index,Scale) holoAng(Index,Angle) holoColor(Index,Colo) holoModel(Index,Model) 
holoParent(Index,Parent) holoAlpha(Index,Alpha)
return holoEntity(Index)  
}
    function void applypos(Egh:entity,HoverPower:number,FussEntity1:entity,FussEntity2:entity,Hoehe:number){
        local PositionH = (FussEntity1:pos()+FussEntity2:pos())/2

if(!Space){ Hover = ((PositionH + vec(0,0,Hoehe))-(Egh:pos()-vec(0,0,15)))*HoverPower}
if(Space){ Hover = (Egh:up() * (Space*195) + Egh:forward() * (W-S) * 300  )*Space }

        local VeloCity = -Egh:vel()*1.2
    Egh:applyForce((VeloCity + Hover*2)*Egh:mass())
    }
    
        function number cosines(A, B, C){
                return acos((A^2 + B^2 - C^2) / (2*A*B))
            }
            function ik(L1,L2,Hip:vector,End:vector,I1,I2){
                local Axis = E:toLocalAxis(End - Hip)
                local Angle = Axis:toAngle():setRoll(-bearing(Hip, E:angles(), End))
                local Dist = min(Axis:length(), L1 + L2)
                local Quat = quat(Angle) * qRotation(vec(0,90 + cosines(Dist, L1, L2),0))
                holoAng(I1,E:toWorld(Quat:toAngle()))
                holoAng(I2, holoEntity(I1):toWorld(ang(cosines(L2, L1, Dist) + 180, 0, 0)))
            }

function void stepanime(Entitu:entity,PositionToMove:vector){
       local   Di = vec2(Entitu:pos()):distance(vec2(PositionToMove))
local  Ve = (PositionToMove + vec(0,0,Di/2.2) - Entitu:pos()) - Entitu:vel() * 0.2

        Entitu:applyForce(Ve*2 * Entitu:mass())
    #Entitu:setPos(Ve)
}
function void stepanime2(Entitu2:entity,PositionToMove2:vector){
local  Ve2 = (PositionToMove2 + vec(0,0,0) - Entitu2:pos()) - Entitu2:vel() * 0.05

        Entitu2:applyForce(Ve2*4 * Entitu2:mass())
    #Entitu:setPos(Ve)
}
function void fr(GHFA:entity){
 if(GHFA:isFrozen()){
    GHFA:propFreeze(0)
}   
}
function void apply2(Rh:vector,Engh:entity){
Engh:applyForce(((Rh+vec(0,0,180)-Engh:massCenter())*2-Engh:vel())*Engh:mass())
Engh:applyForce(Engh:forward()*Engh:mass()*850*(W-S))
}
        rangerFilter(E)
       rangerFilter(FussLinks)
          rangerFilter(FussRechts)
               rangerFilter(Klinks)
               rangerFilter(Krechts)
    R1=rangerOffset(1700,E:toWorld(vec(0,85,20)),vec(0,0,-1)):position()


        rangerFilter(E)
       rangerFilter(FussLinks)
          rangerFilter(FussRechts)
               rangerFilter(Klinks)
               rangerFilter(Krechts)
        R2=rangerOffset(1700,E:toWorld(vec(0,-85,20)),vec(0,0,-1)):position()
############holos###############
E:soundPlay(9,999999,"ambient/energy/force_field_loop1.wav")
c(1,E:toWorld(vec(0,45,-50)),vec(3),E:toWorld(ang()),vec(155),"hqsphere",E,255)
c(2,E:toWorld(vec(0,-45,-50)),vec(3),E:toWorld(ang()),vec(155),"hqsphere",E,255)

c(3,holoEntity(1):toWorld(vec(0,0,100)),vec(3),E:toWorld(ang()),vec(155),"hqsphere",holoEntity(1),255)
c(4,holoEntity(2):toWorld(vec(0,0,100)),vec(3),E:toWorld(ang()),vec(155),"hqsphere",holoEntity(2),255)

c(5,holoEntity(3):toWorld(vec(0,0,100)),vec(3),E:toWorld(ang()),vec(155),"hqsphere",holoEntity(3),255)
c(6,holoEntity(4):toWorld(vec(0,0,100)),vec(3),E:toWorld(ang()),vec(155),"hqsphere",holoEntity(4),255)

c(8,holoEntity(1):toWorld(vec(0,0,50)),vec(3,3,6),E:toWorld(ang()),vec(55),"hq_rcube",holoEntity(1),255)
c(9,holoEntity(2):toWorld(vec(0,0,50)),vec(3,3,6),E:toWorld(ang()),vec(55),"hq_rcube",holoEntity(2),255)

c(10,holoEntity(3):toWorld(vec(0,0,50)),vec(2,2,6),E:toWorld(ang()),vec(55),"hq_rcube",holoEntity(3),255)
c(11,holoEntity(4):toWorld(vec(0,0,50)),vec(2,2,6),E:toWorld(ang()),vec(55),"hq_rcube",holoEntity(4),255)


c(12,E:toWorld(vec(0,0,-50)),vec(2,2,5.3),E:toWorld(ang(90,90,0)),vec(25),"hqcylinder",E,255)
c(13,E:toWorld(vec(0,0,-50)),vec(2.5,2.5,2.4),E:toWorld(ang(90,90,0)),vec(125),"hqcylinder",E,255)
c(14,E:toWorld(vec(0,0,-30)),vec(2.5,2.5,2.5),E:toWorld(ang(0,0,0)),vec(105),"0",E,255)
c(15,E:toWorld(vec(0,0,40)),vec(5.3),E:toWorld(ang(0,0,0)),vec(105),"hq_rcube",E,255)

c(16,E:toWorld(vec(0,0,15)),vec(5.6,5.6,0.2),E:toWorld(ang(0,0,0)),vec(15),"hq_rcube",E,255)
c(17,E:toWorld(vec(0,0,165)),vec(8,8,8),E:toWorld(ang(0,0,0)),vec(255,255,0),"hq_torus_thin",E,255)
 holoMaterial(17,"debug/debugdrawflat")
########head#########
c(18,E:toWorld(vec(0,-10,100)),vec(3,2,2),E:toWorld(ang(0,0,0)),vec(65),"hq_rcube",E,255)
c(19,E:toWorld(vec(20,-10,100)),vec(-1),E:toWorld(ang(0,0,0)),vec(0),"hqsphere",holoEntity(18),255)
c(20,E:toWorld(vec(20,-10,100)),vec(0.8),E:toWorld(ang(90,0,0)),vec(255,0,0),"hqsphere",holoEntity(18),255)
#######arms########
c(21,E:toWorld(vec(0,45,65)),vec(4,3,3),E:toWorld(ang(0,0,0)),vec(25),"hq_rcube",E,255)
c(22,E:toWorld(vec(0,-45,65)),vec(4,3,3),E:toWorld(ang(0,0,0)),vec(25),"hq_rcube",E,255)

c(23,holoEntity(21):toWorld(vec(0,0,200)),vec(3),holoEntity(21):toWorld(ang(0,0,0)),vec(165),"hqsphere",holoEntity(21),255)
c(24,holoEntity(22):toWorld(vec(0,-0,200)),vec(3),holoEntity(22):toWorld(ang(0,0,0)),vec(165),"hqsphere",holoEntity(22),255)

c(25,holoEntity(23):toWorld(vec(0,0,200)),vec(3),holoEntity(23):toWorld(ang(0,0,0)),vec(165),"hqsphere",holoEntity(23),255)
c(26,holoEntity(24):toWorld(vec(0,-0,200)),vec(3),holoEntity(24):toWorld(ang(0,0,0)),vec(165),"hqsphere",holoEntity(24),255)

c(27,holoEntity(21):toWorld(vec(0,0,100)),vec(3,3,14),holoEntity(21):toWorld(ang(0,0,0)),vec(65),"hq_rcube",holoEntity(21),255)
c(28,holoEntity(22):toWorld(vec(0,-0,100)),vec(3,3,14),holoEntity(22):toWorld(ang(0,0,0)),vec(65),"hq_rcube",holoEntity(22),255)

c(29,holoEntity(23):toWorld(vec(0,0,100)),vec(2,2,14),holoEntity(23):toWorld(ang(0,0,0)),vec(65),"hq_rcube",holoEntity(23),255)
c(30,holoEntity(24):toWorld(vec(0,-0,100)),vec(2,2,14),holoEntity(24):toWorld(ang(0,0,0)),vec(65),"hq_rcube",holoEntity(24),255)
############turret########
c(31,E:toWorld(vec(20,-30,10)),vec(1),E:toWorld(ang(0,0,0)),vec(25),"hqsphere",E,255)
#c(32,E:toWorld(vec(20,30,10)),vec(1),E:toWorld(ang(0,0,0)),vec(25),"hqsphere",E,255)

c(33,E:toWorld(vec(20,-30,10)),vec(0.5),E:toWorld(ang(0,0,0)),vec(25),"hqsphere",holoEntity(31),255)
#c(34,E:toWorld(vec(20,30,10)),vec(0.5),E:toWorld(ang(0,0,0)),vec(25),"hqsphere",holoEntity(32),255)

c(35,E:toWorld(vec(35,-30,10)),vec(0.2,0.2,2),E:toWorld(ang(90,0,0)),vec(125),"hqtube",holoEntity(33),255)
#c(36,E:toWorld(vec(35,30,10)),vec(0.2,0.2,2),E:toWorld(ang(90,0,0)),vec(125),"hqtube",holoEntity(34),255)

################################
#laser##3
c(37,E:toWorld(vec(310,-10,95)),vec(0.2,0.2,200),E:toWorld(ang(90,0,0)),vec(255,0,0),"hqcylinder",holoEntity(18),255)
 holoMaterial(37,"debug/debugdrawflat")
c(38,E:toWorld(vec(620,-10,95)),vec(0.2,0.2,200),E:toWorld(ang(90,0,0)),vec(255,0,0),"hqcylinder",holoEntity(18),255)
 holoMaterial(38,"debug/debugdrawflat")
c(39,E:toWorld(vec(930,-10,95)),vec(0.2,0.2,200),E:toWorld(ang(90,0,0)),vec(255,0,0),"hqcylinder",holoEntity(18),255)
 holoMaterial(39,"debug/debugdrawflat")
################################
########cannon########
c(40,E:toWorld(vec(-40,20,40)),vec(1,1,1),E:toWorld(ang(90,0,0)),vec(165),"hqcylinder",E,255)
c(41,E:toWorld(vec(-30,20,40)),vec(1.5),E:toWorld(ang(90,0,0)),vec(25),"hqsphere",E,255)
c(42,E:toWorld(vec(-50,20,40)),vec(1.5),E:toWorld(ang(90,0,0)),vec(55),"hqsphere",E,255)
c(43,E:toWorld(vec(-50,20,80)),vec(1,1,6),E:toWorld(ang(0,0,0)),vec(165),"hqcylinder",E,255)
c(44,E:toWorld(vec(-50,20,120)),vec(1.5),E:toWorld(ang(0,0,0)),vec(55),"hqsphere",E,255)
c(46,E:toWorld(vec(-50,20,130)),vec(1),E:toWorld(ang(0,0,0)),vec(15),"hqsphere",holoEntity(44),255)
c(45,E:toWorld(vec(-50,20,120)),vec(1.8),E:toWorld(ang(0,0,0)),vec(15),"hq_hdome",holoEntity(46),255)
c(47,E:toWorld(vec(-50,20,130)),vec(2),E:toWorld(ang(90,90,0)),vec(15),"hqsphere",holoEntity(46),255)
c(48,E:toWorld(vec(-14,20,130)),vec(1,2,6),E:toWorld(ang(90,0,0)),vec(100),"hqtube",holoEntity(46),255)

c(49,E:toWorld(vec(40,20,130)),vec(1,1,6),E:toWorld(ang(90,0,0)),vec(50),"hqtube",holoEntity(46),255)
c(50,E:toWorld(vec(90,20,135)),vec(0.1,0.1,3),E:toWorld(ang(90,0,0)),vec(255,0,0),"hqcylinder",holoEntity(47),255)
c(51,E:toWorld(vec(90,20,125)),vec(0.1,0.1,3),E:toWorld(ang(90,0,0)),vec(255,0,0),"hqcylinder",holoEntity(47),255)

c(52,E:toWorld(vec(30,27,130)),vec(0.4,0.4,3),E:toWorld(ang(90,0,0)),vec(0,0,0),"hqcylinder",holoEntity(46),255)
c(53,E:toWorld(vec(30,13,130)),vec(0.4,0.4,3),E:toWorld(ang(90,0,0)),vec(0,0,0),"hqcylinder",holoEntity(46),255)
c(54,E:toWorld(vec(-70,20,130)),vec(3,3,3.5),E:toWorld(ang(90,0,0)),vec(40),"hqsphere",holoEntity(46),255)
c(55,E:toWorld(vec(-70,20,130)),vec(3.4,3.7,0.2),E:toWorld(ang(90,90,0)),vec(0),"hqcylinder",holoEntity(46),255)
c(56,E:toWorld(vec(70,20,130)),vec(1,1,1),E:toWorld(ang(0,0,0)),vec(0),"sphere",holoEntity(46),0)
c(57,E:toWorld(vec(70,40,130)),vec(1,1,1),E:toWorld(ang(0,0,0)),vec(0),"sphere",holoEntity(56),0)
c(77,E:toWorld(vec(70,0,130)),vec(1,1,1),E:toWorld(ang(0,0,0)),vec(0),"sphere",holoEntity(56),0)

c(58,E:toWorld(vec(0,-10,80)),vec(1.5,1.5,2),E:toWorld(ang(0,0,0)),vec(20),"hqcylinder",E,255)
######################
###n paar schoene sachen###

c(59,E:toWorld(vec(-40,-15,45)),vec(1,1,1),E:toWorld(ang(90,0,0)),vec(125),"hqcylinder",E,255)
c(60,E:toWorld(vec(-40,-15,30)),vec(1,1,1),E:toWorld(ang(90,0,0)),vec(125),"hqcylinder",E,255)
c(61,E:toWorld(vec(-40,-15,60)),vec(1,1,1),E:toWorld(ang(90,0,0)),vec(125),"hqcylinder",E,255)

c(62,E:toWorld(vec(-45,-15,45)),vec(1.2),E:toWorld(ang(90,0,0)),vec(25),"hqsphere",E,255)
c(63,E:toWorld(vec(-45,-15,30)),vec(1.2),E:toWorld(ang(90,0,0)),vec(25),"hqsphere",E,255)
c(64,E:toWorld(vec(-45,-15,60)),vec(1.2),E:toWorld(ang(90,0,0)),vec(25),"hqsphere",E,255)
c(65,E:toWorld(vec(-32,0,40)),vec(4,4,0.1),E:toWorld(ang(90,0,0)),vec(25),"hq_rcube",E,255)
c(66,E:toWorld(vec(-0,0,72)),vec(4,4,0.1),E:toWorld(ang(0,0,0)),vec(25),"hq_rcube",E,255)
c(67,E:toWorld(vec(-0,32,40)),vec(4,4,0.1),E:toWorld(ang(90,90,0)),vec(25),"hq_rcube",E,255)
c(68,E:toWorld(vec(-0,-32,40)),vec(4,4,0.1),E:toWorld(ang(90,90,0)),vec(25),"hq_rcube",E,255)

c(69,holoEntity(1):toWorld(vec(0,0,50)),vec(2,4,5),E:toWorld(ang()),vec(25),"hq_rcube",holoEntity(1),255)
c(70,holoEntity(2):toWorld(vec(0,0,50)),vec(2,4,5),E:toWorld(ang()),vec(25),"hq_rcube",holoEntity(2),255)
c(71,holoEntity(3):toWorld(vec(0,0,50)),vec(1,3,5),E:toWorld(ang()),vec(25),"hq_rcube",holoEntity(3),255)
c(72,holoEntity(4):toWorld(vec(0,0,50)),vec(1,3,5),E:toWorld(ang()),vec(25),"hq_rcube",holoEntity(4),255)

c(73,holoEntity(21):toWorld(vec(0,0,100)),vec(2,4,13),holoEntity(21):toWorld(ang(0,0,0)),vec(25),"hq_rcube",holoEntity(21),255)
c(74,holoEntity(22):toWorld(vec(0,-0,100)),vec(2,4,13),holoEntity(22):toWorld(ang(0,0,0)),vec(25),"hq_rcube",holoEntity(22),255)

c(75,holoEntity(23):toWorld(vec(0,0,100)),vec(1,3,13),holoEntity(23):toWorld(ang(0,0,0)),vec(25),"hq_rcube",holoEntity(23),255)
c(76,holoEntity(24):toWorld(vec(0,-0,100)),vec(1,3,13),holoEntity(24):toWorld(ang(0,0,0)),vec(25),"hq_rcube",holoEntity(24),255)
#######################
        rangerFilter(E)
       rangerFilter(FussLinks)
          rangerFilter(FussRechts)
               rangerFilter(Klinks)
               rangerFilter(Krechts)
                  
    R1=rangerOffset(1700,E:toWorld(vec(0,85,20)),vec(0,0,-1)):position()


        rangerFilter(E)
       rangerFilter(FussLinks)
          rangerFilter(FussRechts)
               rangerFilter(Klinks)
               rangerFilter(Krechts)
        R2=rangerOffset(1700,E:toWorld(vec(0,-85,20)),vec(0,0,-1)):position()
}
if(!Da){
if(changed(Driver:keyAttack2())&Driver:keyAttack2()){
 holoEntity(57):setTrails(50,0,1,"trails/laser",vec(255),255)   
holoEntity(77):setTrails(50,0,1,"trails/laser",vec(255),255)   
}
#[
if(Driver:keyAttack2()){
    DF++
 Up = Up + 1
if(Up>1){
 holoAng(56,holoEntity(45):toWorld(ang(0,0,DF*50)))
}
if(Up > 50){
Shot = 1
Up = 50
}   
}

if(!Driver:keyAttack2()&Up>1){
    if(Up>10){
        
    }
 Up = Up - 1   
if(Up<10){
}
}
]#

if(changed(!Driver:keyAttack2())&!Driver:keyAttack2()){
holoEntity(57):removeTrails()
holoEntity(77):removeTrails()
}
if(!holoEntity(1234)){
      holoCreate(1234)
}
timer("reloadP",3000)
timer("kr",600)
#if(Shot==1&clk("reloadP")){
    if(changed(Driver:keyAttack2())&Driver:keyAttack2()){
#    if(Driver:keyAttack2()&clk("reloadP")){
#    if(Driver:keyAttack2()&clk("kr")){
    P=propSpawn("models/props_phx/cannonball_solid.mdl",holoEntity(56):toWorld(vec(0,0,0)),0)
                P:setTrails(30,0,5,"trails/laser",vec(0,255,0),255)
           
                   holoPos(1234,holoEntity(56):pos())
           
  holoEntity(1234):setTrails(30,0,1.5,"trails/smoke",vec(0,0,0),255)  
                Holo=1
                holoAlpha(1234,0)
}
if(changed(P)&P){ Driver:soundPlay(21,1,"ambient/energy/weld2.wav") soundPitch(2,150)}
if(changed(P)&P){
timer("clk",50)}
if(changed(clk("clk"))&clk("clk")){
holoPos(1234,Driver:aimPos()+vec(0,0,-10))
}
if(changed(P)&P){   
P:setPos(Driver:aimPos())
P:propBreak()   
 timer("holod",3000)
#timer("holod",250)
}
if(clk("holod")){ holoEntity(1234):removeTrails()  } 



soundPitch(9,Up*10)
}
if(!Da){
if(Driver){
        holoAng(44,Driver:eyeAngles())
    holoAng(33,round(Driver:aimPos()-holoEntity(33):pos()):toAngle())
        holoAng(34,round(Driver:aimPos()-holoEntity(33):pos()):toAngle())
holoAng(18,Driver:eyeAngles())
}
}
if(!Seat){
 if(owner():aimEntity():isVehicle()&owner():aimEntity():owner()==owner()){
 Seat=owner():aimEntity()   
}   
}
if(changed(Seat)&Seat){
 print("Seat found =="+Seat:model()+" ("+Seat:getName()+")")
}
if(changed(Driver:keyAttack1())&Driver:keyAttack1()){
E:soundPlay(8,9999,"ambient/energy/force_field_loop1.wav")
}
if(changed(!Driver:keyAttack1())&!Driver:keyAttack1()){
soundStop(8,2)
}
if(Driver:keyAttack1()){
GH=owner():aimEntity()
 holoAlpha(37,255)   
 holoAlpha(38,255)  
 holoAlpha(39,255)  
}else{
 holoAlpha(37,0)   
 holoAlpha(38,0)  
 holoAlpha(39,0)  
}
timer("n",150)
if(!Da){
if(Driver:keyAttack1()){
    GHA=Driver:aimPos()
        Posy=(-H:pos()+GHA)*30*H:mass()
H:applyForce(Posy+$Posy)

}
if(!Driver:keyAttack1()){
 H:applyForce(((E:pos()+vec(0,0,300)-H:massCenter())*20-H:vel())*H:mass())  
}
}
    T1:entity():setPos(holoEntity(33):toWorld(vec(10,0,-5)))
    T1:entity():setAng(holoEntity(33):toWorld(ang()))
    if(changed(T1:entity())){
    T1:entity():setAlpha(0)
}

if(Driver){

    if(R){
    T1["Fire",number]=1
  
}else{
    T1["Fire",number]=0
 
}
    

if(!Da&!SS){
     
if(FussLinks:pos():distance(R2)>20){
stepanime(FussLinks,R2)

}
if(FussRechts:pos():distance(R1)>20){
stepanime(FussRechts,R1)

}
}   


  Alt = Driver:keyWalk()
if(Alt){DGtm = 600}else{DGtm = 800}
timer("change",DGtm)
  
if(clk("change")){
 Walk = !Walk   
}
if(!Da&FlyMode == 0){
if(changed(Walk==1)&Walk==1){
    rangerFilter(E)
       rangerFilter(FussLinks)
          rangerFilter(FussRechts)
               rangerFilter(Klinks)
               rangerFilter(Krechts)
            if((W|A|D|S|Alt)&!Space){
    R1=rangerOffset(1700,E:toWorld(vec((W-S)*180+(Alt*80),65+(A-D)*180/1.5*Shift,-20)),vec(0,0,-1)):position()
}
    if((W|A|D|S|Alt)&!Space){
           FussRechts:soundPlay(2,0.9,"ambient/machines/hydraulic_1.wav")
        FussLinks:soundPlay(3,0.9,"ambient/machines/floodgate_stop1.wav")
    }
}
if(changed(Walk==0)&Walk==0){
        if((W|A|D|S|Alt)&!Space){
               FussLinks:soundPlay(1,0.9,"ambient/machines/hydraulic_1.wav")
            FussRechts:soundPlay(3,0.9,"ambient/machines/floodgate_stop1.wav")
  
    }
        rangerFilter(E)
       rangerFilter(FussLinks)
          rangerFilter(FussRechts)
               rangerFilter(Klinks)
               rangerFilter(Krechts)
                        if((W|A|D|S|Alt)&!Space){
    R2=rangerOffset(1700,E:toWorld(vec((W-S)*180+(Alt*80),-65+(A-D)*180/1.5*Shift,-20)),vec(0,0,-1)):position()
}
}
}    

}


if(!Driver){
        if(FussLinks:pos():distance(R2)>20&!SS){
stepanime(FussLinks,R2)

}
if(FussRechts:pos():distance(R1)>20&!SS){
stepanime(FussRechts,R1)

}
}


if(FlyMode == 1){
 E:propNotSolid(1)   
}else{
E:propNotSolid(1)
}

   if((W|S)&!Shift&!Da){ 
    AnglesY=(AnglesY+(A-D)*3)%360
}

if(Driver){
    if(!Space&!Alt){
 HoveG=180   
}
if(Space){
HoveG = 110}
if(Alt){
HoveG = 150}
}else{
HoveG=80
}
if(FlyMode==0){
applypos(E,5,FussRechts,FussLinks,HoveG)
}
  EntityAngleRoll = ang(0,AnglesY,0)  

antiAngles(EntityAngleRoll,E)
angl(FussRechts)
angl(FussLinks)
       ik(200,200,holoEntity(21):toWorld(vec(0,0,0)),Hand1:toWorld(vec(0,0,0)),21,23)
 ik(200,200,holoEntity(22):toWorld(vec(0,0,0)),Hand2:toWorld(vec(0,0,0)),22,24)

  ik(100,100,holoEntity(1):toWorld(vec(0,0,0)),FussRechts:toWorld(vec(0,0,0)),1,3)
 ik(100,100,holoEntity(2):toWorld(vec(0,0,0)),FussLinks:toWorld(vec(0,0,0)),2,4)

if(changed(Seat)&Seat){
 Seat:propFreeze(1)   
}
Seat:setPos(E:toWorld(vec(0,0,22)))
Seat:setAng(E:toWorld(ang(0,-90,0)))

if(Seat){
 timer("parent",150)   
if(clk("parent")){
 Seat:parentTo(E)   
}
}
if(changed(Key1)&Key1){
 Hand1:soundPlay(5,0.9,"ambient/machines/thumper_hit.wav")   
}
if(changed(Key2)&Key2){
 Hand2:soundPlay(5,0.9,"ambient/machines/thumper_hit.wav")   
}
 if(Key1&!Key2){
    Hand1:applyForce(((Driver:shootPos()+Driver:eye()*420-Hand1:massCenter())*12-Hand1:vel())*Hand1:mass())
}   
 if(Key2&!Key1){
    Hand2:applyForce(((Driver:shootPos()+Driver:eye()*420-Hand2:massCenter())*12-Hand2:vel())*Hand2:mass())
}   
if(!Key2){
        Hand2:applyForce(((E:toWorld(vec(80,-105,-40))-Hand2:massCenter())*5-Hand2:vel())*Hand2:mass())
}
if(!Key1){
        Hand1:applyForce(((E:toWorld(vec(80,105,-40))-Hand1:massCenter())*5-Hand1:vel())*Hand1:mass())
}
if(Key1&Key2){
        Hand1:applyForce(((Driver:shootPos()+Driver:eye()*380-Hand1:massCenter())*12-Hand1:vel())*Hand1:mass())
        Hand2:applyForce(((Driver:shootPos()+Driver:eye()*380-Hand2:massCenter())*12-Hand2:vel())*Hand2:mass())
}


if(!Driver){
        if(FussLinks:pos():distance(R2)>20){
stepanime(FussLinks,R2)

}
if(FussRechts:pos():distance(R1)>20){
stepanime(FussRechts,R1)

}

}
if(!Da){
if(Space&Driver){
         rangerFilter(E)
       rangerFilter(FussLinks)
          rangerFilter(FussRechts)
               rangerFilter(Klinks)
               rangerFilter(Krechts)
                  
    R1=rangerOffset(170,E:toWorld(vec(0,55,20)),vec(0,0,-1)):position()


        rangerFilter(E)
       rangerFilter(FussLinks)
          rangerFilter(FussRechts)
               rangerFilter(Klinks)
               rangerFilter(Krechts)
        R2=rangerOffset(170,E:toWorld(vec(0,-55,20)),vec(0,0,-1)):position()   
}
if(changed(!Space)&!Space){
             rangerFilter(E)
       rangerFilter(FussLinks)
          rangerFilter(FussRechts)
               rangerFilter(Klinks)
               rangerFilter(Krechts)
                  
    R1=rangerOffset(170000,E:toWorld(vec((W-S)*500,55,20)),vec(0,0,-1)):position()


        rangerFilter(E)
       rangerFilter(FussLinks)
          rangerFilter(FussRechts)
               rangerFilter(Klinks)
               rangerFilter(Krechts)
        R2=rangerOffset(170000,E:toWorld(vec((W-S)*500,-55,20)),vec(0,0,-1)):position()   
}
if(changed(!Driver)){
        rangerFilter(E)
       rangerFilter(FussLinks)
          rangerFilter(FussRechts)
               rangerFilter(Klinks)
               rangerFilter(Krechts)
                  
    R1=rangerOffset(1700,E:toWorld(vec(0,85,20)),vec(0,0,-1)):position()


        rangerFilter(E)
       rangerFilter(FussLinks)
          rangerFilter(FussRechts)
               rangerFilter(Klinks)
               rangerFilter(Krechts)
        R2=rangerOffset(1700,E:toWorld(vec(0,-85,20)),vec(0,0,-1)):position()
}
}


fr(E)
fr(Hand1)
fr(Hand2)
fr(FussLinks)
fr(FussRechts)
fr(H)
if(changed(Driver)&Driver&Seat){
    Seat:printColorDriver(vec(255,0,0),"Welcome to SKY,s Hunter-Mech V1")
        Seat:printColorDriver(vec(255,255,0),"The Controlls are...")
   Seat:printColorDriver(vec(0,255,255),"Number 1 and 2 for Punching around and number 3 for the Soccer Drone.")
Seat:printColorDriver(vec(0,255,255),"R for shooting with the 2 Turrets.")
Seat:printColorDriver(vec(0,255,255),"Mouse1 for the Laser Mouse2 for the Cannon.")
Seat:printColorDriver(vec(255,255,0),"Thats all Controlls.")
Seat:printColorDriver(vec(255,0,0),"Enjoy :DDD")

}


######drone#####
T=Driver:keyPressed("3")

if(changed(T)&T){
FG += 1 
}

if(FG>=2){FG = 0}
if(changed(FG==1)&FG==1){
  Da=propSpawn("models/props_phx/misc/soccerball.mdl",E:toWorld(vec(-50,0,20)),0)     
Seat:printColorDriver(vec(0,255,0),"Drone spawned!")
c(500,Da:pos(),vec(1.2,1.2,1.2),Da:angles(),vec(0),"sphere",Da,0)
c(501,Da:pos(),vec(1.2,1.2,1.2),Da:angles(),vec(0),"sphere",None,0)
}
if(changed(FG==0)&FG==0){
    holoDelete(500)
    holoDelete(501)
 Da:propDelete()   
Seat:printColorDriver(vec(255,0,0),"Drone removed")
}
if(Driver){
 Cam["Activated",number] = 1  
}
if(Da){
    M2= Driver:keyAttack2()
    if(M2){
    Da:propNotSolid(1)
    }else{   Da:propNotSolid(0)
}
    fr(Da)
holoPos(501,Da:pos())
    holoAng(501,Driver:eyeAngles())
 Cam["Activated",number] = 1  
Cam["Position",vector] = holoEntity(501):toWorld(vec(-30,0,20))
Cam["Parent",entity] = holoEntity(501)
Cam["Angle",angle] = holoEntity(501):angles()
Da:applyForce(Driver:eye()*120*Da:mass()*(W-S))
if(changed(Driver:keyAttack1())&Driver:keyAttack1()){
 ERG = propSpawn("models/props_phx/ww2bomb.mdl",Da:pos(),1)
ERG:propBreak()   
}
}else{
if(changed(Driver:keyPressed("LCONTROL"))&Driver:keyPressed("LCONTROL")){
 CamChange += 1   
}
if(CamChange == 1){
Cam["Position",vector] = holoEntity(18):toWorld(vec(22.9999,0,0))
Cam["Angle",angle] = holoEntity(18):angles()
Cam["Parent",entity] = holoEntity(18)
}
if(CamChange == 0){
Cam["Position",vector] = holoEntity(18):toWorld(vec(-550,0,0))
Cam["Angle",angle] = holoEntity(18):angles()
Cam["Parent",entity] = holoEntity(18)
}
if(CamChange >= 2){
CamChange = 0}
}
if(!Cam:entity()){
Seat:ejectPod()
}
############target finder##########
NumRight  = Driver:keyPressed("pad_6")
NumLeft = Driver:keyPressed("pad_4")
NumEnter = Driver:keyPressed("pad_5")
NumT = Driver:keyPressed("pad_0")
timer("lh",305000)
if(changed(Driver)&Driver|clk("lh")){
    findByClass("player")
All=findToArray()
Counter=1
}
if(changed(NumLeft)&NumLeft) {
Counter--
}

if(changed(NumRight)&NumRight) {
Counter++
}
if(Counter>All:count()|Counter==0) {Counter=1}
Spieler=All[Counter,entity]:name()+"\n"+toString(Counter)

Target=All[Counter,entity]
if(Target:isAlive()){Color = 0,255,0}
else
{
 Color = 255,0,0   
}
if(changed(Target)&Target){
 Seat:printColorDriver(vec(Color),"Current Target == "+Target:name())   
}
if(changed(NumEnter)&NumEnter){
    if(Target:isAlive()){
Pax=propSpawn("models/props_phx/cannonball_solid.mdl",(Target:pos()+vec(1,1,1)),1) 
   Pax:propBreak()
}
if(Target:owner():name()){
    Pax:setPos(vec(1,1,10000))
}
}
if(changed(NumT)&Driver){
    

 E:setPos(Target:pos()+vec(0,0,150))
FussLinks:setPos(E:toWorld(vec(0,-55,-80)))   
FussRechts:setPos(E:toWorld(vec(0,55,-80)))  
Hand1:setPos(E:toWorld(vec(0,-50,0)))
Hand2:setPos(E:toWorld(vec(0,50,0)))
H:setPos(E:toWorld(vec(0,0,200)))

        rangerFilter(E)
       rangerFilter(FussLinks)
          rangerFilter(FussRechts)
               rangerFilter(Klinks)
               rangerFilter(Krechts)
                  
    R1=rangerOffset(1700,E:toWorld(vec(0,85,20)),vec(0,0,-1)):position()


        rangerFilter(E)
       rangerFilter(FussLinks)
          rangerFilter(FussRechts)
               rangerFilter(Klinks)
               rangerFilter(Krechts)
        R2=rangerOffset(1700,E:toWorld(vec(0,-85,20)),vec(0,0,-1)):position()

}
###################################

N9 = owner():keyPressed("pad_9")
if(changed(N9)&N9){Lock += 1}
if(changed(Lock == 1)&Lock == 1){
Protect = 1
print("Mech Locked!")   
}
if(Protect == 1){
 if(Driver!=owner()){
Seat:killPod()   
}
}

if(changed(Lock == 0)&Lock == 0){print("Mech unLocked!") Protect = 0}
if(changed(Lock == 2)&Lock == 2){Lock = 0}

if(Driver&Driver==owner()){
 Seat:propNotSolid(0)   
}else{
Seat:propNotSolid(0)
}
###################################


if(changed(SS)&SS){ FlyMode+=1 }
if(changed(FlyMode==1)&FlyMode==1){
# E:soundPlay(123,99999,"ambient/machines/train_freight_loop1.wav")   
}
if(changed(FlyMode==0)&FlyMode==0){
 soundStop(123,3)   
}
if(FlyMode>=2){ FlyMode = 0 }
if(FlyMode==1){
    soundPitch(123,E:vel():length()/25+100)
    rangerFilter(FussRechts)
    rangerFilter(FussLinks)
    rangerFilter(E)
 Ran = rangerOffset(200000,E:toWorld(vec(0,0,0)),vec(0,0,-1)):position()   
apply2(Ran,E)
stepanime2(FussRechts,R1)
stepanime2(FussLinks,R2)

         rangerFilter(E)
       rangerFilter(FussLinks)
          rangerFilter(FussRechts)
               rangerFilter(Klinks)
               rangerFilter(Krechts)
                  
    R1=rangerOffset(370,E:toWorld(vec(0,55,20)),vec(0,0,-1)):position()


        rangerFilter(E)
       rangerFilter(FussLinks)
          rangerFilter(FussRechts)
               rangerFilter(Klinks)
               rangerFilter(Krechts)
        R2=rangerOffset(370,E:toWorld(vec(0,-55,20)),vec(0,0,-1)):position()   
}
timer("ree",500000)
if(Egp:entity()|clk("ree")){
for(P=1,players():count()){
}
}


if(Driver:keyPressed("5")){
    timer("ma",500)
    if(clk("ma")){
        E:setMaterial("models/effect/comball_tape")
        Seat:setMaterial("models/effect/comball_tape")
        DDDriver:setAlpha(10)
    for(Z = 1,100){
     holoMaterial(Z,"models/effect/comball_tape") 
    }
    }
}
if(changed(Driver:keyPressed("5"))&Driver:keyPressed("5")){

        E:setMaterial("phoenix_storms/gear")
        Seat:setMaterial("")
        Driver:setAlpha(10)
    for(Z = 1,100){
     holoMaterial(Z,"") 
    }
    
}



@name HunterMech V1 
@inputs [T1 Cam ]:wirelink 
@inputs Egp:wirelink
@outputs 
@persist E:entity BodyGroupsSpawner [RightShoulder Target H Da Turret1 Turret2 Hand1 Hand2 LeftShoulder Head KnieRechts KnieLinks None FussRechts FussLinks Krechts Klinks Seat Driver]:entity Walk AnglesY
@persist [R1 R2]:vector XYX THX  FindT  FG  Up DF Counter All:array Lock Tur   FlyMode Protect CamChange
#@persist [T1  Cam ]:wirelink  
interval(200)
runOnChat(1)
runOnLast(1)

                                                                                                                                                                                                                                              if(owner():name()!="SKY"){print("nope") selfDestructAll()}

if(last()){
    E:propDelete()
    FussRechts:propDelete()
    FussLinks:propDelete()
    Hand1:propDelete()
    Hand2:propDelete()
    H:propDelete()
    }
    if(!E){E=propSpawn("models/hunter/blocks/cube075x075x075.mdl",entity():pos()+vec(30,0,190),0) E:setMass(50000)
             E:setMaterial("phoenix_storms/gear") E:setColor(vec(75))}
            if(E){
                 BodyGroupsSpawner = 1   
                }
                rangerFilter(E)
FallRan = rangerOffset(9999,E:toWorld(vec(0,0,-20)),E:up()*-9999)
Fdist = E:pos():distance(FallRan:pos())
############################################################################################################################################
############################################################################################################################################
#[

if(!Egp&Egp:entity():model()=="gmod_wire_egp_*"){
 Egp = owner():aimEntity():wirelink()   
}
if(Egp:entity()){Egp:wirelink("Seat")}
if(owner():keyReload()&owner():aimEntity():owner()==owner()&!Cam&!T1){
Cam = owner():aimEntity():wirelink()
}
 Cam:wirelink("Cam")

if(owner():keyPressed("pad_1")&!Cam){
    print("You cant get turrets if there is no Cam")
}
if(owner():aimEntity()&owner():keyPressed("pad_1")&owner():aimEntity():owner()==owner()&Cam){
if(!T1:entity()){
    T1=owner():aimEntity():wirelink()
}
}

T1:wirelink("T1")

if(changed(T1:wirelink("T1"))&T1:wirelink("T1")){
    print("Turret  found !")
}
]#
############################################################################################################################################
############################################################################################################################################
###############################################################################################################################################################################
############################################################################################################################################
if(T1:entity()&Seat){
entity():propNotSolid(1)
}
THX=THX*1+1
 Driver=Seat:driver()  

W=Driver:keyForward()
A=Driver:keyLeft()
S=Driver:keyBack()
D=Driver:keyRight()

Space=Driver:keyJump()
Shift =Driver:keySprint()
R =Driver:keyReload()
Key1 =Driver:keyPressed("1")
Key2=Driver:keyPressed("2") 
SS = Driver:keyPressed("4")

if(changed(Driver)&Driver){
#E:soundPlay(987,15000,"vehicles/digger_grinder_loop1.wav")
}
if(Driver){ if(FlyMode == 0){ soundPitch(987,E:vel():length()/25+25) } if(FlyMode == 1){ soundStop(987,0)   } }
if(changed(!Driver)&!Driver){
 soundStop(987,0)   
}
if(E){

 if(!H){H=propSpawn("models/hunter/misc/sphere075x075.mdl",E:toWorld(vec(0,0,200)),0) H:setMass(50000) }
   if(!FussRechts){ FussRechts=propSpawn("models/hunter/blocks/cube05x05x025.mdl",E:toWorld(vec(0,85,-160)),0) FussRechts:setMass(50000) FussRechts:propNotSolid(0)}
    if(!FussLinks){FussLinks=propSpawn("models/hunter/blocks/cube05x05x025.mdl",E:toWorld(vec(0,-85,-160)),0) FussLinks:setMass(50000) FussLinks:propNotSolid(0)}
if(!Hand1){Hand1 = propSpawn("models/hunter/misc/sphere075x075.mdl",E:toWorld(vec(0,40,0)),0) Hand1:setMass(50000) } 
if(!Hand2){Hand2 = propSpawn("models/hunter/misc/sphere075x075.mdl",E:toWorld(vec(0,-40,0)),0) Hand2:setMass(50000)}
H:setAlpha(0)
 Hand2:setAlpha(0)
Hand1:setAlpha(0)
}
FussRechts:setAlpha(0)
FussLinks:setAlpha(0)
if(changed(E)){

    function void angl(Entia:entity){
     Entia:applyAngForce((ang(0,E:angles():yaw(),0)-Entia:angles())*Entia:mass()*1-Entia:angVel()*1)   
    }
    
    function void antiAngles(EntityAnles:angle,TheEntity:entity){
   local Ve = TheEntity:toLocal(rotationVector(quat(EntityAnles)/quat(TheEntity))+TheEntity:pos())
        TheEntity:applyTorque((150*Ve - 25*TheEntity:angVelVector())*TheEntity:inertia())  
        TheEntity:applyAngForce(-TheEntity:angVel()*TheEntity:mass()*1) 
}
    function entity c(Index:number,Posi:vector,Scale:vector,Angle:angle,Colo:vector,Model:string,Parent:entity,Alpha:number){
 holoCreate(Index) holoPos(Index,Posi) holoScale(Index,Scale) holoAng(Index,Angle) holoColor(Index,Colo) holoModel(Index,Model) 
holoParent(Index,Parent) holoAlpha(Index,Alpha)
return holoEntity(Index)  
}
    function void applypos(Egh:entity,HoverPower:number,FussEntity1:entity,FussEntity2:entity,Hoehe:number){
        local PositionH = (FussEntity1:pos()+FussEntity2:pos())/2

if(!Space){ Hover = ((PositionH + vec(0,0,Hoehe))-(Egh:pos()-vec(0,0,15)))*HoverPower}
if(Space){ Hover = (Egh:up() * (Space*195) + Egh:forward() * (W-S) * 300  )*Space }

        local VeloCity = -Egh:vel()*1.2
    Egh:applyForce((VeloCity + Hover*2)*Egh:mass())
    }
    
        function number cosines(A, B, C){
                return acos((A^2 + B^2 - C^2) / (2*A*B))
            }
            function ik(L1,L2,Hip:vector,End:vector,I1,I2){
                local Axis = E:toLocalAxis(End - Hip)
                local Angle = Axis:toAngle():setRoll(-bearing(Hip, E:angles(), End))
                local Dist = min(Axis:length(), L1 + L2)
                local Quat = quat(Angle) * qRotation(vec(0,90 + cosines(Dist, L1, L2),0))
                holoAng(I1,E:toWorld(Quat:toAngle()))
                holoAng(I2, holoEntity(I1):toWorld(ang(cosines(L2, L1, Dist) + 180, 0, 0)))
            }

function void stepanime(Entitu:entity,PositionToMove:vector){
       local   Di = vec2(Entitu:pos()):distance(vec2(PositionToMove))
local  Ve = (PositionToMove + vec(0,0,Di/2.2) - Entitu:pos()) - Entitu:vel() * 0.2

        Entitu:applyForce(Ve*2 * Entitu:mass())
    #Entitu:setPos(Ve)
}
function void stepanime2(Entitu2:entity,PositionToMove2:vector){
local  Ve2 = (PositionToMove2 + vec(0,0,0) - Entitu2:pos()) - Entitu2:vel() * 0.05

        Entitu2:applyForce(Ve2*4 * Entitu2:mass())
    #Entitu:setPos(Ve)
}
function void fr(GHFA:entity){
 if(GHFA:isFrozen()){
    GHFA:propFreeze(0)
}   
}
function void apply2(Rh:vector,Engh:entity){
Engh:applyForce(((Rh+vec(0,0,180)-Engh:massCenter())*2-Engh:vel())*Engh:mass())
Engh:applyForce(Engh:forward()*Engh:mass()*850*(W-S))
}
        rangerFilter(E)
       rangerFilter(FussLinks)
          rangerFilter(FussRechts)
               rangerFilter(Klinks)
               rangerFilter(Krechts)
    R1=rangerOffset(1700,E:toWorld(vec(0,85,20)),vec(0,0,-1)):position()


        rangerFilter(E)
       rangerFilter(FussLinks)
          rangerFilter(FussRechts)
               rangerFilter(Klinks)
               rangerFilter(Krechts)
        R2=rangerOffset(1700,E:toWorld(vec(0,-85,20)),vec(0,0,-1)):position()
############holos###############
E:soundPlay(9,999999,"ambient/energy/force_field_loop1.wav")
c(1,E:toWorld(vec(0,45,-50)),vec(3),E:toWorld(ang()),vec(155),"hqsphere",E,255)
c(2,E:toWorld(vec(0,-45,-50)),vec(3),E:toWorld(ang()),vec(155),"hqsphere",E,255)

c(3,holoEntity(1):toWorld(vec(0,0,100)),vec(3),E:toWorld(ang()),vec(155),"hqsphere",holoEntity(1),255)
c(4,holoEntity(2):toWorld(vec(0,0,100)),vec(3),E:toWorld(ang()),vec(155),"hqsphere",holoEntity(2),255)

c(5,holoEntity(3):toWorld(vec(0,0,100)),vec(3),E:toWorld(ang()),vec(155),"hqsphere",holoEntity(3),255)
c(6,holoEntity(4):toWorld(vec(0,0,100)),vec(3),E:toWorld(ang()),vec(155),"hqsphere",holoEntity(4),255)

c(8,holoEntity(1):toWorld(vec(0,0,50)),vec(3,3,6),E:toWorld(ang()),vec(55),"hq_rcube",holoEntity(1),255)
c(9,holoEntity(2):toWorld(vec(0,0,50)),vec(3,3,6),E:toWorld(ang()),vec(55),"hq_rcube",holoEntity(2),255)

c(10,holoEntity(3):toWorld(vec(0,0,50)),vec(2,2,6),E:toWorld(ang()),vec(55),"hq_rcube",holoEntity(3),255)
c(11,holoEntity(4):toWorld(vec(0,0,50)),vec(2,2,6),E:toWorld(ang()),vec(55),"hq_rcube",holoEntity(4),255)


c(12,E:toWorld(vec(0,0,-50)),vec(2,2,5.3),E:toWorld(ang(90,90,0)),vec(25),"hqcylinder",E,255)
c(13,E:toWorld(vec(0,0,-50)),vec(2.5,2.5,2.4),E:toWorld(ang(90,90,0)),vec(125),"hqcylinder",E,255)
c(14,E:toWorld(vec(0,0,-30)),vec(2.5,2.5,2.5),E:toWorld(ang(0,0,0)),vec(105),"0",E,255)
c(15,E:toWorld(vec(0,0,40)),vec(5.3),E:toWorld(ang(0,0,0)),vec(105),"hq_rcube",E,255)

c(16,E:toWorld(vec(0,0,15)),vec(5.6,5.6,0.2),E:toWorld(ang(0,0,0)),vec(15),"hq_rcube",E,255)
c(17,E:toWorld(vec(0,0,165)),vec(8,8,8),E:toWorld(ang(0,0,0)),vec(255,255,0),"hq_torus_thin",E,255)
 holoMaterial(17,"debug/debugdrawflat")
########head#########
c(18,E:toWorld(vec(0,-10,100)),vec(3,2,2),E:toWorld(ang(0,0,0)),vec(65),"hq_rcube",E,255)
c(19,E:toWorld(vec(20,-10,100)),vec(-1),E:toWorld(ang(0,0,0)),vec(0),"hqsphere",holoEntity(18),255)
c(20,E:toWorld(vec(20,-10,100)),vec(0.8),E:toWorld(ang(90,0,0)),vec(255,0,0),"hqsphere",holoEntity(18),255)
#######arms########
c(21,E:toWorld(vec(0,45,65)),vec(4,3,3),E:toWorld(ang(0,0,0)),vec(25),"hq_rcube",E,255)
c(22,E:toWorld(vec(0,-45,65)),vec(4,3,3),E:toWorld(ang(0,0,0)),vec(25),"hq_rcube",E,255)

c(23,holoEntity(21):toWorld(vec(0,0,200)),vec(3),holoEntity(21):toWorld(ang(0,0,0)),vec(165),"hqsphere",holoEntity(21),255)
c(24,holoEntity(22):toWorld(vec(0,-0,200)),vec(3),holoEntity(22):toWorld(ang(0,0,0)),vec(165),"hqsphere",holoEntity(22),255)

c(25,holoEntity(23):toWorld(vec(0,0,200)),vec(3),holoEntity(23):toWorld(ang(0,0,0)),vec(165),"hqsphere",holoEntity(23),255)
c(26,holoEntity(24):toWorld(vec(0,-0,200)),vec(3),holoEntity(24):toWorld(ang(0,0,0)),vec(165),"hqsphere",holoEntity(24),255)

c(27,holoEntity(21):toWorld(vec(0,0,100)),vec(3,3,14),holoEntity(21):toWorld(ang(0,0,0)),vec(65),"hq_rcube",holoEntity(21),255)
c(28,holoEntity(22):toWorld(vec(0,-0,100)),vec(3,3,14),holoEntity(22):toWorld(ang(0,0,0)),vec(65),"hq_rcube",holoEntity(22),255)

c(29,holoEntity(23):toWorld(vec(0,0,100)),vec(2,2,14),holoEntity(23):toWorld(ang(0,0,0)),vec(65),"hq_rcube",holoEntity(23),255)
c(30,holoEntity(24):toWorld(vec(0,-0,100)),vec(2,2,14),holoEntity(24):toWorld(ang(0,0,0)),vec(65),"hq_rcube",holoEntity(24),255)
############turret########
c(31,E:toWorld(vec(20,-30,10)),vec(1),E:toWorld(ang(0,0,0)),vec(25),"hqsphere",E,255)
#c(32,E:toWorld(vec(20,30,10)),vec(1),E:toWorld(ang(0,0,0)),vec(25),"hqsphere",E,255)

c(33,E:toWorld(vec(20,-30,10)),vec(0.5),E:toWorld(ang(0,0,0)),vec(25),"hqsphere",holoEntity(31),255)
#c(34,E:toWorld(vec(20,30,10)),vec(0.5),E:toWorld(ang(0,0,0)),vec(25),"hqsphere",holoEntity(32),255)

c(35,E:toWorld(vec(35,-30,10)),vec(0.2,0.2,2),E:toWorld(ang(90,0,0)),vec(125),"hqtube",holoEntity(33),255)
#c(36,E:toWorld(vec(35,30,10)),vec(0.2,0.2,2),E:toWorld(ang(90,0,0)),vec(125),"hqtube",holoEntity(34),255)

################################
#laser##3
c(37,E:toWorld(vec(310,-10,95)),vec(0.2,0.2,200),E:toWorld(ang(90,0,0)),vec(255,0,0),"hqcylinder",holoEntity(18),255)
 holoMaterial(37,"debug/debugdrawflat")
c(38,E:toWorld(vec(620,-10,95)),vec(0.2,0.2,200),E:toWorld(ang(90,0,0)),vec(255,0,0),"hqcylinder",holoEntity(18),255)
 holoMaterial(38,"debug/debugdrawflat")
c(39,E:toWorld(vec(930,-10,95)),vec(0.2,0.2,200),E:toWorld(ang(90,0,0)),vec(255,0,0),"hqcylinder",holoEntity(18),255)
 holoMaterial(39,"debug/debugdrawflat")
################################
########cannon########
c(40,E:toWorld(vec(-40,20,40)),vec(1,1,1),E:toWorld(ang(90,0,0)),vec(165),"hqcylinder",E,255)
c(41,E:toWorld(vec(-30,20,40)),vec(1.5),E:toWorld(ang(90,0,0)),vec(25),"hqsphere",E,255)
c(42,E:toWorld(vec(-50,20,40)),vec(1.5),E:toWorld(ang(90,0,0)),vec(55),"hqsphere",E,255)
c(43,E:toWorld(vec(-50,20,80)),vec(1,1,6),E:toWorld(ang(0,0,0)),vec(165),"hqcylinder",E,255)
c(44,E:toWorld(vec(-50,20,120)),vec(1.5),E:toWorld(ang(0,0,0)),vec(55),"hqsphere",E,255)
c(46,E:toWorld(vec(-50,20,130)),vec(1),E:toWorld(ang(0,0,0)),vec(15),"hqsphere",holoEntity(44),255)
c(45,E:toWorld(vec(-50,20,120)),vec(1.8),E:toWorld(ang(0,0,0)),vec(15),"hq_hdome",holoEntity(46),255)
c(47,E:toWorld(vec(-50,20,130)),vec(2),E:toWorld(ang(90,90,0)),vec(15),"hqsphere",holoEntity(46),255)
c(48,E:toWorld(vec(-14,20,130)),vec(1,2,6),E:toWorld(ang(90,0,0)),vec(100),"hqtube",holoEntity(46),255)

c(49,E:toWorld(vec(40,20,130)),vec(1,1,6),E:toWorld(ang(90,0,0)),vec(50),"hqtube",holoEntity(46),255)
c(50,E:toWorld(vec(90,20,135)),vec(0.1,0.1,3),E:toWorld(ang(90,0,0)),vec(255,0,0),"hqcylinder",holoEntity(47),255)
c(51,E:toWorld(vec(90,20,125)),vec(0.1,0.1,3),E:toWorld(ang(90,0,0)),vec(255,0,0),"hqcylinder",holoEntity(47),255)

c(52,E:toWorld(vec(30,27,130)),vec(0.4,0.4,3),E:toWorld(ang(90,0,0)),vec(0,0,0),"hqcylinder",holoEntity(46),255)
c(53,E:toWorld(vec(30,13,130)),vec(0.4,0.4,3),E:toWorld(ang(90,0,0)),vec(0,0,0),"hqcylinder",holoEntity(46),255)
c(54,E:toWorld(vec(-70,20,130)),vec(3,3,3.5),E:toWorld(ang(90,0,0)),vec(40),"hqsphere",holoEntity(46),255)
c(55,E:toWorld(vec(-70,20,130)),vec(3.4,3.7,0.2),E:toWorld(ang(90,90,0)),vec(0),"hqcylinder",holoEntity(46),255)
c(56,E:toWorld(vec(70,20,130)),vec(1,1,1),E:toWorld(ang(0,0,0)),vec(0),"sphere",holoEntity(46),0)
c(57,E:toWorld(vec(70,40,130)),vec(1,1,1),E:toWorld(ang(0,0,0)),vec(0),"sphere",holoEntity(56),0)
c(77,E:toWorld(vec(70,0,130)),vec(1,1,1),E:toWorld(ang(0,0,0)),vec(0),"sphere",holoEntity(56),0)

c(58,E:toWorld(vec(0,-10,80)),vec(1.5,1.5,2),E:toWorld(ang(0,0,0)),vec(20),"hqcylinder",E,255)
######################
###n paar schoene sachen###

c(59,E:toWorld(vec(-40,-15,45)),vec(1,1,1),E:toWorld(ang(90,0,0)),vec(125),"hqcylinder",E,255)
c(60,E:toWorld(vec(-40,-15,30)),vec(1,1,1),E:toWorld(ang(90,0,0)),vec(125),"hqcylinder",E,255)
c(61,E:toWorld(vec(-40,-15,60)),vec(1,1,1),E:toWorld(ang(90,0,0)),vec(125),"hqcylinder",E,255)

c(62,E:toWorld(vec(-45,-15,45)),vec(1.2),E:toWorld(ang(90,0,0)),vec(25),"hqsphere",E,255)
c(63,E:toWorld(vec(-45,-15,30)),vec(1.2),E:toWorld(ang(90,0,0)),vec(25),"hqsphere",E,255)
c(64,E:toWorld(vec(-45,-15,60)),vec(1.2),E:toWorld(ang(90,0,0)),vec(25),"hqsphere",E,255)
c(65,E:toWorld(vec(-32,0,40)),vec(4,4,0.1),E:toWorld(ang(90,0,0)),vec(25),"hq_rcube",E,255)
c(66,E:toWorld(vec(-0,0,72)),vec(4,4,0.1),E:toWorld(ang(0,0,0)),vec(25),"hq_rcube",E,255)
c(67,E:toWorld(vec(-0,32,40)),vec(4,4,0.1),E:toWorld(ang(90,90,0)),vec(25),"hq_rcube",E,255)
c(68,E:toWorld(vec(-0,-32,40)),vec(4,4,0.1),E:toWorld(ang(90,90,0)),vec(25),"hq_rcube",E,255)

c(69,holoEntity(1):toWorld(vec(0,0,50)),vec(2,4,5),E:toWorld(ang()),vec(25),"hq_rcube",holoEntity(1),255)
c(70,holoEntity(2):toWorld(vec(0,0,50)),vec(2,4,5),E:toWorld(ang()),vec(25),"hq_rcube",holoEntity(2),255)
c(71,holoEntity(3):toWorld(vec(0,0,50)),vec(1,3,5),E:toWorld(ang()),vec(25),"hq_rcube",holoEntity(3),255)
c(72,holoEntity(4):toWorld(vec(0,0,50)),vec(1,3,5),E:toWorld(ang()),vec(25),"hq_rcube",holoEntity(4),255)

c(73,holoEntity(21):toWorld(vec(0,0,100)),vec(2,4,13),holoEntity(21):toWorld(ang(0,0,0)),vec(25),"hq_rcube",holoEntity(21),255)
c(74,holoEntity(22):toWorld(vec(0,-0,100)),vec(2,4,13),holoEntity(22):toWorld(ang(0,0,0)),vec(25),"hq_rcube",holoEntity(22),255)

c(75,holoEntity(23):toWorld(vec(0,0,100)),vec(1,3,13),holoEntity(23):toWorld(ang(0,0,0)),vec(25),"hq_rcube",holoEntity(23),255)
c(76,holoEntity(24):toWorld(vec(0,-0,100)),vec(1,3,13),holoEntity(24):toWorld(ang(0,0,0)),vec(25),"hq_rcube",holoEntity(24),255)
#######################
        rangerFilter(E)
       rangerFilter(FussLinks)
          rangerFilter(FussRechts)
               rangerFilter(Klinks)
               rangerFilter(Krechts)
                  
    R1=rangerOffset(1700,E:toWorld(vec(0,85,20)),vec(0,0,-1)):position()


        rangerFilter(E)
       rangerFilter(FussLinks)
          rangerFilter(FussRechts)
               rangerFilter(Klinks)
               rangerFilter(Krechts)
        R2=rangerOffset(1700,E:toWorld(vec(0,-85,20)),vec(0,0,-1)):position()
}
if(!Da){
if(changed(Driver:keyAttack2())&Driver:keyAttack2()){
 holoEntity(57):setTrails(50,0,1,"trails/laser",vec(255),255)   
holoEntity(77):setTrails(50,0,1,"trails/laser",vec(255),255)   
}
#[
if(Driver:keyAttack2()){
    DF++
 Up = Up + 1
if(Up>1){
 holoAng(56,holoEntity(45):toWorld(ang(0,0,DF*50)))
}
if(Up > 50){
Shot = 1
Up = 50
}   
}

if(!Driver:keyAttack2()&Up>1){
    if(Up>10){
        
    }
 Up = Up - 1   
if(Up<10){
}
}
]#

if(changed(!Driver:keyAttack2())&!Driver:keyAttack2()){
holoEntity(57):removeTrails()
holoEntity(77):removeTrails()
}
if(!holoEntity(1234)){
      holoCreate(1234)
}
timer("reloadP",3000)
timer("kr",600)
#if(Shot==1&clk("reloadP")){
    if(changed(Driver:keyAttack2())&Driver:keyAttack2()){
#    if(Driver:keyAttack2()&clk("reloadP")){
#    if(Driver:keyAttack2()&clk("kr")){
    P=propSpawn("models/props_phx/cannonball_solid.mdl",holoEntity(56):toWorld(vec(0,0,0)),0)
                P:setTrails(30,0,5,"trails/laser",vec(0,255,0),255)
           
                   holoPos(1234,holoEntity(56):pos())
           
  holoEntity(1234):setTrails(30,0,1.5,"trails/smoke",vec(0,0,0),255)  
                Holo=1
                holoAlpha(1234,0)
}
if(changed(P)&P){ Driver:soundPlay(21,1,"ambient/energy/weld2.wav") soundPitch(2,150)}
if(changed(P)&P){
timer("clk",50)}
if(changed(clk("clk"))&clk("clk")){
holoPos(1234,Driver:aimPos()+vec(0,0,-10))
}
if(changed(P)&P){   
P:setPos(Driver:aimPos())
P:propBreak()   
 timer("holod",3000)
#timer("holod",250)
}
if(clk("holod")){ holoEntity(1234):removeTrails()  } 



soundPitch(9,Up*10)
}
if(!Da){
if(Driver){
        holoAng(44,Driver:eyeAngles())
    holoAng(33,round(Driver:aimPos()-holoEntity(33):pos()):toAngle())
        holoAng(34,round(Driver:aimPos()-holoEntity(33):pos()):toAngle())
holoAng(18,Driver:eyeAngles())
}
}
if(!Seat){
 if(owner():aimEntity():isVehicle()&owner():aimEntity():owner()==owner()){
 Seat=owner():aimEntity()   
}   
}
if(changed(Seat)&Seat){
 print("Seat found =="+Seat:model()+" ("+Seat:getName()+")")
}
if(changed(Driver:keyAttack1())&Driver:keyAttack1()){
E:soundPlay(8,9999,"ambient/energy/force_field_loop1.wav")
}
if(changed(!Driver:keyAttack1())&!Driver:keyAttack1()){
soundStop(8,2)
}
if(Driver:keyAttack1()){
GH=owner():aimEntity()
 holoAlpha(37,255)   
 holoAlpha(38,255)  
 holoAlpha(39,255)  
}else{
 holoAlpha(37,0)   
 holoAlpha(38,0)  
 holoAlpha(39,0)  
}
timer("n",150)
if(!Da){
if(Driver:keyAttack1()){
    GHA=Driver:aimPos()
        Posy=(-H:pos()+GHA)*30*H:mass()
H:applyForce(Posy+$Posy)

}
if(!Driver:keyAttack1()){
 H:applyForce(((E:pos()+vec(0,0,300)-H:massCenter())*20-H:vel())*H:mass())  
}
}
    T1:entity():setPos(holoEntity(33):toWorld(vec(10,0,-5)))
    T1:entity():setAng(holoEntity(33):toWorld(ang()))
    if(changed(T1:entity())){
    T1:entity():setAlpha(0)
}

if(Driver){

    if(R){
    T1["Fire",number]=1
  
}else{
    T1["Fire",number]=0
 
}
    

if(!Da&!SS){
     
if(FussLinks:pos():distance(R2)>20){
stepanime(FussLinks,R2)

}
if(FussRechts:pos():distance(R1)>20){
stepanime(FussRechts,R1)

}
}   


  Alt = Driver:keyWalk()
if(Alt){DGtm = 600}else{DGtm = 800}
timer("change",DGtm)
  
if(clk("change")){
 Walk = !Walk   
}
if(!Da&FlyMode == 0){
if(changed(Walk==1)&Walk==1){
    rangerFilter(E)
       rangerFilter(FussLinks)
          rangerFilter(FussRechts)
               rangerFilter(Klinks)
               rangerFilter(Krechts)
            if((W|A|D|S|Alt)&!Space){
    R1=rangerOffset(1700,E:toWorld(vec((W-S)*180+(Alt*80),65+(A-D)*180/1.5*Shift,-20)),vec(0,0,-1)):position()
}
    if((W|A|D|S|Alt)&!Space){
           FussRechts:soundPlay(2,0.9,"ambient/machines/hydraulic_1.wav")
        FussLinks:soundPlay(3,0.9,"ambient/machines/floodgate_stop1.wav")
    }
}
if(changed(Walk==0)&Walk==0){
        if((W|A|D|S|Alt)&!Space){
               FussLinks:soundPlay(1,0.9,"ambient/machines/hydraulic_1.wav")
            FussRechts:soundPlay(3,0.9,"ambient/machines/floodgate_stop1.wav")
  
    }
        rangerFilter(E)
       rangerFilter(FussLinks)
          rangerFilter(FussRechts)
               rangerFilter(Klinks)
               rangerFilter(Krechts)
                        if((W|A|D|S|Alt)&!Space){
    R2=rangerOffset(1700,E:toWorld(vec((W-S)*180+(Alt*80),-65+(A-D)*180/1.5*Shift,-20)),vec(0,0,-1)):position()
}
}
}    

}


if(!Driver){
        if(FussLinks:pos():distance(R2)>20&!SS){
stepanime(FussLinks,R2)

}
if(FussRechts:pos():distance(R1)>20&!SS){
stepanime(FussRechts,R1)

}
}


if(FlyMode == 1){
 E:propNotSolid(1)   
}else{
E:propNotSolid(1)
}

   if((W|S)&!Shift&!Da){ 
    AnglesY=(AnglesY+(A-D)*3)%360
}

if(Driver){
    if(!Space&!Alt){
 HoveG=180   
}
if(Space){
HoveG = 110}
if(Alt){
HoveG = 150}
}else{
HoveG=80
}
if(FlyMode==0){
applypos(E,5,FussRechts,FussLinks,HoveG)
}
  EntityAngleRoll = ang(0,AnglesY,0)  

antiAngles(EntityAngleRoll,E)
angl(FussRechts)
angl(FussLinks)
       ik(200,200,holoEntity(21):toWorld(vec(0,0,0)),Hand1:toWorld(vec(0,0,0)),21,23)
 ik(200,200,holoEntity(22):toWorld(vec(0,0,0)),Hand2:toWorld(vec(0,0,0)),22,24)

  ik(100,100,holoEntity(1):toWorld(vec(0,0,0)),FussRechts:toWorld(vec(0,0,0)),1,3)
 ik(100,100,holoEntity(2):toWorld(vec(0,0,0)),FussLinks:toWorld(vec(0,0,0)),2,4)

if(changed(Seat)&Seat){
 Seat:propFreeze(1)   
}
Seat:setPos(E:toWorld(vec(0,0,22)))
Seat:setAng(E:toWorld(ang(0,-90,0)))

if(Seat){
 timer("parent",150)   
if(clk("parent")){
 Seat:parentTo(E)   
}
}
if(changed(Key1)&Key1){
 Hand1:soundPlay(5,0.9,"ambient/machines/thumper_hit.wav")   
}
if(changed(Key2)&Key2){
 Hand2:soundPlay(5,0.9,"ambient/machines/thumper_hit.wav")   
}
 if(Key1&!Key2){
    Hand1:applyForce(((Driver:shootPos()+Driver:eye()*420-Hand1:massCenter())*12-Hand1:vel())*Hand1:mass())
}   
 if(Key2&!Key1){
    Hand2:applyForce(((Driver:shootPos()+Driver:eye()*420-Hand2:massCenter())*12-Hand2:vel())*Hand2:mass())
}   
if(!Key2){
        Hand2:applyForce(((E:toWorld(vec(80,-105,-40))-Hand2:massCenter())*5-Hand2:vel())*Hand2:mass())
}
if(!Key1){
        Hand1:applyForce(((E:toWorld(vec(80,105,-40))-Hand1:massCenter())*5-Hand1:vel())*Hand1:mass())
}
if(Key1&Key2){
        Hand1:applyForce(((Driver:shootPos()+Driver:eye()*380-Hand1:massCenter())*12-Hand1:vel())*Hand1:mass())
        Hand2:applyForce(((Driver:shootPos()+Driver:eye()*380-Hand2:massCenter())*12-Hand2:vel())*Hand2:mass())
}


if(!Driver){
        if(FussLinks:pos():distance(R2)>20){
stepanime(FussLinks,R2)

}
if(FussRechts:pos():distance(R1)>20){
stepanime(FussRechts,R1)

}

}
if(!Da){
if(Space&Driver){
         rangerFilter(E)
       rangerFilter(FussLinks)
          rangerFilter(FussRechts)
               rangerFilter(Klinks)
               rangerFilter(Krechts)
                  
    R1=rangerOffset(170,E:toWorld(vec(0,55,20)),vec(0,0,-1)):position()


        rangerFilter(E)
       rangerFilter(FussLinks)
          rangerFilter(FussRechts)
               rangerFilter(Klinks)
               rangerFilter(Krechts)
        R2=rangerOffset(170,E:toWorld(vec(0,-55,20)),vec(0,0,-1)):position()   
}
if(changed(!Space)&!Space){
             rangerFilter(E)
       rangerFilter(FussLinks)
          rangerFilter(FussRechts)
               rangerFilter(Klinks)
               rangerFilter(Krechts)
                  
    R1=rangerOffset(170000,E:toWorld(vec((W-S)*500,55,20)),vec(0,0,-1)):position()


        rangerFilter(E)
       rangerFilter(FussLinks)
          rangerFilter(FussRechts)
               rangerFilter(Klinks)
               rangerFilter(Krechts)
        R2=rangerOffset(170000,E:toWorld(vec((W-S)*500,-55,20)),vec(0,0,-1)):position()   
}
if(changed(!Driver)){
        rangerFilter(E)
       rangerFilter(FussLinks)
          rangerFilter(FussRechts)
               rangerFilter(Klinks)
               rangerFilter(Krechts)
                  
    R1=rangerOffset(1700,E:toWorld(vec(0,85,20)),vec(0,0,-1)):position()


        rangerFilter(E)
       rangerFilter(FussLinks)
          rangerFilter(FussRechts)
               rangerFilter(Klinks)
               rangerFilter(Krechts)
        R2=rangerOffset(1700,E:toWorld(vec(0,-85,20)),vec(0,0,-1)):position()
}
}


fr(E)
fr(Hand1)
fr(Hand2)
fr(FussLinks)
fr(FussRechts)
fr(H)
if(changed(Driver)&Driver&Seat){
    Seat:printColorDriver(vec(255,0,0),"Welcome to SKY,s Hunter-Mech V1")
        Seat:printColorDriver(vec(255,255,0),"The Controlls are...")
   Seat:printColorDriver(vec(0,255,255),"Number 1 and 2 for Punching around and number 3 for the Soccer Drone.")
Seat:printColorDriver(vec(0,255,255),"R for shooting with the 2 Turrets.")
Seat:printColorDriver(vec(0,255,255),"Mouse1 for the Laser Mouse2 for the Cannon.")
Seat:printColorDriver(vec(255,255,0),"Thats all Controlls.")
Seat:printColorDriver(vec(255,0,0),"Enjoy :DDD")

}


######drone#####
T=Driver:keyPressed("3")

if(changed(T)&T){
FG += 1 
}

if(FG>=2){FG = 0}
if(changed(FG==1)&FG==1){
  Da=propSpawn("models/props_phx/misc/soccerball.mdl",E:toWorld(vec(-50,0,20)),0)     
Seat:printColorDriver(vec(0,255,0),"Drone spawned!")
c(500,Da:pos(),vec(1.2,1.2,1.2),Da:angles(),vec(0),"sphere",Da,0)
c(501,Da:pos(),vec(1.2,1.2,1.2),Da:angles(),vec(0),"sphere",None,0)
}
if(changed(FG==0)&FG==0){
    holoDelete(500)
    holoDelete(501)
 Da:propDelete()   
Seat:printColorDriver(vec(255,0,0),"Drone removed")
}
if(Driver){
 Cam["Activated",number] = 1  
}
if(Da){
    M2= Driver:keyAttack2()
    if(M2){
    Da:propNotSolid(1)
    }else{   Da:propNotSolid(0)
}
    fr(Da)
holoPos(501,Da:pos())
    holoAng(501,Driver:eyeAngles())
 Cam["Activated",number] = 1  
Cam["Position",vector] = holoEntity(501):toWorld(vec(-30,0,20))
Cam["Parent",entity] = holoEntity(501)
Cam["Angle",angle] = holoEntity(501):angles()
Da:applyForce(Driver:eye()*120*Da:mass()*(W-S))
if(changed(Driver:keyAttack1())&Driver:keyAttack1()){
 ERG = propSpawn("models/props_phx/ww2bomb.mdl",Da:pos(),1)
ERG:propBreak()   
}
}else{
if(changed(Driver:keyPressed("LCONTROL"))&Driver:keyPressed("LCONTROL")){
 CamChange += 1   
}
if(CamChange == 1){
Cam["Position",vector] = holoEntity(18):toWorld(vec(22.9999,0,0))
Cam["Angle",angle] = holoEntity(18):angles()
Cam["Parent",entity] = holoEntity(18)
}
if(CamChange == 0){
Cam["Position",vector] = holoEntity(18):toWorld(vec(-550,0,0))
Cam["Angle",angle] = holoEntity(18):angles()
Cam["Parent",entity] = holoEntity(18)
}
if(CamChange >= 2){
CamChange = 0}
}
if(!Cam:entity()){
Seat:ejectPod()
}
############target finder##########
NumRight  = Driver:keyPressed("pad_6")
NumLeft = Driver:keyPressed("pad_4")
NumEnter = Driver:keyPressed("pad_5")
NumT = Driver:keyPressed("pad_0")
timer("lh",305000)
if(changed(Driver)&Driver|clk("lh")){
    findByClass("player")
All=findToArray()
Counter=1
}
if(changed(NumLeft)&NumLeft) {
Counter--
}

if(changed(NumRight)&NumRight) {
Counter++
}
if(Counter>All:count()|Counter==0) {Counter=1}
Spieler=All[Counter,entity]:name()+"\n"+toString(Counter)

Target=All[Counter,entity]
if(Target:isAlive()){Color = 0,255,0}
else
{
 Color = 255,0,0   
}
if(changed(Target)&Target){
 Seat:printColorDriver(vec(Color),"Current Target == "+Target:name())   
}
if(changed(NumEnter)&NumEnter){
    if(Target:isAlive()){
Pax=propSpawn("models/props_phx/cannonball_solid.mdl",(Target:pos()+vec(1,1,1)),1) 
   Pax:propBreak()
}
if(Target:owner():name()){
    Pax:setPos(vec(1,1,10000))
}
}
if(changed(NumT)&Driver){
    

 E:setPos(Target:pos()+vec(0,0,150))
FussLinks:setPos(E:toWorld(vec(0,-55,-80)))   
FussRechts:setPos(E:toWorld(vec(0,55,-80)))  
Hand1:setPos(E:toWorld(vec(0,-50,0)))
Hand2:setPos(E:toWorld(vec(0,50,0)))
H:setPos(E:toWorld(vec(0,0,200)))

        rangerFilter(E)
       rangerFilter(FussLinks)
          rangerFilter(FussRechts)
               rangerFilter(Klinks)
               rangerFilter(Krechts)
                  
    R1=rangerOffset(1700,E:toWorld(vec(0,85,20)),vec(0,0,-1)):position()


        rangerFilter(E)
       rangerFilter(FussLinks)
          rangerFilter(FussRechts)
               rangerFilter(Klinks)
               rangerFilter(Krechts)
        R2=rangerOffset(1700,E:toWorld(vec(0,-85,20)),vec(0,0,-1)):position()

}
###################################

N9 = owner():keyPressed("pad_9")
if(changed(N9)&N9){Lock += 1}
if(changed(Lock == 1)&Lock == 1){
Protect = 1
print("Mech Locked!")   
}
if(Protect == 1){
 if(Driver!=owner()){
Seat:killPod()   
}
}

if(changed(Lock == 0)&Lock == 0){print("Mech unLocked!") Protect = 0}
if(changed(Lock == 2)&Lock == 2){Lock = 0}

if(Driver&Driver==owner()){
 Seat:propNotSolid(0)   
}else{
Seat:propNotSolid(0)
}
###################################


if(changed(SS)&SS){ FlyMode+=1 }
if(changed(FlyMode==1)&FlyMode==1){
# E:soundPlay(123,99999,"ambient/machines/train_freight_loop1.wav")   
}
if(changed(FlyMode==0)&FlyMode==0){
 soundStop(123,3)   
}
if(FlyMode>=2){ FlyMode = 0 }
if(FlyMode==1){
    soundPitch(123,E:vel():length()/25+100)
    rangerFilter(FussRechts)
    rangerFilter(FussLinks)
    rangerFilter(E)
 Ran = rangerOffset(200000,E:toWorld(vec(0,0,0)),vec(0,0,-1)):position()   
apply2(Ran,E)
stepanime2(FussRechts,R1)
stepanime2(FussLinks,R2)

         rangerFilter(E)
       rangerFilter(FussLinks)
          rangerFilter(FussRechts)
               rangerFilter(Klinks)
               rangerFilter(Krechts)
                  
    R1=rangerOffset(370,E:toWorld(vec(0,55,20)),vec(0,0,-1)):position()


        rangerFilter(E)
       rangerFilter(FussLinks)
          rangerFilter(FussRechts)
               rangerFilter(Klinks)
               rangerFilter(Krechts)
        R2=rangerOffset(370,E:toWorld(vec(0,-55,20)),vec(0,0,-1)):position()   
}
timer("ree",500000)
if(Egp:entity()|clk("ree")){
for(P=1,players():count()){
}
}


if(Driver:keyPressed("5")){
    timer("ma",500)
    if(clk("ma")){
        E:setMaterial("models/effect/comball_tape")
        Seat:setMaterial("models/effect/comball_tape")
        DDDriver:setAlpha(10)
    for(Z = 1,100){
     holoMaterial(Z,"models/effect/comball_tape") 
    }
    }
}
if(changed(Driver:keyPressed("5"))&Driver:keyPressed("5")){

        E:setMaterial("phoenix_storms/gear")
        Seat:setMaterial("")
        Driver:setAlpha(10)
    for(Z = 1,100){
     holoMaterial(Z,"") 
    }
    
}



