@name 
@inputs 
@outputs 
@persist 
@trigger 
runOnChat(1)
hideChat(1)
if(owner():lastSaid() == "play"){
soundPlay(999,999,"dubstep2.mp3")
}
if(owner():lastSaid() == "stop"){
soundStop(999,999)
}


@name 
@inputs 
@outputs 
@persist 
@trigger 
runOnChat(1)
hideChat(1)
if(owner():lastSaid() == "play"){
soundPlay(999,999,"dubstep2.mp3")
}
if(owner():lastSaid() == "stop"){
soundStop(999,999)
}


