@name Lastspawned
@inputs LS:entity
@outputs 
@persist R:array N
@trigger 

#its a thing that launches things

interval(10)

if(LS & changed(LS))
{
    R:unshiftEntity(LS)
    soundPlay(entity():id() + R:count(), 5, "weapons/ar2/ar2_altfire.wav")
    soundPitch(entity():id() + R:count(), 80)
    LS:setAlpha(0)
    LS:setMass(4000)
    LS:setTrails(20, 20, 2, "trails/smoke", vec(0, 255, 255), 255)
}

N = 1
while(N <= R:count())
{
    if(R[N, entity])
    {
        R[N, entity]:applyForce(R[N, entity]:mass() * 500 * R[N, entity]:up() * -1)
        N++
    }
    else
    {
        R:remove(N)
    }
}
@name Lastspawned
@inputs LS:entity
@outputs 
@persist R:array N
@trigger 

#its a thing that launches things

interval(10)

if(LS & changed(LS))
{
    R:unshiftEntity(LS)
    soundPlay(entity():id() + R:count(), 5, "weapons/ar2/ar2_altfire.wav")
    soundPitch(entity():id() + R:count(), 80)
    LS:setAlpha(0)
    LS:setMass(4000)
    LS:setTrails(20, 20, 2, "trails/smoke", vec(0, 255, 255), 255)
}

N = 1
while(N <= R:count())
{
    if(R[N, entity])
    {
        R[N, entity]:applyForce(R[N, entity]:mass() * 500 * R[N, entity]:up() * -1)
        N++
    }
    else
    {
        R:remove(N)
    }
}
