@name Lelicopter
@inputs 
@outputs 
@persist E:entity Seat:entity Pos C Ang Ang2 Ang3 Moveup Roll Flying Movement Speedy Speedy2 Fly Grav
@trigger 

Ent=entity()
runOnTick(1)
runOnChat(1)
runOnLast(1)
C++

if(first()){

}

if(!E){
 E=propSpawn("models/props_phx/gears/bevel24.mdl",Ent:toWorld(vec(0,0,35)),1)   
}

if(changed(E)&E){
    holoCreate(1,E:toWorld(vec(0,0,0)),vec(15.5,15.5,0.5),E:toWorld(ang()),vec(255,255,255),"hqtube")
    holoParent(1,E)
    holoMaterial(1,"phoenix_storms/gear")
  
         holoCreate(100,E:toWorld(vec(0,0,0)),vec(4,4,1),E:toWorld(ang()),vec(75,75,75),"hqsphere")
    holoParent(100,E)
    
         holoCreate(2,E:toWorld(vec(0,0,0)),vec(4,4,1),E:toWorld(ang()),vec(75,75,75),"hqsphere")
    holoParent(2,100)
    
         holoCreate(3,E:toWorld(vec(0,30,0)),vec(6,1,0.2),E:toWorld(ang(0,90,0)),vec(255,0,0),"hqsphere")
    holoParent(3,2)
       holoCreate(4,E:toWorld(vec(0,-30,0)),vec(6,1,0.2),E:toWorld(ang(0,90,0)),vec(255,0,0),"hqsphere")
    holoParent(4,2)
    
            holoCreate(5,E:toWorld(vec(30,0,0)),vec(6,1,0.2),E:toWorld(ang(0,0,0)),vec(255,0,0),"hqsphere")
    holoParent(5,2)
       holoCreate(6,E:toWorld(vec(-30,0,0)),vec(6,1,0.2),E:toWorld(ang(0,0,0)),vec(255,0,0),"hqsphere")
    holoParent(6,2)
    
    
    
    
         holoCreate(7,E:toWorld(vec(0,92,0)),vec(0.5,1,1),E:toWorld(ang(90,0,0)),vec(255,0,0),"hqcylinder")
    holoParent(7,E)
           holoCreate(8,E:toWorld(vec(0,-92,0)),vec(0.5,1,1),E:toWorld(ang(90,0,0)),vec(255,0,0),"hqcylinder")
    holoParent(8,E)
           holoCreate(9,E:toWorld(vec(92,0,0)),vec(0.5,1,1),E:toWorld(ang(90,90,0)),vec(255,0,0),"hqcylinder")
    holoParent(9,E)
           holoCreate(10,E:toWorld(vec(-92,0,0)),vec(0.5,1,1),E:toWorld(ang(90,90,0)),vec(255,0,0),"hqcylinder")
    holoParent(10,E)
    
           holoCreate(11,E:toWorld(vec(66,66,0)),vec(0.5,1,1),E:toWorld(ang(90,-45,0)),vec(0,0,0),"hqcylinder")
    holoParent(11,E)
           holoCreate(12,E:toWorld(vec(-66,-66,0)),vec(0.5,1,1),E:toWorld(ang(90,-45,0)),vec(0,0,0),"hqcylinder")
    holoParent(12,E)
           holoCreate(13,E:toWorld(vec(66,-66,0)),vec(0.5,1,1),E:toWorld(ang(90,45,0)),vec(0,0,0),"hqcylinder")
    holoParent(13,E)
           holoCreate(14,E:toWorld(vec(-66,66,0)),vec(0.5,1,1),E:toWorld(ang(90,45,0)),vec(0,0,0),"hqcylinder")
    holoParent(14,E)



            holoCreate(15,E:toWorld(vec(0,0,-25)),vec(1,1,3),E:toWorld(ang(90,90,0)),vec(75,75,75),"hqcylinder")
    holoParent(15,E)
             holoCreate(16,E:toWorld(vec(0,30,-25)),vec(1,1,2),E:toWorld(ang(90,90,0)),vec(40,40,40),"hqcone")
    holoParent(16,15)
            holoCreate(17,E:toWorld(vec(0,-22.2,-25)),vec(1,1,0.7),E:toWorld(ang(90,90,0)),vec(255,0,0),"hqtube")
    holoParent(17,15)
           holoCreate(18,E:toWorld(vec(0,-14,-25)),vec(2,0.5,0.1),E:toWorld(ang(0,0,0)),vec(255,0,0),"")
 holoParent(18,15)
         holoCreate(19,E:toWorld(vec(0,-14,-25)),vec(2,0.5,0.1),E:toWorld(ang(90,0,0)),vec(255,0,0),"")
    holoParent(19,15)    
}


if(!Seat){
    findByClass("prop_vehicle_*")
 findSortByDistance(E:pos())
if(find():owner()==owner()){
 Seat=find()  
Pos=1 
}   
}
if(Pos==1){
 Seat:setPos(E:toWorld(vec(0,0,10)))
Seat:setAng(E:toWorld(ang(0,0,0)))
timer("parent",150)   
}
if(clk("parent")){
 Pos=0
stoptimer("parent")
Seat:parentTo(E)   
}
Driver=Seat:driver()
W=Driver:keyForward()
A=Driver:keyLeft()
S=Driver:keyBack()
D=Driver:keyRight()
Space=Driver:keyJump()
Shift=Driver:keySprint()
M1=Driver:keyAttack1()
R=Driver:keyReload()
M2=Driver:keyAttack2()
F=Driver:keyPressed("F")
Ent:propFreeze(1)

holoAng(1,E:toWorld(ang(0,C*25,0)))
if(last()){
 E:propDelete()   
Seat:setPos(Ent:toWorld(vec(0,0,150)))
}

holoAng(2,holoEntity(100):toWorld(ang(0,E:angles():yaw()+Roll,0)))
holoAng(100,E:toWorld(ang()))
if(W){holoAng(100,E:toWorld(ang(0,0,-15)))}
if(A){holoAng(100,E:toWorld(ang(-15,0,0)))}
if(S){holoAng(100,E:toWorld(ang(0,0,15)))}
if(D){holoAng(100,E:toWorld(ang(15,0,0)))}
if(W&A){holoAng(100,E:toWorld(ang(-15,0,-15)))}
if(W&D){holoAng(100,E:toWorld(ang(15,0,-15)))}
if(S&A){holoAng(100,E:toWorld(ang(-15,0,15)))}
if(S&D){holoAng(100,E:toWorld(ang(15,0,15)))}


if(Driver){
    Active=1
}else{
Flying=0
 Moveup=0
Active=0
Roll=0
}
if(Active==1){
    Moveup=Moveup+0.05
    Roll=Roll*1+Moveup
    if(Moveup>100){Moveup=100 }
    if(Moveup==25){
     Movement=1   
      Flying=1
    }
}
if(Flying==1){
    E:propFreeze(0)
 E:applyForce(E:right()*E:mass()*clamp(10,10,10)*5*(S-W))   
E:applyAngForce(ang(0,1,0)*E:mass()*clamp(10,10,10)*1*(A-D))
E:applyForce(E:up()*E:mass()*clamp(10,10,10)*5*(Space-Shift))
}else{

}
E:setAlpha(0)


if(R){
 
E:applyAngForce(-E:angVel()*E:mass()*0.1)
E:applyForce(-E:vel()*E:mass()*0.1)
E:applyAngForce((ang(0,E:angles():yaw(),0)-E:angles())*E:mass()*1)
}else{

}
Ran=rangerOffset(0,holoEntity(15):pos()+vec(0,0,-10),holoEntity(15):pos())
if(changed(M1)&M1){
 Fly=1
    holoEntity(15):setTrails(0,30,2,"trails/smoke",vec(0,0,0),255)
    holoUnparent(15)
}
Aim=round(Driver:aimPos()-holoEntity(15):pos()):toAngle()
if(Fly==1){
    holoAng(15,Aim+ang(90,0,0))
    holoPos(15,holoEntity(15):pos()+holoEntity(15):up()*20)   
}
if(Ran:hit()&Driver&Fly==1){
 P=propSpawn("models/props_phx/ww2bomb.mdl",holoEntity(15):pos(),1)
P:propBreak()
Fly=0
}
if(changed(P)&P){
 holoDelete(15)   
 holoDelete(16)   
 holoDelete(17)   
 holoDelete(18)   
 holoDelete(19)   
}
if(changed(!holoEntity(15))&!holoEntity(15)){
              holoCreate(15,E:toWorld(vec(0,0,-25)),vec(1,1,3),E:toWorld(ang(90,90,0)),vec(75,75,75),"hqcylinder")
    holoParent(15,E)
             holoCreate(16,E:toWorld(vec(0,30,-25)),vec(1,1,2),E:toWorld(ang(90,90,0)),vec(40,40,40),"hqcone")
    holoParent(16,15)
            holoCreate(17,E:toWorld(vec(0,-22.2,-25)),vec(1,1,0.7),E:toWorld(ang(90,90,0)),vec(255,0,0),"hqtube")
    holoParent(17,15)
           holoCreate(18,E:toWorld(vec(0,-14,-25)),vec(2,0.5,0.1),E:toWorld(ang(0,0,0)),vec(255,0,0),"")
 holoParent(18,15)
         holoCreate(19,E:toWorld(vec(0,-14,-25)),vec(2,0.5,0.1),E:toWorld(ang(90,0,0)),vec(255,0,0),"")
    holoParent(19,15)   
}
if(changed(F)&F){Grav+=1}
if(Grav>=2&Driver){Grav=0}
if(Grav==1&Driver){E:propGravity(0) }
if(Grav==0&Driver){E:propGravity(1)}
if(!Driver){
    E:propGravity(1)
}
@name Lelicopter
@inputs 
@outputs 
@persist E:entity Seat:entity Pos C Ang Ang2 Ang3 Moveup Roll Flying Movement Speedy Speedy2 Fly Grav
@trigger 

Ent=entity()
runOnTick(1)
runOnChat(1)
runOnLast(1)
C++

if(first()){

}

if(!E){
 E=propSpawn("models/props_phx/gears/bevel24.mdl",Ent:toWorld(vec(0,0,35)),1)   
}

if(changed(E)&E){
    holoCreate(1,E:toWorld(vec(0,0,0)),vec(15.5,15.5,0.5),E:toWorld(ang()),vec(255,255,255),"hqtube")
    holoParent(1,E)
    holoMaterial(1,"phoenix_storms/gear")
  
         holoCreate(100,E:toWorld(vec(0,0,0)),vec(4,4,1),E:toWorld(ang()),vec(75,75,75),"hqsphere")
    holoParent(100,E)
    
         holoCreate(2,E:toWorld(vec(0,0,0)),vec(4,4,1),E:toWorld(ang()),vec(75,75,75),"hqsphere")
    holoParent(2,100)
    
         holoCreate(3,E:toWorld(vec(0,30,0)),vec(6,1,0.2),E:toWorld(ang(0,90,0)),vec(255,0,0),"hqsphere")
    holoParent(3,2)
       holoCreate(4,E:toWorld(vec(0,-30,0)),vec(6,1,0.2),E:toWorld(ang(0,90,0)),vec(255,0,0),"hqsphere")
    holoParent(4,2)
    
            holoCreate(5,E:toWorld(vec(30,0,0)),vec(6,1,0.2),E:toWorld(ang(0,0,0)),vec(255,0,0),"hqsphere")
    holoParent(5,2)
       holoCreate(6,E:toWorld(vec(-30,0,0)),vec(6,1,0.2),E:toWorld(ang(0,0,0)),vec(255,0,0),"hqsphere")
    holoParent(6,2)
    
    
    
    
         holoCreate(7,E:toWorld(vec(0,92,0)),vec(0.5,1,1),E:toWorld(ang(90,0,0)),vec(255,0,0),"hqcylinder")
    holoParent(7,E)
           holoCreate(8,E:toWorld(vec(0,-92,0)),vec(0.5,1,1),E:toWorld(ang(90,0,0)),vec(255,0,0),"hqcylinder")
    holoParent(8,E)
           holoCreate(9,E:toWorld(vec(92,0,0)),vec(0.5,1,1),E:toWorld(ang(90,90,0)),vec(255,0,0),"hqcylinder")
    holoParent(9,E)
           holoCreate(10,E:toWorld(vec(-92,0,0)),vec(0.5,1,1),E:toWorld(ang(90,90,0)),vec(255,0,0),"hqcylinder")
    holoParent(10,E)
    
           holoCreate(11,E:toWorld(vec(66,66,0)),vec(0.5,1,1),E:toWorld(ang(90,-45,0)),vec(0,0,0),"hqcylinder")
    holoParent(11,E)
           holoCreate(12,E:toWorld(vec(-66,-66,0)),vec(0.5,1,1),E:toWorld(ang(90,-45,0)),vec(0,0,0),"hqcylinder")
    holoParent(12,E)
           holoCreate(13,E:toWorld(vec(66,-66,0)),vec(0.5,1,1),E:toWorld(ang(90,45,0)),vec(0,0,0),"hqcylinder")
    holoParent(13,E)
           holoCreate(14,E:toWorld(vec(-66,66,0)),vec(0.5,1,1),E:toWorld(ang(90,45,0)),vec(0,0,0),"hqcylinder")
    holoParent(14,E)



            holoCreate(15,E:toWorld(vec(0,0,-25)),vec(1,1,3),E:toWorld(ang(90,90,0)),vec(75,75,75),"hqcylinder")
    holoParent(15,E)
             holoCreate(16,E:toWorld(vec(0,30,-25)),vec(1,1,2),E:toWorld(ang(90,90,0)),vec(40,40,40),"hqcone")
    holoParent(16,15)
            holoCreate(17,E:toWorld(vec(0,-22.2,-25)),vec(1,1,0.7),E:toWorld(ang(90,90,0)),vec(255,0,0),"hqtube")
    holoParent(17,15)
           holoCreate(18,E:toWorld(vec(0,-14,-25)),vec(2,0.5,0.1),E:toWorld(ang(0,0,0)),vec(255,0,0),"")
 holoParent(18,15)
         holoCreate(19,E:toWorld(vec(0,-14,-25)),vec(2,0.5,0.1),E:toWorld(ang(90,0,0)),vec(255,0,0),"")
    holoParent(19,15)    
}


if(!Seat){
    findByClass("prop_vehicle_*")
 findSortByDistance(E:pos())
if(find():owner()==owner()){
 Seat=find()  
Pos=1 
}   
}
if(Pos==1){
 Seat:setPos(E:toWorld(vec(0,0,10)))
Seat:setAng(E:toWorld(ang(0,0,0)))
timer("parent",150)   
}
if(clk("parent")){
 Pos=0
stoptimer("parent")
Seat:parentTo(E)   
}
Driver=Seat:driver()
W=Driver:keyForward()
A=Driver:keyLeft()
S=Driver:keyBack()
D=Driver:keyRight()
Space=Driver:keyJump()
Shift=Driver:keySprint()
M1=Driver:keyAttack1()
R=Driver:keyReload()
M2=Driver:keyAttack2()
F=Driver:keyPressed("F")
Ent:propFreeze(1)

holoAng(1,E:toWorld(ang(0,C*25,0)))
if(last()){
 E:propDelete()   
Seat:setPos(Ent:toWorld(vec(0,0,150)))
}

holoAng(2,holoEntity(100):toWorld(ang(0,E:angles():yaw()+Roll,0)))
holoAng(100,E:toWorld(ang()))
if(W){holoAng(100,E:toWorld(ang(0,0,-15)))}
if(A){holoAng(100,E:toWorld(ang(-15,0,0)))}
if(S){holoAng(100,E:toWorld(ang(0,0,15)))}
if(D){holoAng(100,E:toWorld(ang(15,0,0)))}
if(W&A){holoAng(100,E:toWorld(ang(-15,0,-15)))}
if(W&D){holoAng(100,E:toWorld(ang(15,0,-15)))}
if(S&A){holoAng(100,E:toWorld(ang(-15,0,15)))}
if(S&D){holoAng(100,E:toWorld(ang(15,0,15)))}


if(Driver){
    Active=1
}else{
Flying=0
 Moveup=0
Active=0
Roll=0
}
if(Active==1){
    Moveup=Moveup+0.05
    Roll=Roll*1+Moveup
    if(Moveup>100){Moveup=100 }
    if(Moveup==25){
     Movement=1   
      Flying=1
    }
}
if(Flying==1){
    E:propFreeze(0)
 E:applyForce(E:right()*E:mass()*clamp(10,10,10)*5*(S-W))   
E:applyAngForce(ang(0,1,0)*E:mass()*clamp(10,10,10)*1*(A-D))
E:applyForce(E:up()*E:mass()*clamp(10,10,10)*5*(Space-Shift))
}else{

}
E:setAlpha(0)


if(R){
 
E:applyAngForce(-E:angVel()*E:mass()*0.1)
E:applyForce(-E:vel()*E:mass()*0.1)
E:applyAngForce((ang(0,E:angles():yaw(),0)-E:angles())*E:mass()*1)
}else{

}
Ran=rangerOffset(0,holoEntity(15):pos()+vec(0,0,-10),holoEntity(15):pos())
if(changed(M1)&M1){
 Fly=1
    holoEntity(15):setTrails(0,30,2,"trails/smoke",vec(0,0,0),255)
    holoUnparent(15)
}
Aim=round(Driver:aimPos()-holoEntity(15):pos()):toAngle()
if(Fly==1){
    holoAng(15,Aim+ang(90,0,0))
    holoPos(15,holoEntity(15):pos()+holoEntity(15):up()*20)   
}
if(Ran:hit()&Driver&Fly==1){
 P=propSpawn("models/props_phx/ww2bomb.mdl",holoEntity(15):pos(),1)
P:propBreak()
Fly=0
}
if(changed(P)&P){
 holoDelete(15)   
 holoDelete(16)   
 holoDelete(17)   
 holoDelete(18)   
 holoDelete(19)   
}
if(changed(!holoEntity(15))&!holoEntity(15)){
              holoCreate(15,E:toWorld(vec(0,0,-25)),vec(1,1,3),E:toWorld(ang(90,90,0)),vec(75,75,75),"hqcylinder")
    holoParent(15,E)
             holoCreate(16,E:toWorld(vec(0,30,-25)),vec(1,1,2),E:toWorld(ang(90,90,0)),vec(40,40,40),"hqcone")
    holoParent(16,15)
            holoCreate(17,E:toWorld(vec(0,-22.2,-25)),vec(1,1,0.7),E:toWorld(ang(90,90,0)),vec(255,0,0),"hqtube")
    holoParent(17,15)
           holoCreate(18,E:toWorld(vec(0,-14,-25)),vec(2,0.5,0.1),E:toWorld(ang(0,0,0)),vec(255,0,0),"")
 holoParent(18,15)
         holoCreate(19,E:toWorld(vec(0,-14,-25)),vec(2,0.5,0.1),E:toWorld(ang(90,0,0)),vec(255,0,0),"")
    holoParent(19,15)   
}
if(changed(F)&F){Grav+=1}
if(Grav>=2&Driver){Grav=0}
if(Grav==1&Driver){E:propGravity(0) }
if(Grav==0&Driver){E:propGravity(1)}
if(!Driver){
    E:propGravity(1)
}
