@name Mech example v0.3
@inputs Seat:entity
@outputs  
@persist XY Seat:entity
@trigger 
@model models/hunter/blocks/cube05x05x025.mdl
runOnTick(1)
runOnLast(1)
if(last()){entity():setAng(ang())}
 #die 2te zahl aender fuer speed 
X=cos(XY)
Y=sin(XY)

E=entity()

Driver=Seat:driver()
Space=Driver:keyJump()
W=Driver:keyForward()
A=Driver:keyLeft()
S=Driver:keyBack()
D=Driver:keyRight()
Shift=Driver:keySprint()


#E:applyForce(E:forward()*(E:mass())*150*(W-S))


if(first()){
 holoCreate(1,entity():toWorld(vec(0,30,0)),vec(1,1,1),E:toWorld(ang()),vec(75,75,75),"hqsphere")   
holoParent(1,entity())
 holoCreate(2,entity():toWorld(vec(0,-30,0)),vec(1,1,1),E:toWorld(ang()),vec(75,75,75),"hqsphere")   
holoParent(2,entity())

 holoCreate(3,entity():toWorld(vec(-10,30,-20)),vec(1,1,1),E:toWorld(ang()),vec(75,75,75),"hqsphere")   
holoParent(3,1)
 holoCreate(4,entity():toWorld(vec(-10,-30,-20)),vec(1,1,1),E:toWorld(ang()),vec(75,75,75),"hqsphere")   
holoParent(4,2)

 holoCreate(6,entity():toWorld(vec(0,30,-40)),vec(1,1,1),E:toWorld(ang()),vec(75,75,75),"hqsphere")   
holoParent(6,3)
 holoCreate(5,entity():toWorld(vec(0,-30,-40)),vec(1,1,1),E:toWorld(ang()),vec(75,75,75),"hqsphere")   
holoParent(5,4)
}
if(W){
    XY=XY*1+3
holoAng(1,entity():toWorld(ang(X*15,0,0)))
holoAng(2,entity():toWorld(ang(X*-15,0,0))) 


holoAng(3,entity():toWorld(ang(Y*-25,0,0)))
holoAng(4,entity():toWorld(ang(Y*25,0,0))) 
}
if(S){
    XY=XY*1+-3
holoAng(1,entity():toWorld(ang(X*15,0,0)))
holoAng(2,entity():toWorld(ang(X*-15,0,0))) 


holoAng(3,entity():toWorld(ang(Y*-25,0,0)))
holoAng(4,entity():toWorld(ang(Y*25,0,0))) 
}
####hover###
rangerFilter(entity())
E=entity()
Ran=rangerOffset(45,E:pos(),E:up()*-45) #beide zahlen aender auch fuer hoehe
entity():applyForce(((Ran:pos()+vec(0,0,45)-entity():massCenter())*5-entity():vel())*entity():mass()) #vector aender fuer hoehe und die zwei zahlen bei ranger! die zahl nach masscenter aender fuer die staerke
##nix aender ab hier###
entity():applyAngForce(-E:angVel()*E:mass()*0.5)
entity():applyAngForce((ang(0,entity():angles():yaw(),0)-E:angles())*entity():mass()*5)
####bis hier#####
if(!clk("parent")){
Seat:setPos(E:toWorld(vec(0,0,10)))
Seat:setAng(E:toWorld(ang(0,-90,0)))
}
timer("parent",100)
if(clk("parent")){
 Seat:parentTo(E)   
}
if(first()){
    
}
E:applyForce(E:forward()*E:mass()*120*(W-S))
E:applyAngForce(ang(0,1,0)*E:mass()*80*(A-D))
@name Mech example v0.3
@inputs Seat:entity
@outputs  
@persist XY Seat:entity
@trigger 
@model models/hunter/blocks/cube05x05x025.mdl
runOnTick(1)
runOnLast(1)
if(last()){entity():setAng(ang())}
 #die 2te zahl aender fuer speed 
X=cos(XY)
Y=sin(XY)

E=entity()

Driver=Seat:driver()
Space=Driver:keyJump()
W=Driver:keyForward()
A=Driver:keyLeft()
S=Driver:keyBack()
D=Driver:keyRight()
Shift=Driver:keySprint()


#E:applyForce(E:forward()*(E:mass())*150*(W-S))


if(first()){
 holoCreate(1,entity():toWorld(vec(0,30,0)),vec(1,1,1),E:toWorld(ang()),vec(75,75,75),"hqsphere")   
holoParent(1,entity())
 holoCreate(2,entity():toWorld(vec(0,-30,0)),vec(1,1,1),E:toWorld(ang()),vec(75,75,75),"hqsphere")   
holoParent(2,entity())

 holoCreate(3,entity():toWorld(vec(-10,30,-20)),vec(1,1,1),E:toWorld(ang()),vec(75,75,75),"hqsphere")   
holoParent(3,1)
 holoCreate(4,entity():toWorld(vec(-10,-30,-20)),vec(1,1,1),E:toWorld(ang()),vec(75,75,75),"hqsphere")   
holoParent(4,2)

 holoCreate(6,entity():toWorld(vec(0,30,-40)),vec(1,1,1),E:toWorld(ang()),vec(75,75,75),"hqsphere")   
holoParent(6,3)
 holoCreate(5,entity():toWorld(vec(0,-30,-40)),vec(1,1,1),E:toWorld(ang()),vec(75,75,75),"hqsphere")   
holoParent(5,4)
}
if(W){
    XY=XY*1+3
holoAng(1,entity():toWorld(ang(X*15,0,0)))
holoAng(2,entity():toWorld(ang(X*-15,0,0))) 


holoAng(3,entity():toWorld(ang(Y*-25,0,0)))
holoAng(4,entity():toWorld(ang(Y*25,0,0))) 
}
if(S){
    XY=XY*1+-3
holoAng(1,entity():toWorld(ang(X*15,0,0)))
holoAng(2,entity():toWorld(ang(X*-15,0,0))) 


holoAng(3,entity():toWorld(ang(Y*-25,0,0)))
holoAng(4,entity():toWorld(ang(Y*25,0,0))) 
}
####hover###
rangerFilter(entity())
E=entity()
Ran=rangerOffset(45,E:pos(),E:up()*-45) #beide zahlen aender auch fuer hoehe
entity():applyForce(((Ran:pos()+vec(0,0,45)-entity():massCenter())*5-entity():vel())*entity():mass()) #vector aender fuer hoehe und die zwei zahlen bei ranger! die zahl nach masscenter aender fuer die staerke
##nix aender ab hier###
entity():applyAngForce(-E:angVel()*E:mass()*0.5)
entity():applyAngForce((ang(0,entity():angles():yaw(),0)-E:angles())*entity():mass()*5)
####bis hier#####
if(!clk("parent")){
Seat:setPos(E:toWorld(vec(0,0,10)))
Seat:setAng(E:toWorld(ang(0,-90,0)))
}
timer("parent",100)
if(clk("parent")){
 Seat:parentTo(E)   
}
if(first()){
    
}
E:applyForce(E:forward()*E:mass()*120*(W-S))
E:applyAngForce(ang(0,1,0)*E:mass()*80*(A-D))
