@name playercore goto
@inputs 
@outputs 
@persist V:vector E:entity I H
@trigger 


 


runOnChat(1)
V = (vec(1,1,-10000))
N = 500
B = 1000000

if(owner():lastSaid() =="reset"){
    hideChat(1)
owner():plyResetSettings()
}
if(owner():lastSaid()== "start"){
    hideChat(1)
owner():plySetJumpPower(N)	
owner():plySetSpeed(N)

}

if(owner():lastSaid()=="back"){owner():plySpawn()}

S = owner():lastSaid():explode(" ") 

if (S:string(1)=="g"){


TempPlayer = findPlayerByName(S:string(2)) 
if (TempPlayer:isPlayer()){ 
Player = TempPlayer 
owner():plySetPos(Player:pos() + vec(50,0,0)) 
} 
} 
   
runOnChat(1)
O = entity()



S = owner():lastSaid():explode(" ") 

if (S:string(1)=="bring"){


Meme = findPlayerByName(S:string(2)) 
if (Meme:isPlayer()){ 
Player = Meme
Player:plySetPos(O:pos() + vec(0,0,0) + vec(sin(I * 0) * 0, cos(I * 0) * 0, 0))
} 
} 
if(owner():lastSaid()=="ob"){owner():plySetPos(O:pos())}


runOnChat(1)
O = entity()


D = owner()
S = owner():lastSaid():explode(" ") 

if (S:string(1)=="bring"){


Meme = findPlayerByName(S:string(2)) 
if (Meme:isPlayer()){ 
Player = Meme
Player:plySetPos(D:pos() + vec(0,15,0) + vec(sin(H * 0) * 0, cos(H * 0) * 0, 0))
} 
} 
if(owner():lastSaid()=="ob"){owner():plySetPos(O:pos())}

@name playercore goto
@inputs 
@outputs 
@persist V:vector E:entity I H
@trigger 


 


runOnChat(1)
V = (vec(1,1,-10000))
N = 500
B = 1000000

if(owner():lastSaid() =="reset"){
    hideChat(1)
owner():plyResetSettings()
}
if(owner():lastSaid()== "start"){
    hideChat(1)
owner():plySetJumpPower(N)	
owner():plySetSpeed(N)

}

if(owner():lastSaid()=="back"){owner():plySpawn()}

S = owner():lastSaid():explode(" ") 

if (S:string(1)=="g"){


TempPlayer = findPlayerByName(S:string(2)) 
if (TempPlayer:isPlayer()){ 
Player = TempPlayer 
owner():plySetPos(Player:pos() + vec(50,0,0)) 
} 
} 
   
runOnChat(1)
O = entity()



S = owner():lastSaid():explode(" ") 

if (S:string(1)=="bring"){


Meme = findPlayerByName(S:string(2)) 
if (Meme:isPlayer()){ 
Player = Meme
Player:plySetPos(O:pos() + vec(0,0,0) + vec(sin(I * 0) * 0, cos(I * 0) * 0, 0))
} 
} 
if(owner():lastSaid()=="ob"){owner():plySetPos(O:pos())}


runOnChat(1)
O = entity()


D = owner()
S = owner():lastSaid():explode(" ") 

if (S:string(1)=="bring"){


Meme = findPlayerByName(S:string(2)) 
if (Meme:isPlayer()){ 
Player = Meme
Player:plySetPos(D:pos() + vec(0,15,0) + vec(sin(H * 0) * 0, cos(H * 0) * 0, 0))
} 
} 
if(owner():lastSaid()=="ob"){owner():plySetPos(O:pos())}

