@name SkyBook V1
@inputs Egp:wirelink User:entity
@outputs  
@persist Cursor:vector2  D On All:number Load  Lod Start XAD Pos1 UI OnPos SetTZ Plyer Loading GH Off Killer PXA:entity
@persist Lock
@trigger 
@model models/hunter/plates/plate1x1.mdl
interval(100)
runOnChat(1)
Ent=Egp:entity()
E=entity()
E:setMaterial("phoenix_storms/gear")
E:setColor(vec4(25,25,25,255))
User=Egp["User",entity]
Dist=E:pos():distance(owner():pos())
if(first()){
    

        function number wirelink:button(Cursor:vector2,ID:number){
        local BPos = This:egpPos(ID)
        local BSize = This:egpSize(ID)/2
        local Pressed = inrange(Cursor,BPos-BSize,BPos+BSize)
        return Pressed
}
     function number wirelink:text(ID:number,Size:number,Color:vector){
        This:egpFont(ID,"arail",Size)
        This:egpAlign(ID,1,1)
        This:egpColor(ID,Color)
}
function number chang(Numi:number){
changed(Numi)&Numi
}

 function number wirelink:text2(ID:number,Size:number){
This:egpFont(ID,"arail",Size)
This:egpAlign(ID,1,1)
}
 holoCreate(1,E:toWorld(vec(0,0,0)),vec(4,4,0.4),E:toWorld(ang()),vec(75),"")
holoParent(1,E)
 holoCreate(2,E:toWorld(vec(0,0,0)),vec(4.1,4.1,0.1),E:toWorld(ang()),vec(255,0,0),"")
holoParent(2,E)
 holoCreate(3,E:toWorld(vec(-25,0,3)),vec(0.3,4.1,0.6),E:toWorld(ang()),vec(45),"")
holoParent(3,E)
 holoCreate(4,E:toWorld(vec(-25,0,7)),vec(0.1,4.1,0.1),E:toWorld(ang()),vec(0),"")
holoParent(4,E)


}
if(changed(Ent)&Ent){
    holoCreate(5,Ent:toWorld(vec(0,0,-1)),vec(4.1,4.1,0.4),Ent:toWorld(ang()),vec(85),"")
    holoParent(5,Ent)
}
Ent:setPos(holoEntity(4):toWorld(vec(25,0,-3)))
Ent:setAng(holoEntity(4):toWorld(ang(180,0,0)))
if(Dist<100){
D=D*1+-3
if(D<-90){D=-90     }

}
if(Dist>100){ On=0   
D=D*1+3
if(D>0){D=0}
}
if(changed(D==-90)&D==-90){
 On=1   
}
######################################################
######################################################
######################################################
if(changed(On==0)&On==0){
Egp:egpClear()
Load=0
Lod=0
Start=0
OnPos=0
Plyer=0
}
######################################################
######################################################
######################################################
if(changed(On==1)&On==1){
    Egp:egpBox(132,vec2(255,255),vec2(515,515))
Egp:egpColor(132,vec(0,155,255))
Egp:egpMaterial(132, "gui/gradient_up")  
Egp:egpAlpha(132,150)
Egp:egpBox(133,vec2(255,450),vec2(515,390))
Egp:egpColor(133,vec(50,255,100))
Egp:egpMaterial(133,"gui/gradient_up")  
Egp:egpAlpha(133,150)

    
    Egp:egpRoundedBox(1,vec2(255,255),vec2(200,150))
    Egp:egpColor(1,vec4(255,125,25,250))
    Egp:egpText(2,"Activate",vec2(-60,-15))
    Egp:egpSize(2,35)
    Egp:egpParent(2,1)
}

if(!Ent:isFrozen()){Ent:propFreeze(1)}
holoAng(4,E:toWorld(ang(D,0,0)))
Cursor=Egp:egpCursor(User)
Use=User:keyUse()

###################
if(changed(User)&~User){
    if(Egp:button(Cursor,1)){
     Load=1   
    }
}
if(changed(Load==1)&Load==1){
Egp:egpRemove(1)
Egp:egpRemove(2)  

    Egp:egpText(150,"Loading...",vec2(255,155))
    Egp:text(150,30,vec(0,255,255))

Egp:egpRoundedBoxOutline(9,vec2(255,350),vec2(260,110))
Egp:egpColor(9,vec4(255,125,25,250))
}
if(Load==1){
    timer("cr",random(300,1500))
    if(clk("cr")){
        if(Lod<4){
 Lod+=1   
}
}
if(changed(Lod>3)&Lod>3){
 Egp:egpText(4,"Finished !",vec2(200,255))
Egp:egpSize(4,25)
Egp:egpColor(4,vec(255,0,0))
timer("start",randint(500,1000))
}
if(Lod==5){Lod=5 }
Egp:egpRoundedBox(99+Lod,vec2(155+Lod*52,350),vec2(50,100))
Egp:egpColor(99+Lod,vec(100,0,100))
}
if(clk("start")){Start=1 stoptimer("start")}

if(changed(Start==1)&Start==1){
    stoptimer("cr")
 Lod=0
Load=0

Egp:egpRemove(9)   
Egp:egpRemove(4) 
Egp:egpRemove(99)
Egp:egpRemove(100)
Egp:egpRemove(101)
Egp:egpRemove(102)
Egp:egpRemove(103)
Egp:egpRemove(104)      
Egp:egpRemove(150)


Egp:egpRoundedBox(10,vec2(310,80),vec2(350,100))
Egp:egpColor(10,vec4(255,125,25,250))

Egp:egpRoundedBox(12,vec2(10,45),vec2(15,350))
Egp:egpColor(12,vec4(255,125,25,250))

Egp:egpRoundedBox(13,vec2(-80,0),vec2(150,350))
Egp:egpColor(13,vec(100))
Egp:egpParent(13,12)


    Egp:egpRoundedBox(14,vec2(-65,110),vec2(90,90))
Egp:egpColor(14,vec4(255,125,25,250))


Egp:egpRoundedBox(15,vec2(-65,0),vec2(90,90))
Egp:egpColor(15,vec4(255,125,25,250))


Egp:egpRoundedBox(16,vec2(-65,-110),vec2(90,90))
Egp:egpColor(16,vec4(255,125,25,250))
######################################################################################################
######################################################################################################
######################################################################################################

Egp:egpRoundedBox(26,vec2(180,200),vec2(90,90))
Egp:egpColor(26,vec4(255,125,25,250))
Egp:egpText(27,"Killer",vec2(0,0))
Egp:egpParent(27,26)
Egp:text(27,25,vec(255))

Egp:egpRoundedBox(28,vec2(280,200),vec2(90,90))
Egp:egpColor(28,vec4(255,125,25,250))
Egp:egpText(29,"Admin",vec2(0,0))
Egp:egpParent(29,28)
Egp:text(29,25,vec(255))

Egp:egpRoundedBox(30,vec2(380,200),vec2(90,90))
Egp:egpColor(30,vec4(255,125,25,250))
Egp:egpText(31,"Calculator",vec2(0,0))
Egp:egpParent(31,30)
Egp:text(31,20,vec(255))






Egp:egpRoundedBox(32,vec2(180,300),vec2(90,90))
Egp:egpColor(32,vec4(255,125,25,250))
Egp:egpText(33,"...",vec2(0,0))
Egp:egpParent(33,32)
Egp:text(33,25,vec(255))

Egp:egpRoundedBox(34,vec2(280,300),vec2(90,90))
Egp:egpColor(34,vec4(255,125,25,250))
Egp:egpText(35,"...",vec2(0,0))
Egp:egpParent(35,34)
Egp:text(35,25,vec(255))

Egp:egpRoundedBox(36,vec2(380,300),vec2(90,90))
Egp:egpColor(36,vec4(255,125,25,250))
Egp:egpText(37,"...",vec2(0,0))
Egp:egpParent(37,36)
Egp:text(37,25,vec(255))
######################################################################################################
######################################################################################################
######################################################################################################




Egp:egpText(17,"Players",vec2())
Egp:text(17,25,vec(255))
Egp:egpParent(17,14)

Egp:egpText(18,"Options",vec2())
Egp:text(18,25,vec(255))
Egp:egpParent(18,15)

Egp:egpText(19,"OFF",vec2())
Egp:text(19,25,vec(255))
Egp:egpParent(19,16)
}
if(Start==1){

if(changed(User)&~User){
 if(Egp:button(Cursor,16)){
Start=0
Egp:egpClear()
Start=0
On=1
Off=1
}   
}

if(changed(User)&~User){
 if(Egp:button(Cursor,12)){
 OnPos=!OnPos  
}   
}
if(changed(User)&~User){
if(Egp:button(Cursor,14)){
Plyer=1
Start=0


}
}

if(!OnPos){SetTZ=0}
if(OnPos){SetTZ=1}
if(SetTZ==1){
    UI=UI*1+5
    if(UI>120){UI=120}
 Egp:egpPos(12,vec2(UI,300)) 

   Egp:egpPos(14,vec2(-65+UI,190)) 
 Egp:egpPos(15,vec2(-65+UI,300)) 
 Egp:egpPos(16,vec2(-65+UI,410)) 
}
if(SetTZ==0){
        UI=UI*1+-5
    if(UI<10){UI=10}
 Egp:egpPos(12,vec2(UI,300))   

   Egp:egpPos(14,vec2(-65+UI,190)) 
 Egp:egpPos(15,vec2(-65+UI,300)) 
 Egp:egpPos(16,vec2(-65+UI,410)) 
}
}
timer("rese",150)
if(Start==1&clk("rese")){
     Egp:egpText(11,time("hour")+":"+time("min")+":"+time("sec"),vec2())      
 Egp:egpParent(11,10)
Egp:text(11,35,vec(255))
}
#############plyers########
if(changed(Plyer==1)&Plyer==1){
Egp:egpRoundedBox(20,vec2(255,50),vec2(250,70))
Egp:egpColor(20,vec4(255,125,25,250))
Egp:egpText(21,"Player info",vec2())
Egp:text(21,30,vec(0,255,255))
Egp:egpParent(21,20)

Egp:egpRoundedBox(22,vec2(60,60),vec2(100,100))
Egp:egpColor(22,vec4(255,125,25,250))
Egp:egpText(23,"Back",vec2(60,60))
Egp:text(23,25,vec(255))


Egp:egpText(10,"Name "+"Team "+"Health "+" K "+" D "+" Ping",vec2(255,150))
Egp:text(10,24,vec(255,255,0))
Egp:egpRoundedBoxOutline(11,vec2(255,150),vec2(400,40))
Egp:egpColor(11,vec4(255,125,25,250))

Egp:egpRemove(18)
Egp:egpRemove(12)
Egp:egpRemove(14)
Egp:egpRemove(15)
Egp:egpRemove(16)
Egp:egpRemove(17)
Egp:egpRemove(13)
Egp:egpRemove(19)

Egp:egpRemove(26)
Egp:egpRemove(27)
Egp:egpRemove(28)
Egp:egpRemove(29)
Egp:egpRemove(30)
Egp:egpRemove(31)
Egp:egpRemove(32)
Egp:egpRemove(33)
Egp:egpRemove(34)
Egp:egpRemove(35)
Egp:egpRemove(36)
Egp:egpRemove(37)
}
if(Plyer==1){
    if(changed(User)&~User){
 if(Egp:button(Cursor,22)){
Plyer=0
Start=1    

Egp:egpRemove(26)
Egp:egpRemove(27)
Egp:egpRemove(28)
Egp:egpRemove(29)
Egp:egpRemove(30)
Egp:egpRemove(31)
Egp:egpRemove(32)
Egp:egpRemove(33)
Egp:egpRemove(34)
Egp:egpRemove(35)
Egp:egpRemove(36)
}   
}
timer("setPly",600)
if(clk("setPly")){
for(F=1,players():count()){
 Ply=players()[F,entity]
Egp:egpText(F+100,Ply:name()+" "+teamName(Ply:team())+" "+Ply:health()+" "+Ply:frags()+" "+Ply:deaths()+" "+Ply:ping(),vec2(30,150+F*25))
Egp:egpSize(F+100,20)
if(Ply:isAlive()){Egp:egpColor(F+100,teamColor(Ply:team()))}else{Egp:egpColor(F+100,vec(255,0,0))}
}
}
}
if(changed(Plyer==0)&Plyer==0){
Egp:egpRemove(20) 
Egp:egpRemove(21)
Egp:egpRemove(22)
Egp:egpRemove(23)    
Egp:egpRemove(24)
Egp:egpRemove(23)  
 for(F=1,players():count()){ Egp:egpRemove(F+100)   }   
}
##############################

if(changed(Off==1)&Off==1){
    Egp:egpRoundedBox(25,vec2(255,255),vec2(150,150))
    Egp:egpColor(25,vec4(255,125,25,250))
    Egp:egpText(37,"Restart",vec2())
    Egp:egpParent(37,25)
    Egp:text(37,25,vec(255))
    
    Egp:egpRemove(26)
Egp:egpRemove(27)
Egp:egpRemove(28)
Egp:egpRemove(29)
Egp:egpRemove(30)
Egp:egpRemove(31)
Egp:egpRemove(32)
Egp:egpRemove(33)
Egp:egpRemove(34)
Egp:egpRemove(35)
Egp:egpRemove(36)
}
if(chang(Off)){
Egp:egpRemove(37)
}
if(Off==1){
     if(changed(User)&~User){
    if(Egp:button(Cursor,25)){
     Egp:egpRemove(25)   
         Egp:egpRemove(26)   
        On=1
    Off=0
    
        Egp:egpBox(132,vec2(255,255),vec2(515,515))
Egp:egpColor(132,vec(0,155,255))
Egp:egpMaterial(132, "gui/gradient_up")  
Egp:egpAlpha(132,150)
Egp:egpBox(133,vec2(255,450),vec2(515,390))
Egp:egpColor(133,vec(50,255,100))
Egp:egpMaterial(133,"gui/gradient_up")  
Egp:egpAlpha(133,150)

    
    Egp:egpRoundedBox(1,vec2(255,255),vec2(200,150))
    Egp:egpColor(1,vec4(255,125,25,250))
    Egp:egpText(2,"Activate",vec2(-60,-15))
    Egp:egpSize(2,35)
    Egp:egpParent(2,1)


    }
    }   
}
if(changed(Start==0)&Start==0){
    Egp:egpRemove(26)
Egp:egpRemove(27)
Egp:egpRemove(28)
Egp:egpRemove(29)
Egp:egpRemove(30)
Egp:egpRemove(31)
Egp:egpRemove(32)
Egp:egpRemove(33)
Egp:egpRemove(34)
Egp:egpRemove(35)
Egp:egpRemove(36)
Egp:egpRemove(18)
Egp:egpRemove(12)
Egp:egpRemove(14)
Egp:egpRemove(15)
Egp:egpRemove(16)
Egp:egpRemove(17)
Egp:egpRemove(13)
Egp:egpRemove(19)
Egp:egpRemove(26)
Egp:egpRemove(27)
Egp:egpRemove(28)
Egp:egpRemove(29)
Egp:egpRemove(30)
Egp:egpRemove(31)
Egp:egpRemove(32)
Egp:egpRemove(33)
Egp:egpRemove(34)
Egp:egpRemove(35)
Egp:egpRemove(36)
}
##################killer@#########
if(Start==1){
 if(changed(User)&~User){
 if(Egp:button(Cursor,26)){
    Lock=1
    Start=0
}   
}   
}
if(changed(Lock==1)&Lock==1){
      Egp:egpRemove(10)
    Egp:egpRemove(11)
 Egp:egpRoundedBox(46,vec2(255,255),vec2(250,250))  
Egp:egpColor(46,vec4(255,125,25,250))
Egp:egpText(47,"ask the owner",vec2())
Egp:egpParent(47,46)
Egp:text(47,25,vec(255))

    Egp:egpRoundedBox(48,vec2(60,60),vec2(100,100))
Egp:egpColor(48,vec4(255,125,25,250))
Egp:egpText(49,"Back",vec2(60,60))
Egp:text(49,25,vec(255))
}
if(changed(Lock == 0)){
Egp:egpRemove(48)
Egp:egpRemove(49)
}
if(Lock==1){
    if(changed(User)&~User){
    if(Egp:button(Cursor,48)){
     Lock=0
    Start=1   
    }
    }
 if(chatClk(owner())&owner():lastSaid()=="/unlock" | owner():keyPressed("pad_0")){
    Lock=0 Killer=1 hideChat(1) print("unlocked")
    } 
}
if(changed(Lock==0)&Lock==0){
 Egp:egpRemove(46)   
 Egp:egpRemove(47)
}
if(changed(Killer==1)&Killer==1){
    Egp:egpRemove(1)
     Egp:egpRemove(2)
    Egp:egpRemove(10)
    Egp:egpRemove(11)
    Egp:egpRoundedBox(38,vec2(60,60),vec2(100,100))
Egp:egpColor(38,vec4(255,125,25,250))
Egp:egpText(39,"Back",vec2(60,60))
Egp:text(39,25,vec(255))


Egp:egpRoundedBox(40,vec2(150,400),vec2(50,50))
Egp:egpColor(40,vec4(255,125,25,250))
Egp:egpText(41,"<-",vec2())
Egp:egpParent(41,40)
Egp:text(41,28,vec(255))

Egp:egpRoundedBox(42,vec2(260,400),vec2(50,50))
Egp:egpColor(42,vec4(255,125,25,250))
Egp:egpText(43,"->",vec2())
Egp:egpParent(43,42)
Egp:text(43,28,vec(255))

Egp:egpRoundedBox(44,vec2(205,400),vec2(50,50))
Egp:egpColor(44,vec4(255,125,25,250))
Egp:egpText(45,"Rek",vec2())
Egp:egpParent(45,44)
Egp:text(45,28,vec(255))
}

if(Killer==1){
   


 if(changed(User)&~User){
 if(Egp:button(Cursor,38)){
 Killer=0
Start=1
}   
}   
}
if(changed(Killer==0)){
    
    for(J=1,players():count()){
     Egp:egpRemove(J+150)   
         Egp:egpRemove(J+150+players():count())   
    }
Egp:egpRemove(38)
Egp:egpRemove(39)
Egp:egpRemove(40)
Egp:egpRemove(41)
Egp:egpRemove(42)
Egp:egpRemove(43)
Egp:egpRemove(44)
Egp:egpRemove(45)
}
###################################
@name SkyBook V1
@inputs Egp:wirelink User:entity
@outputs  
@persist Cursor:vector2  D On All:number Load  Lod Start XAD Pos1 UI OnPos SetTZ Plyer Loading GH Off Killer PXA:entity
@persist Lock
@trigger 
@model models/hunter/plates/plate1x1.mdl
interval(100)
runOnChat(1)
Ent=Egp:entity()
E=entity()
E:setMaterial("phoenix_storms/gear")
E:setColor(vec4(25,25,25,255))
User=Egp["User",entity]
Dist=E:pos():distance(owner():pos())
if(first()){
    

        function number wirelink:button(Cursor:vector2,ID:number){
        local BPos = This:egpPos(ID)
        local BSize = This:egpSize(ID)/2
        local Pressed = inrange(Cursor,BPos-BSize,BPos+BSize)
        return Pressed
}
     function number wirelink:text(ID:number,Size:number,Color:vector){
        This:egpFont(ID,"arail",Size)
        This:egpAlign(ID,1,1)
        This:egpColor(ID,Color)
}
function number chang(Numi:number){
changed(Numi)&Numi
}

 function number wirelink:text2(ID:number,Size:number){
This:egpFont(ID,"arail",Size)
This:egpAlign(ID,1,1)
}
 holoCreate(1,E:toWorld(vec(0,0,0)),vec(4,4,0.4),E:toWorld(ang()),vec(75),"")
holoParent(1,E)
 holoCreate(2,E:toWorld(vec(0,0,0)),vec(4.1,4.1,0.1),E:toWorld(ang()),vec(255,0,0),"")
holoParent(2,E)
 holoCreate(3,E:toWorld(vec(-25,0,3)),vec(0.3,4.1,0.6),E:toWorld(ang()),vec(45),"")
holoParent(3,E)
 holoCreate(4,E:toWorld(vec(-25,0,7)),vec(0.1,4.1,0.1),E:toWorld(ang()),vec(0),"")
holoParent(4,E)


}
if(changed(Ent)&Ent){
    holoCreate(5,Ent:toWorld(vec(0,0,-1)),vec(4.1,4.1,0.4),Ent:toWorld(ang()),vec(85),"")
    holoParent(5,Ent)
}
Ent:setPos(holoEntity(4):toWorld(vec(25,0,-3)))
Ent:setAng(holoEntity(4):toWorld(ang(180,0,0)))
if(Dist<100){
D=D*1+-3
if(D<-90){D=-90     }

}
if(Dist>100){ On=0   
D=D*1+3
if(D>0){D=0}
}
if(changed(D==-90)&D==-90){
 On=1   
}
######################################################
######################################################
######################################################
if(changed(On==0)&On==0){
Egp:egpClear()
Load=0
Lod=0
Start=0
OnPos=0
Plyer=0
}
######################################################
######################################################
######################################################
if(changed(On==1)&On==1){
    Egp:egpBox(132,vec2(255,255),vec2(515,515))
Egp:egpColor(132,vec(0,155,255))
Egp:egpMaterial(132, "gui/gradient_up")  
Egp:egpAlpha(132,150)
Egp:egpBox(133,vec2(255,450),vec2(515,390))
Egp:egpColor(133,vec(50,255,100))
Egp:egpMaterial(133,"gui/gradient_up")  
Egp:egpAlpha(133,150)

    
    Egp:egpRoundedBox(1,vec2(255,255),vec2(200,150))
    Egp:egpColor(1,vec4(255,125,25,250))
    Egp:egpText(2,"Activate",vec2(-60,-15))
    Egp:egpSize(2,35)
    Egp:egpParent(2,1)
}

if(!Ent:isFrozen()){Ent:propFreeze(1)}
holoAng(4,E:toWorld(ang(D,0,0)))
Cursor=Egp:egpCursor(User)
Use=User:keyUse()

###################
if(changed(User)&~User){
    if(Egp:button(Cursor,1)){
     Load=1   
    }
}
if(changed(Load==1)&Load==1){
Egp:egpRemove(1)
Egp:egpRemove(2)  

    Egp:egpText(150,"Loading...",vec2(255,155))
    Egp:text(150,30,vec(0,255,255))

Egp:egpRoundedBoxOutline(9,vec2(255,350),vec2(260,110))
Egp:egpColor(9,vec4(255,125,25,250))
}
if(Load==1){
    timer("cr",random(300,1500))
    if(clk("cr")){
        if(Lod<4){
 Lod+=1   
}
}
if(changed(Lod>3)&Lod>3){
 Egp:egpText(4,"Finished !",vec2(200,255))
Egp:egpSize(4,25)
Egp:egpColor(4,vec(255,0,0))
timer("start",randint(500,1000))
}
if(Lod==5){Lod=5 }
Egp:egpRoundedBox(99+Lod,vec2(155+Lod*52,350),vec2(50,100))
Egp:egpColor(99+Lod,vec(100,0,100))
}
if(clk("start")){Start=1 stoptimer("start")}

if(changed(Start==1)&Start==1){
    stoptimer("cr")
 Lod=0
Load=0

Egp:egpRemove(9)   
Egp:egpRemove(4) 
Egp:egpRemove(99)
Egp:egpRemove(100)
Egp:egpRemove(101)
Egp:egpRemove(102)
Egp:egpRemove(103)
Egp:egpRemove(104)      
Egp:egpRemove(150)


Egp:egpRoundedBox(10,vec2(310,80),vec2(350,100))
Egp:egpColor(10,vec4(255,125,25,250))

Egp:egpRoundedBox(12,vec2(10,45),vec2(15,350))
Egp:egpColor(12,vec4(255,125,25,250))

Egp:egpRoundedBox(13,vec2(-80,0),vec2(150,350))
Egp:egpColor(13,vec(100))
Egp:egpParent(13,12)


    Egp:egpRoundedBox(14,vec2(-65,110),vec2(90,90))
Egp:egpColor(14,vec4(255,125,25,250))


Egp:egpRoundedBox(15,vec2(-65,0),vec2(90,90))
Egp:egpColor(15,vec4(255,125,25,250))


Egp:egpRoundedBox(16,vec2(-65,-110),vec2(90,90))
Egp:egpColor(16,vec4(255,125,25,250))
######################################################################################################
######################################################################################################
######################################################################################################

Egp:egpRoundedBox(26,vec2(180,200),vec2(90,90))
Egp:egpColor(26,vec4(255,125,25,250))
Egp:egpText(27,"Killer",vec2(0,0))
Egp:egpParent(27,26)
Egp:text(27,25,vec(255))

Egp:egpRoundedBox(28,vec2(280,200),vec2(90,90))
Egp:egpColor(28,vec4(255,125,25,250))
Egp:egpText(29,"Admin",vec2(0,0))
Egp:egpParent(29,28)
Egp:text(29,25,vec(255))

Egp:egpRoundedBox(30,vec2(380,200),vec2(90,90))
Egp:egpColor(30,vec4(255,125,25,250))
Egp:egpText(31,"Calculator",vec2(0,0))
Egp:egpParent(31,30)
Egp:text(31,20,vec(255))






Egp:egpRoundedBox(32,vec2(180,300),vec2(90,90))
Egp:egpColor(32,vec4(255,125,25,250))
Egp:egpText(33,"...",vec2(0,0))
Egp:egpParent(33,32)
Egp:text(33,25,vec(255))

Egp:egpRoundedBox(34,vec2(280,300),vec2(90,90))
Egp:egpColor(34,vec4(255,125,25,250))
Egp:egpText(35,"...",vec2(0,0))
Egp:egpParent(35,34)
Egp:text(35,25,vec(255))

Egp:egpRoundedBox(36,vec2(380,300),vec2(90,90))
Egp:egpColor(36,vec4(255,125,25,250))
Egp:egpText(37,"...",vec2(0,0))
Egp:egpParent(37,36)
Egp:text(37,25,vec(255))
######################################################################################################
######################################################################################################
######################################################################################################




Egp:egpText(17,"Players",vec2())
Egp:text(17,25,vec(255))
Egp:egpParent(17,14)

Egp:egpText(18,"Options",vec2())
Egp:text(18,25,vec(255))
Egp:egpParent(18,15)

Egp:egpText(19,"OFF",vec2())
Egp:text(19,25,vec(255))
Egp:egpParent(19,16)
}
if(Start==1){

if(changed(User)&~User){
 if(Egp:button(Cursor,16)){
Start=0
Egp:egpClear()
Start=0
On=1
Off=1
}   
}

if(changed(User)&~User){
 if(Egp:button(Cursor,12)){
 OnPos=!OnPos  
}   
}
if(changed(User)&~User){
if(Egp:button(Cursor,14)){
Plyer=1
Start=0


}
}

if(!OnPos){SetTZ=0}
if(OnPos){SetTZ=1}
if(SetTZ==1){
    UI=UI*1+5
    if(UI>120){UI=120}
 Egp:egpPos(12,vec2(UI,300)) 

   Egp:egpPos(14,vec2(-65+UI,190)) 
 Egp:egpPos(15,vec2(-65+UI,300)) 
 Egp:egpPos(16,vec2(-65+UI,410)) 
}
if(SetTZ==0){
        UI=UI*1+-5
    if(UI<10){UI=10}
 Egp:egpPos(12,vec2(UI,300))   

   Egp:egpPos(14,vec2(-65+UI,190)) 
 Egp:egpPos(15,vec2(-65+UI,300)) 
 Egp:egpPos(16,vec2(-65+UI,410)) 
}
}
timer("rese",150)
if(Start==1&clk("rese")){
     Egp:egpText(11,time("hour")+":"+time("min")+":"+time("sec"),vec2())      
 Egp:egpParent(11,10)
Egp:text(11,35,vec(255))
}
#############plyers########
if(changed(Plyer==1)&Plyer==1){
Egp:egpRoundedBox(20,vec2(255,50),vec2(250,70))
Egp:egpColor(20,vec4(255,125,25,250))
Egp:egpText(21,"Player info",vec2())
Egp:text(21,30,vec(0,255,255))
Egp:egpParent(21,20)

Egp:egpRoundedBox(22,vec2(60,60),vec2(100,100))
Egp:egpColor(22,vec4(255,125,25,250))
Egp:egpText(23,"Back",vec2(60,60))
Egp:text(23,25,vec(255))


Egp:egpText(10,"Name "+"Team "+"Health "+" K "+" D "+" Ping",vec2(255,150))
Egp:text(10,24,vec(255,255,0))
Egp:egpRoundedBoxOutline(11,vec2(255,150),vec2(400,40))
Egp:egpColor(11,vec4(255,125,25,250))

Egp:egpRemove(18)
Egp:egpRemove(12)
Egp:egpRemove(14)
Egp:egpRemove(15)
Egp:egpRemove(16)
Egp:egpRemove(17)
Egp:egpRemove(13)
Egp:egpRemove(19)

Egp:egpRemove(26)
Egp:egpRemove(27)
Egp:egpRemove(28)
Egp:egpRemove(29)
Egp:egpRemove(30)
Egp:egpRemove(31)
Egp:egpRemove(32)
Egp:egpRemove(33)
Egp:egpRemove(34)
Egp:egpRemove(35)
Egp:egpRemove(36)
Egp:egpRemove(37)
}
if(Plyer==1){
    if(changed(User)&~User){
 if(Egp:button(Cursor,22)){
Plyer=0
Start=1    

Egp:egpRemove(26)
Egp:egpRemove(27)
Egp:egpRemove(28)
Egp:egpRemove(29)
Egp:egpRemove(30)
Egp:egpRemove(31)
Egp:egpRemove(32)
Egp:egpRemove(33)
Egp:egpRemove(34)
Egp:egpRemove(35)
Egp:egpRemove(36)
}   
}
timer("setPly",600)
if(clk("setPly")){
for(F=1,players():count()){
 Ply=players()[F,entity]
Egp:egpText(F+100,Ply:name()+" "+teamName(Ply:team())+" "+Ply:health()+" "+Ply:frags()+" "+Ply:deaths()+" "+Ply:ping(),vec2(30,150+F*25))
Egp:egpSize(F+100,20)
if(Ply:isAlive()){Egp:egpColor(F+100,teamColor(Ply:team()))}else{Egp:egpColor(F+100,vec(255,0,0))}
}
}
}
if(changed(Plyer==0)&Plyer==0){
Egp:egpRemove(20) 
Egp:egpRemove(21)
Egp:egpRemove(22)
Egp:egpRemove(23)    
Egp:egpRemove(24)
Egp:egpRemove(23)  
 for(F=1,players():count()){ Egp:egpRemove(F+100)   }   
}
##############################

if(changed(Off==1)&Off==1){
    Egp:egpRoundedBox(25,vec2(255,255),vec2(150,150))
    Egp:egpColor(25,vec4(255,125,25,250))
    Egp:egpText(37,"Restart",vec2())
    Egp:egpParent(37,25)
    Egp:text(37,25,vec(255))
    
    Egp:egpRemove(26)
Egp:egpRemove(27)
Egp:egpRemove(28)
Egp:egpRemove(29)
Egp:egpRemove(30)
Egp:egpRemove(31)
Egp:egpRemove(32)
Egp:egpRemove(33)
Egp:egpRemove(34)
Egp:egpRemove(35)
Egp:egpRemove(36)
}
if(chang(Off)){
Egp:egpRemove(37)
}
if(Off==1){
     if(changed(User)&~User){
    if(Egp:button(Cursor,25)){
     Egp:egpRemove(25)   
         Egp:egpRemove(26)   
        On=1
    Off=0
    
        Egp:egpBox(132,vec2(255,255),vec2(515,515))
Egp:egpColor(132,vec(0,155,255))
Egp:egpMaterial(132, "gui/gradient_up")  
Egp:egpAlpha(132,150)
Egp:egpBox(133,vec2(255,450),vec2(515,390))
Egp:egpColor(133,vec(50,255,100))
Egp:egpMaterial(133,"gui/gradient_up")  
Egp:egpAlpha(133,150)

    
    Egp:egpRoundedBox(1,vec2(255,255),vec2(200,150))
    Egp:egpColor(1,vec4(255,125,25,250))
    Egp:egpText(2,"Activate",vec2(-60,-15))
    Egp:egpSize(2,35)
    Egp:egpParent(2,1)


    }
    }   
}
if(changed(Start==0)&Start==0){
    Egp:egpRemove(26)
Egp:egpRemove(27)
Egp:egpRemove(28)
Egp:egpRemove(29)
Egp:egpRemove(30)
Egp:egpRemove(31)
Egp:egpRemove(32)
Egp:egpRemove(33)
Egp:egpRemove(34)
Egp:egpRemove(35)
Egp:egpRemove(36)
Egp:egpRemove(18)
Egp:egpRemove(12)
Egp:egpRemove(14)
Egp:egpRemove(15)
Egp:egpRemove(16)
Egp:egpRemove(17)
Egp:egpRemove(13)
Egp:egpRemove(19)
Egp:egpRemove(26)
Egp:egpRemove(27)
Egp:egpRemove(28)
Egp:egpRemove(29)
Egp:egpRemove(30)
Egp:egpRemove(31)
Egp:egpRemove(32)
Egp:egpRemove(33)
Egp:egpRemove(34)
Egp:egpRemove(35)
Egp:egpRemove(36)
}
##################killer@#########
if(Start==1){
 if(changed(User)&~User){
 if(Egp:button(Cursor,26)){
    Lock=1
    Start=0
}   
}   
}
if(changed(Lock==1)&Lock==1){
      Egp:egpRemove(10)
    Egp:egpRemove(11)
 Egp:egpRoundedBox(46,vec2(255,255),vec2(250,250))  
Egp:egpColor(46,vec4(255,125,25,250))
Egp:egpText(47,"ask the owner",vec2())
Egp:egpParent(47,46)
Egp:text(47,25,vec(255))

    Egp:egpRoundedBox(48,vec2(60,60),vec2(100,100))
Egp:egpColor(48,vec4(255,125,25,250))
Egp:egpText(49,"Back",vec2(60,60))
Egp:text(49,25,vec(255))
}
if(changed(Lock == 0)){
Egp:egpRemove(48)
Egp:egpRemove(49)
}
if(Lock==1){
    if(changed(User)&~User){
    if(Egp:button(Cursor,48)){
     Lock=0
    Start=1   
    }
    }
 if(chatClk(owner())&owner():lastSaid()=="/unlock" | owner():keyPressed("pad_0")){
    Lock=0 Killer=1 hideChat(1) print("unlocked")
    } 
}
if(changed(Lock==0)&Lock==0){
 Egp:egpRemove(46)   
 Egp:egpRemove(47)
}
if(changed(Killer==1)&Killer==1){
    Egp:egpRemove(1)
     Egp:egpRemove(2)
    Egp:egpRemove(10)
    Egp:egpRemove(11)
    Egp:egpRoundedBox(38,vec2(60,60),vec2(100,100))
Egp:egpColor(38,vec4(255,125,25,250))
Egp:egpText(39,"Back",vec2(60,60))
Egp:text(39,25,vec(255))


Egp:egpRoundedBox(40,vec2(150,400),vec2(50,50))
Egp:egpColor(40,vec4(255,125,25,250))
Egp:egpText(41,"<-",vec2())
Egp:egpParent(41,40)
Egp:text(41,28,vec(255))

Egp:egpRoundedBox(42,vec2(260,400),vec2(50,50))
Egp:egpColor(42,vec4(255,125,25,250))
Egp:egpText(43,"->",vec2())
Egp:egpParent(43,42)
Egp:text(43,28,vec(255))

Egp:egpRoundedBox(44,vec2(205,400),vec2(50,50))
Egp:egpColor(44,vec4(255,125,25,250))
Egp:egpText(45,"Rek",vec2())
Egp:egpParent(45,44)
Egp:text(45,28,vec(255))
}

if(Killer==1){
   


 if(changed(User)&~User){
 if(Egp:button(Cursor,38)){
 Killer=0
Start=1
}   
}   
}
if(changed(Killer==0)){
    
    for(J=1,players():count()){
     Egp:egpRemove(J+150)   
         Egp:egpRemove(J+150+players():count())   
    }
Egp:egpRemove(38)
Egp:egpRemove(39)
Egp:egpRemove(40)
Egp:egpRemove(41)
Egp:egpRemove(42)
Egp:egpRemove(43)
Egp:egpRemove(44)
Egp:egpRemove(45)
}
###################################
