@name SuperSniper-Prototype
@inputs 
@outputs 
@persist C P:entity Pitch
@trigger 
runOnTick(1)
runOnKeys(owner(),1)
runOnChat(1)
 O = owner()
 E = entity()

if(first()|duped()|changed(O)|changed(E)){

      function vector entity:towv(VectorW:vector){
return This:toWorld(VectorW)
}          
  function angle entity:towa(AngleW:angle){
return This:toWorld(AngleW)
}   
            function entity c(Index:number,Posi:vector,Scale:vector,Angle:angle,Colo:vector,Model:string,Alpha:number){
 holoCreate(Index) holoPos(Index,Posi) holoScale(Index,Scale) holoAng(Index,Angle) holoColor(Index,Colo) holoModel(Index,Model) 
holoAlpha(Index,Alpha)
return holoEntity(Index)  
}
            function entity c2(Index2:number,Posi2:vector,Scale2:vector,Angle2:angle,Colo2:vector,Model2:string,Parent:entity,Alpha2:number){
 holoCreate(Index2) holoPos(Index2,Posi2) holoScale(Index2,Scale2) holoAng(Index2,Angle2) holoColor(Index2,Colo2) holoModel(Index2,Model2)                                                                                                                                        
holoAlpha(Index2,Alpha2)
holoParent(Index2,Parent)
return holoEntity(Index2)  
}
    function entity holop(HT,Vectos:vector){
 holoPos(HT,Vectos)   
}
     function entity holoa(Ho,Angl:angle){
 holoAng(Ho,Angl)   
}
function string entity:plays(Ind:number,Time:number,ID:string){
    This:soundPlay(Ind,Time,ID)
soundVolume(Ind,100000)
}
    function number sp(Np1:number,Np2:number){
     soundPitch(Np1,Np2)   
    }
    
    
    
}
Swep = O:weapon():type()=="weapon_ar2"
Attach = "anim_attachment_RH"
Ata = O:attachmentAng(Attach)
Atp = O:attachmentPos(Attach)
if(changed(E)){
 c(1,E:towv(vec(0,0,52)),vec(0.3,0.3,0.3),E:towa(ang(0,0,0)),vec(100),"hqcylinder",255)
c2(2,E:towv(vec(0,0,57)),vec(0.68,0.68,0.5),E:towa(ang(90,90,0)),vec(50),"hqtube",holoEntity(1),255) 
 c2(3,E:towv(vec(0,0,57)),vec(0.8,0.8,0.2),E:towa(ang(90,90,0)),vec(0),"hqtube",holoEntity(1),255) 
 c2(4,E:towv(vec(-7,0,57)),vec(0.5,0.5,0.5),E:towa(ang(90,0,0)),vec(70),"hq_cubinder",holoEntity(1),255) 
 c2(5,E:towv(vec(-11.1,0,57)),vec(0.5,0.5,0.2),E:towa(ang(90,0,0)),vec(65),"",holoEntity(1),255) 
 c2(6,E:towv(vec(-13.5,0,57)),vec(0.5,0.5,0.2),E:towa(ang(-90,0,0)),vec(70),"hq_cubinder",holoEntity(1),255) 
 c2(7,E:towv(vec(-16.5,0,57)),vec(0.5,0.5,0.5),E:towa(ang(-90,0,0)),vec(0),"hq_cone",holoEntity(1),255) 
 c2(8,E:towv(vec(-9,0,57)),vec(0.6,0.95,0.1),E:towa(ang(90,90,0)),vec(255,0,0),"hqcylinder",holoEntity(1),255) 
holoMaterial(8,"debug/debugdrawflat")

 c2(9,E:towv(vec(6.8,0,57)),vec(0.6,0.3,0.5),E:towa(ang(0,0,0)),vec(57),"hq_rcube",holoEntity(1),255) 
 c2(10,E:towv(vec(6.8,0,57)),vec(0.6,0.4,0.1),E:towa(ang(0,0,0)),vec(17),"hq_rcube",holoEntity(1),255) 
 c2(11,E:towv(vec(6.8,0,58.5)),vec(0.6,0.4,0.1),E:towa(ang(0,0,0)),vec(17),"hq_rcube",holoEntity(1),255) 
 c2(12,E:towv(vec(6.8,0,55.5)),vec(0.6,0.4,0.1),E:towa(ang(0,0,0)),vec(17),"hq_rcube",holoEntity(1),255) 
 c2(13,E:towv(vec(6.8,0,57)),vec(0.5,0.39,0.3),E:towa(ang(0,0,0)),vec(255,0,0),"hq_rcube",holoEntity(1),255) 
holoMaterial(13,"debug/debugdrawflat")

 c2(14,E:towv(vec(19.8,0,55.5)),vec(2.6,0.33,0.1),E:towa(ang(0,0,0)),vec(57),"hq_rcube",holoEntity(1),255) 
 c2(15,E:towv(vec(19.8,0,58.5)),vec(2.6,0.33,0.1),E:towa(ang(0,0,0)),vec(56),"hq_rcube",holoEntity(1),255) 
 c2(16,E:towv(vec(19.8,0,54.6)),vec(2.4,0.13,0.01),E:towa(ang(0,0,0)),vec(255,0,0),"hq_rcube",holoEntity(1),255) 
 c2(17,E:towv(vec(19.8,0,59.3)),vec(2.4,0.13,0.01),E:towa(ang(0,0,0)),vec(255,0,0),"hq_rcube",holoEntity(1),255) 

 c2(18,E:towv(vec(29.8,0,59.1)),vec(0.13,0.13,4),E:towa(ang(90,0,0)),vec(0,0,0),"hqcylinder",holoEntity(1),255) 
 c2(19,E:towv(vec(29.8,0,54.8)),vec(0.13,0.13,4),E:towa(ang(90,0,0)),vec(0,0,0),"hqcylinder",holoEntity(1),255) 

 c2(20,E:towv(vec(55,0,59.1)),vec(0.13,0.13,0.2),E:towa(ang(90,0,0)),vec(255,0,0),"hq_cone",holoEntity(1),255) 
 c2(21,E:towv(vec(55,0,54.8)),vec(0.13,0.13,0.2),E:towa(ang(90,0,0)),vec(255,0,0),"hq_cone",holoEntity(1),255) 

 c2(22,E:towv(vec(40,0,57)),vec(0.2,0.2,5.5),E:towa(ang(90,0,0)),vec(0,0,0),"hqtube",holoEntity(1),255) 

 c2(23,E:towv(vec(15,0,57)),vec(0.3,0.3,0.5),E:towa(ang(90,0,0)),vec(255,0,0),"hqtube",holoEntity(1),255) 
 c2(24,E:towv(vec(25,0,57)),vec(0.3,0.3,0.5),E:towa(ang(90,0,0)),vec(255,0,0),"hqtube",holoEntity(1),255) 
 c2(25,E:towv(vec(35,0,57)),vec(0.3,0.3,0.5),E:towa(ang(90,0,0)),vec(255,0,0),"hqtube",holoEntity(1),255) 
 c2(26,E:towv(vec(45,0,57)),vec(0.3,0.3,0.5),E:towa(ang(90,0,0)),vec(255,0,0),"hqtube",holoEntity(1),255) 
 c2(27,E:towv(vec(55,0,57)),vec(0.3,0.3,0.5),E:towa(ang(90,0,0)),vec(255,0,0),"hqtube",holoEntity(1),255) 
 c2(28,E:towv(vec(65,0,57)),vec(0.3,0.3,0.5),E:towa(ang(90,0,0)),vec(255,0,0),"hqtube",holoEntity(1),255) 
 c2(29,E:towv(vec(75,0,57)),vec(0.3,0.3,0.8),E:towa(ang(90,0,0)),vec(255,0,0),"hqtube",holoEntity(1),255) 
 c2(30,E:towv(vec(80,0,57)),vec(0.5,0.5,0.1),E:towa(ang(90,0,0)),vec(0,0,0),"hqtube",holoEntity(1),255) 
 c2(31,E:towv(vec(85,0,57)),vec(0.5,0.5,0.1),E:towa(ang(90,0,0)),vec(0,0,0),"hqtube",holoEntity(1),255) 
 c2(32,E:towv(vec(90,0,57)),vec(0.5,0.5,0.1),E:towa(ang(90,0,0)),vec(0,0,0),"hqtube",holoEntity(1),255) 

c2(33,E:towv(vec(0,0,57)),vec(0.65,0.65,0.39),E:towa(ang(90,90,0)),vec(0),"hqcylinder",holoEntity(1),200) 
c2(34,E:towv(vec(0,0,57)),vec(0.3),E:towa(ang(90,90,0)),vec(0),"sphere",holoEntity(1),200) 


holoMaterial(16,"debug/debugdrawflat")
holoMaterial(17,"debug/debugdrawflat")

holoMaterial(18,"debug/debugdrawflat")
holoMaterial(19,"debug/debugdrawflat")

holoMaterial(20,"debug/debugdrawflat")
holoMaterial(21,"debug/debugdrawflat")

holoMaterial(23,"debug/debugdrawflat")
holoMaterial(24,"debug/debugdrawflat")
holoMaterial(25,"debug/debugdrawflat")
holoMaterial(26,"debug/debugdrawflat")
holoMaterial(27,"debug/debugdrawflat")
holoMaterial(28,"debug/debugdrawflat")
holoMaterial(29,"debug/debugdrawflat")
holoMaterial(30,"debug/debugdrawflat")
holoMaterial(34,"debug/debugdrawflat")
O:soundPlay(1,9999999999999999999,"ambient/energy/force_field_loop1.wav")
}
C++
holoColor(34,vec(random(255),random(255),random(255)))
holoa(34,ang(C*5))
if(Swep){
timer("swepCheck",500000)
}
if(changed(Swep)|clk("swepCheck")){
 O:weapon():setAlpha(0)   
}
if(!Swep){
 O:weapon():setAlpha(255)   
holop(1,E:pos()+vec(0,0,50))
holoUnparent(1)
holoa(1,E:towa(ang()))
}

if(changed(Swep)&Swep|clk("swepCheck")){
holop(1,Atp+vec(0,0,1))
holoa(1,Ata+ang(-10,0,0))
holoParentAttachment(1,O,Attach)
}
R = O:keyReload()
if(!holoEntity(1234)){
 holoCreate(1234)
holoAlpha(1234,10)   
}
if(R){
    if(Pitch < 220){
 Pitch = Pitch + 2  
} 
}
if(!R){
    if(Pitch > 1){
 Pitch = Pitch - 2 
} 
}
if(Swep){

local HitRan1 = O:aimPos()
local R = O:keyReload()
    timer("reload123",3000)
    if(R&clk("reload123")){
    P=propSpawn("models/props_phx/cannonball_solid.mdl",holoEntity(29):toWorld(vec(0,0,20)),0)
                P:setTrails(30,0,5,"trails/laser",vec(0,255,0),255)
           
                   holoPos(1234,holoEntity(29):pos())
           
  holoEntity(1234):setTrails(190,0,1.5,"trails/electric",vec(255,0,0),255)  
                Holo=1
                holoAlpha(1234,0)
}
soundPitch(1,Pitch)
if(changed(P)&P){ holoEntity(29):plays(21,1,"ambient/energy/weld2.wav") soundPitch(2,150)}
if(changed(P)&P){
timer("clk",50)}
if(changed(clk("clk"))&clk("clk")){
holoPos(1234,HitRan1)
}
if(changed(P)&P){   
P:setPos(HitRan1)
P:propBreak()   
 timer("holod",2000)
#timer("holod",250)
}

if(clk("holod")){ holoEntity(1234):removeTrails()  } 
}
@name SuperSniper-Prototype
@inputs 
@outputs 
@persist C P:entity Pitch
@trigger 
runOnTick(1)
runOnKeys(owner(),1)
runOnChat(1)
 O = owner()
 E = entity()

if(first()|duped()|changed(O)|changed(E)){

      function vector entity:towv(VectorW:vector){
return This:toWorld(VectorW)
}          
  function angle entity:towa(AngleW:angle){
return This:toWorld(AngleW)
}   
            function entity c(Index:number,Posi:vector,Scale:vector,Angle:angle,Colo:vector,Model:string,Alpha:number){
 holoCreate(Index) holoPos(Index,Posi) holoScale(Index,Scale) holoAng(Index,Angle) holoColor(Index,Colo) holoModel(Index,Model) 
holoAlpha(Index,Alpha)
return holoEntity(Index)  
}
            function entity c2(Index2:number,Posi2:vector,Scale2:vector,Angle2:angle,Colo2:vector,Model2:string,Parent:entity,Alpha2:number){
 holoCreate(Index2) holoPos(Index2,Posi2) holoScale(Index2,Scale2) holoAng(Index2,Angle2) holoColor(Index2,Colo2) holoModel(Index2,Model2)                                                                                                                                        
holoAlpha(Index2,Alpha2)
holoParent(Index2,Parent)
return holoEntity(Index2)  
}
    function entity holop(HT,Vectos:vector){
 holoPos(HT,Vectos)   
}
     function entity holoa(Ho,Angl:angle){
 holoAng(Ho,Angl)   
}
function string entity:plays(Ind:number,Time:number,ID:string){
    This:soundPlay(Ind,Time,ID)
soundVolume(Ind,100000)
}
    function number sp(Np1:number,Np2:number){
     soundPitch(Np1,Np2)   
    }
    
    
    
}
Swep = O:weapon():type()=="weapon_ar2"
Attach = "anim_attachment_RH"
Ata = O:attachmentAng(Attach)
Atp = O:attachmentPos(Attach)
if(changed(E)){
 c(1,E:towv(vec(0,0,52)),vec(0.3,0.3,0.3),E:towa(ang(0,0,0)),vec(100),"hqcylinder",255)
c2(2,E:towv(vec(0,0,57)),vec(0.68,0.68,0.5),E:towa(ang(90,90,0)),vec(50),"hqtube",holoEntity(1),255) 
 c2(3,E:towv(vec(0,0,57)),vec(0.8,0.8,0.2),E:towa(ang(90,90,0)),vec(0),"hqtube",holoEntity(1),255) 
 c2(4,E:towv(vec(-7,0,57)),vec(0.5,0.5,0.5),E:towa(ang(90,0,0)),vec(70),"hq_cubinder",holoEntity(1),255) 
 c2(5,E:towv(vec(-11.1,0,57)),vec(0.5,0.5,0.2),E:towa(ang(90,0,0)),vec(65),"",holoEntity(1),255) 
 c2(6,E:towv(vec(-13.5,0,57)),vec(0.5,0.5,0.2),E:towa(ang(-90,0,0)),vec(70),"hq_cubinder",holoEntity(1),255) 
 c2(7,E:towv(vec(-16.5,0,57)),vec(0.5,0.5,0.5),E:towa(ang(-90,0,0)),vec(0),"hq_cone",holoEntity(1),255) 
 c2(8,E:towv(vec(-9,0,57)),vec(0.6,0.95,0.1),E:towa(ang(90,90,0)),vec(255,0,0),"hqcylinder",holoEntity(1),255) 
holoMaterial(8,"debug/debugdrawflat")

 c2(9,E:towv(vec(6.8,0,57)),vec(0.6,0.3,0.5),E:towa(ang(0,0,0)),vec(57),"hq_rcube",holoEntity(1),255) 
 c2(10,E:towv(vec(6.8,0,57)),vec(0.6,0.4,0.1),E:towa(ang(0,0,0)),vec(17),"hq_rcube",holoEntity(1),255) 
 c2(11,E:towv(vec(6.8,0,58.5)),vec(0.6,0.4,0.1),E:towa(ang(0,0,0)),vec(17),"hq_rcube",holoEntity(1),255) 
 c2(12,E:towv(vec(6.8,0,55.5)),vec(0.6,0.4,0.1),E:towa(ang(0,0,0)),vec(17),"hq_rcube",holoEntity(1),255) 
 c2(13,E:towv(vec(6.8,0,57)),vec(0.5,0.39,0.3),E:towa(ang(0,0,0)),vec(255,0,0),"hq_rcube",holoEntity(1),255) 
holoMaterial(13,"debug/debugdrawflat")

 c2(14,E:towv(vec(19.8,0,55.5)),vec(2.6,0.33,0.1),E:towa(ang(0,0,0)),vec(57),"hq_rcube",holoEntity(1),255) 
 c2(15,E:towv(vec(19.8,0,58.5)),vec(2.6,0.33,0.1),E:towa(ang(0,0,0)),vec(56),"hq_rcube",holoEntity(1),255) 
 c2(16,E:towv(vec(19.8,0,54.6)),vec(2.4,0.13,0.01),E:towa(ang(0,0,0)),vec(255,0,0),"hq_rcube",holoEntity(1),255) 
 c2(17,E:towv(vec(19.8,0,59.3)),vec(2.4,0.13,0.01),E:towa(ang(0,0,0)),vec(255,0,0),"hq_rcube",holoEntity(1),255) 

 c2(18,E:towv(vec(29.8,0,59.1)),vec(0.13,0.13,4),E:towa(ang(90,0,0)),vec(0,0,0),"hqcylinder",holoEntity(1),255) 
 c2(19,E:towv(vec(29.8,0,54.8)),vec(0.13,0.13,4),E:towa(ang(90,0,0)),vec(0,0,0),"hqcylinder",holoEntity(1),255) 

 c2(20,E:towv(vec(55,0,59.1)),vec(0.13,0.13,0.2),E:towa(ang(90,0,0)),vec(255,0,0),"hq_cone",holoEntity(1),255) 
 c2(21,E:towv(vec(55,0,54.8)),vec(0.13,0.13,0.2),E:towa(ang(90,0,0)),vec(255,0,0),"hq_cone",holoEntity(1),255) 

 c2(22,E:towv(vec(40,0,57)),vec(0.2,0.2,5.5),E:towa(ang(90,0,0)),vec(0,0,0),"hqtube",holoEntity(1),255) 

 c2(23,E:towv(vec(15,0,57)),vec(0.3,0.3,0.5),E:towa(ang(90,0,0)),vec(255,0,0),"hqtube",holoEntity(1),255) 
 c2(24,E:towv(vec(25,0,57)),vec(0.3,0.3,0.5),E:towa(ang(90,0,0)),vec(255,0,0),"hqtube",holoEntity(1),255) 
 c2(25,E:towv(vec(35,0,57)),vec(0.3,0.3,0.5),E:towa(ang(90,0,0)),vec(255,0,0),"hqtube",holoEntity(1),255) 
 c2(26,E:towv(vec(45,0,57)),vec(0.3,0.3,0.5),E:towa(ang(90,0,0)),vec(255,0,0),"hqtube",holoEntity(1),255) 
 c2(27,E:towv(vec(55,0,57)),vec(0.3,0.3,0.5),E:towa(ang(90,0,0)),vec(255,0,0),"hqtube",holoEntity(1),255) 
 c2(28,E:towv(vec(65,0,57)),vec(0.3,0.3,0.5),E:towa(ang(90,0,0)),vec(255,0,0),"hqtube",holoEntity(1),255) 
 c2(29,E:towv(vec(75,0,57)),vec(0.3,0.3,0.8),E:towa(ang(90,0,0)),vec(255,0,0),"hqtube",holoEntity(1),255) 
 c2(30,E:towv(vec(80,0,57)),vec(0.5,0.5,0.1),E:towa(ang(90,0,0)),vec(0,0,0),"hqtube",holoEntity(1),255) 
 c2(31,E:towv(vec(85,0,57)),vec(0.5,0.5,0.1),E:towa(ang(90,0,0)),vec(0,0,0),"hqtube",holoEntity(1),255) 
 c2(32,E:towv(vec(90,0,57)),vec(0.5,0.5,0.1),E:towa(ang(90,0,0)),vec(0,0,0),"hqtube",holoEntity(1),255) 

c2(33,E:towv(vec(0,0,57)),vec(0.65,0.65,0.39),E:towa(ang(90,90,0)),vec(0),"hqcylinder",holoEntity(1),200) 
c2(34,E:towv(vec(0,0,57)),vec(0.3),E:towa(ang(90,90,0)),vec(0),"sphere",holoEntity(1),200) 


holoMaterial(16,"debug/debugdrawflat")
holoMaterial(17,"debug/debugdrawflat")

holoMaterial(18,"debug/debugdrawflat")
holoMaterial(19,"debug/debugdrawflat")

holoMaterial(20,"debug/debugdrawflat")
holoMaterial(21,"debug/debugdrawflat")

holoMaterial(23,"debug/debugdrawflat")
holoMaterial(24,"debug/debugdrawflat")
holoMaterial(25,"debug/debugdrawflat")
holoMaterial(26,"debug/debugdrawflat")
holoMaterial(27,"debug/debugdrawflat")
holoMaterial(28,"debug/debugdrawflat")
holoMaterial(29,"debug/debugdrawflat")
holoMaterial(30,"debug/debugdrawflat")
holoMaterial(34,"debug/debugdrawflat")
O:soundPlay(1,9999999999999999999,"ambient/energy/force_field_loop1.wav")
}
C++
holoColor(34,vec(random(255),random(255),random(255)))
holoa(34,ang(C*5))
if(Swep){
timer("swepCheck",500000)
}
if(changed(Swep)|clk("swepCheck")){
 O:weapon():setAlpha(0)   
}
if(!Swep){
 O:weapon():setAlpha(255)   
holop(1,E:pos()+vec(0,0,50))
holoUnparent(1)
holoa(1,E:towa(ang()))
}

if(changed(Swep)&Swep|clk("swepCheck")){
holop(1,Atp+vec(0,0,1))
holoa(1,Ata+ang(-10,0,0))
holoParentAttachment(1,O,Attach)
}
R = O:keyReload()
if(!holoEntity(1234)){
 holoCreate(1234)
holoAlpha(1234,10)   
}
if(R){
    if(Pitch < 220){
 Pitch = Pitch + 2  
} 
}
if(!R){
    if(Pitch > 1){
 Pitch = Pitch - 2 
} 
}
if(Swep){

local HitRan1 = O:aimPos()
local R = O:keyReload()
    timer("reload123",3000)
    if(R&clk("reload123")){
    P=propSpawn("models/props_phx/cannonball_solid.mdl",holoEntity(29):toWorld(vec(0,0,20)),0)
                P:setTrails(30,0,5,"trails/laser",vec(0,255,0),255)
           
                   holoPos(1234,holoEntity(29):pos())
           
  holoEntity(1234):setTrails(190,0,1.5,"trails/electric",vec(255,0,0),255)  
                Holo=1
                holoAlpha(1234,0)
}
soundPitch(1,Pitch)
if(changed(P)&P){ holoEntity(29):plays(21,1,"ambient/energy/weld2.wav") soundPitch(2,150)}
if(changed(P)&P){
timer("clk",50)}
if(changed(clk("clk"))&clk("clk")){
holoPos(1234,HitRan1)
}
if(changed(P)&P){   
P:setPos(HitRan1)
P:propBreak()   
 timer("holod",2000)
#timer("holod",250)
}

if(clk("holod")){ holoEntity(1234):removeTrails()  } 
}
