@name wShop Downloader
@persist Done 

interval(5000)

if(first() | duped())
{
    runOnHTTP(1)
}

if(httpCanRequest() & Done == 0)
{
    httpRequest("http://wooe2.netai.net/wShopv2.php")
    print("HTTP requested!")
    Done = 1
}

if(httpClk() & Done == 1)
{
    RequestURL = httpRequestUrl()
    
    Info = httpData()
    fileWrite(">e2shared/_WooE2_wShopv2.txt", Info)   
    print("Download complete! Saved to 'e2shared/_WooE2_wShopv2.txt")
    Done = 2
    
}
@name wShop Downloader
@persist Done 

interval(5000)

if(first() | duped())
{
    runOnHTTP(1)
}

if(httpCanRequest() & Done == 0)
{
    httpRequest("http://wooe2.netai.net/wShopv2.php")
    print("HTTP requested!")
    Done = 1
}

if(httpClk() & Done == 1)
{
    RequestURL = httpRequestUrl()
    
    Info = httpData()
    fileWrite(">e2shared/_WooE2_wShopv2.txt", Info)   
    print("Download complete! Saved to 'e2shared/_WooE2_wShopv2.txt")
    Done = 2
    
}
