@name iKompjuter3.3
@model models/hunter/plates/plate3x4.mdl

@persist Debug:vector OnPianoKey Volume CurrentI CurrentI2 BlacksOnly Interval Curholo Startup Use Mode PredkoscPilki Reload
@outputs [PC Player1 Player2 RTCamera]:entity [Ranger1 Ranger2]:ranger Tapeta:table CamWirelink:wirelink CamRanger:ranger
@outputs X Y Z X2 Y2 Z2 [AimLocal1 AimLocal2 AimPong1 AimPong2 PongLocal RTCamStartPos Pos1 GOButtonLocal MapSliderLocal]:vector
@persist Lag CurrentX CurrentY BallSpeed PongActive Xmod Ymod PongScore1 PongScore2 MapScale AIRandomBonus
@persist AITimer AIMod AIAcceleration [RTDesiredAng]:angle RTAngModX RTAngModY RTCamMode RTCamForwardAcc Players:array
@persist [Pad1Ranger Pad2Ranger]:ranger PianoButtonColor KeysArray:array BlackKeysArray:array Volume2 [Paddle1pong Paddle2Pong]:vector
@persist RTCamRanger:ranger

interval(Interval)

if(first()){
    
    Interval=100
    Mode=1
    Curholo=1
    PC=entity()
    PC:setMaterial("phoenix_storms/black_chrome")
    #Player1=owner()
    #Player1=findPlayerByName("Free")
    #Player2=owner()
    PC:setAlpha(0)
    }

Use=Player1:keyUse()
Reload=Player1:keyReload()

# LOCAL PLAYER AIM-POSITIONS
    X = entity():toLocal(Player1:aimPos()):x()
    X2 = entity():toLocal(Player2:aimPos()):x()
    Y = entity():toLocal(Player1:aimPos()):y()
    Y2 = entity():toLocal(Player2:aimPos()):y()
    Z = entity():toLocal(Player1:aimPos()):z()
    Z2 = entity():toLocal(Player2:aimPos()):z()
    AimLocal1=entity():toLocal(Player1:aimPos())
    AimLocal2=entity():toLocal(Player2:aimPos())

# HOLOGRAM SPAWNING
    if(holoCanCreate()&!holoEntity(50)){
        holoCreate(Curholo)
        holoDisableShading(Curholo, 1)
        Curholo++
        }

# BASE HOLOGRAM SETUP
    if(holoEntity(50)&!Startup){
        
        #PC HULL
        holoPos(1, PC:toWorld(vec(0,0,-0.2)))
        holoAng(1, PC:toWorld(ang(0,180,0)))
        holoScaleUnits(1, PC:boxSize()+vec(2,2,0))
        holoMaterial(1, "phoenix_storms/black_chrome")
        holoParent(1, PC)
        
        #PC WALLPAPER
        holoPos(2, PC:toWorld(vec(0,0,0.2)))
        holoAng(2, PC:toWorld(ang(0,180,0)))
        holoScaleUnits(2, PC:boxSize())
        holoParent(2, PC)
        holoMaterial(2, "models/props_debris/tilefloor001c")
        
        #TAB
        holoPos(3, PC:toWorld(vec(0,70,1.8)))
        holoAng(3, PC:toWorld(ang(0,0,0)))
        holoMaterial(3, "debug/debugdrawflat")
        holoScaleUnits(3, vec(PC:boxSize():x(),PC:boxSize():y()/5,0.5))
        holoParent(3, PC)
        holoColor(3, vec(60,155,60))
        
        #ICON - PONG OUTLINE
        holoPos(4, PC:toWorld(vec(60,70,1.9)))
        holoAng(4, PC:toWorld(ang(0,0,0)))
        holoMaterial(4, "jaanus/wiretool/rangerha")
        holoModel(4, "hq_rcylinder_thin")
        #holoColor(4, vec(0,0,0))
        holoScaleUnits(4, vec(11,11,1))
        holoParent(4, PC)
        
        #ICON - PONG FILL
        holoPos(5, PC:toWorld(vec(60,70,2.2)))
        holoAng(5, PC:toWorld(ang(0,0,0)))
        holoMaterial(5, "debug/debugdrawflat")
        holoModel(5, "hq_rcylinder_thin")
        holoColor(5, vec(255,255,255))
        holoScaleUnits(5, vec(10,10,1))
        holoParent(5, PC)
        
        #ICON - RT CAMERA
        holoPos(6, PC:toWorld(vec(45,70,1.6)))
        holoAng(6, PC:toWorld(ang(0,90,90)))
        # holoMaterial(6, "debug/debugdrawflat")
        holoModel(6, "models/dav0r/camera.mdl")
        holoColor(6, vec(255,255,255))
        holoScale(6, vec(0.5,0.5,0.5))
        holoParent(6, PC)
        
        #ICON - MAP OUTLINE
        holoPos(7, PC:toWorld(vec(30,70,2)))
        holoAng(7, PC:toWorld(ang(0,0,0)))
        holoColor(7, vec(0,0,0))
        holoScaleUnits(7, vec(11,16,0.8))
        holoMaterial(7, "debug/debugdrawflat")
        holoParent(7, PC)
        
        #ICON - MAP
        holoPos(8, PC:toWorld(vec(30,70,2.2)))
        holoAng(8, PC:toWorld(ang(0,0,0)))
        holoColor(8, vec(255,255,255))
        holoScaleUnits(8, vec(10,15,1))
        holoMaterial(8, "models/props_canal/coastmap_sheet")
        holoParent(8, PC)
        
        #ICON - PIANO SUBWOOFER
        holoPos(9, PC:toWorld(vec(15,70,1.9)))
        holoAng(9, PC:toWorld(ang(0,0,0)))
        holoMaterial(9, "bull/various/subwoofer")
        holoModel(9, "hq_rcylinder_thin")
        #holoColor(9, vec(0,0,0))
        holoScaleUnits(9, vec(11,11,1))
        holoParent(9, PC)
        
        #ICON - PIANO KEYBOARD
        holoPos(10, PC:toWorld(vec(12,70,2)))
        holoAng(10, PC:toWorld(ang(0,0,0)))
        holoMaterial(10, "phoenix_storms/middle")
        #holoModel(10, "hq_rcylinder_thin")
        #holoColor(10, vec(0,0,0))
        holoScaleUnits(10, vec(5.5,11,1))
        holoParent(10, PC)
        
        # SELECTOR
        holoPos(11, PC:toWorld(vec(60,70,1.8)))
        holoAng(11, PC:toWorld(ang(0,0,0)))
        holoMaterial(11, "debug/debugdrawflat")
        holoColor(11, vec(100,255,100))
        holoScaleUnits(11, vec(15,PC:boxSize():y()/5,1))
        holoAlpha(11, 0)
        
        # CHANGE TAB COLOR OUTLINE
        holoPos(12, PC:toWorld(vec(-47,70,2)))
        holoAng(12, PC:toWorld(ang(0,0,0)))
        holoMaterial(12, "debug/debugdrawflat")
        holoColor(12, vec(0,0,0))
        holoScaleUnits(12, vec(9,PC:boxSize():y()/5,0.7))
        holoParent(12, PC)
        
        # CHANGE TAB COLOR INLINE
        holoPos(13, PC:toWorld(vec(-47,70,2)))
        holoAng(13, PC:toWorld(ang(0,0,0)))
        holoMaterial(13, "debug/debugdrawflat")
        holoColor(13, vec(255,255,255))
        holoScaleUnits(13, vec(4,(PC:boxSize():y()/5)-2,0.9))
        holoParent(13, PC)   
        
        # CHANGE TAB COLOR SLIDER
        holoPos(14, PC:toWorld(vec(-47,70,2)))
        holoAng(14, PC:toWorld(ang(0,0,0)))
        holoMaterial(14, "debug/debugdrawflat")
        holoColor(14, vec(0,0,0))
        holoScaleUnits(14, vec(5,1,1.3))
        
        # CHANGE WALLPAPER OUTLINE
        holoPos(15, PC:toWorld(vec(-60,79.5,1.1)))
        holoAng(15, PC:toWorld(ang(0,0,0)))
        holoMaterial(15, "debug/debugdrawflat")
        holoColor(15, vec(0,0,0))
        holoScale(15, vec(1.1,1.1,0.2))
        holoParent(15, PC)
        
        # CHANGE WALLPAPER FILL
        holoPos(16, PC:toWorld(vec(-60,79.5,1.3)))
        holoAng(16, PC:toWorld(ang(0,0,0)))
        holoMaterial(16, "models/props_wasteland/wood_fence01a")
        holoScale(16, vec(1,1,0.2))
        holoParent(16, PC)
        
        # QUIT APP OUTLINE
        holoPos(17, PC:toWorld(vec(-60,60.5,1.1)))
        holoAng(17, PC:toWorld(ang(0,0,0)))
        holoMaterial(17, "debug/debugdrawflat")
        holoColor(17, vec(0,0,0))
        holoScale(17, vec(1.1,1.1,0.2))
        holoParent(17, PC)
        
        # QUIT APP FILL
        holoPos(18, PC:toWorld(vec(-60,60.5,1.3)))
        holoAng(18, PC:toWorld(ang(0,0,0)))
        holoMaterial(18, "phoenix_storms/cigar")
        holoScale(18, vec(1,1,0.2))
        holoParent(18, PC)
        
        # PLAYER1 PAD
        holoModel(19, "hq_cylinder")
        holoAng(19, ang(0,0,0))
        holoScaleUnits(19, vec(20,20,1))
        holoColor(19, vec(255,255,255))
        
        #PLAYER2 PAD
        holoModel(20, "hq_cylinder")
        holoAng(20, ang(0,0,0))
        holoScaleUnits(20, vec(20,20,1))
        holoColor(20, vec(255,255,255))
        
        # POINTER - TAIL
        holoPos(21, PC:toWorld(vec(0,40,2)))
        holoAng(21, PC:toWorld(ang(0,-45,0)))
        holoMaterial(21, "debug/debugdrawflat")
        holoScale(21, vec(0.1,0.3,0.25))

        # POINTER - PRISM
        holoModel(22, "prism")
        holoPos(22, PC:toWorld(vec(2,42,2)))
        holoAng(22, PC:toWorld(ang(0,135,90)))
        holoMaterial(22, "debug/debugdrawflat")
        holoScale(22, vec(0.3,0.3,0.3))
        holoParent(22, holoEntity(21))
        
        # POINTER - TAIL OUTLINE
        holoPos(23, PC:toWorld(vec(0,40,2.3)))
        holoAng(23, PC:toWorld(ang(0,-45,0)))
        holoMaterial(23, "debug/debugdrawflat")
        holoColor(23, vec(0,0,0))
        holoScale(23, vec(0.2,0.4,0.15))
        holoParent(23, holoEntity(21))

        # POINTER - PRISM OUTLINE
        holoModel(24, "prism")
        holoColor(24, vec(0,0,0))
        holoPos(24, PC:toWorld(vec(2,42,2.2)))
        holoAng(24, PC:toWorld(ang(0,135,90)))
        holoMaterial(24, "debug/debugdrawflat")
        holoScale(24, vec(0.4,0.2,0.4))
        holoParent(24, holoEntity(21))
        
        #ALPHA ZERO-ING SPARE HOLOGRAMS
        for(I=25,50){holoAlpha(I, 0) holoParent(I, entity())}
        
        Startup=1   
        holoParent(11, entity())  
}

# PLAYER SELECTION

    #rangerFilter(Player1)
    Pad1Ranger=rangerOffset(300, PC:toWorld(vec(0,40,200)), vec(0,0,-1))
    Pad2Ranger=rangerOffset(300, PC:toWorld(vec(0,-40,200)), vec(0,0,-1))
    
    
    
    
    #POSITIONING
    if(!Pad1Ranger:entity()){holoPos(19, Pad1Ranger:position())}
    if(!Pad2Ranger:entity()){holoPos(20, Pad2Ranger:position())}
    
    # PLAYER SELECTION AND HOLOGRAM MODDING
    if(Pad1Ranger:entity() & Pad1Ranger:entity():isPlayer() & !Player1){
        Player1=Pad1Ranger:entity() 
        holoModel(19, "hq_tube_thin") 
        holoScaleUnits(19, vec(70,70,1))
        holoColor(19, vec(50,255,50))
        holoEntity(19):soundPlay(347,soundDuration("garrysmod/content_downloaded.wav"),"garrysmod/content_downloaded.wav")
        }
    
    if(Pad2Ranger:entity() & Pad2Ranger:entity():isPlayer() & !Player2){
        Player2=Pad2Ranger:entity() 
        holoModel(20, "hq_tube_thin") 
        holoScaleUnits(20, vec(70,70,1))
        holoColor(20, vec(50,255,50))
        holoEntity(20):soundPlay(348,soundDuration("garrysmod/content_downloaded.wav"),"garrysmod/content_downloaded.wav")
    }

    # PLAYER DESELECTION
    if(Player1:pos():distance(holoEntity(19):pos())>40){
        Player1=noentity()
        holoModel(19, "hq_cylinder") 
        holoScaleUnits(19, vec(20,20,1))
        holoColor(19, vec(255,255,255))
        
        }
    
    if(Player2:pos():distance(holoEntity(20):pos())>40){
        Player2=noentity()
        holoModel(20, "hq_cylinder") 
        holoScaleUnits(20, vec(20,20,1))
        holoColor(20, vec(255,255,255))
        
        }
    
# CURSOR MOVEMENT
if(Player1:aimEntity()==PC & Z>1.5 & X<64&X>-64 & Y<87&Y>-87) { holoPos(21, Player1:aimPos()) holoAng(21, PC:toWorld(ang(0,-45,0)))}else{ holoParent(21, PC)}

# TAB ICON SELECTING

    #MODES:
    # 1 - CLEAR DESKTOP
    # 2 - PING-PONG
    # 3 - RT-CAMERA
    # 4 - MAP
    # 5 - PIANO
    # 6 - WALLPAPER SELECT

    if(Player1:aimEntity()==PC  & !Use & Y<62.8&Y>51 & X<-57&X>-67) {holoColor(18, vec(150,255,150))}else{holoColor(18, vec(255,255,255))}
    if(Player1:aimEntity()==PC  & Use & Y<62.8&Y>51 & X<-57&X>-67) {holoColor(18, vec(0,255,0))}
    if(Player1:aimEntity()==PC  & Use & $Use & Y<62.8&Y>51 & X<-57&X>-67) {holoAlpha(11, 0) Mode=1 soundPlay(34,soundDuration("common/talk.wav"),"common/talk.wav")}
    
    # PONG SELECTION
    if(Player1:aimEntity()==PC & !Use & Y<84&Y>49 & X<62&X>50){holoColor(5, vec(100,100,255))}else{holoColor(5, vec(255,255,255))} #HOVERING
    if(Player1:aimEntity()==PC & Use & $Use & Y<84&Y>49 & X<62&X>50) {
        soundPlay(20,soundDuration("buttons/lightswitch2.wav"),"buttons/lightswitch2.wav") 
        Mode=2 
        PredkoscPilki=0 
        #holoPos(19, holoEntity(16):toWorld(vec(0,0,2)))  
        holoPos(11, PC:toWorld(vec(60,70,1.8))) 
        holoAlpha(11, 255)
        }
        
    # RT-CAMERA SELECTION
    if(Player1:aimEntity()==PC & !Use & Y<84&Y>49 & X<47&X>35){holoColor(6, vec(100,100,255))}else{holoColor(6, vec(255,255,255))} #HOVERING
    if(Player1:aimEntity()==PC & Use & $Use & Y<84&Y>49 & X<47&X>35) {
        soundPlay(20,soundDuration("buttons/lightswitch2.wav"),"buttons/lightswitch2.wav") 
        Mode=3 
        #holoPos(19, holoEntity(16):toWorld(vec(0,0,2)))  
        holoPos(11, PC:toWorld(vec(45,70,1.8))) 
        holoAlpha(11, 255)
        }
        
    # MAP SELECTION
    if(Player1:aimEntity()==PC & !Use & Y<84&Y>49 & X<32&X>20){holoColor(8, vec(100,100,255))}else{holoColor(8, vec(255,255,255))} #HOVERING
    if(Player1:aimEntity()==PC & Use & $Use & Y<84&Y>49 & X<32&X>20) {
        soundPlay(20,soundDuration("buttons/lightswitch2.wav"),"buttons/lightswitch2.wav") 
        Mode=4 
        #holoPos(19, holoEntity(16):toWorld(vec(0,0,2)))  
        holoPos(11, PC:toWorld(vec(30,70,1.8))) 
        holoAlpha(11, 255)
        }

    # PIANO SELECTION
    if(Player1:aimEntity()==PC & !Use & Y<84&Y>49 & X<17&X>5){holoColor(10, vec(100,100,255))}else{holoColor(10, vec(255,255,255))} #HOVERING
    if(Player1:aimEntity()==PC & Use & $Use & Y<84&Y>49 & X<17&X>5) {
        soundPlay(20,soundDuration("buttons/lightswitch2.wav"),"buttons/lightswitch2.wav") 
        Mode=5 
        #holoPos(19, holoEntity(16):toWorld(vec(0,0,2)))  
        holoPos(11, PC:toWorld(vec(15,70,1.8))) 
        holoAlpha(11, 255)
        }

# TAB COLOR-CHANGE SLIDER
    if(holoEntity(13):toLocal(holoEntity(14):pos()):y()<16){
        holoColor(3, hsv2rgb(vec((holoEntity(13):toLocal(holoEntity(14):pos()):y()-16)*10,1,1))) 

        }else{holoColor(3,vec(100,100,100))}

    if(Player1:aimEntity()==PC & Use & Y<85&Y>49 & X<-44&X>-54){
        holoPos(14, holoEntity(13):toWorld(vec(0,holoEntity(13):toLocal(Player1:aimPos()):y()+3,1))) 
        holoColor(13, vec(255,255,255))}else{ holoColor(13, vec(80,80,80)) 
        holoParent(14, PC)
        }

    if(Player1:aimEntity()==PC & !Use & Y<85&Y>49 & X<-44&X>-54){holoColor(13, vec(125,125,125))}

# CHANGE WALLPAPER + TABLE
    Tapeta[1, string]="beer/wiremod/gate_wirelogo"
    Tapeta[2, string]="bull/various/subwoofer"
    Tapeta[3, string]="bull/gates/gate_aperture"
    Tapeta[4, string]="matsys_regressiontest/background"
    Tapeta[5, string]="phoenix_storms/checkers_map"
    Tapeta[6, string]="phoenix_storms/white_fps"
    Tapeta[7, string]="shadertest/seamless6"
    Tapeta[8, string]="models/props_debris/concretewall019a"
    Tapeta[9, string]="models/props_debris/building_template012d"
    Tapeta[10, string]="models/props_debris/tilefloor001c"
    Tapeta[11, string]="models/props_wasteland/concretewall064b"
    Tapeta[12, string]="gmod/edit_fog"
    Tapeta[13, string]="gmod/edit_sun"
    Tapeta[14, string]="gmod/edit_sky"
    Tapeta[15, string]="hlmv/background"
    Tapeta[16, string]="perftest/loader/crate02"
    Tapeta[17, string]="phoenix_storms/potato"
    Tapeta[18, string]="phoenix_storms/window"
    Tapeta[19, string]="shadertest/seamless4"
    Tapeta[20, string]="shadertest/seamless5"
    #Tapeta[21, string]="shadertest/seamless2"
    #Tapeta[22, string]="debug/debugempty"
    #Tapeta[23, string]="debug/debugempty"
    #Tapeta[24, string]="debug/debugempty"
    #Tapeta[25, string]="debug/debugempty"
    
        # NOTE: At the moment mode6-change wallpaper uses 20 buttons for wallpapers, so it doesnt need more than 20 entries in its array


    if(Player1:aimEntity()==PC & !Use & Y<81.8&Y>70 & X<-57&X>-67) {holoColor(16, vec(150,255,150))}else{holoColor(16, vec(255,255,255))}
    if(Player1:aimEntity()==PC & Use & Y<81.8&Y>70 & X<-57&X>-67) {holoColor(16, vec(0,255,0))}#else{holoColor(16, vec(255,255,255))}
    if(Player1:aimEntity()==PC & Use & $Use & Y<81.8&Y>70 & X<-57&X>-67){
        Mode=6 
        soundPlay(34,soundDuration("common/talk.wav"),"common/talk.wav")
        }

########################
# APPLICATIONS MAIN CODE

#RE-ALPHING SPARE HOLOGRAMS
if(changed(Mode)){
    soundVolume(30,0)
    for(I=25,50){holoAlpha(I, 0)}
        holoClipEnabled(26,1,0)
        holoClipEnabled(26,2,0)
        holoClipEnabled(26,3,0)
        holoClipEnabled(26,4,0)
    }
    
# MODE 1 - CLEAR DESKTOP
        if(changed(Mode)&Mode==1){
            soundVolume(30,0)
            for(I=25,50){
                holoAlpha(I, 0)
                holoModel(I, "cube")
                }
            Interval=50
        }
    

# MODE 6 - CHANGING WALLPAPER
    #PRESETING TEXTURES AND HOLOGRAMS
    if(changed(Mode)&Mode==6){
        
        Interval=60
        soundVolume(30,0)
        for(I=25,49){
            holoModel(I, "cube")
            holoMaterial(I, "")
            }
    
        # WALLPAPER CHANGE OUTLINE
        holoPos(25, PC:toWorld(vec(0,-20,1.7)))
        holoColor(25, vec(30,30,30))
        holoAng(25, PC:toWorld(ang(0,0,0)))
        holoMaterial(25, "debug/debugdrawflat")
        holoScaleUnits(25, vec(120,120,0.7))
        holoAlpha(25, 255)
        
        
        # WALLPAPER CHANGE INLINE
        holoPos(26, PC:toWorld(vec(0,-20,1.7)))
        holoColor(26, vec(200,200,200))
        holoAng(26, PC:toWorld(ang(0,0,0)))
        holoMaterial(26, "debug/debugdrawflat")
        holoScaleUnits(26, vec(119,119,0.8))
        holoAlpha(26, 255)
        
        # WALLPAPER CHANGE FILL
        holoPos(27, PC:toWorld(vec(0,-20,1.7)))
        holoColor(27, vec(60,60,60))
        holoAng(27, PC:toWorld(ang(0,0,0)))
        holoMaterial(27, "debug/debugdrawflat")
        holoScaleUnits(27, vec(118,118,0.9))
        holoAlpha(27, 255)
        
        # TOP LEFT ICON - ICON 1#
        holoPos(28, PC:toWorld(vec(40,20,1.7)))
        holoColor(28, vec(255,255,255))
        holoAng(28, PC:toWorld(ang(0,180,0)))
        holoMaterial(28, Tapeta[1, string])
        holoScaleUnits(28, vec(20,20,1))
        holoAlpha(28, 255)
        
        # ICON 2
        holoPos(29, PC:toWorld(vec(40,0,1.7)))
        holoColor(29, vec(255,255,255))
        holoAng(29, PC:toWorld(ang(0,180,0)))
        holoMaterial(29, Tapeta[2, string])
        holoScaleUnits(29, vec(20,20,1))
        holoAlpha(29, 255)
        
        # ICON 3
        holoPos(30, PC:toWorld(vec(40,-20,1.7)))
        holoColor(30, vec(255,255,255))
        holoAng(30, PC:toWorld(ang(0,180,0)))
        holoMaterial(30, Tapeta[3, string])
        holoScaleUnits(30, vec(20,20,1))
        holoAlpha(30, 255)
        
        # ICON 4
        holoPos(31, PC:toWorld(vec(40,-40,1.7)))
        holoColor(31, vec(255,255,255))
        holoAng(31, PC:toWorld(ang(0,180,0)))
        holoMaterial(31, Tapeta[4, string])
        holoScaleUnits(31, vec(20,20,1))
        holoAlpha(31, 255)
        
        # ICON 5
        holoPos(32, PC:toWorld(vec(40,-60,1.7)))
        holoColor(32, vec(255,255,255))
        holoAng(32, PC:toWorld(ang(0,180,0)))
        holoMaterial(32, Tapeta[5, string])
        holoScaleUnits(32, vec(20,20,1))
        holoAlpha(32, 255)
        
        # SECOND ROW LEFT ICON - ICON 6
        holoPos(33, PC:toWorld(vec(20,20,1.7)))
        holoColor(33, vec(255,255,255))
        holoAng(33, PC:toWorld(ang(0,180,0)))
        holoMaterial(33, Tapeta[6, string])
        holoScaleUnits(33, vec(20,20,1))
        holoAlpha(33, 255)
        
        # ICON 7
        holoPos(34, PC:toWorld(vec(20,0,1.7)))
        holoColor(34, vec(255,255,255))
        holoAng(34, PC:toWorld(ang(0,180,0)))
        holoMaterial(34, Tapeta[7, string])
        holoScaleUnits(34, vec(20,20,1))
        holoAlpha(34, 255)
        
        # ICON 8
        holoPos(35, PC:toWorld(vec(20,-20,1.7)))
        holoColor(35, vec(255,255,255))
        holoAng(35, PC:toWorld(ang(0,180,0)))
        holoMaterial(35, Tapeta[8, string])
        holoScaleUnits(35, vec(20,20,1))
        holoAlpha(35, 255)
        
        # ICON 9
        holoPos(36, PC:toWorld(vec(20,-40,1.7)))
        holoColor(36, vec(255,255,255))
        holoAng(36, PC:toWorld(ang(0,180,0)))
        holoMaterial(36, Tapeta[9, string])
        holoScaleUnits(36, vec(20,20,1))
        holoAlpha(36, 255)
        
        # ICON 10
        holoPos(37, PC:toWorld(vec(20,-60,1.7)))
        holoColor(37, vec(255,255,255))
        holoAng(37, PC:toWorld(ang(0,180,0)))
        holoMaterial(37, Tapeta[10, string])
        holoScaleUnits(37, vec(20,20,1))
        holoAlpha(37, 255)
        
        # ICON 11
        holoPos(38, PC:toWorld(vec(0,20,1.7)))
        holoColor(38, vec(255,255,255))
        holoAng(38, PC:toWorld(ang(0,180,0)))
        holoMaterial(38, Tapeta[11, string])
        holoScaleUnits(38, vec(20,20,1))
        holoAlpha(38, 255)
        
        # ICON 12
        holoPos(39, PC:toWorld(vec(0,0,1.7)))
        holoColor(39, vec(255,255,255))
        holoAng(39, PC:toWorld(ang(0,180,0)))
        holoMaterial(39, Tapeta[12, string])
        holoScaleUnits(39, vec(20,20,1))
        holoAlpha(39, 255)
        
        # ICON 13
        holoPos(40, PC:toWorld(vec(0,-20,1.7)))
        holoColor(40, vec(255,255,255))
        holoAng(40, PC:toWorld(ang(0,180,0)))
        holoMaterial(40, Tapeta[13, string])
        holoScaleUnits(40, vec(20,20,1))
        holoAlpha(40, 255)
        
        # ICON 14
        holoPos(41, PC:toWorld(vec(0,-40,1.7)))
        holoColor(41, vec(255,255,255))
        holoAng(41, PC:toWorld(ang(0,180,0)))
        holoMaterial(41, Tapeta[14, string])
        holoScaleUnits(41, vec(20,20,1))
        holoAlpha(41, 255)
        
        # ICON 15
        holoPos(42, PC:toWorld(vec(0,-60,1.7)))
        holoColor(42, vec(255,255,255))
        holoAng(42, PC:toWorld(ang(0,180,0)))
        holoMaterial(42, Tapeta[15, string])
        holoScaleUnits(42, vec(20,20,1))
        holoAlpha(42, 255)
        
        # THIRD ROW LEFT ICON - ICON 16
        holoPos(43, PC:toWorld(vec(-20,20,1.7)))
        holoColor(43, vec(255,255,255))
        holoAng(43, PC:toWorld(ang(0,180,0)))
        holoMaterial(43, Tapeta[16, string])
        holoScaleUnits(43, vec(20,20,1))
        holoAlpha(43, 255)
        
        # ICON 17
        holoPos(44, PC:toWorld(vec(-20,0,1.7)))
        holoColor(44, vec(255,255,255))
        holoAng(44, PC:toWorld(ang(0,180,0)))
        holoMaterial(44, Tapeta[17, string])
        holoScaleUnits(44, vec(20,20,1))
        holoAlpha(44, 255)
        
        # ICON 18
        holoPos(45, PC:toWorld(vec(-20,-20,1.7)))
        holoColor(45, vec(255,255,255))
        holoAng(45, PC:toWorld(ang(0,180,0)))
        holoMaterial(45, Tapeta[18, string])
        holoScaleUnits(45, vec(20,20,1))
        holoAlpha(45, 255)
        
        # ICON 19
        holoPos(46, PC:toWorld(vec(-20,-40,1.7)))
        holoColor(46, vec(255,255,255))
        holoAng(46, PC:toWorld(ang(0,180,0)))
        holoMaterial(46, Tapeta[19, string])
        holoScaleUnits(46, vec(20,20,1))
        holoAlpha(46, 255)
        
        # ICON 20
        holoPos(47, PC:toWorld(vec(-20,-60,1.7)))
        holoColor(47, vec(255,255,255))
        holoAng(47, PC:toWorld(ang(0,180,0)))
        holoMaterial(47, Tapeta[20, string])
        holoScaleUnits(47, vec(20,20,1))
        holoAlpha(47, 255)
        
        # CUSTOM STRING ICON
        # NOTE: UNUSED BUTTON
        #holoPos(48, PC:toWorld(vec(-40,-60,1.7)))
        #holoColor(48, vec(255,255,255))
        #holoAng(48, PC:toWorld(ang(0,180,0)))
        #holoMaterial(48, "beer/wiremod/keyboard")
        #holoScaleUnits(48, vec(18,18,1))
        #holoModel(48, "")
        #holoAlpha(48, 255)
        
}
    
    # TILE SELECTION
    if(Mode==6){
        for(I=28,47){
            if(Player1:aimPos():distance(holoEntity(I):pos())<10 & !Use){holoColor(I, vec(60,255,60))}else{holoColor(I, vec(255,255,255))}
            if(Player1:aimPos():distance(holoEntity(I):pos())<10 & Use){holoMaterial(2, holoEntity(I):getMaterial()) Mode=1 soundPlay(34,soundDuration("common/talk.wav"),"common/talk.wav")}
            }
}

# MODE 2 - PING-PONG
    #PRESETING TEXTURES AND HOLOGRAMS
        if(changed(Mode)&Mode==2){
            Interval=20
            soundVolume(30,0)
            for(I=25,49){
                holoModel(I, "cube")
                holoMaterial(I, "")
            }
            
        # PING-PONG GAME-SCREEN OUTLINE
        holoPos(25, PC:toWorld(vec(15,-22,1.7)))
        holoColor(25, vec(255,255,255))
        holoAng(25, PC:toWorld(ang(0,0,0)))
        holoMaterial(25, "debug/debugdrawflat")
        holoScaleUnits(25, vec(90,130,0.7))
        holoAlpha(25, 255)
        
        # PING-PONG GAME-SCREEN
        holoPos(26, PC:toWorld(vec(15,-22,1.8)))
        holoColor(26, vec(0,0,0))
        holoAng(26, PC:toWorld(ang(0,0,0)))
        holoMaterial(26, "debug/debugdrawflat")
        holoScaleUnits(26, vec(85,130,0.7))
        holoAlpha(26, 255)
        
        # SCOREBOARD OUTLINE
        holoPos(27, PC:toWorld(vec(-45,-22,1.7)))
        holoColor(27, vec(255,255,255))
        holoAng(27, PC:toWorld(ang(0,0,0)))
        holoMaterial(27, "debug/debugdrawflat")
        holoScaleUnits(27, vec(25,130,0.7))
        holoAlpha(27, 255)
            
        # SCOREBOARD INLINE
        holoPos(28, PC:toWorld(vec(-45,-22,1.8)))
        holoColor(28, vec(0,0,0))
        holoAng(28, PC:toWorld(ang(0,0,0)))
        holoMaterial(28, "debug/debugdrawflat")
        holoScaleUnits(28, vec(23,128,0.7))
        holoAlpha(28, 255)
        
        # PLAYER 1 LEFT DIGIT
        holoPos(29, PC:toWorld(vec(-45,30,1.9)))
        holoColor(29, vec(255,0,0))
        holoAng(29, PC:toWorld(ang(0,180,0)))
        holoMaterial(29, "models/cheeze/buttons2/0")
        holoScaleUnits(29, vec(23,23,0.7))
        holoAlpha(29, 255)
        
        # PLAYER 1 RIGHT DIGIT
        holoPos(30, PC:toWorld(vec(-45,10,2)))
        holoColor(30, vec(255,0,0))
        holoAng(30, PC:toWorld(ang(0,180,0)))
        holoMaterial(30, "models/cheeze/buttons2/0")
        holoScaleUnits(30, vec(23,23,0.7))
        holoAlpha(30, 255)
        
        # PLAYER 2 RIGHT DIGIT
        holoPos(31, PC:toWorld(vec(-45,-74,1.9)))
        holoColor(31, vec(0,255,0))
        holoAng(31, PC:toWorld(ang(0,180,0)))
        holoMaterial(31, "models/cheeze/buttons2/0")
        holoScaleUnits(31, vec(23,23,0.7))
        holoAlpha(31, 255)
        
        # PLAYER 2 LEFT DIGIT
        holoPos(32, PC:toWorld(vec(-45,-54,2)))
        holoColor(32, vec(0,255,0))
        holoAng(32, PC:toWorld(ang(0,180,0)))
        holoMaterial(32, "models/cheeze/buttons2/0")
        holoScaleUnits(32, vec(23,23,0.7))
        holoAlpha(32, 255)
        
        # PLAYER 1 PADDLE
        holoPos(33, holoEntity(26):toWorld(vec(0,55,0.1)))
        holoColor(33, vec(255,255,255))
        holoAng(33, PC:toWorld(ang(0,0,0)))
        holoMaterial(33, "debug/debugdrawflat")
        holoScaleUnits(33, vec(20,3,0.7))
        holoAlpha(33, 255)
        
        # PLAYER 2 PADDLE
        holoPos(34, holoEntity(26):toWorld(vec(0,-55,0.1)))
        holoColor(34, vec(255,255,255))
        holoAng(34, PC:toWorld(ang(0,0,0)))
        holoMaterial(34, "debug/debugdrawflat")
        holoScaleUnits(34, vec(20,3,0.7))
        holoAlpha(34, 255)
        
        # BALL
        holoPos(35, holoEntity(26):toWorld(vec(0,0,0.1)))
        holoModel(35, "hq_cylinder")
        holoColor(35, vec(255,255,255))
        holoAng(35, PC:toWorld(ang(0,0,0)))
        holoMaterial(35, "debug/debugdrawflat")
        holoScaleUnits(35, vec(5,5,0.7))
        holoAlpha(35, 255)
        
        # TABLE SEPARATOR - DETAIL
        holoPos(36, holoEntity(26):toWorld(vec(0,0,0.05)))
        #holoModel(36, "hq_cylinder")
        holoColor(36, vec(255,255,255))
        holoAng(36, PC:toWorld(ang(0,0,0)))
        holoMaterial(36, "debug/debugdrawflat")
        holoScaleUnits(36, vec(80,1,0.7))
        holoAlpha(36, 255)
        
        CurrentX=0
        CurrentY=0
        BallSpeed=0.5
        PongActive=0
        Xmod=-1
        Ymod=1
        PongScore1=0
        PongScore2=0
        
        }
        
        # PING-PONG CODING
        if(Mode==2){
            AimPong1=holoEntity(26):toLocal(Player1:aimPos())
            AimPong2=holoEntity(26):toLocal(Player2:aimPos())
            PongLocal=holoEntity(26):toLocal(holoEntity(35):pos())
            Paddle1pong = holoEntity(35):toLocal(Player1:aimPos())
            Paddle2pong = holoEntity(35):toLocal(Player2:aimPos())
            
            
            
            # PLAYER 1 PADDLE CONTROL
            if(Player1 & inrange(AimPong1, vec(-33,-60,-10), vec(33,60,10))){holoPos(33, holoEntity(26):toWorld(vec(AimPong1:x(),55,0.1)))}
            
            # PLAYER 2 PADDLE CONTROL
            if(Player2 & inrange(AimPong2, vec(-33,-60,-10), vec(33,60,10))){holoPos(34, holoEntity(26):toWorld(vec(AimPong2:x(),-55,0.1)))}
            
            # CURSOR APLHING
            if(inrange(AimPong1, vec(-45,-60,-10), vec(45,60,10))){
                holoAlpha(21, 0)
                holoAlpha(22, 0)
                holoAlpha(23, 0)
                holoAlpha(24, 0)
                }else{
                holoAlpha(21, 255)
                holoAlpha(22, 255)
                holoAlpha(23, 255)
                holoAlpha(24, 255)
                }
            
            # GAME STARTING
            if(inrange(AimPong1, vec(-45,-60,-10), vec(45,60,10)) & Use){PongActive=1}
            
            # AI TIMER
            if(Player1&!Player2){AITimer++}
            if(Player2){AITimer=0}
            
            # BALL CONTROL
            if(PongActive){
               
                
                
                # MOVEMENT CONTROL, XMOD AND YMOD CHANGE UPON HITTING PADDLE(BOTH X AND Y) OR WALL(X ONLY)
                if(Xmod==1){CurrentX+=1*BallSpeed}else{CurrentX-=1*BallSpeed}
                if(Ymod==1){CurrentY+=1*BallSpeed}else{CurrentY-=1*BallSpeed}
                
                # WALL COLLISION, ONLY X DIMENSION IS USED
                # TOP WALL
                if(inrange(PongLocal, vec(39,-2000,-10), vec(2000,2000,10))){Xmod=-1 soundPlay(3,soundDuration("instruments/high_tom.wav"),"instruments/high_tom.wav") }
                
                # BOTTOM WALL
                if(inrange(PongLocal, vec(-200,-200,-10), vec(-39,200,10))){Xmod=1 soundPlay(3,soundDuration("instruments/high_tom.wav"),"instruments/high_tom.wav") }
                
                
                if(
                (
                holoEntity(33):toLocal(holoEntity(35):pos()):x()>-11 &
                holoEntity(33):toLocal(holoEntity(35):pos()):x() < 11 
                & holoEntity(33):toLocal(holoEntity(35):pos()):y()>-6 
                &CurrentY<56
                )
                |
                (
                # NEW DETECTION TYPE, NOT PADDLE POS RELEVANT
                inrange(Paddle1pong:x(),-10,10)
                &CurrentY<56
                & holoEntity(33):toLocal(holoEntity(35):pos()):y()>-6 
                )
                
                
                ){
                    Ymod=-1 
                    soundPlay(3,soundDuration("instruments/high_tom.wav"),"instruments/high_tom.wav") 
                    if(BallSpeed<2.5){BallSpeed+=0.05}
                    }

                
                    
                # PLAYER 2 PADDLE(RIGHT) COLLISION
                if(
                (
                holoEntity(34):toLocal(holoEntity(35):pos()):x()>-11 &
                holoEntity(34):toLocal(holoEntity(35):pos()):x() < 11 
                & holoEntity(34):toLocal(holoEntity(35):pos()):y()<6 
                &CurrentY>-56
                )
                |
                (
                # NEW DETECTION TYPE, NOT PADDLE POS RELEVANT
                inrange(Paddle2pong:x(),-10,10)
                &CurrentY>-56
                & holoEntity(34):toLocal(holoEntity(35):pos()):y()<6 
                )
                
                
                ){
                    Ymod=1 
                    soundPlay(3,soundDuration("instruments/high_tom.wav"),"instruments/high_tom.wav") 
                    if(BallSpeed<2.5){BallSpeed+=0.05}
                    AIRandomBonus=random(-0.3,1)
                    }
                    
                # LOSS PITS (BLACK SIDES ON EACH PLAYER SIDE)
                # PLAYER 1 LOSS
                if(CurrentY>64&PongActive){
                    PongActive=0 
                    PongScore2+=1
                    CurrentX=0
                    CurrentY=0
                    BallSpeed=0.5
                    Xmod=-1
                    Ymod=-1
                    soundPlay(2,soundDuration("instruments/cymbal.wav"),"instruments/cymbal.wav")
                    }
                    
                # PLAYER 2 LOSS
                if(CurrentY<-64&PongActive){
                    PongActive=0 
                    PongScore1+=1
                    CurrentX=0
                    CurrentY=0
                    BallSpeed=0.5
                    Xmod=1
                    Ymod=1
                    soundPlay(2,soundDuration("instruments/cymbal.wav"),"instruments/cymbal.wav")
                    }
                    
                # SCORE DISPLAY
                #PLAYER 1
                if(PongScore1<10){holoMaterial(29, "models/cheeze/buttons2/0") holoMaterial(30, "models/cheeze/buttons2/"+PongScore1:toString():index(1))
                    }else{
                holoMaterial(29, "models/cheeze/buttons2/"+PongScore1:toString():index(1)) holoMaterial(30, "models/cheeze/buttons2/"+PongScore1:toString():index(2))
                }
                
                #PLAYER 2
                if(PongScore2<10){holoMaterial(32, "models/cheeze/buttons2/0") holoMaterial(31, "models/cheeze/buttons2/"+PongScore2:toString():index(1))
                    }else{
                holoMaterial(32, "models/cheeze/buttons2/"+PongScore2:toString():index(1)) holoMaterial(31, "models/cheeze/buttons2/"+PongScore2:toString():index(2))
                }

                # AI CONTROL
                if(AITimer>50 & Ymod==-1 & inrange(PongLocal:x(),-38,38)){
                    
                    
                    if(Ymod==-1){AIAcceleration+=0.15}else{AIAcceleration=0}
                    if(AIAcceleration>=2.5){AIAcceleration=2.5}
                    if(holoEntity(34):toLocal(holoEntity(35):pos()):x()>8){AIMod+=(1+AIRandomBonus)*AIAcceleration}
                    if(holoEntity(34):toLocal(holoEntity(35):pos()):x()<-8){AIMod-=(1+AIRandomBonus)*AIAcceleration}
                    if(holoEntity(34):toLocal(holoEntity(35):pos()):x()>-10&
                    holoEntity(34):toLocal(holoEntity(35):pos()):x()<10 & 
                    inrange(holoEntity(26):toLocal(holoEntity(34):pos()):x()>3, 10,-10)){AIMod+=sign(holoEntity(34):toLocal(holoEntity(35):pos()):x())}

                    holoPos(34, holoEntity(26):toWorld(vec(AIMod,-55,0.1)))
                    }


                # HOLO POSING
                    holoPos(35, holoEntity(26):toWorld(vec(CurrentX,CurrentY,0.1)))
 
            }
   
    }

# MODE 3 - RT-CAMERA
    #PRESETING TEXTURES AND HOLOGRAMS
        if(changed(Mode)&Mode==3){
            Interval=20
            soundVolume(30,0)
            for(I=25,49){
                holoModel(I, "cube")
                holoMaterial(I, "")
            }
        
        # RT-CAMERA SCREEN OUTLINE
        holoPos(25, PC:toWorld(vec(0,-20,1.7)))
        holoColor(25, vec(30,30,30))
        holoAng(25, PC:toWorld(ang(0,0,0)))
        holoMaterial(25, "debug/debugdrawflat")
        holoScaleUnits(25, vec(120,120,0.7))
        holoAlpha(25, 255)
        
        
        # RT-CAMERA SCREEN
        holoPos(26, PC:toWorld(vec(0,-20,1.7)))
        holoColor(26, vec(255,255,255))
        holoAng(26, PC:toWorld(ang(0,180,0)))
        holoMaterial(26, "models/rendertarget")
        holoScaleUnits(26, vec(119,119,0.8))
        holoAlpha(26, 255)
        
        # RT CONTROL OUTLINE
        holoPos(27, PC:toWorld(vec(-47,-67,1.8)))
        holoColor(27, vec(30,30,30))
        holoAng(27, PC:toWorld(ang(0,0,0)))
        holoMaterial(27, "debug/debugdrawflat")
        holoScaleUnits(27, vec(18,18,0.8))
        holoAlpha(27, 255)
        
        # RT CONTROL BUTTON
        holoPos(28, PC:toWorld(vec(-47,-67,1.9)))
        holoColor(28, vec(255,255,255))
        holoAng(28, PC:toWorld(ang(0,180,0)))
        holoMaterial(28, "vgui/hand")
        holoScaleUnits(28, vec(16,16,0.8))
        holoAlpha(28, 255)
        
        # RT CONTROLL RADIAL INLINE
        holoPos(29, PC:toWorld(vec(-47,-20,1.8)))
        holoColor(29, vec(30,70,225))
        holoAng(29, PC:toWorld(ang(0,0,0)))
        holoModel(29, "hqtube")
        holoScaleUnits(29, vec(30,30,0.8))
        holoAlpha(29, 255)
        
        # RT CONTROLL RADIAL OUTLINE
        holoPos(30, PC:toWorld(vec(-47,-20,1.8)))
        holoColor(30, vec(0,0,0))
        holoAng(30, PC:toWorld(ang(0,0,0)))
        holoModel(30, "hqtube")
        holoScaleUnits(30, vec(36,36,0.8))
        holoAlpha(30, 255)
        
        # RT CONTROLL RADIAL
        holoPos(31, PC:toWorld(vec(-47,-20,1.9)))
        holoColor(31, vec(255,255,255))
        holoAng(31, PC:toWorld(ang(0,0,0)))
        holoModel(31, "hqtube")
        holoMaterial(31, "bull/various/subwoofer")
        holoScaleUnits(31, vec(35,35,0.8))
        holoAlpha(31, 255)
        
        # FORWARD BUTTON
        holoPos(32, PC:toWorld(vec(-47,-20,1.8)))
        holoColor(32, vec(255,255,255))
        holoAng(32, PC:toWorld(ang(0,180,0)))
        holoModel(32, "hq_cylinder")
        holoMaterial(32, "models/cheeze/buttons2/go")
        holoScaleUnits(32, vec(19,19,0.8))
        holoAlpha(32, 0)
        
        # INDICATOR ARROW 
        holoPos(33, PC:toWorld(vec(-47,-20,1.9)))
        holoColor(33, vec(30,70,225))
        holoAng(33, PC:toWorld(ang(0,90,90)))
        holoModel(33, "prism")
        #holoMaterial(33, "models/cheeze/buttons2/go")
        holoScaleUnits(33, vec(7,0.8,10))
        holoAlpha(33, 255)
        

        RTCamMode=0
       # for(I=29,34){holoAlpha(I, 0)}
    }
      
    #CODING 
    if(Mode==3){
        
        # Value RTCamStartPos should be used after making RTCAMera selection
        if(changed(Mode)){RTCamStartPos=entity():toWorld(vec(100,0,200))}
        
        
        
    
        #RADIAL MENU AND BUTTON ALPHING
        if(RTCamera & AimLocal1:y()<40 & Player1:aimEntity()==entity()){
            for(I=29,33){holoAlpha(I,255)}
                holoAlpha(21, 0)
                holoAlpha(22, 0)
                holoAlpha(23, 0)
                holoAlpha(24, 0)
            }else{
            for(I=29,33){holoAlpha(I,0)}
                holoAlpha(21, 255)
                holoAlpha(22, 255)
                holoAlpha(23, 255)
                holoAlpha(24, 255)
            }
        
        #RADIAL MENU CONTROL
        # ARROW MOVEMENT AND FUNCTIONING
        GOButtonLocal=holoEntity(26):toLocal(Player1:aimPos())
        if(Player1:aimPos():distance(holoEntity(26):pos())<60 & Player1:aimEntity()==entity()){holoAng(33, PC:toWorld(ang(0,270-holoEntity(26):bearing(Player1:aimPos()),90))) holoPos(33, holoEntity(32):toWorld(vec(0,0,0.2))+holoEntity(33):up()*17)}
        if(Player1:aimPos():distance(holoEntity(26):pos())<60 & Player1:aimEntity()==entity()&Use){
            RTAngModX+=GOButtonLocal:x()/24
            RTAngModY+=GOButtonLocal:y()/24
            }
        
        # GO BUTTON, RTCamForwardAcc smoothes the acceleration
        #if(Player1:aimPos():distance(holoEntity(32):pos())<60 & Player1:aimEntity()==entity() & Reload){RTCamStartPos+=(RTCamera:forward()*8)}
        
        #  CAMERA ANTI-STUCK
            rangerFilter(RTCamera)
            RTCamRanger = rangerOffset(entity():pos(), RTCamera:pos()+RTCamera:forward()*150)
        
            
        if(Player1:aimPos():distance(holoEntity(26):pos())<60 & Player1:aimEntity()==entity() & Reload & !RTCamRanger:hit()){
            
            
            
            RTCamForwardAcc+=0.5
            if(RTCamForwardAcc>15){RTCamForwardAcc=15}
            RTCamStartPos+=(RTCamera:forward()*RTCamForwardAcc)
            
            #kek
            
            }else{RTCamForwardAcc=0}
        #RTCamForwardAcc++
        
            
            
            
            
        
        
        #RTAngModX RTAngModY
        #Debug=
        
        #QUATERNION 
        # QUATERNION MANIPULATION
        #### NOTE: THIS CODE IS MODIFIED VERSION OF FIZYK QUATERNION EXAMPLE
            RTDesiredAng = ang(0+RTAngModX,-RTAngModY+0,0)   #aim for the center 
            TarQ1 = quat(RTDesiredAng)
            CurQ1 = quat(RTCamera)
                
            Q1 = TarQ1/CurQ1
            V1 = transpose(matrix(RTCamera))*rotationVector(Q1)
            #Aim
            RTCamera:applyTorque((100*V1 - 10*RTCamera:angVelVector())*RTCamera:inertia()) 
    
            CamWirelink["Activate", number]=1
            
            
    
        #APPLY FORCE
        RTCamera:applyForce(((RTCamStartPos-RTCamera:pos())*25-RTCamera:vel()/2)*RTCamera:mass()) #RIGHT GUN TURRET APPLY FORCE
        
        # RT CAMERA SELECTION
        if(Player1:aimPos():distance(holoEntity(28):pos())<7 & Player1:aimEntity()==entity()){holoColor(28,vec(255,255,255))}else{holoColor(28,vec(200,200,200))}
        if(RTCamMode==0&Player1:aimPos():distance(holoEntity(28):pos())<7 & Player1:aimEntity()==entity()&Use&$Use){RTCamMode=1}
        
        if(RTCamMode==1){
            holoColor(28,vec(60,60,200))
            if(#Player1:aimEntity():type()=="gmod_rtcameraprop" & 
            Player1:keyUse() & Player1:aimEntity():owner()==owner()
            & Player1:aimEntity()!=entity()){
                RTCamera=Player1:aimEntity()
                CamWirelink=RTCamera:wirelink()
                RTCamMode=2
                }
        }
        
        # CHANGING BACK TO MODE 0
        #CAMERA DELETED
        if(RTCamMode==2&!RTCamera){RTCamMode=0 RTCamStartPos=entity():toWorld(vec(100,0,200))}
        #MANUAL
        if(Player1:aimPos():distance(holoEntity(28):pos())<7 & Player1:aimEntity()==entity()&Use&$Use&RTCamMode==2){
            RTCamera=noentity()
            RTCamMode=0
            RTCamStartPos=entity():toWorld(vec(100,0,200))
            
            }
        holoAlpha(32, 0)
}

# MODE 4 - MAP
    #PRESETING TEXTURES AND HOLOGRAMS
        if(changed(Mode)&Mode==4){
            Interval=40
            soundVolume(30,0)
            for(I=25,49){
                holoModel(I, "cube")
                holoMaterial(I, "")
            }

        # MAP OUTLINE
        holoPos(25, PC:toWorld(vec(10,-20,1.7)))
        holoColor(25, vec(30,30,30))
        holoAng(25, PC:toWorld(ang(0,0,0)))
        holoMaterial(25, "debug/debugdrawflat")
        holoScaleUnits(25, vec(111,111,0.7))
        holoAlpha(25, 255)
        
        
        # MAP SCREEN
        holoPos(26, PC:toWorld(vec(10,-20,1.7)))
        holoColor(26, vec(255,255,255))
        holoAng(26, PC:toWorld(ang(0,180,0)))
        holoMaterial(26, "shadertest/seamless3")
        holoScaleUnits(26, vec(200,200,0.8))
        holoAlpha(26, 255)
        
        holoClipEnabled(26,1,1)
        holoClipEnabled(26,2,1)
        holoClipEnabled(26,3,1)
        holoClipEnabled(26,4,1)
        
        
        # MAP SCALE OUTLINE
        holoPos(27, PC:toWorld(vec(-50,-20,1.8)))
        holoColor(27, vec(30,30,30))
        holoAng(27, PC:toWorld(ang(0,0,0)))
        holoMaterial(27, "debug/debugdrawflat")
        holoScaleUnits(27, vec(15,100,0.7))
        holoAlpha(27, 255)

        # MAP SCALE INLINE
        holoPos(28, PC:toWorld(vec(-50,-20,1.8)))
        holoColor(28, vec(0,0,0))
        holoAng(28, PC:toWorld(ang(0,0,0)))
        holoMaterial(28, "debug/debugdrawflat")
        holoScaleUnits(28, vec(13,98,0.8))
        holoAlpha(28, 255)

        # SLIDER HANDLE OUTLINE
        holoPos(29, PC:toWorld(vec(-50,-20,1.8)))
        holoColor(29, vec(255,255,255))
        holoAng(29, PC:toWorld(ang(0,0,0)))
        holoMaterial(29, "debug/debugdrawflat")
        holoScaleUnits(29, vec(13,2,0.9))
        holoAlpha(29, 255)
        
        # SLIDER HANDLE FILL
        holoPos(30, PC:toWorld(vec(-50,-20,1.8)))
        holoColor(30, vec(200,200,200))
        holoAng(30, PC:toWorld(ang(0,0,0)))
        holoMaterial(30, "debug/debugdrawflat")
        holoScaleUnits(30, vec(12,1,1))
        holoAlpha(30, 255)

        MapScale=200


}

    # PLAYER HOLOGRAMS POSITIONING 
    timer("loop", 250)
    if(Mode==4 & clk("loop")){
        
        
        Players=players()
        for(I=33,49){
            #holoAlpha(I, 255)
            holoModel(I, "prism")
            holoScaleUnits(I, vec(3,2,5))
            #holoAlpha(I, Players[I-32, entity]:isPlayer()*255)
            holoPos(I, holoEntity(26):toWorld(vec(entity():toLocal(Players[I-32,entity]:pos()):z()/MapScale,-entity():toLocal(Players[I-32,entity]:pos()):y()/MapScale,0)))
            if(!Players[I-32, entity]:inVehicle()){holoAng(I, holoEntity(26):toWorld(ang(0,Players[I-32, entity]:angles():yaw()+PC:angles():yaw()-90,90)))}else{holoAng(I, holoEntity(26):toWorld(ang(0,Players[I-32, entity]:vehicle():angles():yaw()+PC:angles():yaw(),90)))}
            if(Players[I-32, entity]:health()<=0){holoColor(I, vec(30,30,30))}
            if(Players[I-32, entity]:health()>0){holoColor(I, teamColor(Players[I-32, entity]:team()))}
            if(Players[I-32, entity]:inVehicle()){holoColor(I, vec(255,255,255))}

     
            #ALPHA
            if(entity():toLocal(holoEntity(I):pos()):x()>-43 &
            entity():toLocal(holoEntity(I):pos()):x()<45 &
            entity():toLocal(holoEntity(I):pos()):y()<30 &
            entity():toLocal(holoEntity(I):pos()):y()>-71&
            Players[I-32, entity]:isPlayer()
            
            
            
            ){holoAlpha(I, 255)}else{holoAlpha(I, 0)}
            
            
}

    # SCALE SLIDER CONTROL
    MapSliderLocal = holoEntity(28):toLocal(Player1:aimPos())
    if(inrange(MapSliderLocal, vec(-7,-45,-10), vec(7,45,10))){holoColor(28, vec(100,100,100))}else{holoColor(28, vec(0,0,0))}
    if(inrange(MapSliderLocal, vec(-7,-45,-10), vec(7,45,10))&Use){
        MapScale=(MapSliderLocal:y()*3)+140
        #if(MapScale<=0){MapScale=0}
        holoPos(29, PC:toWorld(vec(-50,MapSliderLocal:y()-18,1.8)))
        holoPos(30, PC:toWorld(vec(-50,MapSliderLocal:y()-18,1.8)))
        }

        
    holoClip(26, 1, entity():toWorld(vec(63,0,0)), -entity():forward()*1, 1)
    holoClip(26, 2, entity():toWorld(vec(-43,0,0)), entity():forward()*1, 1)
    holoClip(26, 3, entity():toWorld(vec(0,33,0)), entity():right()*1, 1)
    holoClip(26, 4, entity():toWorld(vec(0,-73,0)), -entity():right()*1, 1)
    
    holoScale(26, vec(20+(272-MapScale)/10,20+(272-MapScale)/10,0.1))

}

# MODE 5 - PIANO

    #PRESETING TEXTURES AND HOLOGRAMS
        if(changed(Mode)&Mode==5){
            Interval=40
            for(I=25,49){
                holoModel(I, "cube")
                holoMaterial(I, "")
            }

        # PIANO SCREEN OUTLINE
        holoPos(25, PC:toWorld(vec(0,-20,1.7)))
        holoColor(25, vec(30,30,30))
        holoAng(25, PC:toWorld(ang(0,0,0)))
        holoMaterial(25, "debug/debugdrawflat")
        holoScaleUnits(25, vec(63,122,0.7))
        holoAlpha(25, 255)
        
        
        # PIANO SCREEN
        holoPos(26, PC:toWorld(vec(0,-20,1.7)))
        holoColor(26, vec(10,10,10))
        holoAng(26, PC:toWorld(ang(0,0,0)))
        holoMaterial(26, "debug/debugdrawflat")
        holoScaleUnits(26, vec(60,119,0.8))
        holoAlpha(26, 255)
        
        # VOLUME TAB OUTLINE
        holoPos(27, PC:toWorld(vec(0,-76,1.7)))
        holoColor(27, vec(30,30,30))
        holoAng(27, PC:toWorld(ang(0,90,0)))
        holoMaterial(27, "debug/debugdrawflat")
        holoScaleUnits(27, vec(15,35,0.9))
        holoAlpha(27, 255)
        
        # VOLUME TAB FILL
        holoPos(28, PC:toWorld(vec(0,-76,1.7)))
        holoColor(28, vec(30,30,30))
        holoAng(28, PC:toWorld(ang(0,90,0)))
        holoMaterial(28, "maxofs2d/models/button_slider")
        holoScaleUnits(28, vec(13,33,1))
        holoAlpha(28, 255)

        # VOLUME SLIDER
        holoPos(29, PC:toWorld(vec(13,-73.25 ,1.7)))
        holoColor(29, vec(80,255,80))
        holoAng(29, PC:toWorld(ang(0,0,0)))
        holoModel(29, "hq_rcube")
        holoMaterial(29, "debug/debugdrawflat")
        holoScaleUnits(29, vec(4,2,1.1))
        holoAlpha(29, 255)

        #WHITE KEYS, SPAWNING FROM LEFT TO RIGHT
        for(I=30,39){
        holoPos(I, holoEntity(26):toWorld(vec(5,52.5-(I-30)*10.5,0)))
        holoColor(I, vec(230,230,230))
        holoAng(I, PC:toWorld(ang(0,0,0)))
        holoMaterial(I, "debug/debugdrawflat")
        holoScaleUnits(I, vec(48,10,0.9))
        holoAlpha(I, 255)}
    
        # BLACK KEY 1
        holoPos(41, holoEntity(26):toWorld(vec(15,48,0)))
        holoColor(41, vec(0,0,0))
        holoAng(41, PC:toWorld(ang(0,0,0)))
        holoMaterial(41, "effects/flashlight/gradient")
        holoScaleUnits(41, vec(28,7,1))
        holoAlpha(41, 255)
    
        # BLACK KEY 2
        holoPos(42, holoEntity(26):toWorld(vec(15,36,0)))
        holoColor(42, vec(0,0,0))
        holoAng(42, PC:toWorld(ang(0,0,0)))
        holoMaterial(42, "effects/flashlight/gradient")
        holoScaleUnits(42, vec(28,7,1))
        holoAlpha(42, 255)
        
        # BLACK KEY 3
        holoPos(43, holoEntity(26):toWorld(vec(15,17,0)))
        holoColor(43, vec(0,0,0))
        holoAng(43, PC:toWorld(ang(0,0,0)))
        holoMaterial(43, "effects/flashlight/gradient")
        holoScaleUnits(43, vec(28,7,1))
        holoAlpha(43, 255)
        
        # BLACK KEY 4
        holoPos(44, holoEntity(26):toWorld(vec(15,5,0)))
        holoColor(44, vec(0,0,0))
        holoAng(44, PC:toWorld(ang(0,0,0)))
        holoMaterial(44, "effects/flashlight/gradient")
        holoScaleUnits(44, vec(28,7,1))
        holoAlpha(44, 255)
        
        # BLACK KEY 5
        holoPos(45, holoEntity(26):toWorld(vec(15,-7,0)))
        holoColor(45, vec(255))
        holoAng(45, PC:toWorld(ang(0,0,0)))
        holoMaterial(45, "effects/flashlight/gradient")
        holoScaleUnits(45, vec(28,7,1))
        holoAlpha(45, 255)
        
        # BLACK KEY 6
        holoPos(46, holoEntity(26):toWorld(vec(15,-26,0)))
        holoColor(46, vec(255))
        holoAng(46, PC:toWorld(ang(0,0,0)))
        holoMaterial(46, "effects/flashlight/gradient")
        holoScaleUnits(46, vec(28,7,1))
        holoAlpha(46, 255)
    
        # BLACK KEY 7
        holoPos(47, holoEntity(26):toWorld(vec(15,-38,0)))
        holoColor(47, vec(255))
        holoAng(47, PC:toWorld(ang(0,0,0)))
        holoMaterial(47, "effects/flashlight/gradient")
        holoScaleUnits(47, vec(28,7,1))
        holoAlpha(47, 255)
        holoEntity(30):soundPlay(30,0,"synth/square.wav")
        Volume=1
        Volume2=0
        CurrentI2=1
        CurrentI=1
        BlacksOnly=10
    
}
 if(Mode==5){
    # DETECTING AND SEPARATING BLACKS FROM WHITES... keys that is
    if(BlacksOnly==0){
    for(I=41,47){
    if(inrange(holoEntity(I):toLocal(Player1:aimPos()),vec(-14,-3,-10),vec(14,3,10))){holoColor(I, vec(120)) BlacksOnly=1 CurrentI=I}else{holoColor(I, vec(60))}
}}
     
    if(!inrange(holoEntity(CurrentI):toLocal(Player1:aimPos()),vec(-14,-3,-10),vec(14,3,10))){BlacksOnly=0}

    # DETECTING WHITES
    for(I=30,39){
        if(inrange(holoEntity(I):toLocal(Player1:aimPos()),vec(-24,-5,-10),vec(24,5,10)) & BlacksOnly==0){CurrentI2=I holoColor(I, vec(170,170,170))}else{holoColor(I, vec(225,225,225)) OnPianoKey=0}
        
}

    # HIDING POINTER
    if(AimLocal1:y()<40 & Player1:aimEntity()==entity()){
                holoAlpha(21, 0)
                holoAlpha(22, 0)
                holoAlpha(23, 0)
                holoAlpha(24, 0)
            }else{
                holoAlpha(21, 255)
                holoAlpha(22, 255)
                holoAlpha(23, 255)
                holoAlpha(24, 255)
            }

    #OnPianoKey is value used for white keys where for blacks it uses BlacksOnly

    
    if(inrange(holoEntity(26):toLocal(Player1:aimPos()),vec(-19,-47,-10),vec(30,60,10))){
    
    
    
    
    
    # CRIXAB SOLUTION:
    # These values and equation were given to me by crixab /credits
    # array(130,146,164,174,196,220,246,261,293,329,349,392,440)
    # soundPitch(1,A[Note,number]/6.60*2) 
    
    KeysArray = array(130,146,164,174,196,220,246,261,293,329,349,392,440)
    BlackKeysArray = array(138, 155, 185, 207, 233, 277, 311)
    
    
    
    
    ##############################################
    if((Use&$Use)){
    #WHITE KEY SOUNDS
    if(BlacksOnly==0){        
        
        #soundPitch(CurrentI2, (CurrentI2-29)*20) # REVERT TO UNDO CRIXAB SOLUTION
        soundPitch(30,KeysArray[CurrentI2-26,number]/6.60*2) 
        #soundVolume(30,Volume2)
        }
    #BLACK KEY SOUNDS
    if(BlacksOnly==1){
        
        #holoEntity(CurrentI):soundPlay(CurrentI,0.2,"synth/tri.wav")
        # soundPitch(CurrentI, (CurrentI-40)*28) #REVERT TO UNDO CRIXAB SOLUTION
        soundPitch(30,BlackKeysArray[CurrentI-40,number]/6.60*2) 
        #soundVolume(30,Volume2)
        }
        Volume2=Volume
}

    #instruments/PianoA_440.wav
    #instruments/PianoC.wav
    
}
    
    # VOLUME SLIDER
    if(inrange(holoEntity(28):toLocal(Player1:aimPos()),vec(-3.8,-12.3,-10),vec(5,7.3,10)) & Use){
        
        holoColor(29, vec(80,255,80))
        holoPos(29, PC:toWorld(vec(-holoEntity(28):toLocal(Player1:aimPos()):y(),-73.25 ,1.7)))
        Volume = 1-(floor( holoEntity(28):toLocal(Player1:aimPos()):y()+13)/20)
        
    }else{holoColor(29, vec(255,255,255))}

    if(Use){Volume2-=(Volume/30)} 
    if(!Use){Volume2-=(Volume/10)}
    
    soundVolume(30,Volume2)
    if(Volume2<=0){Volume2=0}


}






#holoPos(3, RTCamRanger:position())

#playermarker are alpha0, delete alpha after making player selection
