@name miscEMTEuclidean
@outputs [E1 E2]:entity Lag

runOnTick(1)
propSpawnUndo(0)
if(first()){
E1 = propSpawn("models/props_phx/misc/bunker01.mdl", entity():toWorld(vec(400,0,-2)), ang(0,90,0), 1)
E2 = propSpawn("models/props_phx/misc/bunker01.mdl", entity():toWorld(vec(-400,0,-2)), ang(0,90,0), 1)
}

if(E1:pos():distance(owner():pos())<60 & Lag>80){
    
    concmd("emt "+owner():id()+" "+E2:toWorld(E1:toLocal(owner():pos()))+" "+owner():eyeAngles()+" "+owner():vel())
    Lag=0
    }

print(4, owner():aimPos():toString())

Lag++


