@name miscPixelWirelinkColorer
@inputs 
@outputs A:array WL:wirelink Color:vector
@persist 
@trigger 

runOnTick(1)

# SPAWN SOME PIXELS ON THE GROUND, THEN SPAWN E2, SHIT WILL BE COLORED DEPENGING ON DISTANCE FROM E2

if(first()){
    
    findByClass("gmod_wire_pixel")
    findIncludePlayerProps(owner())
    A = findToArray()
    
}



for(I=1, A:count()){
    
    Color = hsv2rgb(vec(((curtime()*60)+(entity():pos():distance(A[I,entity]:pos())/10))%360,1,1))
    
    
    WL = A[I,entity]:wirelink()
    WL["Red", number] = Color[1]
    WL["Green", number] = Color[2]
    WL["Blue", number] = Color[3]
    
    
    
}
