@name miscWarhammur
@inputs 
@outputs 
@persist C:entity
@trigger 

runOnTick(1)

if(first()){
for(I=1,60){
 
    holoCreate(I)
   holoPos(I, entity():pos()+vec(0,0,80))
}

    holoPos(1, entity():toWorld(vec(0,0,60)))
    holoModel(1, "models/sprops/misc/origin.mdl")
    holoAlpha(1, 0)
    C = holoEntity(1)


    holoPos(2, C:toWorld(vec(0,0,0)))
    holoAng(2, C:toWorld(ang(25,0,0)))
    holoModel(2, "models/Gibs/HGIBS.mdl")

    holoPos(3, C:toWorld(vec(2.2,1.5,-0.4)))
    holoScale(3, vec(0.1))
    holoAng(3, C:toWorld(ang(0,0,0)))
    holoModel(3, "models/Combine_Scanner.mdl")

    holoPos(4, C:toWorld(vec(-5,0,-0.4)))
    holoScale(4, vec(0.2))
    holoAng(4, C:toWorld(ang(0,0,0)))
    holoModel(4, "models/combine_turrets/ground_turret.mdl")

    holoPos(5, C:toWorld(vec(-5,0,-0.4)))
    holoScale(5, vec(0.2))
    holoAng(5, C:toWorld(ang(0,0,0)))
    holoModel(5, "models/combine_turrets/ground_turret.mdl")













}
