@name Mentally Insane Game
@persist Speed Items:array Paths:array Names:array Prices:array
@persist Chance:array
@persist Menu Time Tick Timer
@persist User:entity Drop:array  Use Using Scores:array FileName:string
@persist Drugs:array Wins:array Win:array  Percent:array Bombs:array Consec
@persist SNames:array FLoaded STick
@inputs Scr:wirelink User2:entity
@model models/Items/car_battery01.mdl
@trigger all
interval(100)
runOnChat(1)
runOnFile(1)
STick++
FileName="dod.txt"
if (!FLoaded & fileCanLoad()) {fileLoad(FileName)}
if (!fileCanLoad() & !FLoaded) {print(_HUD_PRINTCENTER,"Waiting to load. STick: "+STick)}
if (fileClk(FileName) & !FLoaded & fileLoaded()) {
    print(_HUD_PRINTCENTER," ")
    FLoaded=1
    Cake=fileRead()
    Cake2=Cake:explode("
")
    #print(Cake)
    Cake3=array()
    Cake4=array()
    for (I=1, Cake2:count()) {
        Cake3[Cake3:count()+1,string]=Cake2[I,string]:explode("::")[1,string]
        Cake4[Cake4:count()+1,number]=Cake2[I,string]:explode("::")[2,string]:toNumber()
        
    }
    Scores=Cake4
    SNames=Cake3
    print(""+Scores:count()+" scores available")
    print("Score 1: "+SNames[1,string]+" at "+Scores[1,number]+" points")
}
setName("Day of Drugs")
if (clk()) {Tick++ if (Tick==11) {Tick=0}}
#User2=Scr["User",entity]                                                               
                                                                             Path="spawnicons/models/"
if (first()) {                                                                          
function number item(LL:string,Pa:string,P,C,T:string) {
    Items[Items:count()+1,string]=LL 
    Paths[Paths:count()+1,string]=Path+Pa 
    Prices[Prices:count()+1,number]=P 
    Chance[Chance:count()+1,number]=C
    Names[Names:count()+1,string]=T
    for (I=1, C) {
        Percent[Percent:count()+1,number]=Items:count()
    }  
}
#Adding items. Configure as needed.##
#item(Item,Path,Price,Config [1,10])#
Time=30 #Time per round
Path=""
item("Zip","run",70,2,"drug_zip")
item("Rocket","jump",70,2,"drug_rocket")
item("Stim","regen",25,6,"drug_stim")    
item("Rebound","falldamage",15,7,"drug_rebound")
item("SmallMedkit","health",8,10,"medkit_small")
}









if (User:keyUse() & !Using) {Use=1}
if (User:keyUse()) {Using=1} else {Using=0}
if (first()) {Menu=-1}
if (first()) {
function addDrop(S:string) {
    Drop[Drop:count()+1,string]="item_"+S
    
}
        function number pIR(Num:number) {
            W=Scr
            O=User
        if(inrange(W:egpCursor(O):x(),W:egpPos(Num):x()-(W:egpSize(Num):x()/2),W:egpPos(Num):x()+(W:egpSize(Num):x()/2))&
        inrange(W:egpCursor(O):y(),W:egpPos(Num):y()-(W:egpSize(Num):y()/2),W:egpPos(Num):y()+(W:egpSize(Num):y()/2))) {
            RollOver=Num
            return 1
        } else {
            return 0
        }
    }

    function makeDrug() {
        Bomb=randint(1,10)
        if (Drugs:count()==30) {return}
        if (Bomb!=3 & Bomb!=4) {
        New=Drugs:count()+1
        ID=Percent[randint(1,Percent:count()),number]
        Pos=vec2(randint(128,256+128),randint(128,256+128))
        Scr:egpBox(100+New,Pos,vec2(22,22))
        Scr:egpBox(200+New,Pos,vec2(20,20))
        Scr:egpMaterial(200+New,Paths[ID,string])
        Scr:egpColor(200+New,vec(randint(100,256),randint(100,256),randint(100,256)))
        Drugs[Drugs:count()+1,vector]=vec(100+New,200+New,ID)
    } 
    if (Bomb==3) {
        New=Drugs:count()+1
        ID=0
        Pos=vec2(randint(128,256+128),randint(128,256+128))
        Scr:egpBox(100+New,Pos,vec2(22,22))
        Scr:egpBox(200+New,Pos,vec2(20,20))
        Scr:egpMaterial(200+New,Paths[ID,string])
        Scr:egpColor(200+New,vec(256,0,0))
        Drugs[Drugs:count()+1,vector]=vec(100+New,200+New,ID)
    
} 
if (Bomb==4) {
        New=Drugs:count()+1
        ID=-1
        Pos=vec2(randint(128,256+128),randint(128,256+128))
        Scr:egpBox(100+New,Pos,vec2(22,22))
        Scr:egpBox(200+New,Pos,vec2(20,20))
        Scr:egpMaterial(200+New,Paths[ID,string])
        Scr:egpColor(200+New,vec(0,0,256))
        Drugs[Drugs:count()+1,vector]=vec(100+New,200+New,-1)

}
        
    }
}

if (changed(Menu) | changed(Scr)) {
    soundStop(0)
    Draw=1
    Scr:egpClear()
    Scr:egpBox(egpMaxObjects(),vec2(256,256),vec2(512,512))
    Scr:egpMaterial(egpMaxObjects(),"maps/noicon")
}

#if (first()) {addDrop("drug_rocket") addDrop("drug_rocket") addDrop("food_chinese")}
if (chatClk(owner()) & owner():lastSaid()=="-drop") {
    hideChat(1)
    if (Drop:count()) {
    printColor(vec(0,256,0),"Dropping stuff")
    for (I=1, Drop:count()) {
        concmd("ia_item_drop "+Drop[I,string])
    }
    Drop:clear()
} else {printColor(vec(256,0,0),"No stuff to drop.")}
}
if (chatClk(owner()) & owner():lastSaid():sub(1,4)=="-run") {
    hideChat(1)
    Consec=1
    if (owner():lastSaid():sub(6)) {
        Consec=owner():lastSaid():sub(6):toNumber()
    }
    printColor(vec(256,256,256),"Day of Drugs Enabled. Games: "+Consec)
    Scr:entity():soundPlay(1,0,"/buttons/bell1.wav")
    Menu=0
}

#Boot
if (Menu<0) {
    if (Draw) {
        Scr:egpBox(1,vec2(256,256),vec2(512,50))
        Scr:egpText(2,"Activation by owner required.",Scr:egpPos(1))
        Scr:egpAlign(2,1,1)
        Scr:egpColor(1,vec(128,0,0))
        Scr:egpSize(2,40)
        Scr:egpText(100,"By Scriptis",vec2(256,512))
        Scr:egpAlign(100,1,2)
        
    }
    
}
if (Menu<0) {User=noentity()}
if (Menu==0) {
    if (Draw) {
        Scr:egpBox(1,vec2(256,256),vec2(512,50))
        Scr:egpText(2,"Press Anywhere to Begin",Scr:egpPos(1))
        Scr:egpAlign(2,1,1)
        Scr:egpColor(1,vec(128,128,128))
        Scr:egpSize(2,45)
        Scr:egpText(100,"By Scriptis",vec2(256,512))
        Scr:egpAlign(100,1,2)
    }
    if (User2) {User=User2 Menu=1}
    
}


if (Menu==1) {
    if (Draw) {
        Instruct=array("Press E on the drug icons!",
        "You have "+Time+" seconds to play!",
        "For every 3 you get, you get 1 of the ITEM!",
        "Walking too far away forfeits the game!",
        "Red squares clear the screen and bring down your time!",
        "Blue boxes add more time!")
        Scr:entity():soundPlay(0,0,"/music/vlvx_song4.mp3")
        soundPitch(0,115)
        Scr:egpText(1,"Instructions",vec2(256,0))
        Scr:egpAlign(1,1)
        Scr:egpSize(1,40)
        #Scr:egpTextLayout(2,"Press E on the drugs as they appear! For every three of the same drug you press, you win one of that drug!",vec2(6,206),vec2(500,100))
        #Scr:egpAlign(2,1,1)
        #Scr:egpSize(2,30)
        Scr:egpBox(7,vec2(256,60),vec2(32,32))
        Scr:egpBox(6,vec2(256,60),vec2(30,30))
        Scr:egpMaterial(6,Paths[randint(1,Paths:count()),string])
        Scr:egpColor(6,vec(randint(1,256),randint(1,256),randint(1,256)))
        #Scr:egpRoundedBox(3,vec2(256,512-30),vec2(150,30))
        Scr:egpRoundedBox(4,vec2(256,512-30),vec2(150,30)+vec2(5,5))
        Scr:egpColor(4,vec(0,0,0))
        Scr:egpRoundedBox(3,vec2(256,512-30),vec2(150,30))
        Scr:egpAlpha(4,0)
        Scr:egpColor(3,vec(128,128,128))
        Scr:egpText(5,"Start!",Scr:egpPos(3))
        Scr:egpAlign(5,1,1)
        Scr:egpSize(5,33)
 
        for (I=1, Instruct:count()) {
            Scr:egpText(10+I,Instruct[I,string],vec2(256,70+(I*20)))
            Scr:egpAlign(10+I,1,1)
            Scr:egpSize(10+I,20)
        }
    }
    if (Tick==5 | Tick==10) {
    Scr:egpMaterial(6,Paths[randint(1,Paths:count()),string])
    Scr:egpColor(6,vec(randint(100,256),randint(100,256),randint(100,256)))
    #Scr:egpText(5,Paths[randint(1,Paths:count()),string],vec2(0,0))
}
    if (pIR(3)) {
        Scr:egpAlpha(4,256)
        if (Use) {Timer=Time Menu=2}
} else {Scr:egpAlpha(4,0)}
}

if (Menu==2) {
    if (Draw) {
        Scr:entity():soundPlay(0,0,"/music/vlvx_song22.mp3")
        Timer=Time
        Scr:egpRoundedBox(2,vec2(0+50,0+((Items:count()+2)*25)/2),vec2(100,(Items:count()+2)*25))
        Scr:egpColor(2,vec(128,128,128))
        for (I=1, Items:count()) {
            Scr:egpBox(10+I,vec2(15,I*25),vec2(22,22))
            Scr:egpBox(20+I,vec2(15,I*25),vec2(20,20))
            Scr:egpMaterial(20+I,Paths[I,string])
            Scr:egpText(30+I,"  x"+Win[I,number]:toString(),vec2(25,I*25))
            Scr:egpAlign(30+I,0,1)
            
        }
    }
    timer("Time",1000)
    if (clk("Time")) {
        Timer--
        if (Timer<Time/3) {
            Scr:entity():soundPlay(3,0,"/buttons/button17.wav")
            
        }
        
        }
    if (Timer<1) {Menu=3}
    Scr:egpText(1,Timer:toString(),vec2(256,0))
    Scr:egpAlign(1,1)
    if (randint(1,15)==3) {makeDrug()}
    if (Use) {
    for (I=1, Drugs:count()) {
        if (Drugs[I,vector]:x()) {
        if (pIR(Drugs[I,vector]:x())) {
            Scr:egpRemove(Drugs[I,vector]:x()) 
            Scr:egpRemove(Drugs[I,vector]:y())
            ID=Drugs[I,vector]:z()
            if (ID>0) {
            Wins[ID,number]=Wins[ID,number]+1
            Drugs[I,vector]=vec(0,0,0)
            if (Wins[ID,number]==3) {
                Wins[ID,number]=0
                Win[ID,number]=Win[ID,number]+1
                Scr:egpText(30+ID,"  x"+Win[ID,number]:toString(),vec2(25,ID*25))
                Scr:egpAlign(30+ID,0,1)
                addDrop(Names[ID,string])
                Scr:entity():soundPlay(2,0,"/items/ammocrate_open.wav")
                #print("Won a "+Items[ID,string]+" ("+ID+")")
            }
        } elseif (ID==0) {
        Scr:egpRemove(Drugs[I,vector]:x()) 
        Scr:egpRemove(Drugs[I,vector]:y())
        Scr:entity():soundPlay(1,0,"/ambient/explosions/explode_1.wav")
        for (I2=1, Drugs:count()) {
           Scr:egpRemove(Drugs[I2,vector]:x())
            Scr:egpRemove(Drugs[I2,vector]:y()) 
            
        }
        Drugs:clear()
        Timer-=10
        
    } elseif (ID==-1) {
        Timer+=round(Time/10)
        Drugs[I,vector]=vec(0,0,0)
        Scr:entity():soundPlay(4,0,"/items/spawn_item.wav")
    
}
    }
    }
}
}
}

if (Menu==3) {
    if (Draw) {
        if (Consec) {Consec--}
        Scr:entity():soundPlay(0,0,"/music/vlvx_song23.mp3")
        Scr:egpText(1,"GAME OVER",vec2(256,0))
        Scr:egpAlign(1,1,0)
        Scr:egpText(2,"You win:",vec2(256,50))
        Scr:egpAlign(2,1,0)
        Scr:egpSize(1,40)
        Scr:egpRoundedBox(3,vec2(256,256),vec2(100,(Items:count()+2)*25))
        Scr:egpColor(3,vec(128,128,128))
        Lol=(128+64-(Items:count()+2))
        for (I=1, Items:count()) {
            Scr:egpBox(10+I,vec2(256-10,Lol+I*25),vec2(22,22))
            Scr:egpBox(20+I,vec2(256-10,Lol+I*25),vec2(20,20))
            Scr:egpMaterial(20+I,Paths[I,string])
            Scr:egpText(30+I,"  x"+Win[I,number]:toString(),vec2(256,Lol+I*25))
            Scr:egpAlign(30+I,0,1)
            
        }
        Scr:egpRoundedBox(40,vec2(256,512-30),vec2(150,30)+vec2(5,5))
        Scr:egpColor(40,vec(0,0,0))
        Scr:egpRoundedBox(30,vec2(256,512-30),vec2(150,30))
        Scr:egpAlpha(40,0)
        Scr:egpColor(30,vec(128,128,128))
        if (Consec) {
        Scr:egpText(50,"New Game",Scr:egpPos(30))
        if (Consec>1) {
        Scr:egpText(51,"You've got "+Consec+" extra games!",vec2(256,450))
} else {
        Scr:egpText(51,"You've got "+Consec+" extra game!",vec2(256,450))

}
    } else {
        Scr:egpText(50,"End Game",Scr:egpPos(30))
        Scr:egpText(51,"Ask "+owner():name()+" for your winnings.",vec2(256,450))

    
}
        Scr:egpAlign(51,1,1)
        Scr:egpAlign(50,1,1)
        Scr:egpSize(50,25)
        
}
if (pIR(30)) {
    Scr:egpAlpha(40,256)
    if (Use & !Consec) {Menu=-1}
    if (Use & Consec) {Menu=1}
} else {Scr:egpAlpha(40,0)}
}






if (User & User:pos():distance(Scr:entity():pos())>120) {
    if (Menu==2) {Consec--}
    User=noentity() 
    if (!Consec) {
        Menu=-1
} else { Menu=0}
    Win:clear()
    Wins:clear()
    Drugs:clear()

    }
    if (Menu<0 & Draw) {
    Win:clear()
    Wins:clear()
    Drugs:clear()
        
    }
#if (Draw) {Scr:entity():setColor(vec(256,256,256)) Scr:entity():setMaterial("models/shiny")}
Draw=0
Use=0
