N@Thruster Constants Airboat
I@W S Velocity M1 M2 Alt Shift Space Reload
O@Local Global Z Thrust Turn Slow Fast
interval(30) Cone=7.85 Buck=16.31
M = 544 M1=Reload
Global = ((M * 600) / (Cone*!M2))*!M1
Z = -1
Alt ? Slow=0.1 : Slow=1
Shift ? Fast=2.6 : Fast=1
Jump = Space ? -1: 1
Vel = (797.9*Slow*Fast)-Velocity
Thrust = ((40*(Vel/30)*(M/Buck)*(W-S)))
Local = Jump* -((M * 600) /Cone)*!M2
