@name MusicSet1

    Tracks1:pushString("dw-atssc.mp3")
    LengthMS1:pushString("1:04")
    Tracks1:pushString("dw-iatd.mp3")
    LengthMS1:pushString("1:47")
    Tracks1:pushString("dw-mgdwt.mp3")
    LengthMS1:pushString("0:54")
    Tracks1:pushString("eva-cat.mp3")
    LengthMS1:pushString("4:25")
    Tracks1:pushString("eva-godb.mp3")
    LengthMS1:pushString("1:17")
    Tracks1:pushString("eva-i.mp3")
    LengthMS1:pushString("1:35")
    Tracks1:pushString("eva-mh.mp3")
    LengthMS1:pushString("5:19")
    Tracks1:pushString("eva-m.mp3")
    LengthMS1:pushString("1:31")
    Tracks1:pushString("eva-rii.mp3")
    LengthMS1:pushString("2:22")
    Tracks1:pushString("eva-ri.mp3")
    LengthMS1:pushString("3:12")
    Tracks1:pushString("eva-rt.mp3")
    LengthMS1:pushString("2:56")
    Tracks1:pushString("eva-tbii.mp3")
    LengthMS1:pushString("2:15")
    Tracks1:pushString("eva-twlfttoolatitk.mp3")
    LengthMS1:pushString("2:25")
    Tracks1:pushString("ffvii-owa.mp3")
    LengthMS1:pushString("4:28")
    Tracks1:pushString("kh-ad.mp3")
    LengthMS1:pushString("1:00")
    Tracks1:pushString("kh-bagsii.mp3")
    LengthMS1:pushString("0:43")
    Tracks1:pushString("kh-bagsi.mp3")
    LengthMS1:pushString("0:53")
    Tracks1:pushString("kh-db.mp3")
    LengthMS1:pushString("1:14")
    Tracks1:pushString("kh-gfi.mp3")
    LengthMS1:pushString("1:02")
    Tracks1:pushString("kh-hih.mp3")
    LengthMS1:pushString("1:11")
    Tracks1:pushString("kh-t13s.mp3")
    LengthMS1:pushString("1:00")
    Tracks1:pushString("kh-tos.mp3")
    LengthMS1:pushString("1:05")
    Tracks1:pushString("kh-wtwl.mp3")
    LengthMS1:pushString("1:01")
    Tracks1:pushString("p2-ev.mp3")
    LengthMS1:pushString("4:42")
    Tracks1:pushString("p2-rs.mp3")
    LengthMS1:pushString("1:03")
    Tracks1:pushString("p2-tws.mp3")
    LengthMS1:pushString("2:15")
    Tracks1:pushString("p2-wyg.mp3")
    LengthMS1:pushString("2:13")
    Tracks1:pushString("p-sa.mp3")
    LengthMS1:pushString("2:54")
    Tracks1:pushString("sg-hmc-jzmgr.mp3")
    LengthMS1:pushString("4:08")
    Tracks1:pushString("sg-m.mp3")
    LengthMS1:pushString("6:22")
    Tracks1:pushString("sg-mnt-gnm.mp3")
    LengthMS1:pushString("1:37")
    Tracks1:pushString("sg-mnt-kntm.mp3")
    LengthMS1:pushString("3:11")
    Tracks1:pushString("sg-mnt-n.mp3")
    LengthMS1:pushString("1:35")
    Tracks1:pushString("sg-mnt-s.mp3")
    LengthMS1:pushString("2:33")
    Tracks1:pushString("sg-mnt-tnt.mp3")
    LengthMS1:pushString("4:17")
    Tracks1:pushString("sg-sa-woc.mp3")
    LengthMS1:pushString("1:24")
    Tracks1:pushString("sg-sg1-t.mp3")
    LengthMS1:pushString("1:03")
    Tracks1:pushString("sw-im.mp3")
    LengthMS1:pushString("3:06")
    Tracks1:pushString("th-gej.mp3")
    LengthMS1:pushString("1:49")
    Tracks1:pushString("th-non.mp3")
    LengthMS1:pushString("3:39")
    Tracks1:pushString("th-nonr.mp3")
    LengthMS1:pushString("3:46")
    Tracks1:pushString("th-sftdp.mp3")
    LengthMS1:pushString("4:01")
    Tracks1:pushString("th-t.mp3")
    LengthMS1:pushString("2:38")
    Tracks1:pushString("th-unowh.mp3")
    LengthMS1:pushString("2:06")
    Tracks1:pushString("tloz-mm-ctd3.mp3")
    LengthMS1:pushString("0:33")
    Tracks1:pushString("tloz-mm-ct.mp3")
    LengthMS1:pushString("0:57")
    Tracks1:pushString("tloz-mm-lfm.mp3")
    LengthMS1:pushString("1:52")
    Tracks1:pushString("tloz-mm-mo.mp3")
    LengthMS1:pushString("0:40")
    Tracks1:pushString("tloz-mm-tf.mp3")
    LengthMS1:pushString("1:27")
    Tracks1:pushString("tloz-oot-ff.mp3")
    LengthMS1:pushString("1:00")
    Tracks1:pushString("tloz-oot-gv.mp3")
    LengthMS1:pushString("1:29")
    Tracks1:pushString("tloz-oot-hf.mp3")
    LengthMS1:pushString("5:02")
    Tracks1:pushString("tloz-oot-kf.mp3")
    LengthMS1:pushString("0:57")
    Tracks1:pushString("tloz-oot-kv.mp3")
    LengthMS1:pushString("1:43")
    Tracks1:pushString("tloz-oot-lw.mp3")
    LengthMS1:pushString("1:02")
    Tracks1:pushString("tloz-oot-wh.mp3")
    LengthMS1:pushString("0:50")
    Tracks1:pushString("tloz-ss-gvr.mp3")
    LengthMS1:pushString("3:36")
    Tracks1:pushString("tloz-tp-bb.mp3")
    LengthMS1:pushString("2:09")
    Tracks1:pushString("tloz-tp-db.mp3")
    LengthMS1:pushString("2:05")
    Tracks1:pushString("tloz-tp-d.mp3")
    LengthMS1:pushString("2:54")
    Tracks1:pushString("tloz-tp-ds.mp3")
    LengthMS1:pushString("2:40")
    Tracks1:pushString("tloz-tp-fh.mp3")
    LengthMS1:pushString("0:38")
    Tracks1:pushString("tloz-tp-f.mp3")
    LengthMS1:pushString("2:01")
    Tracks1:pushString("tloz-tp-hc.mp3")
    LengthMS1:pushString("3:56")
    Tracks1:pushString("tloz-tp-hf.mp3")
    LengthMS1:pushString("2:16")
    Tracks1:pushString("tloz-tp-hv.mp3")
    LengthMS1:pushString("1:16")
    Tracks1:pushString("tloz-tp-kv.mp3")
    LengthMS1:pushString("1:28")
    Tracks1:pushString("tloz-tp-ml.mp3")
    LengthMS1:pushString("1:27")
    Tracks1:pushString("tloz-tp-sg.mp3")
    LengthMS1:pushString("0:49")
    Tracks1:pushString("tloz-tp-tl.mp3")
    LengthMS1:pushString("0:47")
    Tracks1:pushString("tloz-tp-t.mp3")
    LengthMS1:pushString("2:11")
    Tracks1:pushString("tloz-tp-tot.mp3")
    LengthMS1:pushString("2:19")
    Tracks1:pushString("tloz-ww-dri.mp3")
    LengthMS1:pushString("1:25")
    Tracks1:pushString("tloz-ww-hc.mp3")
    LengthMS1:pushString("2:25")
    Tracks1:pushString("tloz-ww-is.mp3")
    LengthMS1:pushString("3:06")
    Tracks1:pushString("tloz-ww-lh.mp3")
    LengthMS1:pushString("3:31")
    Tracks1:pushString("tloz-ww-oi.mp3")
    LengthMS1:pushString("1:48")
    Tracks1:pushString("tloz-ww-o.mp3")
    LengthMS1:pushString("2:30")
    Tracks1:pushString("tloz-ww-wi.mp3")
    LengthMS1:pushString("1:01")
    Tracks1:pushString("tloz-ww-wt.mp3")
    LengthMS1:pushString("1:50")
    Tracks1:pushString("t-m.mp3")
    LengthMS1:pushString("1:40")
