@name Encryptor
@inputs 
@outputs 
@persist Number:array
@trigger 

interval(600)
runOnChat(1)
Chat = owner():lastSaid():explode(" ")
if(chatClk(owner())){
if(Chat:string(1)=="/en"){
for(I = 1, Chat:count()+4){
     Number[I, number] = toByte(owner():lastSaid():sub(5), I)
    }
}
if(Chat:string(1) == "/de"){
for(I=1, Number:count()){
    print(Number[I, number])
    }
}
}
