@name Even Joiner[BASE by Jim Dangle]
@persist Max Current Name:string Joined:array 
if(first() | duped()){hint("Created by the Dangler", 3)}
runOnChat(1)
Rand = vec(randint(200), randint(200), 30)

if(first()){
    Current = 1
    Max = 16
    
    }
if(chatClk(lastSpoke())){
    print("Hello")
    if(Current!=Max){
    Join = lastSpoke():lastSaid():upper():explode(" ")
    if(Join:string(1)=="/EVENTJOIN"){
    hideChat(1)
    #lastSpoke():teleport(entity():pos()+Rand)
    Current++
    Joined:pushEntity(lastSpoke())
    print(Joined)
    }
}
}

