@name Stupid Shit
@inputs 
@outputs T
@persist Timer
@trigger 
interval(10)
Timer=Timer+1*owner():health()/10
T=Timer

holoCreate(1)
holoModel(1,"icosphere2")
holoPos(1, entity():pos() + vec(0,0,60))
holoAng(1, ang(0,T,0))
holoCreate(2)
holoModel(2, "icosphere2")
holoPos(2, entity():pos()+vec(0,0,60))
holoScale(2, vec(-1.5, -1.5, -1.5))
