@name kgwilson and scriptis bank of 'murica
@inputs Scr:wirelink UserTrigger:entity
@persist Menu User:entity Use Draw Tick Players:array
@trigger all

if (first()) {
    Scr:egpDrawTopLeft(0)
    
    SafeCost=500
    function addFriend(User:entity,E:entity) { #adds a friend to a safe
        
    }
    
    function number isFriend(User:entity,E:entity) {#checks if somebody is a friend of somebody
        return randint(1,2)-1
    }
    
    function number checkBuySafe(E:entity) { #checks if a person can buy a safe
        return 1
    }
    
    function buySafe(E:entity) { #Buy a safe
        
    }
    
    function number safeTimeLeft(E:entity) { #returns how much time is left on a safe rental
        
    }
    function sexybg(Scr:wirelink) {
        Scr:egpClear()
        Scr:egpBox(300,vec2(256),vec2(512))
        Scr:egpColor(300,vec(64))
        local Lines=5
        local Dist=512/Lines
        CurSelection=0
        for (I=1, Lines+2) {
            Scr:egpLine(I+200,vec2(Dist*(I-2),-5),vec2(Dist*I,517))
            Scr:egpSize(I+200,30)
            Scr:egpMaterial(I+200,"gui/gradient_down")
            Scr:egpColor(I+200,vec(32))
        }
    }
    
    function number pIR(Num:number) {
        local O=Scr:egpCursor(User)
        local Diff=Scr:egpSize(Num)/2
        local Pos=Scr:egpPos(Num)
        return inrange(O,Pos-Diff,Pos+Diff)
    }
    
}
Draw=changed(Menu) | changed(Scr)
Use=User:keyUse()
Use=changed(Use) & Use

if (Draw) {
    Scr:egpClear()
}

if (Menu==0) {
    if (Draw) {
        sexybg(Scr)
        Scr:egpBox(1,vec2(256,250),vec2(512,70))
        Scr:egpColor(1,vec(140))
        Scr:egpText(2,"KGWilson's Ugly-Ass Bank",vec2(256))
        Scr:egpAlign(2,1,2)
        Scr:egpSize(2,40)
        Scr:egpText(3,"Press anywhere to begin",vec2(256))
        Scr:egpAlign(3,1,0)
        Scr:egpSize(3,25)
    }
    findByClass("player")
    User=findClosest(Scr:entity():pos())
    if (Use) {
        Menu=1
    }
}

if (Menu>0) {
    if (Draw) {
        Scr:egpBox(300,vec2(256),vec2(512))
        Scr:egpBox(1,vec2(256,25),vec2(512,70))
        Scr:egpColor(1,vec(128))
        for(I=1, 25) {
            Scr:egpLine(2+I,vec2((I-2)*25,0),vec2((I-1)*25,60))
            Scr:egpMaterial(2+I,"gui/gradient_down")
            Scr:egpSize(2+I,12)
            Scr:egpColor(2+I,vec(64))
        }
        
        Scr:egpBox(2,vec2(256,60),vec2(512,6))
        Scr:egpColor(2,vec(64))
        Scr:egpText(30,"KGWilson's Ugly-Ass Bank",vec2(256,10))
        Scr:egpAlign(30,1,0)
        Scr:egpSize(30,40)
        Scr:egpBox(31,vec2(256),vec2(512))
        Scr:egpAlpha(31,0)
        Scr:egpRoundedBox(32,vec2(0),vec2(30,128))
        Scr:egpRoundedBox(33,vec2(0,64),vec2(40))
        Scr:egpCircle(34,vec2(-15,-45),vec2(20))
        Scr:egpCircle(35,vec2(15,-45),vec2(20))
        Scr:egpParent(32,31)
        Scr:egpParent(33,31)
        Scr:egpParent(34,31)
        Scr:egpParent(35,31)
        Scr:egpBox(36,vec2(0,-64),vec2(0,128))
        Scr:egpParent(36,31)
        #255,180,0
        Scr:egpColor(32,vec(255,180,0))
        Scr:egpColor(33,vec(255,180,0))
        Scr:egpColor(34,vec(255,180,0))
        Scr:egpColor(35,vec(255,180,0))
        Scr:egpText(36,"WILSON LIKES DICKS",vec2(256))
        Scr:egpSize(36,30)
        Scr:egpAlign(36,1,1)
        
    }
    Tick++
    Pos=Tick%512
    Scr:egpPos(31,vec2(Pos,256))
    Scr:egpAngle(31,Tick)
    Scr:egpPos(36,vec2(randint(100,512),randint(512)))
    Scr:egpAngle(36,randint(-64,64))
    Scr:egpColor(300,hsv2rgb(randint(360),1,1))
    TextArray=array(
            "WILSON LIKES DICKS",
            "GIVE WILSON A BLOWJOB",
            "WILSON HAS A WEIRD FETISH",
            "PLEASE SUCK WILSON'S DICK",
            "WILSON DID NOT MAKE THIS EGP",
            "COPYRIGHT SCRIPTIS 2014",
            "WILSON WANTS TO LICK YOUR ASS",
            "PLEASE ENTER WILSON'S BASEMENT",
            "WILSON WANTS YOUR PENIS"
    )
    Scr:egpSetText(36,TextArray[randint(TextArray:count()),string])
}

if (Menu==1) {
    if (Draw) {
        Scr:egpBox(50,vec2(256,128),vec2(100,30))
        Scr:egpColor(50,vec(128))
        Scr:egpText(51,"BUY A SAFE!!!!!!!!!!",vec2(256,128))
        Scr:egpAlign(51,1,1)
        
        Scr:egpBox(52,vec2(256),vec2(100,30))
        Scr:egpColor(52,vec(128))
        Scr:egpText(53,"ADD A FRIEND TO YOUR SAFE!!!!!!!!",vec2(256))
        Scr:egpAlign(53,1,1)
        
        Scr:egpBox(54,vec2(256,256+128),vec2(100,30))
        Scr:egpColor(54,vec(128))
        Scr:egpText(55,"NEVERMIND!!!!!!!!!!!!!",vec2(256,256+128))
        Scr:egpAlign(55,1,1)
    }
    Scr:egpColor(50,pIR(50) ? vec(172) : vec(128))
    if (pIR(50) & Use) {
        Menu=2
    }
    Scr:egpColor(52,pIR(52) ? vec(172) : vec(128))
    if (pIR(52) & Use) {
        Menu=3
    }
    Scr:egpColor(54,pIR(54) ? vec(172) : vec(128))
    if (pIR(54) & Use) {
        User=noentity()
        Menu=0
    }
}

if (Menu>1) {
    if (Draw) {
        Scr:egpBox(45,vec2(34,490),vec2(64,20))
        Scr:egpText(46,"BACK!!!!!!",vec2(34,490))
        Scr:egpAlign(46,1,1)
    }
    Scr:egpColor(45,pIR(45) ? vec(172) : vec(128))
    if (pIR(45) & Use) {
        Menu=1
    }
}

if (Menu==2) {
    if (Draw) {
        Scr:egpBox(50,vec2(256),vec2(128,30))
        Scr:egpColor(50,vec(128))
        Scr:egpText(51,checkBuySafe(User) ? "Press here to buy a safe!!!!!" : "You have hit the safe limit!!!!!!!",vec2(256))
        Scr:egpAlign(51,1,1)
        
    }
    Scr:egpColor(50,pIR(50) ? vec(172) : vec(128))
    if (checkBuySafe(User) & pIR(50) & Use) {
        buySafe(User)
    }
}

if (Menu==3) {
    if (Draw) {
        Players=players()
        local Row=-1
        local Col=0
        foreach(I,V:entity=Players) {
            local ID=50+I*4
            Row++
            if (Row>10) {Row=0 Col++}
            Scr:egpBox(ID,vec2(120+120*Col,90+40*Row),vec2(100,30))
            Scr:egpColor(ID,vec(128))
            if (isFriend(User,V)) {
                Scr:egpColor(ID,vec(0,172,0))
                Scr:egpCopy(ID+3,ID)
                Scr:egpRemove(ID)
                Scr:egpText(ID+1,V:name(),Scr:egpPos(ID+3))
                Scr:egpAlign(ID+1,1,1)
            } else {
                Scr:egpText(ID+1,V:name(),Scr:egpPos(ID))
                Scr:egpAlign(ID+1,1,1)
            }
        }
    }
    foreach(I,V:entity=Players) {
        local ID=50+I*4
        if (pIR(ID)) {
            Scr:egpColor(ID,vec(172))
            if (Use) {
                addFriend(User,V)
            }
        } else {
            Scr:egpColor(ID,vec(128))
        }
    }
}
if (!User | User:pos():distance(Scr:entity():pos())>100) {
    User=noentity()
    Menu=0
}
Use=0
Draw=0
interval(100)
