# -------------------------------------------------------------
# ctaHoloModeler1.3
# -------------------------------------------------------------
@name ctaHoloModeler1.3
@outputs EGP:wirelink
@model models/cheeze/pcb2/pcb3.mdl

# -------------------------------------------------------------
# Global Constants
# -------------------------------------------------------------
@persist Chip:entity
@persist Me:entity
@persist SpawnCenter:vector

# -------------------------------------------------------------
# Hologram Index Globals
# -------------------------------------------------------------
@persist HologramCount:number
@persist HologramIndex:number
@persist HologramGroupIndexA:number
@persist HologramGroupIndexB:number

# -------------------------------------------------------------
# Nudge Vars
# -------------------------------------------------------------
@persist NudgeVector:array
@persist NudgeVectorIndex:number
@persist NudgeAngle:array
@persist NudgeAngleIndex:number
@persist NudgeScale:array
@persist NudgeScaleIndex:number

# -------------------------------------------------------------
# Hologram Data Arrays
# -------------------------------------------------------------
@persist HologramParent:array

# -------------------------------------------------------------
# Loading and Saving Globals
# -------------------------------------------------------------
@persist HologramLoadModel:array
@persist HologramLoadVectorLocal:array
@persist HologramLoadVectorWorld:array
@persist HologramLoadAngle:array
@persist HologramLoadScale:array
@persist HologramLoadColor:array
@persist HologramLoadAlpha:array
@persist HologramLoadMaterial:array
@persist HologramLoadSkin:array
@persist HologramLoadParent:array
@persist HologramFileSaveName:string
@persist HologramSaveModel:string
@persist HologramSaveVectorLocal:string
@persist HologramSaveVectorWorld:string
@persist HologramSaveAngle:string
@persist HologramSaveScale:string
@persist HologramSaveColor:string
@persist HologramSaveAlpha:string
@persist HologramSaveMaterial:string
@persist HologramSaveSkin:string
@persist HologramSaveParent:string
@persist BusyLoading:number
@persist HologramMovableIndex_PitchYaw:number
@persist HologramMovableIndex_Pitch:number
@persist HologramMovableIndex_Yaw:number

# -------------------------------------------------------------
# Global toggle vars, and loop vars for while(perf()) stuff
# -------------------------------------------------------------
@persist NudgeOnce:number
@persist LoadLoopCounter:number
@persist LoadLoopVectorCounter:number
@persist SaveLoopCounter:number
@persist LoadTop:number
@persist CloneLoopCounter:number
@persist RemoveLoopCounter:number
@persist RemoveIndex:number
@persist AimVectorTest:number

# -------------------------------------------------------------
# TODO
# -------------------------------------------------------------
# holoRemove(N) - shift holos, copy next index. 
#   N = N+1 until N = HologramCount
#   HologramCount--
#   while() ? for()
#   I'm insane, this isn't here, move along
#
# holoClone
# holoCloneGroup
# holoCloneAll
# toWorld() stuff
# display forward() for selected holo
# undo/redo button
# Add a freaking menu
# delete current holo
# delete at index
# FREAKIN CLIPPING. UGH.

# -------------------------------------------------------------
# Setup
# -------------------------------------------------------------

@persist KeyboardE:number

interval(25)

if( first() )
{
    timer( "autoSave", 60000 )
    
    # ---------------------------------------------------------
    # Execution
    # ---------------------------------------------------------
    runOnChat(1)
    runOnFile(1)
    runOnHTTP(1)
    runOnKeys(owner(), 1)
    
    # ---------------------------------------------------------
    # Vars
    # ---------------------------------------------------------
    Me = owner()
    Chip = entity()
    #Chip:setAlpha(0)
    SpawnCenter = Chip:pos()
    HologramCount = 0
    HologramGroupIndexStart = 0
    HologramGroupIndexEnd = 0
    NudgeOnce = 1
    HologramMovableIndex_PitchYaw = 0
    HologramMovableIndex_Yaw = 0
    HologramMovableIndex_Pitch = 0
    
    NudgeVector =   array( 0.005, 0.01, 0.02, 0.03, 0.04, 0.05, 0.1, 0.2, 0.3, 0.4, 0.5, 1, 2, 3, 4, 5, 10 )
    NudgeAngle =    array( 0.1, 0.2, 0.3, 0.4, 0.5, 1, 2, 3, 4, 5, 6, 7, 8, 9, 10, 15, 20, 25, 30, 35, 40, 45, 90 )
    NudgeScale =    array( 0.005, 0.01, 0.02, 0.03, 0.04, 0.05, 0.1, 0.2, 0.3, 0.4, 0.5, 1, 2, 3, 4, 5, 10 )
    
    NudgeVectorIndex = 8
    NudgeAngleIndex = 5
    NudgeScaleIndex = 7
    
    # ---------------------------------------------------------
    # Indicator
    # ---------------------------------------------------------
    holoCreate( -1 )
    holoScale( -1, vec(0.007, 0.007, 0.007) )
    holoMaterial( -1, "models/wireframe" )
    holoPos( -1, SpawnCenter + vec(0,0,30) )
    holoAlpha( -1, 100 )
    
    holoCreate( -2 )
    holoScale( -2, vec(0.015, 0.015, 5) )
    holoAng( -2, ang(0, 90, 90) )
    holoPos( -2, SpawnCenter + vec(30, 0, 30) )
    holoColor( -2, vec(255, 0, 0) )
    holoAlpha( -2, 190 )
    holoMaterial( -2, "debug/debugdrawflat" )
    
    holoCreate( -3 )
    holoScale( -3, vec(0.015, 0.015, 5) )
    holoAng( -3, ang(0, 0, 90) )
    holoPos( -3, SpawnCenter + vec(0, 30, 30) )
    holoColor( -3, vec(0, 255, 0) )
    holoAlpha( -3, 190 )
    holoMaterial( -3, "debug/debugdrawflat" )
    
    holoCreate( -4 )
    holoScale( -4, vec(0.015, 0.015, 5) )
    holoAng( -4, ang(0, 0, 0) )
    holoPos( -4, SpawnCenter + vec(0, 0, 60) )
    holoColor( -4, vec(0, 0, 255) )
    holoAlpha( -4, 190 )
    holoMaterial( -4, "debug/debugdrawflat" )
    
    holoParent(-4, -1)
    holoParent(-3, -1)
    holoParent(-2, -1)
    
    # ---------------------------------------------------------
    # Common functions
    # ---------------------------------------------------------
    function vector getPlaneXY(I:number) { return ( Me:shootPos() + ( holoEntity(I):up():dot( holoEntity(I):pos() - Me:shootPos() ) / ( holoEntity(I):up():dot( Me:eye() ) ) ) * Me:eye() ) }
    function vector getPlaneXZ(I:number) { return ( Me:shootPos() + ( holoEntity(I):forward():dot( holoEntity(I):pos() - Me:shootPos() ) / ( holoEntity(I):forward():dot( Me:eye() ) ) ) * Me:eye() ) }
    function vector getPlaneYZ(I:number) { return ( Me:shootPos() + ( holoEntity(I):right():dot( holoEntity(I):pos() - Me:shootPos() ) / ( holoEntity(I):right():dot( Me:eye() ) ) ) * Me:eye() ) }
    
    function printChat(S:string) 
    { 
        print("[HM] " + S) 
    }
    
    function vector roundVector( V:vector, N:number )
    {
        return vec( round(V:x(), N), round(V:y(), N), round(V:z(), N) )
    }
    
    function angle roundAngle( A:angle, N:number )
    {
        return ang( round(A:pitch(), N), round(A:yaw(), N), round(A:roll(), N) )
    }
    
    function updateIndicator()
    {
        if( HologramCount > 0 )
        {
            holoPos( -1, holoEntity(HologramIndex):pos() )
            #holoModel( -1, holoEntity(HologramIndex):model() )
            #holoAng( -1, holoEntity(HologramIndex):angles() )
            #holoScaleUnits( -1, holoScaleUnits(HologramIndex) *1.01 )
        }
        else
        {
            holoPos( -1, SpawnCenter )
        }
    }
    
    function adjustNudgeVector( N:number )
    {
        NudgeVectorIndex += N
        NudgeVectorIndex = clamp(NudgeVectorIndex, 1, NudgeVector:count())
        printChat("Vector Nudge: " + NudgeVector[NudgeVectorIndex, number])
    }
    
    function adjustNudgeAngle( N:number )
    {
        NudgeAngleIndex += N
        NudgeAngleIndex = clamp(NudgeAngleIndex, 1, NudgeAngle:count())
        printChat("Angle Nudge: " + NudgeAngle[NudgeAngleIndex, number])
    }
    
    function adjustNudgeScale( N:number )
    {
        NudgeScaleIndex += N
        NudgeScaleIndex = clamp(NudgeScaleIndex, 1, NudgeScale:count())
        printChat("Scale Nudge: " + NudgeScale[NudgeScaleIndex, number])
    }
    
    function holoPrintInfo( N:number )
    {
        local E = holoEntity(N)
        printChat( "Model: " + E:model() )
        printChat( "Position: " + (E:pos() - SpawnCenter) )
        printChat( "Scale: " + holoScale(N) )
        printChat( "Color: " + E:getColor() )
        printChat( "Alpha: " + E:getAlpha() )
        printChat( "Material: " + E:getMaterial() )
        printChat( "Skin: " + E:getSkin() )
        printChat( "Parent: " + HologramParent[N, number] )
    }
    
    function updateInfoText()
    {
        local S = ""
        local Holo = holoEntity( HologramIndex )
        S += "Index: " + HologramIndex + "\n"
        S += "Model: " + Holo:model() + "\n"
        S += "Local: " + round(Holo:pos() - SpawnCenter) + "\n"
        #S += "World: " + round(Holo:pos()) + "\n"
        S += "Scale: " + round(holoScale( HologramIndex )) + "\n"
        #S += "ScaleUnits: " + round(holoScaleUnits( HologramIndex )) + "\n"
        S += "Angle: " + Holo:angles() + "\n"
        S += "Color: " + Holo:getColor() + "\n"
        S += "Alpha: " + Holo:getAlpha() + "\n"
        S += "Material: " + Holo:getMaterial() + "\n"
        S += "Skin: " + Holo:getSkin() + "\n"
        S += "Parent: " + HologramParent[ HologramIndex, number ]
        
        setName(S)
    }
    
    # ---------------------------------------------------------
    # Index functions
    # ---------------------------------------------------------
    function holoSetIndex(N:number)
    {
        HologramIndex = N
        if(N > HologramCount) { HologramIndex = 1 }
        printChat("Index: " + HologramIndex)
    }
    
    function holoSelectGroup( A:number, B:number )
    {
        if(A < B & A > 0 & B <= HologramCount)
        {
            HologramGroupIndexA = A
            HologramGroupIndexB = B
        }
        printChat("Group Selected: " + HologramGroupIndexA + "-" + HologramGroupIndexB)
    }
    
    function holoSelectGroupClear()
    {
        HologramGroupIndexA = 0
        HologramGroupIndexB = 0
    }
    
    # ---------------------------------------------------------
    # Model Functions
    # ---------------------------------------------------------
    function holoSetModel( N:number, S:string )
    {
        holoModel( N, S )
    }
    
    # ---------------------------------------------------------
    # Hologram Vector Functions
    # ---------------------------------------------------------
    function holoSetVector( N:number, V:vector )
    {
        holoPos( N, V )
    }
    
    function holoSetLocalVector( N:number, V:vector )
    {
        holoSetVector( N, SpawnCenter + V )
    }
    
    function holoAdjustVector( N:number, V:vector )
    {
        holoSetVector( N, holoEntity(N):pos() + (V * NudgeVector[NudgeVectorIndex, number]) )
    }
    
    function holoMirrorVectorSimple(N:number, T:number, Axis:string)
    {
        PVec = holoEntity(T):pos() - SpawnCenter
        if( Axis:find("x") ) { PVec *= vec(-1, 1, 1) }
        if( Axis:find("y") ) { PVec *= vec(1, -1, 1) }
        if( Axis:find("z") ) { PVec *= vec(1, 1, -1) }
        holoSetVector( N, SpawnCenter + PVec )
    }
    
    # ---------------------------------------------------------
    # Hologram Angle Functions
    # ---------------------------------------------------------
    function holoSetAngle( N:number, A:angle )
    {
        holoAng( N, A )
    }
    
    function holoAdjustAngle( N:number, A:angle )
    {
        holoAng( N, holoEntity(N):angles() + (A * NudgeAngle[NudgeAngleIndex, number]) )
    }
    
    function holoMirrorAngleSimple( N:number, T:number, Axis:string )
    {
        ADest = holoEntity(T):angles()
        if( Axis:find("p") ) { ADest *= ang(-1,1,1) }
        if( Axis:find("y") ) { ADest *= ang(1,-1,1) }
        if( Axis:find("r") ) { ADest *= ang(1,1,-1) }
        holoSetAngle( N, ADest )
    }
    
    # ---------------------------------------------------------
    # Hologram Scale Functions
    # ---------------------------------------------------------
    function holoSetScale(N:number, V:vector)
    {
        holoScale( N, V )
    }
    
    function holoAdjustScale( N:number, V:vector )
    {
        holoSetScale( N, holoScale(N) + (V * NudgeScale[NudgeScaleIndex, number]) )
    }
    
    # ---------------------------------------------------------
    # Hologram Color Functions
    # ---------------------------------------------------------
    function holoSetColor( N:number, C:vector )
    {
        holoColor( N, vec( clamp(C:x(), 0, 255), clamp(C:y(), 0, 255), clamp(C:z(), 0, 255) ) )
    }
    
    function holoAdjustColor( N:number, C:vector )
    {
        local Color = holoEntity(N):getColor()
        Color = vec( clamp(Color:x() + C:x(), 0, 255), clamp(Color:y() + C:y(), 0, 255), clamp(Color:z() + C:z(), 0, 255) )
        holoSetColor(N, Color)
    }
    
    function holoSetAlpha( N:number, A:number )
    {
        holoAlpha( N, clamp( A, 0, 255 ) )
    }
    
    function holoAdjustAlpha(N:number, A:number )
    {
        holoSetAlpha( N, clamp(holoEntity(N):getAlpha() + A, 0, 255) )
    }
    
    # ---------------------------------------------------------
    # Hologram Material and Skin Functions
    # ---------------------------------------------------------
    function holoSetMaterial( N:number, S:string )
    {
        holoMaterial( N, S )
    }
    
    function holoSetSkin( N:number, S:number )
    {
        holoSkin( N, S )
    }
    
    function holoSetNextSkin(N:number)
    {
        local HoloEntity = holoEntity(N)
        local Skin = HoloEntity:getSkin()
        local Skins = HoloEntity:getSkinCount()
        Skin++
        if( Skin > Skins ) { Skin = 1 }
        holoSetSkin(N, Skin)
    }
    
    # ---------------------------------------------------------
    # Hologram Parent Functions
    # ---------------------------------------------------------
    function holoRemoveParent( N:number )
    {
        holoUnparent(N)
        HologramParent[N, number] = 0
        #printChat("Removed parent from " + N)
    }
    
    function holoRemoveParentAll()
    {
        for(I = 1, HologramCount)
        {
            holoRemoveParent(I)
        }
        printChat("Cleared all parents")
    }
    
    function holoSetParent( N:number, T:number )
    {
        holoRemoveParent(N)
        holoParent( N, T )
        HologramParent[N, number] = T
        printChat(N + " parented to " + T)
    }
    
    function holoParentGroup( N:number )
    {
        if( HologramGroupIndexA > 0 & HologramGroupIndexB > 0 )
        {
            CloneLoopCounter = 0
            timer( "holoParentGroup", 50 )
        }
    }
    
    function holoParentEverything( N:number )
    {
        HologramGroupIndexA = 1
        HologramGroupIndexB = HologramCount
        holoParentGroup( N )
    }
    
    # ---------------------------------------------------------
    # Hologram Spawning and Removing Functions
    # ---------------------------------------------------------
    function holoSpawn()
    {
        HologramCount++
        HologramParent[HologramCount, number] = 0
        holoSetIndex(HologramCount)
        holoCreate(HologramCount)
        holoPos(HologramCount, SpawnCenter)
        holoAng(HologramCount, ang(0,0,0))
        #holoDisableShading( HologramCount, 1 )
    }
    
    function holoRemove( N:number )
    {
        RemoveLoopCounter = N
        RemoveIndex = N
        A = holoEntity(N):getConstraints()
        if(A:count() > 0)
        {
            for(I = 1, A:count())
            {
                holoUnparent(holoIndex(A[I, entity]))
            }
        }
        holoDelete(HologramIndex)
        HologramCount--
        
        # TODO: Shift holograms down one number, by copying the next index, and removing the last of the loop.
        # Needs to be done in a while() perf loop. This is temporary.
        for(I = N, HologramCount)
        {
            local E = holoEntity(N+1)
            holoModel(I, E:model())
            holoPos(I, E:pos())
            holoAng(I, E:angles())
            holoColor(I, E:getColor())
            holoAlpha(I, E:getAlpha())
            holoSkin(I, E:getSkin())
            holoMaterial(I, E:getMaterial())
        }
        holoDelete(HologramCount+1)
    }
    
    function holoRemoveAll()
    {
        for(I = 1, HologramCount)
        {
            holoDelete(I)
        }
        HologramIndex = 0
        HologramCount = 0
        printChat("Cleared all holograms")
    }
    
    # ---------------------------------------------------------
    # Cloning Functions
    # ---------------------------------------------------------
    function holoClone( N:number, T:number )
    {
        holoSetModel( N, holoEntity(T):model() )
        holoSetVector( N, holoEntity(T):pos() )
        holoSetAngle( N, holoEntity(T):angles() )
        holoSetScale( N, holoScale(T) )
        holoSetMaterial( N, holoEntity(T):getMaterial() )
        holoSetSkin( N, holoEntity(T):getSkin() )
        holoSetColor( N, holoEntity(T):getColor() )
        holoSetAlpha( N, holoEntity(T):getAlpha() )
    }
    
    function holoCloneGroup( )
    {
        if( HologramGroupIndexA > 0 & HologramGroupIndexB > 0 )
        {
            # Clone dat shit
            CloneLoopCounter = 0
            timer( "holoCloneGroup", 1 )
        }
    }
    
    function holoCloneAll()
    {
        HologramGroupIndexA = 1
        HologramGroupIndexB = HologramCount
        holoCloneGroup()
    }
    
    # ---------------------------------------------------------
    # Saving and Loading Functions
    # ---------------------------------------------------------
    function save( S:string )
    {
        HologramFileSaveName = S
        HologramSaveModel = ""
        HologramSaveVectorLocal = ""
        HologramSaveVectorWorld = ""
        HologramSaveAngle = ""
        HologramSaveScale = ""
        HologramSaveColor = ""
        HologramSaveAlpha = ""
        HologramSaveMaterial = ""
        HologramSaveSkin = ""
        HologramSaveParent = ""
        SaveLoopCounter = 0
        timer("saveToFile", 50)
    }
    
    function load( S:string, N:number )
    {
        # N
        # 0 = Don't remove set before loading
        # 1 = Remove current set before load
        LoadTop = N
        if( LoadTop == 1 ) { holoRemoveAll() }
        fileLoad(">e2shared/" + S + ".txt")
    }
    
    # ---------------------------------------------------------
    # Aiming functions
    # ---------------------------------------------------------
    function aimRootPitchYaw(S:number)
    {
        HologramMovableIndex_PitchYaw = S
        printChat("Root (Pitch/Yaw) holo index set to: " + S + "\n")
    }
    
    function aimRootPitch(S:number)
    {
        HologramMovableIndex_Pitch = S
        printChat("Root (Pitch) holo index set to: " + S + "\n")
    }
    
    function aimRootYaw(S:number)
    {
        HologramMovableIndex_Yaw = S
        printChat("Root (Yaw) holo index set to: " + S + "\n")
    }
    
    function aimTest()
    {
        if( AimVectorTest == 1 ) 
        { 
            AimVectorTest = 0
            holoSetAngle(HologramMovableIndex_PitchYaw, ang(0,0,0))
        } 
        else 
        { 
            AimVectorTest = 1 
        }
        
    }
    
    function angle incrementedAngle(O:angle, T:angle, S:number)
    {
        CV=O:forward()
        DV=T:forward()
        Ang=acos(CV:dot(DV))
        if(Ang>S)
        {
            TargetCanHit = 0
            return slerp(quat(O),quat(T),S/Ang):toAngle()
        }
        else
        {
            TargetCanHit = 1
            return T
        }
    }
    
    # ---------------------------------------------------------
    # Initialization
    # ---------------------------------------------------------
    load("autosave", 0)
}
elseif( chatClk() )
{
    local P = lastSpoke()
    local S = P:lastSaid()
    
    Param = S:explode(" ")
    Command = Param[1, string]
    
    if( P == Me )
    {
        if(S:left(1) == "/") { hideChat(1) }
        
        if( Param:count() == 1 )
        {
            if      (Command == "/index")           { printChat( "Index: " + HologramIndex) }
            elseif  (Command == "/pos")             { printChat( "Local: " + (holoEntity(HologramIndex):pos() - SpawnCenter):toString() ) }
            elseif  (Command == "/vec")             { printChat( "Local: " + (holoEntity(HologramIndex):pos() - SpawnCenter):toString() ) }
            elseif  (Command == "/ang")             { printChat( "Angle: " + holoEntity(HologramIndex):angles() ) }
            elseif  (Command == "/scale")           { printChat( "Scale: " + holoScale(HologramIndex) ) }
            elseif  (Command == "/color")           { printChat( "Color: " + holoEntity(HologramIndex):getColor() ) }
            elseif  (Command == "/alpha")           { printChat( "Alpha: " + holoEntity(HologramIndex):getAlpha() ) }
            elseif  (Command == "/material")        { printChat( "Material: " + holoEntity(HologramIndex):getMaterial() ) }
            elseif  (Command == "/model")           { printChat( "Model: " + holoEntity(HologramIndex):model() ) }
            elseif  (Command == "/skin")            { printChat( "Skin: " + holoEntity(HologramIndex):getSkin() ) }
            elseif  (Command == "/skins")           { printChat( "Skins: " + holoEntity(HologramIndex):getSkinCount() ) }
            elseif  (Command == "/info")            { holoPrintInfo( HologramIndex ) }
            #elseif  (Command == "/delete")          { holoRemove( HologramIndex ) }
            elseif  (Command == "/clear")           { holoRemoveAll() }
            elseif  (Command == "/reset")           { holoRemoveAll() }
            elseif  (Command == "/gclear")          { holoSelectGroupClear() }
            elseif  (Command == "/gdelete")         {  }
            elseif  (Command == "/gclone")          { holoCloneGroup() }
            elseif  (Command == "/cloneall")        { holoCloneAll() }
            elseif  (Command == "/info" )           { holoPrintInfo( HologramIndex ) }
            elseif  (Command == "/unparentall")     { holoRemoveParentAll() }
            elseif  (Command == "/parent")          { printChat( "Parent: " + HologramParent[HologramIndex, number] ) }
            elseif  (Command == "/test")            { aimTest() }
            elseif  (Command == "/setpy" )          { aimRootPitchYaw(HologramIndex) }
            elseif  (Command == "/setp" )           { aimRootPitch(HologramIndex) }
            elseif  (Command == "/sety" )           { aimRootYaw(HologramIndex) }
            
        }
        elseif( Param:count() == 2 )
        {
            if      (Command == "/save" )           { save( Param[2, string] ) }
            elseif  (Command == "/load" )           { load( Param[2, string], 0 ) }
            elseif  (Command == "/select" )         { holoSetIndex( Param[2, string]:toNumber() ) }
            elseif  (Command == "/alpha" )          { holoSetAlpha( HologramIndex, Param[2, string]:toNumber() ) }
            elseif  (Command == "/mdl" )            { holoSetModel( HologramIndex, Param[2, string] ) }
            elseif  (Command == "/model" )          { holoSetModel( HologramIndex, Param[2, string] ) }
            elseif  (Command == "/material" )       { holoSetMaterial( HologramIndex, Param[2, string] ) }
            elseif  (Command == "/skin" )           { holoSetSkin( HologramIndex, Param[2, string]:toNumber() ) }
            elseif  (Command == "/copy" )           { holoClone( HologramIndex, Param[2, string]:toNumber() ) }
            #elseif  (Command == "/delete")          { holoRemove( Param[2, string]:toNumber() ) }
            elseif  (Command == "/parent" )         { holoSetParent( HologramIndex, Param[2, string]:toNumber() ) }
            elseif  (Command == "/unparent")        { holoRemoveParent( HologramIndex ) }
            elseif  (Command == "/parentall" )      { holoParentEverything( Param[2, string]:toNumber() ) }
            elseif  (Command == "/cvec" )           { holoSetVector( HologramIndex, holoEntity(Param[2, string]:toNumber()):pos() ) }
            elseif  (Command == "/cang" )           { holoSetAngle( HologramIndex, holoEntity(Param[2, string]:toNumber()):angles() ) }
            elseif  (Command == "/cmodel")          { holoSetModel( HologramIndex, holoEntity(Param[2, string]:toNumber()):model() ) }
            elseif  (Command == "/cmaterial")       { holoSetMaterial( HologramIndex, holoEntity(Param[2, string]:toNumber()):getMaterial() ) }
            elseif  (Command == "/ccolor")          { holoSetColor( HologramIndex, holoEntity(Param[2, string]:toNumber()):getColor() ) }
            elseif  (Command == "/calpha")          { holoSetAlpha( HologramIndex, holoEntity(Param[2, string]:toNumber()):getAlpha() ) }
            elseif  (Command == "/cskin")           { holoSetSkin( HologramIndex, holoEntity(Param[2, string]:toNumber()):getSkin() ) }
            elseif  (Command == "/mvec" )           { holoMirrorVectorSimple( HologramIndex, Param[2, string]:toNumber(), "xyz" ) }
            elseif  (Command == "/mang" )           { holoMirrorAngleSimple(HologramIndex, Param[2, string]:toNumber(), "pyr" ) }
            #elseif  (Command == "/anim" )           { holoAnim( HologramIndex, Param[2, string]:toNumber() ) }
            elseif  (Command == "/gparent" )        { holoParentGroup( HologramIndex ) }
            elseif  (Command == "/gmaterial" )      {  }
            elseif  (Command == "/gmodel" )         {  }
            elseif  (Command == "/gskin" )          {  }
            elseif  (Command == "/galpha" )         {  }
            elseif  (Command == "/gsave" )          {  }
            elseif  (Command == "/color" )          { holoSetColor(HologramIndex, vec(Param[2, string]:toNumber())) }
            elseif  (Command == "/scale" )          { holoSetScale(HologramIndex, vec(Param[2, string]:toNumber())) }
            elseif  (Command == "/setpy" )          { aimRootPitchYaw( Param[2, string]:toNumber() ) }
            elseif  (Command == "/setp" )           { aimRootPitch( Param[2, string]:toNumber() ) }
            elseif  (Command == "/sety" )           { aimRootYaw( Param[2, string]:toNumber() ) }
        }
        elseif( Param:count() == 3 )
        {
            if  (Command == "/gselect" )            { holoSelectGroup(Param[2, string]:toNumber(), Param[3, string]:toNumber()) }
            elseif  (Command == "/mvec" )           { holoMirrorVectorSimple( HologramIndex, Param[2, string]:toNumber(), Param[3, string] ) }
            elseif  (Command == "/mang" )           { holoMirrorAngleSimple(HologramIndex, Param[2, string]:toNumber(), Param[3, string] ) }
        }
        elseif( Param:count() == 4 )
        {
            local Vec = vec( Param[2, string]:toNumber(), Param[3, string]:toNumber(), Param[4, string]:toNumber() )
            local Ang = ang( Param[2, string]:toNumber(), Param[3, string]:toNumber(), Param[4, string]:toNumber() )
            if      (Command == "/scale")           { holoSetScale(HologramIndex, Vec) }
            elseif  (Command == "/gscale" )         {  }
            elseif  (Command == "/vec")             { holoSetLocalVector(HologramIndex, Vec) }
            elseif  (Command == "/pos")             { holoSetLocalVector(HologramIndex, Vec) }
            elseif  (Command == "/ang")             { holoSetAngle(HologramIndex, Ang) }
            elseif  (Command == "/color")           { holoSetColor(HologramIndex, Vec) }
            elseif  (Command == "/gcolor" )         {  }
        }
        elseif( Param:count() == 5 )
        {
            if  (Command == "" )                    {  }
            elseif  (Command == "" )                {  }
        }
    }
}
elseif( clk() )
{
    updateIndicator()
    updateInfoText()
    
    Numpad0 =           Me:keyPressed("pad_0")
    Numpad1 =           Me:keyPressed("pad_1")
    Numpad2 =           Me:keyPressed("pad_2")
    Numpad3 =           Me:keyPressed("pad_3")
    Numpad4 =           Me:keyPressed("pad_4")
    Numpad5 =           Me:keyPressed("pad_5")
    Numpad6 =           Me:keyPressed("pad_6")
    Numpad7 =           Me:keyPressed("pad_7")
    Numpad8 =           Me:keyPressed("pad_8")
    Numpad9 =           Me:keyPressed("pad_9")
    NumpadPeriod =      Me:keyPressed("pad_decimal")
    NumpadPlus =        Me:keyPressed("pad_plus")
    NumpadMinus =       Me:keyPressed("pad_minus")
    NumpadMultiply =    Me:keyPressed("pad_multiply")
    NumpadDivide =      Me:keyPressed("pad_divide")
    NumpadEnter =       Me:keyPressed("pad_enter")
    Shift =             Me:keyPressed("lshift")
    Control =           Me:keyPressed("lcontrol")
    Alt =               Me:keyPressed("lalt")
    KeyboardE =         Me:keyUse()
    
    if( AimVectorTest == 1)
    {
        TargetV = owner():pos()
        AimV = TargetV - holoEntity(HologramMovableIndex_PitchYaw):pos()
        AimA = incrementedAngle( holoEntity(HologramMovableIndex_PitchYaw):angles(), AimV:toAngle(), 2 )
        
        if( HologramMovableIndex_PitchYaw > 0 )
        {
            holoAng( HologramMovableIndex_PitchYaw, (AimA * ang(1,1,0)))
        }
        
        if( HologramMovableIndex_Pitch > 0 )
        {
            holoAng( HologramMovableIndex_Pitch, (AimA * ang(1,0,0)))
        }
        
        if( HologramMovableIndex_Yaw > 0 )
        {
            holoAng( HologramMovableIndex_Yaw, (AimA * ang(0,1,0)))
        }
    }
    
    if( changed( NumpadMultiply ) & NumpadMultiply ) 
    { 
        if(NudgeOnce) {NudgeOnce = 0} else {NudgeOnce = 1} 
        printChat("NudgeOnce: " + NudgeOnce)
    }
    
    if(Alt)
    {
        if          ( changed( NumpadPlus ) & NumpadPlus )          { adjustNudgeAngle(1) }
        elseif      ( changed( NumpadMinus ) & NumpadMinus )        { adjustNudgeAngle(-1) }
        elseif      ( changed( Numpad1 ) & Numpad1 )                { holoSetAngle( HologramIndex, ang(0,0,0) ) }
    }
    elseif(Control)
    {
        # None
    }
    elseif(Shift)
    {
        # None
    }
    else
    {
        if          ( changed( NumpadEnter ) & NumpadEnter )        { holoSetIndex( HologramIndex + 1 ) }
        elseif      ( changed( Numpad0 ) & Numpad0 )                { holoSpawn() }
        elseif      ( changed( NumpadPlus ) & NumpadPlus )          { adjustNudgeVector(1) }
        elseif      ( changed( NumpadMinus ) & NumpadMinus )        { adjustNudgeVector(-1) }
        elseif      ( changed( Numpad1 ) & Numpad1 )                { holoSetVector( HologramIndex, SpawnCenter ) }
    }
    
    if( changed( KeyboardE ) && KeyboardE )
    {
        if( Me:aimEntity():isValid() )
        {
            holoSetModel( HologramIndex, Me:aimEntity():model() )
        }
    }
    
    if( Me:keyAttack2() && changed( Me:keyAttack2() ) )
    {
        local Origin = owner():shootPos()
        local OriginDirVec = owner():eye()
        #holoPos(1, Origin + (OriginDirVec:toAngle():forward() * 37.5))
        #holoAng(1, OriginDirVec:toAngle() )
    }
    elseif( !Me:keyAttack2() && changed( Me:keyAttack2() ) )
    {
        local Origin = owner():shootPos()
        local OriginDirVec = owner():eye()
        #holoPos(1, Chip:pos() + vec(0,0,50))
        #holoAng(1, ang(0))
    }
    
    if( NudgeOnce == 1 )
    {
        if( Shift )
        {
            # TODO: Change this to the angle key & find the stupid key codes...
        }
        elseif( Control )
        {
            if( changed( Numpad0 ) & Numpad0 )           {  }
            if( changed( Numpad1 ) & Numpad1 )           {  }
            if( changed( Numpad2 ) & Numpad2 )           {  }
            if( changed( Numpad3 ) & Numpad3 )           {  }
            if( changed( Numpad4 ) & Numpad4 )           { holoAdjustScale( HologramIndex, vec(0,-1,0) ) }
            if( changed( Numpad5 ) & Numpad5 )           { holoAdjustScale( HologramIndex, vec(-1,0,0) ) }
            if( changed( Numpad6 ) & Numpad6 )           { holoAdjustScale( HologramIndex, vec(0,1,0) ) }
            if( changed( Numpad7 ) & Numpad7 )           { holoAdjustScale( HologramIndex, vec(0,0,-1) ) }
            if( changed( Numpad8 ) & Numpad8 )           { holoAdjustScale( HologramIndex, vec(1,0,0) ) }
            if( changed( Numpad9 ) & Numpad9 )           { holoAdjustScale( HologramIndex, vec(0,0,1) ) }
        }
        elseif( Alt )
        {
            if( changed( Numpad0 ) & Numpad0 )              {  }
            if( changed( Numpad1 ) & Numpad1 )              {  }
            if( changed( Numpad2 ) & Numpad2 )              {  }
            if( changed( Numpad3 ) & Numpad3 )              {  }
            if( changed( Numpad4 ) & Numpad4 )              { holoAdjustAngle( HologramIndex, ang(0,1,0) ) }
            if( changed( Numpad5 ) & Numpad5 )              { holoAdjustAngle( HologramIndex, ang(-1,0,0) ) }
            if( changed( Numpad6 ) & Numpad6 )              { holoAdjustAngle( HologramIndex, ang(0,-1,0) ) }
            if( changed( Numpad7 ) & Numpad7 )              { holoAdjustAngle( HologramIndex, ang(0,0,-1) ) }
            if( changed( Numpad8 ) & Numpad8 )              { holoAdjustAngle( HologramIndex, ang(1,0,0) ) }
            if( changed( Numpad9 ) & Numpad9 )              { holoAdjustAngle( HologramIndex, ang(0,0,1) ) }
        }
        else
        {
            if( changed( Numpad0 ) & Numpad0 )               {  }
            if( changed( Numpad1 ) & Numpad1 )               {  }
            if( changed( Numpad2 ) & Numpad2 )               {  }
            if( changed( Numpad3 ) & Numpad3 )               {  }
            if( changed( Numpad4 ) & Numpad4 )               { holoAdjustVector( HologramIndex, vec(0,1,0) ) }
            if( changed( Numpad5 ) & Numpad5 )               { holoAdjustVector( HologramIndex, vec(-1,0,0) ) }
            if( changed( Numpad6 ) & Numpad6 )               { holoAdjustVector( HologramIndex, vec(0,-1,0) ) }
            if( changed( Numpad7 ) & Numpad7 )               { holoAdjustVector( HologramIndex, vec(0,0,-1) ) }
            if( changed( Numpad8 ) & Numpad8 )               { holoAdjustVector( HologramIndex, vec(1,0,0) ) }
            if( changed( Numpad9 ) & Numpad9 )               { holoAdjustVector( HologramIndex, vec(0,0,1) ) }
        }
    }
    elseif( NudgeOnce == 0 )
    {
        if( Shift )
        {
            # TODO: Change this to the angle key & find the stupid key codes...
        }
        elseif( Control )
        {
            if( Numpad0 )           {  }
            if( Numpad1 )           {  }
            if( Numpad2 )           {  }
            if( Numpad3 )           {  }
            if( Numpad4 )           { holoAdjustScale( HologramIndex, vec(-1,0,0) ) }
            if( Numpad5 )           { holoAdjustScale( HologramIndex, vec(0,-1,0) ) }
            if( Numpad6 )           { holoAdjustScale( HologramIndex, vec(1,0,0) ) }
            if( Numpad7 )           { holoAdjustScale( HologramIndex, vec(0,0,-1) ) }
            if( Numpad8 )           { holoAdjustScale( HologramIndex, vec(0,1,0) ) }
            if( Numpad9 )           { holoAdjustScale( HologramIndex, vec(0,0,1) ) }
        }
        elseif( Alt )
        {
            if( Numpad0 )           {  }
            if( Numpad1 )           {  }
            if( Numpad2 )           {  }
            if( Numpad3 )           {  }
            if( Numpad4 )              { holoAdjustAngle( HologramIndex, ang(0,1,0) ) }
            if( Numpad5 )              { holoAdjustAngle( HologramIndex, ang(-1,0,0) ) }
            if( Numpad6 )              { holoAdjustAngle( HologramIndex, ang(0,-1,0) ) }
            if( Numpad7 )              { holoAdjustAngle( HologramIndex, ang(0,0,-1) ) }
            if( Numpad8 )              { holoAdjustAngle( HologramIndex, ang(1,0,0) ) }
            if( Numpad9 )              { holoAdjustAngle( HologramIndex, ang(0,0,1) ) }
        }
        else
        {
            if( Numpad0 )           {  }
            if( Numpad1 )           {  }
            if( Numpad2 )           {  }
            if( Numpad3 )           {  }
            if( Numpad4 )               { holoAdjustVector( HologramIndex, vec(0,1,0) ) }
            if( Numpad5 )               { holoAdjustVector( HologramIndex, vec(-1,0,0) ) }
            if( Numpad6 )               { holoAdjustVector( HologramIndex, vec(0,-1,0) ) }
            if( Numpad7 )               { holoAdjustVector( HologramIndex, vec(0,0,-1) ) }
            if( Numpad8 )               { holoAdjustVector( HologramIndex, vec(1,0,0) ) }
            if( Numpad9 )               { holoAdjustVector( HologramIndex, vec(0,0,1) ) }
        }
    }
}
elseif( fileClk() )
{
    BusyLoading = 1
    local FileData = fileRead()
    local CurrentData = ""
    local DataTable = table()
    local IndexA = FileData:find("HoloCounter = 0")
    local IndexB = 0
    IndexA = FileData:find( "(", IndexA ) + 1
    IndexB = FileData:find( ")", IndexA ) - 1
    CurrentData = FileData:sub( IndexA, IndexB ):replace("\"", "")
    HologramLoadModel = CurrentData:explode(",")
    IndexA = FileData:find( "(", IndexB ) + 1
    IndexB = FileData:find( "))", IndexA ) - 1
    CurrentData = FileData:sub( IndexA, IndexB ):replace("vec(", ""):replace(")", "")
    HologramLoadVectorLocal = CurrentData:explode(",")
    IndexA = FileData:find( "(", IndexB ) + 1
    IndexB = FileData:find( "))", IndexA ) - 1
    CurrentData = FileData:sub( IndexA, IndexB ):replace("ang(", ""):replace(")", "")
    HologramLoadAngle = CurrentData:explode(",")
    IndexA = FileData:find( "(", IndexB ) + 1
    IndexB = FileData:find( "))", IndexA ) - 1
    CurrentData = FileData:sub( IndexA, IndexB ):replace(")", ""):replace("vec(", "")
    HologramLoadScale = CurrentData:explode(",")
    IndexA = FileData:find( "(", IndexB ) + 1
    IndexB = FileData:find( "))", IndexA ) - 1
    CurrentData = FileData:sub( IndexA, IndexB ):replace(")", ""):replace("vec(", "")
    HologramLoadColor = CurrentData:explode(",")
    IndexA = FileData:find( "(", IndexB ) + 1
    IndexB = FileData:find( ")", IndexA ) - 1
    CurrentData = FileData:sub( IndexA, IndexB ):replace(")", ""):replace("\"", "")
    HologramLoadAlpha = CurrentData:explode(",")
    IndexA = FileData:find( "(", IndexB ) + 1
    IndexB = FileData:find( ")", IndexA ) - 1
    CurrentData = FileData:sub( IndexA, IndexB ):replace(")", ""):replace("\"", "")
    HologramLoadMaterial = CurrentData:explode(",")
    IndexA = FileData:find( "(", IndexB ) + 1
    IndexB = FileData:find( ")", IndexA ) - 1
    CurrentData = FileData:sub( IndexA, IndexB ):replace(")", ""):replace("\"", "")
    HologramLoadSkin = CurrentData:explode(",")
    IndexA = FileData:find( "(", IndexB ) + 1
    IndexB = FileData:find( ")", IndexA ) - 1
    CurrentData = FileData:sub( IndexA, IndexB ):replace(")", ""):replace("\"", "")
    HologramLoadParent = CurrentData:explode(",")
    LoadLoopCounter = 0
    LoadLoopVectorCounter = 0
    timer( "loadHolograms", 10 )
}
elseif( clk( "loadHolograms" ) )
{
    local A = 0
    while(perf(90) & holoCanCreate() & LoadLoopCounter < HologramLoadModel:count())
    {
        LoadLoopCounter++
        
        if(LoadTop == 0) { A = LoadLoopCounter + HologramCount }
        else { A = LoadLoopCounter }
        
        local Vec = roundVector( vec(   HologramLoadVectorLocal[LoadLoopVectorCounter+1, string]:toNumber(),
                                        HologramLoadVectorLocal[LoadLoopVectorCounter+2, string]:toNumber(),
                                        HologramLoadVectorLocal[LoadLoopVectorCounter+3, string]:toNumber()), 4 )
                                    
        local Ang = roundAngle( ang(    HologramLoadAngle[LoadLoopVectorCounter+1, string]:toNumber(),
                                        HologramLoadAngle[LoadLoopVectorCounter+2, string]:toNumber(),
                                        HologramLoadAngle[LoadLoopVectorCounter+3, string]:toNumber()), 4 )
                                        
        local Col = roundVector( vec(   HologramLoadColor[LoadLoopVectorCounter+1, string]:toNumber(),
                                        HologramLoadColor[LoadLoopVectorCounter+2, string]:toNumber(),
                                        HologramLoadColor[LoadLoopVectorCounter+3, string]:toNumber()), 4)
                                        
        local Sca = roundVector( vec(   HologramLoadScale[LoadLoopVectorCounter+1, string]:toNumber(),
                                        HologramLoadScale[LoadLoopVectorCounter+2, string]:toNumber(),
                                        HologramLoadScale[LoadLoopVectorCounter+3, string]:toNumber()), 4)
                                        
        holoCreate( A )
        holoModel( A, HologramLoadModel[LoadLoopCounter, string] )
        holoPos( A, roundVector(SpawnCenter + Vec, 4) )
        holoAng( A, Ang )
        holoScale( A, Sca )
        holoColor( A, Col )
        holoAlpha( A, HologramLoadAlpha[LoadLoopCounter, string]:toNumber() )
        holoMaterial( A, HologramLoadMaterial[LoadLoopCounter, string] )
        holoSkin( A, HologramLoadSkin[LoadLoopCounter, string]:toNumber() )
        #holoDisableShading( A, 1 )
        
        if( HologramLoadParent[LoadLoopCounter, string]:toNumber() > 0 )
        {
            HologramParent[A, number] = HologramLoadParent[LoadLoopCounter, string]:toNumber() + (A - LoadLoopCounter)
        }
        else
        {
            HologramParent[A, number] = 0
        }
        LoadLoopVectorCounter += 3
    }
    
    if(LoadLoopCounter < HologramLoadModel:count()) 
    { 
        timer("loadHolograms", 10) 
    }
    else 
    {
        LoadLoopCounter = 0
        timer("parentHolograms", 50)
    }
}
elseif( clk( "parentHolograms" ) )
{
    local A = 0
    while(perf(90) & LoadLoopCounter < HologramLoadModel:count())
    {
        LoadLoopCounter++
        if(LoadTop == 0) { A = LoadLoopCounter + HologramCount }
        else { A = LoadLoopCounter }
        if(HologramParent[A, number] > 0)
        {
            holoParent(A, HologramParent[A, number])
        }
    }
    
    if(LoadLoopCounter == HologramLoadModel:count())
    {
        HologramIndex = 1
        print("[HM] Loaded " + LoadLoopCounter + " models")
        HologramCount = A
        BusyLoading = 0
    }
    else
    {
        timer("parentHolograms", 1)
    }
}
elseif( clk( "saveToFile" ) )
{
    while( perf(90) & SaveLoopCounter < HologramCount )
    {
        SaveLoopCounter++
        local E = holoEntity(SaveLoopCounter)
        HologramSaveModel += "\"" + E:model() + "\","
        HologramSaveVectorLocal += "vec(" + round(E:pos():x() - SpawnCenter:x(), 4) + "," + round(E:pos():y() - SpawnCenter:y(), 4) + "," + round(E:pos():z() - SpawnCenter:z(), 4) + "),"
        #HologramSaveVectorWorld += ""
        HologramSaveAngle += "ang(" + round(E:angles():pitch(), 4) + "," + round(E:angles():yaw(), 4) + "," + round(E:angles():roll(), 4) + "),"
        HologramSaveScale += "vec(" + round(holoScale(SaveLoopCounter):x(), 4) + "," + round(holoScale(SaveLoopCounter):y(), 4) + "," + round(holoScale(SaveLoopCounter):z(), 4) + "),"
        HologramSaveColor += "vec(" + round(E:getColor():x(), 4) + "," + round(E:getColor():y(), 4) + "," + round(E:getColor():z(), 4) + "),"
        HologramSaveAlpha += round(E:getAlpha(), 4) + ","
        HologramSaveMaterial += "\"" + E:getMaterial() + "\","
        HologramSaveSkin += E:getSkin() + ","
        HologramSaveParent += HologramParent[SaveLoopCounter, number] + ","
    }
    
    if(SaveLoopCounter < HologramCount)
    {
        timer("saveToFile", 1)
    }
    else
    {
        local FileData = ""
        FileData += "@name " + HologramFileSaveName + "\n@inputs\n@outputs\n"
        FileData += "@persist [HologramName HologramModel HologramPosition HologramPositionWorld HologramSkin HologramAngle HologramScale HologramColor HologramAlpha HologramMaterial HologramParent]:array\n"
        FileData += "@persist [HoloCounter Loaded]:number [Origin]:vector [Me Chip]:entity\n"
        FileData += "@persist\n"
        FileData += "\n"
        FileData += "#include \"lib/async\"\n"
        FileData += "\n"
        FileData += "if( first() | dupefinished() )\n"
        FileData += "{\n"
        FileData += "    Me = owner()\n"
        FileData += "    Chip = entity()\n"
        FileData += "    Origin = Chip:pos()\n"
        FileData += "    Loaded = 0\n"
        FileData += "    HoloCounter = 0\n"
        FileData += "    \n"
        FileData += "    # DO NOT EDIT THIS SECTION UNLESS YOU KNOW WHAT YOU ARE DOING, OR IT MAY NOT PARSE IN MODELER CORRECTLY!\n"
        FileData += "    HologramModel = array(" + HologramSaveModel + ")\n"
        FileData += "    HologramPosition = array(" + HologramSaveVectorLocal + ")\n"
        FileData += "    HologramAngle = array(" + HologramSaveAngle + ")\n"
        FileData += "    HologramScale = array(" + HologramSaveScale + ")\n"
        FileData += "    HologramColor = array(" + HologramSaveColor + ")\n"
        FileData += "    HologramAlpha = array(" + HologramSaveAlpha + ")\n"
        FileData += "    HologramMaterial = array(" + HologramSaveMaterial + ")\n"
        FileData += "    HologramSkin = array(" + HologramSaveSkin + ")\n"
        FileData += "    HologramParent = array(" + HologramSaveParent + ")\n"
        FileData += "    # DO NOT EDIT THIS SECTION UNLESS YOU KNOW WHAT YOU ARE DOING, OR IT MAY NOT PARSE IN MODELER CORRECTLY!\n"
        FileData += "\n"
        FileData += "    function modelParent() {\n"
        FileData += "        while( perf() ) { HoloCounter++, if(HologramParent[HoloCounter, number] > 0) { holoParent(HoloCounter, HologramParent[HoloCounter, number]) } }\n"
        FileData += "        if( HoloCounter < HologramModel:count() ) { async( 0.1, \"modelParent\" ) }\n"
        FileData += "        else { holoParent( 1, entity() ), runOnTick(1) }\n"
        FileData += "    }\n"
        FileData += "    \n"
        FileData += "    function modelSpawn( ) {\n"
        FileData += "        while( perf() && holoCanCreate() && HoloCounter < HologramModel:count()) {\n"
        FileData += "            HoloCounter++\n"
        FileData += "            holoCreate( HoloCounter )\n"
        FileData += "            holoPos(HoloCounter, Origin + HologramPosition[HoloCounter, vector])\n"
        FileData += "            holoScale(HoloCounter, HologramScale[HoloCounter, vector])\n"
        FileData += "            holoAng(HoloCounter, HologramAngle[HoloCounter, angle])\n"
        FileData += "            holoColor(HoloCounter, HologramColor[HoloCounter, vector])\n"
        FileData += "            holoModel( HoloCounter, HologramModel[HoloCounter, string] )\n"
        FileData += "            holoMaterial( HoloCounter, HologramMaterial[HoloCounter, string] )\n"
        FileData += "            holoSkin( HoloCounter, HologramSkin[HoloCounter, number] )\n"
        FileData += "            holoAlpha( HoloCounter, HologramAlpha[HoloCounter, number] )\n"
        FileData += "        }\n"
        FileData += "        if( HoloCounter < HologramModel:count() ) { async( 1, \"modelSpawn\" ) }\n"
        FileData += "        else { HoloCounter = 0, modelParent() }\n"
        FileData += "    }\n"
        FileData += "    modelSpawn()\n"
        FileData += "}\n"       
        
        FileData = FileData:replace( ",)", ")" )
        fileWrite(">e2shared/" + HologramFileSaveName + ".txt", FileData)
        print("[HM] Saved file " + "/e2shared/" + HologramFileSaveName + ".txt")
    }
}
elseif( clk( "holoCloneGroup" ) )
{
    while( perf(90) & holoCanCreate() & CloneLoopCounter < (HologramGroupIndexB - HologramGroupIndexA + 1) )
    {
        CloneLoopCounter++
        local A = CloneLoopCounter + HologramCount
        local B = CloneLoopCounter + HologramGroupIndexA - 1
        holoCreate(A)
        holoClone(A, B)
    }
    if(CloneLoopCounter < (HologramGroupIndexB - HologramGroupIndexA + 1)) { timer("holoCloneGroup",1) }
    else
    {
        CloneLoopCounter = 0
        printChat("Cloned " + CloneLoopCounter + " holograms")
        timer( "holoParentGroup", 50 )
    }
}
elseif( clk( "holoParentGroup" ) )
{
    while( perf(90) & holoCanCreate() & CloneLoopCounter < (HologramGroupIndexB - HologramGroupIndexA + 1) )
    {
        CloneLoopCounter++
        local A = CloneLoopCounter + HologramCount
        local B = CloneLoopCounter + HologramGroupIndexA - 1
        if( HologramParent[CloneLoopCounter + HologramGroupIndexA - 1, number] > 0 )
        {
            holoSetParent( A, HologramParent[CloneLoopCounter + HologramGroupIndexA - 1, number] + ( HologramCount ) )
        }
    }
    if(CloneLoopCounter < (HologramGroupIndexB - HologramGroupIndexA + 1)) { timer("holoParentGroup",1) }
    else
    {
        printChat("Parented " + CloneLoopCounter + " holograms")
        HologramCount += CloneLoopCounter
        CloneLoopCounter = 0
    }
}
elseif( clk( "holoRemove" ) )
{
    while( perf(90) & RemoveLoopCounter < HologramCount )
    {
        
    }
}
elseif( clk( "autoSave" ) )
{
    timer( "autoSave", 60000 )
    printChat("Initiating Autosave...")
    save("autosave")
}
