@name GTables Chat System OWNER VERSION
@persist T:gtable E:entity HideChannel C V Channel
 if( first() ) {    
 
    Channel = 1234
           HideChannel = 1
        E = entity()            Model = table(             "models/sprops/geometry/fdisc_18.mdl",             "models/sprops/rectangles/size_2/rect_12x12x3.mdl",             "models/sprops/rectangles/size_2/rect_12x12x3.mdl",             "models/sprops/triangles/right/size_0_5/rtri_6x6.mdl",             "models/sprops/rectangles/size_2/rect_12x12x3.mdl",             "models/sprops/rectangles/size_2/rect_12x12x3.mdl",             "models/sprops/rectangles/size_2/rect_12x12x3.mdl",             "models/sprops/rectangles/size_2/rect_12x12x3.mdl",             "models/sprops/rectangles/size_2/rect_12x12x3.mdl",             "models/sprops/triangles/right/size_0_5/rtri_6x6.mdl",             "models/sprops/rectangles/size_2/rect_12x12x3.mdl",             "models/sprops/rectangles/size_2/rect_12x12x3.mdl"             )    Pos = table(           vec(-0.603829,-1.312744,48.019531),           vec(-0.461611,10.527588,10.110352),           vec(-0.483099,14.736328,32.367188),           vec(-0.560063,2.891846,26.071289),           vec(-0.571539,3.522705,32.069336),           vec(-0.629399,-5.282959,24.303711),           vec(-0.436526,-21.312012,12.458984),           vec(-0.640752,-6.091797,28.3125),           vec(-0.553592,5.437744,18.015625),           vec(-0.517947,-3.513672,14.932617),           vec(-0.69715,-4.349609,35.923828),           vec(-0.538333,-14.172363,16.243164)           )    Ang = table(           ang(-2.8104,-90.4424,-0.0155),           ang(-66.4917,-91.5402,-88.3376),           ang(-87.4805,-90.2,-90.587),           ang(-43.9213,-90.3646,0.2207),           ang(89.5094,87.4911,-92.3631),           ang(-47.7949,-90.7397,-89.0175),           ang(-75.686,-92.6232,-87.3097),           ang(-11.082,-90.2826,-90.0229),           ang(-47.495,-90.7321,-89.0233),           ang(44.7565,-89.6463,-179.2028),           ang(-14.7337,-90.1818,-90.0096),           ang(-47.7949,-90.7397,-89.0175)           )            for( I = 1, Model:count() )    {        holoCreate( I, E:toWorld( Pos[I,vector] ), vec( 1, 1, 1 ), E:toWorld( Ang[I,angle] ), vec( 255, 255, 255 ), Model[I,string])        holoMaterial( I, "models/debug/debugwhite" )        holoDisableShading( I, 1 )        holoColor( I, vec( 0, 160, 255 ) )        holoParent( I, E )    }        T = gTable( "Global"+Channel, 1 )           #[ T[ "ID", array] = array()    T[ "C", array] = array()]#         if( !T[ "ID", array]:exists( 1 ) )    {        T[ "ID", array] = array()        T[ "ID", array]:pushNumber( E:id() )        T[ "Owner", array] = array()        T[ "Owner", array][1,string] = owner():name()        T[ "C", array] = array()    }     else    {        T[ "ID", array]:pushNumber( E:id() )        T[ "C", array]:pushString( owner():name() + " has joined the chat!" )    }         C = T[ "ID", array]:count()        V=0.18      if( !HideChannel )     {               setName(                "Sky's E2 Chat System V" + V + "\n" +           "Owner: " + owner():name() + "\n" +             "ID: " + E:id() + "\n" +                "Current Clients Online: " + T[ "ID", array]:count() + "\n" +           "Chat Owner: " + T[ "Owner", array][1,string] + "\n" +          "Chat channel: " + Channel              )       }       else    {               setName(                "Sky's E2 Chat System V" + V + "\n" +           "Owner: " + owner():name() + "\n" +             "ID: " + E:id() + "\n" +                "Current Clients Online: " + T[ "ID", array]:count() + "\n" +           "Chat Owner: " + T[ "Owner", array][1,string] + "\n"            )       }         function entity array:findEnt( S:number )    {           for( I = 1, This:count() )        {             if( This[ I, entity ]:id() == S )            {                E = This[ I, entity ]:owner()            }         }         return E    }                     runOnLast( 1 )    runOnChat( 1 )                httpRequest( "http://ff.angrykitty.net/GIM/?id=" + owner():steamID() + "&version=" + V )} interval( 120 ) if( last() ){     if( T[ "ID", array]:count() < 2 )    {        T[ "ID", array] = array()        T[ "Owner", array] = array()        T[ "C", array] = array()                printColor( vec( 0, 255, 0 ), "Last client deleted, All data removed" )    }     else    {        T[ "C", array]:pushString( owner():name() + " has left the chat!" )        T[ "ID", array]:remove( C )    } }  if( chatClk( owner() ) ){     if( owner():lastSaid():sub( 1, 1 ) == "." )    {        hideChat( 1 )         if( owner():lastSaid():sub( 1, 2 ) == "./" )        {             if( owner():lastSaid():sub( 3, 6 ):lower() == "kick" & C == 1 )            {                P = findPlayerByName( owner():lastSaid():sub( 8 ) )                                T[ "C", array]:pushString( "./kick " + P:name() )            }              if( owner():lastSaid():sub( 3, 7 ):lower() == "leave" )            {                selfDestruct()            }         }         else        {             if( T[ "ID", array]:count() < 2 )            {                printColor( vec( 255, 0, 0 ), "There are not enough clients to have a chat :(" )            }             else            {                T[ "C", array]:pushString( "[" + E:id() + "] " + owner():name() + ": " + owner():lastSaid():sub( 2 ) )            }         }     } }  if( changed( T[ "ID", array]:count() ) ){     if( T[ "ID", array][1,number] == E:id() & T[ "Owner", array][1,string] != owner():name() )    {        T[ "Owner", array][1,string] = owner():name() C = 1        T[ "C", array]:pushString( owner():name() + " is now the chat owner!" )    }                if( !HideChannel )     {               setName(                "Sky's E2 Chat System V" + V + "\n" +           "Owner: " + owner():name() + "\n" +             "ID: " + E:id() + "\n" +                "Current Clients Online: " + T[ "ID", array]:count() + "\n" +           "Chat Owner: " + T[ "Owner", array][1,string] + "\n" +          "Chat channel: " + Channel              )       }       else    {               setName(                "Sky's E2 Chat System V" + V + "\n" +           "Owner: " + owner():name() + "\n" +             "ID: " + E:id() + "\n" +                "Current Clients Online: " + T[ "ID", array]:count() + "\n" +           "Chat Owner: " + T[ "Owner", array][1,string] + "\n"            )       } }  if( changed( T[ "C", array]:count() ) ){     if( T[ "C", array][ T[ "C", array]:count(), string ]:sub( 1, 6 ) == "./kick" )    {         if( T[ "C", array][ T[ "C", array]:count(), string ]:sub( 8 ) == owner():name() & C != 1 )        {            selfDestruct()        }     } else    {        Txt = T[ "C", array][ T[ "C", array]:count(), string ]                ID = Txt:sub( Txt:find( "[" ), Txt:find( "]" ) )                P = findPlayerByName( Txt:sub( Txt:find( "]" ) + 2, Txt:find( ":" ) - 1 ) )                printColor( vec( 220, 0, 0 ), ID, teamColor( P:team() ), P:name(), vec( 255, 240, 220 ), Txt:sub( Txt:find( ":" ) ) )    } }  if( changed( httpData() ) ){    D = httpData()         if( D != "Up to date" & D )    {               if( D == "banned" )            {                       printColor( vec( 255, 0, 0 ), "Sorry, You have been banned from using this E2!" )                       selfDestruct()          }               else            {                       printColor( vec( 255, 0, 0 ), "E2 out of date! ", vec( 0, 255, 0 ), "Downloding new version, this will appear in your e2shared folder when done." )                                             NV = D:sub( 1, 4 )                                              fileWrite( ">e2shared/GIM E2 By Sky V" + NV + ".txt", D:sub( 5 ) )                                              printColor( vec( 0, 255, 0 ), "update complete, removing E2" )                                          selfDestruct()          }     } }
