@name Admin Console Both TH
@inputs WL1:wirelink Memory User:entity On
@outputs 
@persist Power I Mutelist:array Chat:array Text:string Box:number
@persist Color:vector StringText:string NPlayer:entity
@trigger Memory On User  

if(first()|duped()) {
Color = vec(255,255,255)
}
P=players()
ComT = Text:explode(" ")  



StringText = ComT:string(3)  +" "+ ComT:string(4)  +" "+ ComT:string(5) +" "+ ComT:string(6)  +" "
           + ComT:string(7)  +" "+ ComT:string(8)  +" "+ ComT:string(9) +" "+ ComT:string(10) +" "
           + ComT:string(11) +" "+ ComT:string(12) +" "+ ComT:string(13) +" "+ ComT:string(14) +" "
           + ComT:string(15) +" "+ ComT:string(16) +" "+ ComT:string(17) +" "+ ComT:string(18) +" "
           + ComT:string(19) +" "+ ComT:string(20) +" "+ ComT:string(21) +" "+ ComT:string(22) +" "
           + ComT:string(23) +" "+ ComT:string(24) +" "+ ComT:string(25) +" "+ ComT:string(26 ) 

















if(Power == 0 & On){
    Power = 1
    
    
WL1:egpBox(1,vec2(255,255),vec2(515,515)),WL1:egpColor(1,vec4(100,100,100,255))
WL1:egpBox(2,vec2(255,240),vec2(470,420)),WL1:egpColor(2,vec4(60,60,60,255))

WL1:egpBox(3,vec2(195,475),vec2(354,34)),WL1:egpColor(3,vec(0))
WL1:egpBox(4,vec2(195,475),vec2(350,30)),WL1:egpColor(4,vec4(255,255,255,255))


WL1:egpBox(5,vec2(440,475),vec2(104,34)),WL1:egpColor(5,vec(0))
WL1:egpBox(6,vec2(440,475),vec2(100,30)),WL1:egpColor(6,vec4(190,190,190,255))


WL1:egpText(7,"submit",vec2(410,465)),WL1:egpColor(7,vec(0)) , WL1:egpFont(7,"Trebuchet",22)
WL1:egpBox(8,vec2(65,15),vec2(90,20)),WL1:egpColor(8,vec4(240,240,160,255))
WL1:egpText(9,"console",vec2(35,5)),WL1:egpColor(9,vec(0))#Egp:egpFont(9,"Trebuchet",22)
    
    WL1:egpText(10,"",vec2(33,418))      
    WL1:egpText(50,"",vec2(33,20))
    WL1:egpText(51,"",vec2(33,40))
    WL1:egpText(52,"",vec2(33,60))
    WL1:egpText(53,"",vec2(33,80))
    WL1:egpText(54,"",vec2(33,100))
    WL1:egpText(55,"",vec2(33,120))
    WL1:egpText(56,"",vec2(33,140))
    WL1:egpText(57,"",vec2(33,160))
    WL1:egpText(58,"",vec2(33,180))
    WL1:egpText(59,"",vec2(33,200))
    WL1:egpText(60,"",vec2(33,220))
    WL1:egpText(61,"",vec2(33,240))
    WL1:egpText(62,"",vec2(33,260))
    WL1:egpText(63,"",vec2(33,280))
    WL1:egpText(64,"",vec2(33,300))
    WL1:egpText(65,"",vec2(33,320))
    WL1:egpText(66,"",vec2(33,340))
    WL1:egpText(67,"",vec2(33,360))
    WL1:egpText(68,"",vec2(33,380))
    WL1:egpText(69,"",vec2(33,400))
    WL1:egpText(70,"",vec2(33,420))
    
    
    
    
    
    
    WL1:egpColor(10,vec(0)) 
    WL1:egpColor(50,Color)   
    WL1:egpColor(51,Color)                
    WL1:egpColor(52,Color)
    WL1:egpColor(53,Color)
    WL1:egpColor(54,Color)
    WL1:egpColor(55,Color)
    WL1:egpColor(56,Color)
    WL1:egpColor(57,Color)
    WL1:egpColor(58,Color)
    WL1:egpColor(59,Color)
    WL1:egpColor(60,Color)
    WL1:egpColor(61,Color)
    WL1:egpColor(62,Color)
    WL1:egpColor(63,Color)
    WL1:egpColor(64,Color)
    WL1:egpColor(65,Color)
    WL1:egpColor(66,Color)
    WL1:egpColor(67,Color)
    WL1:egpColor(68,Color)
    WL1:egpColor(69,Color)
    WL1:egpColor(70,Color)
   
    for(I=48,70){
    WL1:egpFont(10,"WireGPU_ConsoleFont",20)
    WL1:egpFont(I,"WireGPU_ConsoleFont",20)
}

    
    
    
    
}
elseif(Power == 1) {
    
    if(Memory > 32 & Memory < 127 & Text:length() < 25) {
        
            Text = Text + toChar(Memory)
        
    }
    elseif(Memory == 32 & Text:length() < 25) {
        Text = Text + " "
    }
    elseif(Memory == 127) {
        Text = Text:sub(1,Text:length()-1)
    }
    elseif(Memory == 148) {
        Text = ""
    }
    elseif(Memory == 13) {
        T = Text:explode(" ")
        
        if(T[1,string] == "/cmd" & User == owner()) { Chat:insertString(1,"] "+Text)
print("/cmd - Opens command list
/clear - Clear console


")
        }
        elseif(T[1,string] == "/clear"& User == owner()) {
            Chat = array()
        }
        elseif(T[1,string] == "/clean_up"& User == owner()) {
        concmd("gmod_admin_cleanup")
        
        }
        elseif(T[1,string] == "/kill"& User == owner()) {
        
        
        Player = findPlayerByName(NPlayer:name())
        Player:dmgApplyDamage(900)   
        
        }
        elseif(T[1,string] == "/mute"& User == owner()) {
            
            
            
            
            
            
        }
        elseif(T[1,string] == "/unmute"& User == owner()) {
            
            
            
            
            
        } 
        else {
            if(Mutelist:concat():find(User:steamID()) != 1) {
                Chat:insertString(1,"] "+Text)
            }
           
            
        }
        Text = ""
        if(Chat[21,string] != "") {
            Chat:popString()
        }
        User:soundPlay(1,0,"buttons/button17.wav")
    }
    
    
    
    #All screens
    
    
    
    WL1:egpText(10,Text,vec2(33,465))
   



    WL1:egpText(50,Chat[21,string],vec2(33,20))
    WL1:egpText(51,Chat[20,string],vec2(33,40))
    WL1:egpText(52,Chat[19,string],vec2(33,60))
    WL1:egpText(53,Chat[18,string],vec2(33,80))
    WL1:egpText(54,Chat[17,string],vec2(33,100))
    WL1:egpText(55,Chat[16,string],vec2(33,120))
    WL1:egpText(56,Chat[15,string],vec2(33,140))
    WL1:egpText(57,Chat[14,string],vec2(33,160))
    WL1:egpText(58,Chat[13,string],vec2(33,180))
    WL1:egpText(59,Chat[12,string],vec2(33,200))
    WL1:egpText(60,Chat[11,string],vec2(33,220))
    WL1:egpText(61,Chat[10,string],vec2(33,240))
    WL1:egpText(62,Chat[9,string],vec2(33,260))
    WL1:egpText(63,Chat[8,string],vec2(33,280))
    WL1:egpText(64,Chat[7,string],vec2(33,300))
    WL1:egpText(65,Chat[6,string],vec2(33,320))
    WL1:egpText(66,Chat[5,string],vec2(33,340))
    WL1:egpText(67,Chat[4,string],vec2(33,360))
    WL1:egpText(68,Chat[3,string],vec2(33,380))
    WL1:egpText(69,Chat[2,string],vec2(33,400))
    WL1:egpText(70,Chat[1,string],vec2(33,420))
    
    
    
    
#TT = Text:explode(" ")    
if(Text:find("/") & ComT:string(1)[2] ){
        
        


        
        
        
if(Text:find("c")){                                                                                                 

WL1:egpBox(100,vec2(430,355),vec2(70,100)),WL1:egpColor(100,vec4(150,150,150,255)),WL1:egpAlpha(100)


WL1:egpText(101,"clear",WL1:egpPos(100)+vec2(0,-30)),WL1:egpFont(101,"WireGPU_ConsoleFont",15),WL1:egpAlign(101,1,1) 
WL1:egpText(102,"clean_up",WL1:egpPos(100)+vec2(0,-10)),WL1:egpFont(102,"WireGPU_ConsoleFont",15),WL1:egpAlign(102,1,1) 
WL1:egpText(103,"cmd",WL1:egpPos(100)+vec2(0,10)),WL1:egpFont(103,"WireGPU_ConsoleFont",15),WL1:egpAlign(103,1,1) 
}else{
WL1:egpRemove(101)
WL1:egpRemove(102)
WL1:egpRemove(103)
WL1:egpRemove(100)

}  





if( ComT:string(1)=="/kill" ){  

WL1:egpBox(100,vec2(400,365),vec2(150,100)),WL1:egpColor(100,vec4(150,150,150,255)),WL1:egpAlpha(100)


for(F=1,P:count()){
if(P[F,entity]:name():find(ComT:string(2))){
NPlayer = P[F,entity]
WL1:egpText(121,"'"+P[F,entity]:name()+"'",WL1:egpPos(100)+vec2(0,-30)),WL1:egpFont(121,"WireGPU_ConsoleFont",14),WL1:egpAlign(121,1,1) 
}



}










}else{
WL1:egpRemove(100)
WL1:egpRemove(121)


}
       
}else{
WL1:egpRemove(100)
WL1:egpRemove(101)
WL1:egpRemove(102)
WL1:egpRemove(103)
WL1:egpRemove(121)
}
    
    
    
    
    
    
    
    
    
    
}
