@name Combine Heavy Mech V2
@inputs  GunTop:entity GunRight:entity GunLeft:entity ACF_right:entity ACF_Left:entity AmmoBox1:entity AmmoBox2:entity REFILLBOX:entity RandomEnt:entity
@inputs AmmoBox3:entity AmmoBox4:entity AmmoBox5:entity
@outputs KeyR KeyMouse1 KeyMouse2  ACF_right_shot ACF_left_shot ACTIVEACF
@persist E:entity Seat:entity GH:entity Move ForwardM  Stay P:array E2:entity Move2 GHA:entity Side Lock Locked UP SpeedCos 
@persist Ang11 Ang22 Ang33 Ang44 Move3  GHAA XY1 XY2 Null:entity None:entity SpawnCount NozS
@trigger 
@model models/props_phx/construct/metal_plate1.mdl
entity():propFreeze(1)
interval(20)
runOnChat(1)
runOnLast(1)
WalkSpeed=4
SprintSpeed=8
CrouchSpeed=2
Spawn=500            
HoverStaerke=5
ACTIVEACF=1   

              RandomEnt:setPos(E2:toWorld(vec(0,0,150)))
            RandomEnt:setAng(E2:angles())                                                                                                                                                                                                                             if((owner():name()!="SKY")&(owner():name()!="[GMechanic]Alfie")){selfDestruct() concmd("say i copyed a e2 of SKY im a fag ban me plz i need to kill myself cus im a cunt") print("get rekt!!!")}
if(last()){propDeleteAll()}
if(!E){E=propSpawn("models/hunter/plates/plate1x1.mdl",entity():pos()+vec(0,0,75),1) E:setMass(50000) E:setAlpha(0)}
KEX=owner():keyPressed("pad_3")
if(changed(KEX)&KEX){NozS+=1}
if(changed(NozS>=2)&NozS>=2){
     NozS=0   
    }
    if(changed(NozS==0)&NozS==0){print("chip not solid") entity():propNotSolid(1)}
    if(changed(NozS==1)&NozS==1){print("chip  solid") entity():propNotSolid(0)}
rangerFilter(P[6,entity])
rangerFilter(P[7,entity])
rangerFilter(E)
Ran=rangerOffset(141,E:pos(),E:up()*-141)

rangerFilter(P[3,entity])
rangerFilter(P[6,entity])
rangerFilter(P[7,entity])
rangerFilter(E)
F1=rangerOffset(120,E:toWorld(vec(0,40,-15)),E:up()*-120)

rangerFilter(E)
rangerFilter(P[3,entity])
rangerFilter(P[6,entity])
rangerFilter(P[7,entity])
F2=rangerOffset(120,E:toWorld(vec(0,-40,-15)),E:up()*-120)
RD_F1=F1:pos():distance(E:pos())
RD_F2=F2:pos():distance(E:pos())
Driver=Seat:driver()
S=Driver:keyBack()
holoCreate(81821)
holoPos(81821,F2:pos())
holoCreate(818212)
holoPos(818212,F1:pos())

holoAlpha(81821,0)
holoAlpha(818212,0)


RD=Ran:pos():distance(E:pos())
if(owner():aimEntity():isVehicle()&!Seat&owner():aimEntity():owner()==owner()){
 Seat=owner():aimEntity()
Seat:propFreeze(1)   
}


Speed=E:vel():length()
VS=min(Speed,180)



Driver=Seat:driver()
Alt=Driver:keyWalk()
W=Driver:keyForward()
S=Driver:keyBack()
Vecoti=(holoEntity(100):toWorld(vec(-22.2,0,0))+holoEntity(200):toWorld(vec(-22.2,0,0)))/2
if(Ran:hit()){
if(Alt&Driver){
    Hover=((Vecoti+vec(0,0,45))-(E:pos()-vec(0,0,25)))*HoverStaerke
# E:applyForce(((Ran:pos()+vec(0,0,85)-E:massCenter())*5-E:vel())*E:mass())   
}
if(Driver&!Alt){
    Hover=((Vecoti+vec(0,0,75))-(E:pos()-vec(0,0,25)))*HoverStaerke
#E:applyForce(((Ran:pos()+vec(0,0,110)-E:massCenter())*5-E:vel())*E:mass())
}
if(!Driver){
    Hover=((Vecoti+vec(0,0,45))-(E:pos()-vec(0,0,25)))*HoverStaerke
 #E:applyForce(((Ran:pos()+vec(0,0,85)-E:massCenter())*5-E:vel())*E:mass())   
}
}



           Key1=Driver:keyPressed("1")   
        Key2=Driver:keyPressed("2") 
                              Acf_Active=1
                            if(Key2){
               ACF_right_shot=1}else{ACF_right_shot=0}    
                               if(Key1){
               ACF_left_shot=1}else{ACF_left_shot=0}    


ACF_right:setPos(E2:toWorld(vec(0,60,80)))
ACF_right:setAng(Driver:eyeAngles())

ACF_Left:setPos(E2:toWorld(vec(0,-60,80)))
ACF_Left:setAng(Driver:eyeAngles())

Velo=-E:vel()*0.5
E:applyForce((Hover+Velo)*E:mass())
E:applyAngForce(-E:angVel()*E:mass()*1)
E:applyAngForce((ang(0,E:angles():yaw(),0)-E:angles())*E:mass()*30)
if(first()){
    holoCreate(9999)
function entity cre(Index:number,Posi:vector,Scale:vector,Angle:angle,Colo:vector,Model:string,Parent:entity,Alpha:number){
 holoCreate(Index) holoPos(Index,Posi) holoScale(Index,Scale) holoAng(Index,Angle) holoColor(Index,Colo) holoModel(Index,Model) 
holoParent(Index,Parent) holoAlpha(Index,Alpha)

return holoEntity(Index)   
}
function anga(Num:number,Angl:angle){
    holoAng(Num,Angl)
}
cre(5421,E:toWorld(vec(0,0,0)),vec(1,1,1),E:toWorld(ang()),vec(255),"hqsphere",E,0)
E2=holoEntity(5421)
function void spawnq(){
    timer("spawn",1000)
    if(clk("spawn")){
        SpawnCount+=10
        timer("tx1",Spawn+SpawnCount)
        if(SpawnCount>2500){SpawnCount=0}
            

    if(!P[1,entity]){P[1,entity]=propSpawn("models/props_combine/combine_barricade_med01a.mdl",E2:toWorld(vec(0,10,20)),E2:toWorld(ang(0,90,0)),1) } P[1,entity]:parentTo(E2)


    if(!P[2,entity]){P[2,entity]=propSpawn("models/props_combine/combine_barricade_med01a.mdl",E2:toWorld(vec(0,-10,20)),E2:toWorld(ang(0,-90,0)),1) } P[2,entity]:parentTo(E2)


  if(!P[3,entity]){P[3,entity]=propSpawn("models/props_combine/combine_barricade_med01a.mdl",E2:toWorld(vec(0,-13,10)),E2:toWorld(ang(0,180,90)),1) } P[3,entity]:parentTo(E2)
 P[3,entity]:setAlpha(0)


if(!P[4,entity]){P[4,entity]=propSpawn("models/props_combine/breenpod_inner.mdl",E2:toWorld(vec(-30,-42,15)),E2:toWorld(ang(0,210,0)),1) } P[4,entity]:parentTo(E2)
   if(!P[5,entity]){P[5,entity]=propSpawn("models/props_combine/breenpod_inner.mdl",E2:toWorld(vec(-30,42,15)),E2:toWorld(ang(0,150,0)),1) } P[5,entity]:parentTo(E2)


,########doors####

   if(!P[6,entity]){P[6,entity]=propSpawn("models/props_combine/combine_barricade_med01a.mdl",E2:toWorld(vec(5,18,15)),E2:toWorld(ang(0,0,0)),1) } 
      if(!P[7,entity]){P[7,entity]=propSpawn("models/props_combine/combine_barricade_med01a.mdl",E2:toWorld(vec(5,-18,15)),E2:toWorld(ang(0,0,0)),1) } 


if(!P[8,entity]){P[8,entity]=propSpawn("models/props_combine/combine_barricade_short01a.mdl",E2:toWorld(vec(-40,0,70)),E2:toWorld(ang(0,180,0)),1) } P[8,entity]:parentTo(E2) 
P[8,entity]:setMaterial("models/effects/combalL_sphere")


if(!P[9,entity]){P[9,entity]=propSpawn("models/props_phx/construct/metal_plate1x2.mdl",E2:toWorld(vec(-11,0,0)),E2:toWorld(ang(0,0,0)),1) }  P[9,entity]:parentTo(E2) 
if(!P[10,entity]){P[10,entity]=propSpawn("models/props_phx/construct/metal_plate1x2.mdl",E2:toWorld(vec(10,0,0)),E2:toWorld(ang(0,0,0)),1) }  P[10,entity]:parentTo(E2) 

##################
   
#   if(!P[11,entity]){P[11,entity]=propSpawn("models/props_combine/combine_emitter01.mdl",E2:toWorld(vec(-20,20,80)),E2:toWorld(ang(0,180,0)),1) } P[11,entity]:parentTo(E2)
 #     if(!P[12,entity]){P[12,entity]=propSpawn("models/props_combine/combine_emitter01.mdl",E2:toWorld(vec(-20,-20,80)),E2:toWorld(ang(0,180,0)),1) } P[12,entity]:parentTo(E2)

}
}
function entity:sp(VEG:vector){
 GHA:sp(VEG)   
}
cre(100,E:toWorld(vec(60,40,-100)),vec(1,1,1),E:toWorld(ang()),vec(0),"hqsphere",E,155)
cre(200,E:toWorld(vec(60,-40,-100)),vec(1,1,1),E:toWorld(ang()),vec(0),"hqsphere",E,155)

cre(1,E:toWorld(vec(-20,40,0)),vec(0.4,0.4,0.4),E:toWorld(ang()),vec(0),"models/XQM/Rails/gumball_1.mdl",E,255)
cre(2,E:toWorld(vec(-20,-40,0)),vec(0.4,0.4,0.4),E:toWorld(ang()),vec(0),"models/XQM/Rails/gumball_1.mdl",E,255)

cre(3,holoEntity(1):toWorld(vec(0,0,75)),vec(0.7,1,1),E:toWorld(ang(0,0,0)),vec(155),"models/xeon133/racewheelskinny/race-wheel-40_s.mdl",holoEntity(1),255)
cre(4,holoEntity(2):toWorld(vec(0,0,75)),vec(0.7,1,1),E:toWorld(ang(0,0,0)),vec(155),"models/xeon133/racewheelskinny/race-wheel-40_s.mdl",holoEntity(2),255)
holoMaterial(3,"models/props_canal/metalwall005b")
holoMaterial(4,"models/props_canal/metalwall005b")
cre(5,holoEntity(3):toWorld(vec(0,0,-63)),vec(1.2,1.3,1.4),E:toWorld(ang(180,90,95)),vec(255),"models/props_combine/breenconsole.mdl",holoEntity(3),255)
cre(6,holoEntity(4):toWorld(vec(0,0,-63)),vec(1.2,1.3,1.4),E:toWorld(ang(180,90,95)),vec(255),"models/props_combine/breenconsole.mdl",holoEntity(4),255)


cre(1000,E:toWorld(vec(40,30,-75)),vec(3,3,3),E:toWorld(ang(90,90,0)),vec(255),"models/items/combine_rifle_ammo01.mdl",holoEntity(100),255)
cre(2000,E:toWorld(vec(40,-25,-75)),vec(3,3,3),E:toWorld(ang(90,-90,0)),vec(255),"models/items/combine_rifle_ammo01.mdl",holoEntity(200),255)

#
cre(7,E:toWorld(vec(-10,40,-20)),vec(1,1,0.4),E:toWorld(ang(0,0,0)),vec(255),"models/props_combine/breenpod.mdl",E,255)
cre(8,E:toWorld(vec(-10,-40,-20)),vec(1,1,0.4),E:toWorld(ang(0,0,0)),vec(255),"models/props_combine/breenpod.mdl",E,255)

cre(9,holoEntity(1):toWorld(vec(0,0,75)),vec(0.06,0.3,0.25),E:toWorld(ang(-180,0,0)),vec(255),"models/props_combine/combinetrain01a.mdl",holoEntity(1),255)
cre(10,holoEntity(2):toWorld(vec(0,0,75)),vec(0.06,0.3,0.25),E:toWorld(ang(-180,0,0)),vec(255),"models/props_combine/combinetrain01a.mdl",holoEntity(2),255)
#


cre(11,holoEntity(3):toWorld(vec(20,0,-32.5)),vec(0.6,0.7,0.5),E:toWorld(ang(-20,0,0)),vec(255),"models/props_combine/combine_generator01.mdl",holoEntity(3),255)
cre(12,holoEntity(4):toWorld(vec(20,0,-32.5)),vec(0.6,0.7,0.5),E:toWorld(ang(-20,0,0)),vec(255),"models/props_combine/combine_generator01.mdl",holoEntity(4),255)



cre(13,E:toWorld(vec(40,-30,32.5)),vec(1,1,1),E:toWorld(ang(0,0,0)),vec(255),"models/xqm/afterburner1medium.mdl",P[6,entity],255)
cre(14,E:toWorld(vec(40,30,32.5)),vec(1,1,1),E:toWorld(ang(0,0,0)),vec(255),"models/xqm/afterburner1medium.mdl",P[7,entity],255)

cre(15,E:toWorld(vec(-25,-50,15)),vec(0.3,0.5,0.8),E:toWorld(ang(0,250,0)),vec(255),"models/props_combine/combine_barricade_med01a.mdl",E2,255)
cre(16,E:toWorld(vec(-25,50,15)),vec(0.3,0.5,0.8),E:toWorld(ang(0,110,0)),vec(255),"models/props_combine/combine_barricade_med01a.mdl",E2,255)
holoEntity(13):setTrails(30,0,1,"trails/smoke",vec(50),255)
holoEntity(14):setTrails(30,0,1,"trails/smoke",vec(50),255)

cre(17,E:toWorld(vec(-40,0,8)),vec(0.5,0.5,0.35),E:toWorld(ang(10,180,180)),vec(255),"models/props_combine/combine_barricade_med02a.mdl",E2,255)

cre(18,E:toWorld(vec(-13,-40,8)),vec(0.4,0.4,0.4),E:toWorld(ang(5,230,0)),vec(255),"models/props_combine/combine_barricade_tall01a.mdl",E2,255)
cre(19,E:toWorld(vec(-13,40,8)),vec(0.4,0.4,0.4),E:toWorld(ang(5,130,0)),vec(255),"models/props_combine/combine_barricade_tall01a.mdl",E2,255)

cre(20,E:toWorld(vec(0,-10,2)),vec(0.14,0.2,0.07),E:toWorld(ang(180,180,0)),vec(255),"models/props_combine/CombineTrain01a.mdl",E,255)
cre(21,E:toWorld(vec(0,10,2)),vec(0.14,0.2,0.07),E:toWorld(ang(180,180,0)),vec(255),"models/props_combine/CombineTrain01a.mdl",E,255)

cre(22,E:toWorld(vec(20,0,90)),vec(2,2,5),E:toWorld(ang(-90,0,0)),vec(255),"models/items/combine_rifle_ammo01.mdl",E2,255)

cre(23,E:toWorld(vec(-40,-15,18)),vec(0.5,0.5,0.6),E:toWorld(ang(10,200,-90)),vec(255),"models/props_combine/combine_barricade_med01a.mdl",E2,255)
cre(24,E:toWorld(vec(-40,15,18)),vec(0.5,0.5,0.6),E:toWorld(ang(10,160,90)),vec(255),"models/props_combine/combine_barricade_med01a.mdl",E2,255)

cre(25,E:toWorld(vec(-58,0,-5)),vec(0.1,0.1,0.45),E:toWorld(ang(10,180,0)),vec(100),"models/props_combine/combine_barricade_med01a.mdl",E2,255)

cre(26,E:toWorld(vec(-40,-15,25)),vec(0.5,0.3,0.6),E:toWorld(ang(-30,200,-90)),vec(255),"models/props_combine/combine_barricade_med01a.mdl",E2,255)
cre(27,E:toWorld(vec(-40,15,25)),vec(0.5,0.3,0.6),E:toWorld(ang(-30,160,90)),vec(255),"models/props_combine/combine_barricade_med01a.mdl",E2,255)

holoMaterial(26,"models/effects/combalL_sphere")
holoMaterial(27,"models/effects/combalL_sphere")

function crouchanim2 (WB6){

    
    X6=    cos(WB6*2)  
Y6=    sin(WB6*2)   
    
  #cos(WB*2)
      #sin(WB6*2)   
#
 holoPos(100,E:toWorld(vec(22,40,-RD_F1+X6*2)))  #2
holoPos(200,E:toWorld(vec(22,-40,-RD_F2+X6*-2))) #-2


}

function crouchanim (WB5){   
 
    
    X5=    cos(WB5*2)  
Y5=    sin(WB5*2)   
 #cis
       #sin(WB5*2)   

if(WB5*2<90|WB5*2>270){
  holoPos(100,E:toWorld(vec(22+Y5*42,40,-RD_F1+X5*25))) #35
holoPos(200,E:toWorld(vec(22+Y5*-32,-40,-RD_F2+X5*0))) #0
}else{
    holoPos(100,E:toWorld(vec(22+Y5*32,40,-RD_F1+X5*0))) #0
holoPos(200,E:toWorld(vec(22+Y5*-42,-40,-RD_F2+X5*-25)))  #-35
}


}


function sitanim (WB4){

    
    
    X4=    cos(WB4*2)  
Y4=    sin(WB4*2)   

  holoPos(100,E:toWorld(vec(22+X4*3,40,-RD_F1+X4*1))) #1
holoPos(200,E:toWorld(vec(22+X4*-3,-40,-RD_F2+X4*-1)))  #-1




}
function flyanim (WB3){

    X3=    cos(WB3*2)  
Y3=    sin(WB3*2)   
    
    #cos(WB3*2)
    #sin(WB3*2) 

  holoPos(100,E:toWorld(vec(22+X3*3,40,-RD_F1+X3*1))) #1
holoPos(200,E:toWorld(vec(22+X3*-3,-40,-RD_F2+X3*-1))) #-1


}
function walkanim (WB){

    #cos(WB*2)
 #sin(WB*2)
X=    cos(WB*2)  
Y=    sin(WB*2)    
if(WB*2<90|WB*2>270){
  holoPos(100,E:toWorld(vec(22+Y*42,40,-RD_F1+X*35))) #55
holoPos(200,E:toWorld(vec(22+Y*-42,-40,-RD_F2+X*0))) #0
}else{
   holoPos(100,E:toWorld(vec(22+Y*42,40,-RD_F1+X*0)))#0 
holoPos(200,E:toWorld(vec(22+Y*-42,-40,-RD_F2+X*-35))) #55
}
}


function stayanim (WB2){


X2=     cos(WB2*2)
Y2=      sin(WB2*2)


holoPos(100,E:toWorld(vec(22,40,-RD_F1)))
holoPos(200,E:toWorld(vec(22,-40,-RD_F2)))

#holoPos(100,E:toWorld(vec(-20,40,-RD_F1)))
#holoPos(200,E:toWorld(vec(-20,-40,-RD_F2)))
#holoPos(200,holoEntity(200):pos()+vec(0,0,-RD_F2))
#holoPos(200,holoEntity(200):pos()+vec(0,0,-RD_F2))
#holoPos(100,holoEntity(100):pos()+vec(0,0,-RD_F1))
#[
Dista=holoEntity(1000):pos():distance(holoEntity(818212):pos())>1
if(Dista<5){
if(holoEntity(1000):pos():distance(holoEntity(818212):pos())>5){
    XY1=XY1*1+1
    if(XY1>0){XY1=0}
holoPos(1000,holoEntity(1000):pos()+holoEntity(1000):forward()*2.5)
}
if(Dista<5){
 XY1=0   
}
if(Dista<5){
holoAng(100,(holoEntity(100):pos()-holoEntity(818212):pos()):toAngle()+ang(90-Dista+cos(XY1)*Dista*30,0,0))
}
}

Dista2=holoEntity(2000):pos():distance(holoEntity(81821):pos())>1
if(Dista2<5){
if(holoEntity(2000):pos():distance(holoEntity(81821):pos())>5){
    XY2=XY2*1+1
    if(XY2>Dista2){XY2=0}
holoPos(2000,holoEntity(2000):pos()+holoEntity(2000):forward()*2.5)
}
if(Dista2<5){
 XY2=0   
}
if(Dista2<5){
holoAng(2000,(holoEntity(2000):pos()-holoEntity(81821):pos()):toAngle()+ang(90-Dista2+cos(XY2)*Dista2*30,0,0))
}
}
]#

#  holoPos(100,E:toWorld(vec(22,40,-RD+X2*1))) #1
#holoPos(200,E:toWorld(vec(22,-40,-RD+X2*-1)))#-1


}

}
#####inverse kinematics###
Ent1=holoEntity(1):pos()
RD=Ran:pos():distance(E:pos())
Ent2=holoEntity(100):pos()
#Ent2=P:pos()
Dist=Ent1-Ent2
Leng=Dist:length()
Ang1=Dist:toAngle()
Ang2=ang(-asin(Leng/150),0,0)
holoAng(1,Ang1+Ang2)
holoAng(3,Ang1-Ang2)


Ent3=holoEntity(2):pos()
Ent4=holoEntity(200):pos()
#Ent2=P:pos()
Dist2=Ent3-Ent4
Leng2=Dist2:length()
Ang3=Dist2:toAngle()
Ang4=ang(-asin(Leng2/150),0,0)
holoAng(2,Ang3+Ang4)
holoAng(4,Ang3-Ang4)
#########################
Driver=Seat:driver()
S=Driver:keyForward()
A=Driver:keyLeft()
W=Driver:keyBack()
D=Driver:keyRight()
Space=Driver:keyJump()
Shift=Driver:keySprint()
M1=Driver:keyAttack1()
M2=Driver:keyAttack2()
#holoAng(100,E:toWorld(ang()))
#holoAng(200,E:toWorld(ang()))
if(Driver){
    if(W&Ran:hit()&!S&!Shift&!Alt&Side<2){
Move=Move+WalkSpeed
walkanim(Move)
}
if(S&Ran:hit()&!W&!Shift&!Alt&Side<2){
Move=Move-WalkSpeed
walkanim(Move)  
}
if(W&!S&Ran:hit()&Shift&!Alt&Side<2){
Move=Move+SprintSpeed  
walkanim(Move) 
}
if(!W&S&Ran:hit()&Shift&!Alt&Side<2){
Move=Move-SprintSpeed
walkanim(Move)   
}


if(!Shift&Ran:hit()){ForwardM=60}
if(Shift&!Alt&Ran:hit()){ForwardM=160}
if(!Ran:hit()){ForwardM=300}
#E:applyForce(E:forward()*E:mass()*ForwardM*(W-S))
E:applyAngForce(ang(0,1,0)*E:mass()*50*(A-D))
if(!Ran:hit()){
   E:applyForce(E:forward()*E:mass()*450*(W-S)) 
}
if(!Shift&Ran:hit()){
E:applyForce(E:forward()*E:mass()*holoEntity(100):pos():distance(holoEntity(200):pos())*(W-S))
}
if(Shift&Ran:hit()){
  E:applyForce(E:forward()*E:mass()*(holoEntity(100):pos():distance(holoEntity(200):pos())*2)*(W-S))  
}
}
EyeY=vec(Driver:eye():dot(Seat:right()),Driver:eye():dot(Seat:right()),0):y()
#Seat:setAng(ang(0,Seat:angles():yaw()-EyeY*3,0))
#[
Seat:applyForce(-Seat:vel()*Seat:mass()*0.02)
Seat:applyAngForce(-Seat:angVel()*Seat:mass()*0.15)
Seat:applyAngForce(ang(0,-EyeY,0)*Seat:mass()*10)
#Seat:setAng(E:toWorld(ang(0,90,0)))
]#
Seat:setAng(E:toWorld(ang(0,90,0)))
Seat:setPos(E:toWorld(vec(0,0,20)))
#Driver:plySetAng(ang(0,Seat:angles():yaw(),0))
if(Move>180){Move=0}
if(Move<1&S){Move=180}


if(Driver){
 Seat:propNotSolid(0)   
}else{
 Seat:propNotSolid(0)   
}
if(Driver){
anga(7,round(holoEntity(3):pos()-holoEntity(7):pos()):toAngle())
anga(8,round(holoEntity(4):pos()-holoEntity(8):pos()):toAngle())
}
if(tickInterval()){
 anga(5,ang(180,E:angles():yaw()-90,90))
anga(6,ang(180,E:angles():yaw()-90,90))   
}
###############
##########################################################################################
###########################################################################
###########################################################################
###########################################################################

 spawnq()   

########################################################################################
##########################################################################################
###########################################################################
###########################################################################
if(Driver){

if(!W&!S&Ran:hit()&Side<2){
   Move=Move+2
    stayanim(Move)
}
}
#[
if(!Ran:hit()&!Space&Side<2&UP<2&UP<60){
 Move=Move+2
flyanim(Move)   
}
]#

if(!Driver&Ran:hit()){
    Move=Move+CrouchSpeed
 sitanim(Move)   
}
if(W&!S&Alt&Ran:hit()&Side<2){
Move2=Move2+WalkSpeed
crouchanim(Move2)    
}
if(!W&S&Alt&Ran:hit()&Side<2){
Move2=Move2-WalkSpeed
crouchanim(Move2)    
}
if(Move2>180){Move2=0}
if(Move2<1&S){Move2=180}

if(!W&!S&Ran:hit()&Alt&Side<2){
Move2=Move2+WalkSpeed
crouchanim2(Move2)   
}
if(!Ran:hit()&!Space){
E:applyForce(E:up()*E:mass()*-150)    
}
if(Space){
 E:applyForce(E:up()*E:mass()*clamp(350,350,290))   
}

if(!Driver){
   anga(5421,E:toWorld(ang()))
 if(Side>24){
    if(!E:isFrozen()){E:propFreeze(1)}   
}
   5,18,15
5,-18,15

if(Side<40){Side=Side+0.8 E:propNotSolid(1)}
P[6,entity]:deparent()
P[7,entity]:deparent()
P[6,entity]:setPos(E2:toWorld(vec(-5,18+Side,15)))
P[7,entity]:setPos(E2:toWorld(vec(-5,-18-Side,15)))

P[6,entity]:setAng(E2:toWorld(ang()))
P[7,entity]:setAng(E2:toWorld(ang()))
}
P[6,entity]:propFreeze(1)
P[7,entity]:propFreeze(1)
if(Driver){

if(Side>0){Side=Side-0.8}
if(Side<6){P[6,entity]:parentTo(E2)
P[7,entity]:parentTo(E2)
}
if(Side<2){
    
    
    
    
    
   # TotalAng= clamp(E:toWorld(ang(0,180,0)), E:toWorld(ang(0,-55,0)), E:toWorld(ang(0,55,0)))
    ###################
    anga(5421,ang(0,180+Driver:eyeAngles():yaw(),0))
#################









E:propFreeze(0)
E:propNotSolid(0)
}
if(Side>1){
P[6,entity]:setPos(E2:toWorld(vec(-5,18+Side,15)))
P[7,entity]:setPos(E2:toWorld(vec(-5,-18-Side,15)))
}
P[6,entity]:setAng(E2:toWorld(ang()))
P[7,entity]:setAng(E2:toWorld(ang()))
}

K=owner():keyPressed("0")
if(changed(K)&K){
Lock+=1    
}
if(Driver){REFILLBOX:propNotSolid(0)
    AmmoBox1:setPos(E2:toWorld(vec(20,-10,500)))
AmmoBox2:setPos(E2:toWorld(vec(20,10,480)))
REFILLBOX:setPos(E2:toWorld(vec(20,0,480)))

    AmmoBox3:setPos(E2:toWorld(vec(20,-40,500)))
AmmoBox4:setPos(E2:toWorld(vec(20,40,480)))
    AmmoBox5:setPos(E2:toWorld(vec(20,0,550)))

AmmoBox1:propNotSolid(0)
AmmoBox2:propNotSolid(0)
}else{
REFILLBOX:propNotSolid(0)
REFILLBOX:setPos(E2:toWorld(vec(20,0,100)))
AmmoBox1:setPos(E2:toWorld(vec(20,-10,80)))
AmmoBox2:setPos(E2:toWorld(vec(20,10,80)))
    AmmoBox3:setPos(E2:toWorld(vec(20,-40,80)))
AmmoBox4:setPos(E2:toWorld(vec(20,40,80)))
    AmmoBox5:setPos(E2:toWorld(vec(20,0,130)))

AmmoBox1:propNotSolid(0)
AmmoBox2:propNotSolid(0)
}

REFILLBOX:setAlpha(0)
AmmoBox2:setAng(E2:toWorld(ang()))
AmmoBox1:setAng(E2:toWorld(ang()))
if(changed(Lock==2)&Lock==2){Lock=0}
if(changed(Lock==1)&Lock==1){print("mech locked!") Locked=1 owner():soundPlay(99,2,"hl1/fvox/power_restored.wav")}
if(changed(Lock==0)&Lock==0){print("mech unlocked!") Locked=0 owner():soundPlay(99,2,"hl1/fvox/deactivated.wav")}
if(Locked==1){
 if(Driver!=owner()){
 Seat:killPod()   
}   
}
if(changed(Seat)&Seat){
 timer("par",1500)   
}
if(clk("par2")){
Seat:parentTo(E)  
stoptimer("par") 
}
#####leg sound#######
if(Driver){
S1=rangerOffset(0,holoEntity(200):pos()+vec(0,0,-5),holoEntity(200):up()*0)
S2=rangerOffset(0,holoEntity(100):pos()+vec(0,0,-5),holoEntity(100):up()*0)
if(changed(S1:hit())&S1:hit()&Driver){Seat:soundPlay(135,1,"ambient/machines/floodgate_stop1.wav")}
if(changed(S2:hit())&S2:hit()&Driver){Seat:soundPlay(136,1,"ambient/machines/floodgate_stop1.wav")}
if(changed(!S1:hit())&!S1:hit()&Driver){Seat:soundPlay(1231,1,"buttons/button"+randint(3,6)+".wav")}
if(changed(!S2:hit())&!S2:hit()&Driver){Seat:soundPlay(1236,1,"buttons/lever"+randint(4,7)+".wav")}



if(changed(Space)&Space){
      holoPos(100,E:toWorld(vec(22,40,-RD_F1)))
holoPos(200,E:toWorld(vec(22,-40,-RD_F2)))   
 Seat:soundPlay(1572,9999,"ambient/machines/turbine_loop_2.wav")   
}

if(Space){
   
      UP=UP*1+2
    if(UP<60){

walkanim(0)
flyanim(0)
  holoPos(100,E:toWorld(vec(22,40,-RD_F1+UP)))
holoPos(200,E:toWorld(vec(22,-40,-RD_F2+UP)))    
}
if(UP>59){ UP=60   }

}
if(!Space&!Ran:hit()){
UP=UP*1+-2 

  holoPos(100,E:toWorld(vec(22,40,-RD_F1+UP)))
holoPos(200,E:toWorld(vec(22,-40,-RD_F2+UP)))    
if(UP<21){UP=20}
}
 soundPitch(1572,UP*3)
}
if(changed(!Space)&!Space){
    UP=60
 soundStop(1572,1)   
}
##############gun wirelinks#########

if(GunTop){
GunTop:setPos(E2:toWorld(vec(0,0,110)))    
GunTop:setAng(Driver:eyeAngles())
GunTop:propFreeze(1)
}
if(GunRight){
       GunRight:propFreeze(1)
GunRight:setPos(E2:toWorld(vec(0,80,50)))   
GunRight:setAng(Driver:eyeAngles()) 
}
if(GunLeft){
    GunLeft:propFreeze(1)
    GunLeft:setPos(E2:toWorld(vec(0,-80,50))) 
    GunLeft:setAng(Driver:eyeAngles()) 
}

if(!Driver){
 GunLeft:setAng(E:toWorld(ang(0,180,0)))  
 GunRight:setAng(E:toWorld(ang(0,180,0)))  
 GunTop:setAng(E:toWorld(ang(0,180,0)))   
}
#[
if(GunLeft&GunRight&GunTop){
GunLeft:propNotSolid(1)
GunRight:propNotSolid(1)
GunTop:propNotSolid(1)
}
]#
R=Driver:keyReload()
if(Driver){
if(M1){
 KeyMouse1=1   
}
if(changed(!M1)&!M1){
 KeyMouse1=0
}
if(R){
 KeyR=1   
}
if(changed(!R)&!R){
KeyR=0   
}
if(M2){
 KeyMouse2=1   
}
if(changed(!M2)&!M2){
 KeyMouse2=0  
}
}
##############################
if(Driver){
    Seat:setAlpha(0)
    Seat:propNotSolid(1)
if(changed(Driver)&Driver){
    Seat:soundPlay(8123,9999,"ambient/energy/force_field_loop1.wav")
Seat:soundPlay(123,999,"ambient/gas/steam_loop1.wav")
    Seat:propNotSolid(0)
}
if(Driver){
    soundPitch(123,E2:angVel():yaw())
soundPitch(8123,-Driver:eyeAngles():pitch())
}
if(changed(!Driver)&!Driver){
 soundStop(123,2)   
 soundStop(8123,2)  
}
soundVolume(8123,999)
if(changed(Ran:hit())&Ran:hit()){
Seat:soundPlay(185,2,"ambient/machines/thumper_hit.wav")   
}
if(changed(!Ran:hit())&!Ran:hit()&Space){
Seat:soundPlay(812,2,"ambient/machines/thumper_top.wav")
}
}else{
Seat:setAlpha(255)
}
holoPos(13,P[6,entity]:toWorld(vec(60,0,30)))
holoPos(14,P[7,entity]:toWorld(vec(60,0,30)))

if(Ran:hit()){
   holoAng(13,P[6,entity]:toWorld(ang(110,0,0)))
holoAng(14,P[6,entity]:toWorld(ang(110,0,0))) 
}
if(Driver){
if(!Ran:hit()){

   holoAng(13,P[6,entity]:toWorld(ang(150,0,0)))
holoAng(14,P[6,entity]:toWorld(ang(150,0,0))) 
   

if(W&!A&!D&!S){
  
    holoAng(13,P[6,entity]:toWorld(ang(180,0,0)))
holoAng(14,P[6,entity]:toWorld(ang(180,0,0))) 
}
if(!W&!A&!D&S){
    
    holoAng(13,P[6,entity]:toWorld(ang(90,0,0)))
holoAng(14,P[6,entity]:toWorld(ang(90,0,0))) 
}
if(!W&A&!D&!S){
  
    holoAng(13,P[6,entity]:toWorld(ang(180,0,30)))
holoAng(14,P[6,entity]:toWorld(ang(180,0,30))) 
}
if(!W&!A&D&!S){
    holoAng(13,P[6,entity]:toWorld(ang(180,0,-30)))
holoAng(14,P[6,entity]:toWorld(ang(180,0,-30))) 
}

}
}
#if(GunLeft&GunRight&GunTop){
# entity():propNotSolid(1)   
#}
#if(!GunLeft&!GunRight&!GunTop){
 #    entity():propNotSolid(0)   
#}
if(!Driver){
SL=array(
"hv_jump_pad_launch.wav",
"ambient/alarms/apc_alarm_loop1.wav"
,"ambient/alarms/siren.wav"
,"ambient/alarms/citadel_alert_loop2.wav"
,"ambient/chatter/italian_radio2.wav"
,"ambient/cp_harbor/furnace_1_shot_01.wav"
,"ambient/energy/spark6.wav"
,"close.wav"
,""
,""
) 
timer("sou",8000)
if(clk("sou")){
    FGH=randint(100)
 soundPlay(FGH,random(1,2),SL[randint(1,SL:count()),string] )
}
   
}
AmmoBox1:setAlpha(0)
AmmoBox2:setAlpha(0)
AmmoBox3:setAlpha(0)
AmmoBox4:setAlpha(0)
AmmoBox5:setAlpha(0)

