@name trk
@inputs EGP:wirelink
@persist E1:entity Props:array
runOnTick(10)
##
    findByClass("player")

    Props=findToArray()
##

if(first()|changed(Props:count()))
{

    EGP:egpClear()
    ##
    for(I=1,Props:count()){
    EGP:egp3DTracker(I, E1:pos())
    EGP:egpRoundedBox(I+100, vec2(0,0), vec2(200,30))
    EGP:egpText(I+200,Props[I,entity]:name(), vec2(0,0))
    EGP:egpParent(I+100, I)
    EGP:egpParent(I+200, I)
    ##
    ##
    EGP:egpColor(I+100,vec4(25,25,25,200))
    EGP:egpAlign(I+200,1,1)
    EGP:egpColor(I+200,teamColor(Props[I,entity]:team()))
    }
    for(I=1,Props:count()){
    EGP:egpParent(I,Props[I,entity])
    }

}

    for(I=1,Props:count()){
        if(changed(Props[I,entity]:isAlive())){timer("Change",50)}
    }
    
    if(clk("Change")){
        for(I=1,Props:count()){
            if(Props[I,entity]:isAlive()){EGP:egpColor(I+200,teamColor(Props[I,entity]:team()))}
            else{EGP:egpColor(I+200, vec(150,0,0))}       
        }
    }
