@name Egp Touchscreen 
@inputs Egp:wirelink User:entity
@outputs X
@persist 
@trigger 

E=entity()
Ent=Egp:entity()

runOnTick(1)
runOnChat(1)
runOnLast(1)

Egp:egpRoundedBox(999,vec2(),vec2(20,20))
Egp:egpColor(999,vec(25,100,25))
Egp:egpParentToCursor(999)
runOnKeys(owner(),1)
Cursor = Egp:egpCursor(User)


Egp:egpRoundedBox(15,vec2(420,420),vec2(100,100))
 
if(User&~User){
Leftup=Egp:egpPos(15)-Egp:egpSize(15)    
Rightdown=Egp:egpPos(15)+Egp:egpSize(15)  
if(inrange(Cursor,Leftup,Rightdown)){
X=!X

} 
if(X){
     Egp:egpColor(15,vec(0,255,0))
 Egp:egpAlpha(999,150)
}else{
 Egp:egpAlpha(999,255)
}
if(!X){
         Egp:egpColor(15,vec(255,0,0))
}


   

}
