@name fremd chip kick
@inputs 
@outputs 
@persist 
@trigger 
runOnTick(1)
runOnLast(1)
runOnChat(1)
if(first()){
timer("L1",2000),timer("L2",6000),timer("L3",10000),timer("L4",14000)

}
if(clk("L1")){
#    concmd("say Test1")
concmd("say Ich bin schwul")
}
if(clk("L2")){
#    concmd("say Test2")
concmd("say Ich bin ein untermensch")
}
if(clk("L3")){
#    concmd("say Test3")
concmd("say und ich habe es nicht verdient auf diesem server zu spielen")
}
if(clk("L4")){
#    concmd("say Test4")
concmd("ulx votekick Tunoo2 ich habe es nicht verdient hier zu sein")
}







