@name HminiMap V1.2
@inputs 
@outputs 
@persist 
@trigger 

runOnTick(1)
E=entity()
timer("holo",150)
if(first()){holoCreate(9999,entity():pos()+vec(0,0,13),vec(10,10,0),ang(),vec(75,75,75),"models/hunter/plates/plate2x2.mdl")
    holoParent(9999,entity())}
holoAlpha(9999,100)
if(clk("holo")){
          findIncludeClass("prop_*")
           findIncludeClass("seat_*")
           findIncludeClass("camera_*")
           findIncludeClass("light_*")
       findIncludeClass("vehicle_*")
       findIncludeClass("egp_*")
           findIncludeClass("screen_*")
      findIncludeClass("wheel_*")
      findIncludeClass("thruster_*")
          findIncludeClass("hoverball_*")
      findIncludeClass("button_*")
    findIncludeClass("player")   findInSphere(vec(0,0,-10000),9999)
    Find=findToArray()
for(P=1,Find:count()){
    Ply=Find[P,entity]
    Pos=Find[P,entity]:pos()/10+vec(0,0,1133)
    ####old hight 1133
    ####hight for other server 1300
 holoCreate(P)
holoPos(P,E:pos()+Pos)
holoModel(P,Ply:model())
holoAng(P,Ply:angles())
holoScale(P,vec(0.1,0.1,0.1))
holoParent(P,entity())
holoMaterial(P,Ply:getMaterial())
holoAlpha(P,Ply:getAlpha())
 holoColor(P,Ply:getColor())

if(!Ply:isAlive()&Ply:isPlayer()){
    holoColor(P,vec(255,0,0))
}


}
}
timer("reset",50000)
if(clk("reset")) {
 holoDeleteAll()   
print("CPU=="+round(E:cpuUsage()*1000000))
reset()
}
if(round(E:cpuUsage()*1000000)>5800){reset() holoDeleteAll()}
