@name Holotrail by Internet
@persist Holos Counter I2
interval(50)

#entity():setPos()

if(first()) {
#runOnTick(1)
Holos=20
I2=Holos
    for(I=1,Holos) {
    holoCreate(I)
    holoModel(I,"models/items/combine_rifle_ammo01.mdl")
    holoScale(I,vec(0.1*I2))
    I2--
    }
}
for(I=1,Holos)
{
if(I==1)
{
holoPos(I,entity():pos()+vec(0,0,0))

Ang = (holoEntity(I+1):pos()-entity():pos()):toAngle()+ang(90,0,0)
holoAng(I,Ang)

} 
elseif(I==Holos)
{
holoPos(I,holoEntity(I-1):pos()+holoEntity(I-1):up()*12)
Ang = (holoEntity(I-1):pos()-holoEntity(I):pos()):toAngle()+ang(90,0,0)
holoAng(I,Ang)    
}
else
{
holoPos(I,holoEntity(I-1):pos()+holoEntity(I-1):up()*12)
Ang = (holoEntity(I+1):pos()-holoEntity(I-1):pos()):toAngle()+ang(90,0,0)
holoAng(I,Ang)

}     
}
