@name MECVK-74B0
@inputs 
@outputs 
@persist [Seat Driver F1 F2 ]:entity Material1 Material2 Material3
@persist 
@persist [Color1 Color2 Color3 ]:vector4 Fly
@trigger 
@model models/hunter/blocks/cube05x05x05.mdl
runOnTick(1)
runOnChat(1)
runOnLast(1)
if(last()){propDeleteAll()}
if(first()){
    Color1=vec4(255,125,25,250)
    Color2=vec4(25,255,255,250)
    Color3=vec4(55,125,25,250)
    
    E=entity()
        E:setPos(E:pos()+vec(0,0,70))
    F1=propSpawn("models/hunter/blocks/cube025x025x025.mdl",E:toWorld(vec(0,30,-30+30)),1)
       F2=propSpawn("models/hunter/blocks/cube025x025x025.mdl",E:toWorld(vec(0,-30,-30+30)),1)
    E:propFreeze(0)
    
}
rangerFilter(E)
rangerFilter(F1)
rangerFilter(F2)
Ran=rangerOffset(90,E:pos(),E:up()*-90)
if(Ran:hit()&Fly==0){
E:applyForce(((Ran:pos()+vec(0,0,90)-E:massCenter())*5-E:vel())*E:mass())
}
E:applyAngForce((ang(0,E:angles():yaw(),0)-E:angles())*E:mass()*5)
