@name Pc (Multi Function) EGP By MZombie
@inputs EGP:wirelink User:entity 
@persist Start User2:entity Back Friend:string Alive:string Stop Players:array
@persist S0 S1 S2 S3 Lock
@model models/props_combine/combine_interface001.mdl
runOnTick(2)
runOnChat(1)
#if(first()){holoCreate(1) holoPos(1,EGP:entity():toWorld(vec(0,20,5))) holoAng(1,EGP:entity():toWorld(ang(-90,90,90))) holoModel(1,"models/bull/various/speaker.mdl")}
holoParent(1,EGP:entity())
#if(first()){holoCreate(2) holoPos(2,EGP:entity():toWorld(vec(0,-20,5))) holoAng(2,EGP:entity():toWorld(ang(-90,90,90))) holoModel(2,"models/bull/various/speaker.mdl")}
holoParent(2,EGP:entity())
EGP:egpCursor(User)
EGP:egpParentToCursor(400)
Cursor=EGP:egpCursor(User)
Players=players()
if(User2:isSteamFriend(User2)){Friend="Yes"}else{Friend="No"}
if(owner():isAlive()){Alive="Yes :D"}else{Alive="No :("}
EE=EGP:entity()
time("hour")
timer("1",1000)

    
    
#SomethingForButtons
Area=200
findInSphere(EGP:entity():pos(),Area)
findIncludeClass("player")
User2=findClosest(EGP:entity():pos())
User2=findResult(1)
#Functions
if(User&~User){
LeftTop = EGP:egpPos(2) - EGP:egpSize(2)/2
        RightBottom = EGP:egpPos(2) + EGP:egpSize(2)/2
        if(inrange(Cursor, LeftTop, RightBottom)&Lock==0){
           Start=1
        }
        LeftTop = EGP:egpPos(12) - EGP:egpSize(12)/2
        RightBottom = EGP:egpPos(12) + EGP:egpSize(12)/2
        if(inrange(Cursor, LeftTop, RightBottom)&Start==1){
         Start=0
        }
        LeftTop = EGP:egpPos(12) - EGP:egpSize(12)/2
        RightBottom = EGP:egpPos(12) + EGP:egpSize(12)/2
        if(inrange(Cursor, LeftTop, RightBottom)&Start==2){
         Start=1
        }
         LeftTop = EGP:egpPos(12) - EGP:egpSize(12)/2
        RightBottom = EGP:egpPos(12) + EGP:egpSize(12)/2
        if(inrange(Cursor, LeftTop, RightBottom)&Start==3){
         Start=1
        }
         LeftTop = EGP:egpPos(12) - EGP:egpSize(12)/2
        RightBottom = EGP:egpPos(12) + EGP:egpSize(12)/2
        if(inrange(Cursor, LeftTop, RightBottom)&Start==4){
         Start=1
        }
          LeftTop = EGP:egpPos(12) - EGP:egpSize(12)/2
        RightBottom = EGP:egpPos(12) + EGP:egpSize(12)/2
        if(inrange(Cursor, LeftTop, RightBottom)&Start==5){
         Start=1
        }
                
        LeftTop = EGP:egpPos(4) - EGP:egpSize(4)/2
        RightBottom = EGP:egpPos(4) + EGP:egpSize(4)/2
        if(inrange(Cursor, LeftTop, RightBottom)&Start==1){
         Start=2
        }
                 
        LeftTop = EGP:egpPos(6) - EGP:egpSize(6)/2
        RightBottom = EGP:egpPos(6) + EGP:egpSize(6)/2
        if(inrange(Cursor, LeftTop, RightBottom)&Start==1){
         Start=3
        }
        LeftTop = EGP:egpPos(7) - EGP:egpSize(7)/2
        RightBottom = EGP:egpPos(7) + EGP:egpSize(7)/2
        if(inrange(Cursor, LeftTop, RightBottom)&Start==1){
         Start=4
        }
         LeftTop = EGP:egpPos(5) - EGP:egpSize(5)/2
        RightBottom = EGP:egpPos(5) + EGP:egpSize(5)/2
        if(inrange(Cursor, LeftTop, RightBottom)&Start==1){
         Start=5
        }
           LeftTop = EGP:egpPos(28) - EGP:egpSize(28)/2
        RightBottom = EGP:egpPos(28) + EGP:egpSize(28)/2
        if(inrange(Cursor, LeftTop, RightBottom)&Start==2){
         reset()
         EGP:egpClear()
        }
#Music
    LeftTop = EGP:egpPos(19) - EGP:egpSize(19)/2
        RightBottom = EGP:egpPos(19) + EGP:egpSize(19)/2
        if(inrange(Cursor, LeftTop, RightBottom)&Start==3){
            S0=1
        }
            if(S0==1){
        EE:soundPlay(11,0,"drugs/02. Maroon 5 - Payphone (feat. Wiz Khalifa).mp3")
        EGP:egpColor(19,vec(0,100,0))
        }
        else{
            EGP:egpColor(19,vec(75,75,75))
            soundStop(11,1)
}
            LeftTop = EGP:egpPos(20) - EGP:egpSize(20)/2
        RightBottom = EGP:egpPos(20) + EGP:egpSize(20)/2
        if(inrange(Cursor, LeftTop, RightBottom)&Start==3){
            S1=1
        }
            if(S1==1){
        EE:soundPlay(1,0,"drugs/Eminem - Berzerk.mp3")
        EGP:egpColor(20,vec(0,100,0))
        }
        else{
            EGP:egpColor(20,vec(75,75,75))
            soundStop(1,1)
}
            LeftTop = EGP:egpPos(21) - EGP:egpSize(21)/2
        RightBottom = EGP:egpPos(21) + EGP:egpSize(21)/2
        if(inrange(Cursor, LeftTop, RightBottom)&Start==3){
            S2=1
        }
                  if(S2==1){
        EE:soundPlay(111,0,"drugs/Eminem - Without Me.mp3")
        EGP:egpColor(21,vec(0,100,0))
        }
        else{
            EGP:egpColor(21,vec(75,75,75))
            soundStop(111,1)
}
        
            LeftTop = EGP:egpPos(22) - EGP:egpSize(22)/2
        RightBottom = EGP:egpPos(22) + EGP:egpSize(22)/2
        if(inrange(Cursor, LeftTop, RightBottom)&Start==3){
            S3=1
        }    
             if(S3==1){
        EE:soundPlay(1111,0,"drugs/07 - Faint.mp3")
        EGP:egpColor(22,vec(0,100,0))
        }
        else{
            EGP:egpColor(22,vec(75,75,75))
            soundStop(1111,1)
}
  
        LeftTop = EGP:egpPos(38) - EGP:egpSize(38)/2
        RightBottom = EGP:egpPos(38) + EGP:egpSize(38)/2
        if(inrange(Cursor, LeftTop, RightBottom)&Start==3){
            Stop=1
        }
        if(Stop==1){
            EGP:egpColor(38,vec(0,100,0))
        }
        if(Stop==0){
            EGP:egpColor(38,vec(75,75,75))
}
}
if(User2:pos():distance(entity():pos())>Area) {
    Start=0
}
    
#BackGround
if(Start==0){
EGP:egpBox(1,vec2(250,250),vec2(600,530))
EGP:egpMaterial(1,"vgui/appchooser/background_hl2")

#Start Button
EGP:egpRoundedBox(2,vec2(250,100),vec2(150,100))
EGP:egpColor(2,vec(100,0,0))

EGP:egpText(3,"Start",vec2(235,90))
EGP:egpColor(3,vec(100,0,0))

EGP:egpAlpha(1,255)
EGP:egpAlpha(2,150)
EGP:egpAlpha(3,150)
}
else{
EGP:egpAlpha(1,0)
EGP:egpAlpha(2,0)
EGP:egpAlpha(3,0)
}
#Buttons After Start
if(Start==1){
    EGP:egpRoundedBox(4,vec2(150,120),vec2(120,120))
    EGP:egpRoundedBox(5,vec2(350,120),vec2(120,120))
    EGP:egpRoundedBox(6,vec2(150,350),vec2(120,120))
    EGP:egpRoundedBox(7,vec2(350,350),vec2(120,120))
    EGP:egpText(8,"Info",vec2(135,110))
    EGP:egpText(9,"Music Player",vec2(105,340))
    EGP:egpText(10,"Server Info",vec2(305,340))
    EGP:egpText(11,"Programs",vec2(310,110))
#Back Button#
EGP:egpRoundedBox(12,vec2(250,450),vec2(75,75))
EGP:egpText(13,"Back",vec2(235,440))


#Alpha   
EGP:egpAlpha(4,150)
EGP:egpAlpha(5,150)
EGP:egpAlpha(6,150)
EGP:egpAlpha(7,150)
EGP:egpAlpha(8,255)
EGP:egpAlpha(9,255)
EGP:egpAlpha(10,255)
EGP:egpAlpha(11,255)
EGP:egpAlpha(12,150)
EGP:egpAlpha(13,255)
}
else{
EGP:egpAlpha(4,0)
EGP:egpAlpha(5,0)
EGP:egpAlpha(6,0)
EGP:egpAlpha(7,0)
EGP:egpAlpha(8,0)
EGP:egpAlpha(9,0)
EGP:egpAlpha(10,0)
EGP:egpAlpha(11,0)
EGP:egpAlpha(12,150)
EGP:egpAlpha(13,150)
}

if(Start==0){
    EGP:egpAlpha(12,0)
    EGP:egpAlpha(13,0)
}
if(Start==2){
    
    EGP:egpText(14,"OwnerName: "+owner():name(),vec2(100,100))
    EGP:egpText(15,"OwnerSteamID: "+owner():steamID(),vec2(100,150))
    EGP:egpText(16,"Are You Owner Friend:"+Friend,vec2(100,200))
    EGP:egpText(17,"OwnerIsAlive:"+Alive,vec2(100,250))
    EGP:egpText(18,"The Time:"+(time("hour") + 2)+":"+time("min"),vec2(100,300))
    EGP:egpRoundedBox(28,vec2(100,450),vec2(100,100))
    EGP:egpText(29,"Reset The Pc",vec2(51,445))
   

EGP:egpAlpha(14,255)
EGP:egpAlpha(15,255)
EGP:egpAlpha(16,255)
EGP:egpAlpha(17,255)
EGP:egpAlpha(18,255)
EGP:egpAlpha(28,150)
EGP:egpAlpha(29,255)


}
else{
EGP:egpAlpha(14,0)
EGP:egpAlpha(15,0)
EGP:egpAlpha(16,0)
EGP:egpAlpha(17,0)
EGP:egpAlpha(18,0)
EGP:egpAlpha(28,0)
EGP:egpAlpha(29,0)
}
if(Start==3){
     
    EGP:egpBox(19,vec2(100,50),vec2(50,50))
    EGP:egpBox(20,vec2(100,150),vec2(50,50))
    EGP:egpBox(21,vec2(100,250),vec2(50,50))
    EGP:egpBox(22,vec2(100,350),vec2(50,50))
    EGP:egpText(23,"1",vec2(95,40))
    EGP:egpText(24,"2",vec2(95,140))
    EGP:egpText(25,"3",vec2(95,240))
    EGP:egpText(26,"4",vec2(95,340))
    EGP:egpBox(27,vec2(300,50),vec2(300,50))
    EGP:egpBox(31,vec2(300,150),vec2(300,50))
    EGP:egpBox(32,vec2(300,250),vec2(300,50))
    EGP:egpBox(33,vec2(300,350),vec2(300,50))
    EGP:egpText(34,"Maroon 5 PayPhone",vec2(160,40))
    EGP:egpText(35,"Eminem Berzerk ",vec2(160,140))
    EGP:egpText(36,"Eminem Without me",vec2(160,240))
    EGP:egpText(37,"Linking Park Faint",vec2(160,340))
    EGP:egpBox(38,vec2(100,450),vec2(75,75))
    EGP:egpText(39,"Stop",vec2(85,440))
    
EGP:egpAlpha(19,150)
EGP:egpAlpha(20,150)
EGP:egpAlpha(21,150)
EGP:egpAlpha(22,150)
EGP:egpAlpha(23,255)
EGP:egpAlpha(24,255)
EGP:egpAlpha(25,255)
EGP:egpAlpha(26,255)
EGP:egpAlpha(27,150)
EGP:egpAlpha(31,150)
EGP:egpAlpha(32,150)
EGP:egpAlpha(33,150)
EGP:egpAlpha(34,255)
EGP:egpAlpha(35,255)
EGP:egpAlpha(36,255)
EGP:egpAlpha(37,255)
EGP:egpAlpha(38,150)
EGP:egpAlpha(39,255)
    
}
    else{
        
EGP:egpAlpha(19,0)
EGP:egpAlpha(20,0)
EGP:egpAlpha(21,0)
EGP:egpAlpha(22,0)
EGP:egpAlpha(23,0)
EGP:egpAlpha(24,0)
EGP:egpAlpha(25,0)
EGP:egpAlpha(26,0)
EGP:egpAlpha(27,0)
EGP:egpAlpha(31,0)
EGP:egpAlpha(32,0)
EGP:egpAlpha(33,0)
EGP:egpAlpha(34,0)
EGP:egpAlpha(34,0)
EGP:egpAlpha(35,0)
EGP:egpAlpha(36,0)
EGP:egpAlpha(37,0)
EGP:egpAlpha(38,0)
EGP:egpAlpha(39,0)
}

if(Start==4){
    
    EGP:egpBox(40,vec2(250,50),vec2(550,100))
    EGP:egpText(41,"ServerName: "+hostname(),vec2(10,40))
    EGP:egpText(42,"OnlinePlayer: "+players():count()+"/"+maxPlayers(),vec2(25,75))
    EGP:egpText(43,"MapName: "+map(),vec2(330,75))
    EGP:egpText(44,"GameMode: "+gamemode(),vec2(175,75))
    EGP:egpText(45,"Graivty: "+gravity(),vec2(25,125))
    if(Start==4){
for(I=1,playersAdmins():count()){
    EGP:egpText(I+47,playersAdmins():entity(I):name(),vec2(I*50,150))


}
}
EGP:egpFont(42,"arial",15)
EGP:egpFont(43,"arial",15)   
EGP:egpFont(44,"arial",15)  
EGP:egpFont(46,"arial",15)  
    
EGP:egpAlpha(40,100)
EGP:egpAlpha(41,255)
EGP:egpAlpha(42,255)
EGP:egpAlpha(43,255)
EGP:egpAlpha(44,255)
EGP:egpAlpha(45,255)

}
else{
EGP:egpAlpha(41,0) 
EGP:egpAlpha(40,0)
EGP:egpAlpha(42,0)
EGP:egpAlpha(43,0)
EGP:egpAlpha(44,0)
EGP:egpAlpha(45,0)
}


if(changed(Start!=4)&Start!=4){
for(I=1,playersAdmins():count()){
EGP:egpRemove(I+47)
EGP:egpAlpha(I+47,0)
}
}









































Last= owner():lastSaid():explode(" ")

if(chatClk(owner())&Last:string(1)=="!Lock"){
    Lock=1
}

if(chatClk(owner())&Last:string(1)=="!Unlock"){
    Lock=0
}











if(Lock==1){
    
    
    EGP:egpText(201,"Ask Owner To UnLock The Screen",vec2(10,250))
    EGP:egpColor(201,vec(255,255,255))
    EGP:egpFont(201,"arial",35)
    
}

if(Lock==0){
    EGP:egpRemove(201)

}



if(Stop==1){
    S0=0
    S1=0
    S2=0
    S3=0
}
else{
    soundStop(0,0)
    soundStop(2,0)
    soundStop(3,0)
    soundStop(4,0)
}

if(clk("1")&Stop==1){
    EGP:egpColor(38,vec(75,75,75))
    Stop=0
}



################Protection###################
if(owner():steamID()!="STEAM_0:0:71035911"){
    selfDestructAll()
    print("Fuck You Stop Try To Steal My E2")
}
##############################################
