@name portalgun for george 
@persist XY 
runOnTick(1)
XY=XY*1+1
X=sin(XY)
Y=cos(XY)


O=owner()
E=entity()
Crowbar = O:weapon():type()=="weapon_crowbar"



if(O:keyAttack1()&Crowbar){
    holoCreate(1,O:aimPos()+vec(0,0,50),vec(3,3,5),ang(),vec(0,0,255),"hqsphere")
       holoCreate(2,O:aimPos()+vec(0,0,50),vec(0.1,0.1,0.1),ang(),vec(1,1,1),"hqsphere")
    holoEntity(2):setTrails(30,0,15,"trails/laser",vec(0,0,255),255)
    holoAlpha(1,150)
  
}
if(O:keyAttack2()&Crowbar){
    holoCreate(10,O:aimPos()+vec(0,0,50),vec(3,3,5),ang(),vec(255,0,0),"hqsphere")
      holoCreate(11,O:aimPos()+vec(0,0,50),vec(0.1,0.1,0.1),ang(),vec(1,1,1),"hqsphere")
    holoEntity(11):setTrails(30,0,  15,"trails/laser",vec(255,0,0),255)
    holoAlpha(10,150)
       
}
############
holoPos(2,holoEntity(1):toWorld(vec(X*50,Y*50,0)))
holoPos(11,holoEntity(10):toWorld(vec(X*-50,Y*-50,0)))



findIncludeClass("player")
Find=findInSphere(holoEntity(1):pos(),50)
FindC=findClosest(holoEntity(1):pos())
if(Find){
 FindC:plySetPos(holoEntity(10):pos()+vec(0,0,25))   
}
