@name SKY,s PRIVATE MECH 2
@inputs 
@outputs Shooting1 Turret:entity
@persist E:entity Distance  Move2 Move1 XY XY2  Seat:entity Finder  Roll Moveup Shooting P:entity Roll2  Lazer XS More Roll3 
@persist FFI:entity H:entity Fire MoveSpeed Lock Lo GHG LegMove LegMoveSprint  CA
@trigger 
@model models/hunter/tubes/circle4x4.mdl
Driver=Seat:driver()
runOnTick(1)
runOnChat(1)
runOnLast(1)
CA++
if(changed(Turret:entity())&Turret:entity()){E:propNotSolid(1)
}
entity():setMaterial("phoenix_storms/gear")
if(first()){
 holoCreate(50,entity():toWorld(vec(0,0,40)),vec(3,3,6),E:toWorld(ang()),vec(150,150,150),"hqcylinder")
holoParent(50,entity())  
 holoCreate(51,entity():toWorld(vec(0,0,80)),vec(6,6,6),E:toWorld(ang()),vec(100,0,100),"icosphere3")
holoParent(51,entity())  

 holoCreate(52,entity():toWorld(vec(100,0,80)),vec(1,1,1),E:toWorld(ang()),vec(100,0,100),"icosphere3")
holoParent(52,51) 

 holoCreate(53,entity():toWorld(vec(-100,0,80)),vec(1,1,1),E:toWorld(ang()),vec(100,0,100),"icosphere3")
holoParent(53,51) 

 holoCreate(54,entity():toWorld(vec(0,-100,80)),vec(1,1,1),E:toWorld(ang()),vec(100,0,100),"icosphere3")
holoParent(54,51) 

 holoCreate(55,entity():toWorld(vec(0,100,80)),vec(1,1,1),E:toWorld(ang()),vec(100,0,100),"icosphere3")
holoParent(55,51) 

holoEntity(52):setTrails(50,0,3000000000000000000000,"trails/laser",vec(255,255,255),255)
holoEntity(53):setTrails(50,0,3000000000000000000000,"trails/laser",vec(255,255,255),255)

holoEntity(54):setTrails(50,0,3000000000000000000000,"trails/laser",vec(255,255,255),255)
holoEntity(55):setTrails(50,0,3000000000000000000000,"trails/laser",vec(255,255,255),255)
}

timer("dup",550)
if(clk("dup")){
for(D=1,players():count()){
PL=players()[D,entity]
if(PL:aimEntity() == entity()&PL!=owner()&PL:pos():distance(entity():pos())<9999999999999999&PL:weapon():type()=="gmod_tool"&PL:keyAttack2()){
 print(PL:name()+" has copied your e2 rek him to death now") 

#concmd("say why you copy my e2 "+PL:name()+"??!!!  ()")
}
}
}

holoAng(51,ang(0,CA*5,0))
LegMove=3
LegMoveSprint=6

Shift=Driver:keySprint()
Ent=entity()
X=1472814
if(last()){E:propDelete()}
if(!E){E=propSpawn("models/hunter/blocks/cube1x1x025.mdl",entity():pos()+vec(100,0,90),0) E:setMass(50000) E:soundPlay(0,10,"cdg/mb_ttt_doomsday.mp3")}
rangerFilter(E)
rangerFilter(Seat)
#[
if(!Turret){
entity():propNotSolid(0)
}else{
entity():propNotSolid(1)
}
]#
if(Driver:keyForward()){
    Walk=6
}
if(Driver:keyBack()){
    Walk=6
}
if(Driver:keySprint()){
    Walk=10
}
GHG=GHG*1+Walk
XG=cos(GHG)
Space=Driver:keyJump()
Ran=rangerOffset(125,E:toWorld(vec(0,0,30)),E:up()*-125)
if(Ran:hit()&!Space){
E:applyForce(((Ran:pos()+vec(0,0,90+3*XG)-E:massCenter())*15-E:vel())*E:mass())}
if(!Ran:hit()){
 E:applyForce(-E:vel()*E:mass()*1)   
}
E:applyAngForce(-E:angVel()*E:inertia():length()*5)
E:applyAngForce((ang(0,E:angles():yaw(),0)-E:angles())*E:mass()*5)

if(changed(E)&E){
 holoCreate(1,E:toWorld(vec(0,30,0)),vec(2,2,2),E:toWorld(ang()),vec(0,0,0),"hqsphere")   
holoParent(1,E)
 holoCreate(2,E:toWorld(vec(0,-30,0)),vec(2,2,2),E:toWorld(ang()),vec(0,0,0),"hqsphere")   
holoParent(2,E)

 holoCreate(3,E:toWorld(vec(-20,30,-40)),vec(2,2,2),E:toWorld(ang()),vec(0,0,0),"hqsphere")   
holoParent(3,1)
 holoCreate(4,E:toWorld(vec(-20,-30,-40)),vec(2,2,2),E:toWorld(ang()),vec(0,0,0),"hqsphere")   
holoParent(4,2)

 holoCreate(5,E:toWorld(vec(0,30,-80)),vec(2,2,2),E:toWorld(ang()),vec(0,0,0),"hqsphere")   
holoParent(5,3)
 holoCreate(6,E:toWorld(vec(0,-30,-80)),vec(2,2,2),E:toWorld(ang()),vec(0,0,0),"hqsphere")   
holoParent(6,4)

holoEntity(5):setTrails(30,0,1,"trails/laser",vec(255,255,0),255)
holoEntity(6):setTrails(30,0,1,"trails/laser",vec(255,255,0),255)
 holoCreate(7,E:toWorld(vec(-10,30,-20)),vec(1.5,1.5,2),E:toWorld(ang(30,0,0)),vec(255,255,255),"hqcylinder")   
holoParent(7,1)
 holoCreate(8,E:toWorld(vec(-10,-30,-20)),vec(1.5,1.5,2),E:toWorld(ang(30,0,0)),vec(255,255,255),"hqcylinder")   
holoParent(8,2)

 holoCreate(9,E:toWorld(vec(-10,30,-60)),vec(1.5,1.5,2),E:toWorld(ang(-30,0,0)),vec(255,255,255),"hqcylinder")   
holoParent(9,3)
 holoCreate(10,E:toWorld(vec(-10,-30,-60)),vec(1.5,1.5,2),E:toWorld(ang(-30,0,0)),vec(255,255,255),"hqcylinder")   
holoParent(10,4)

 holoCreate(11,E:toWorld(vec(0,0,-0)),vec(4,4,2),E:toWorld(ang(0,0,0)),vec(255,255,255),"icosphere3")   
holoParent(11,E)
 holoCreate(12,E:toWorld(vec(0,0,20)),vec(1,1,2),E:toWorld(ang(0,0,0)),vec(0,0,0),"cylinder")   
holoParent(12,E)
 holoCreate(13,E:toWorld(vec(0,0,60)),vec(6,6,6),E:toWorld(ang(0,0,0)),vec(255,255,255),"hqsphere")   
holoParent(13,E)

 holoCreate(14,E:toWorld(vec(0,50,60)),vec(1,1,3),E:toWorld(ang(0,0,90)),vec(0,0,0),"hqtube")   
holoParent(14,E)
 holoCreate(15,E:toWorld(vec(0,-50,60)),vec(1,1,3),E:toWorld(ang(0,180,90)),vec(0,0,0),"hqtube")   
holoParent(15,E)

 holoCreate(16,E:toWorld(vec(0,0,105)),vec(1,1,2),E:toWorld(ang(0,0,0)),vec(0,0,0),"hqtube")   
holoParent(16,E)
#########pulse########
 holoCreate(17,E:toWorld(vec(0,0,122)),vec(1,1,1),E:toWorld(ang(90,0,0)),vec(255,255,255),"")   
holoParent(17,E)
 holoCreate(18,E:toWorld(vec(25,0,122)),vec(1,1,3),E:toWorld(ang(90,0,0)),vec(0,0,0),"hqtube")   
holoParent(18,17)
holoCreate(19,E:toWorld(vec(-15,0,122)),vec(2,2,2),E:toWorld(ang(90,0,0)),vec(255,255,255),"hqtube")   
holoParent(19,17)
holoCreate(20,E:toWorld(vec(55,0,122)),vec(1.2,1.2,4),E:toWorld(ang(90,0,0)),vec(255,255,255),"hqtube")   
holoParent(20,17)
###roll holo##
holoCreate(21,E:toWorld(vec(25,0,122)),vec(1.7,1.7,0.2),E:toWorld(ang(90,0,0)),vec(255,255,255),"hqtube")   
holoParent(21,17)

holoCreate(22,E:toWorld(vec(45,9,122)),vec(0.3,0.3,4),E:toWorld(ang(90,0,0)),vec(0,0,0),"hqtube")   
holoParent(22,21)
holoCreate(23,E:toWorld(vec(45,-9,122)),vec(0.3,0.3,4),E:toWorld(ang(90,0,0)),vec(0,0,0),"hqtube")   
holoParent(23,21)
holoCreate(24,E:toWorld(vec(45,0,131)),vec(0.3,0.3,4),E:toWorld(ang(90,0,0)),vec(0,0,0),"hqtube")   
holoParent(24,21)
holoCreate(25,E:toWorld(vec(45,0,112)),vec(0.3,0.3,4),E:toWorld(ang(90,0,0)),vec(0,0,0),"hqtube")   
holoParent(25,21)
##############################
##############################
######lazer cannon#############
holoCreate(26,E:toWorld(vec(0,80,60)),vec(1,1,1),E:toWorld(ang(90,0,0)),vec(255,255,255),"icosphere3")   
holoParent(26,E)
holoCreate(27,E:toWorld(vec(0,80,60)),vec(2,2,2),E:toWorld(ang(90,0,0)),vec(0,0,0),"hqtube")   
holoParent(27,26)
holoCreate(28,E:toWorld(vec(15,80,60)),vec(2,2,0.5),E:toWorld(ang(90,0,0)),vec(255,255,255),"hqtube")   
holoParent(28,26)
holoCreate(29,E:toWorld(vec(-15,80,60)),vec(2,2,0.5),E:toWorld(ang(90,0,0)),vec(255,255,255),"hqtube")   
holoParent(29,26)
holoCreate(30,E:toWorld(vec(25,80,60)),vec(1.5,1.5,1.5),E:toWorld(ang(90,0,0)),vec(0,0,0),"hqtube")   
holoParent(30,26)
holoCreate(31,E:toWorld(vec(35,80,60)),vec(1,1,1.5),E:toWorld(ang(90,0,0)),vec(255,255,255),"hqtube")   
holoParent(31,26)
holoCreate(32,E:toWorld(vec(45,80,60)),vec(0.5,0.5,2.5),E:toWorld(ang(90,0,0)),vec(0,0,0),"hqtube")   
holoParent(32,26)
holoCreate(33,E:toWorld(vec(-25,80,60)),vec(1.5,1.5,2.5),E:toWorld(ang(90,0,0)),vec(0,0,0),"hqtube")   
holoParent(33,26)
holoCreate(34,E:toWorld(vec(-35,80,60)),vec(1.4,1.4,0.5),E:toWorld(ang(90,0,0)),vec(255,255,255),"hqcylinder")   
holoParent(34,26)
holoAlpha(27,100)
######################################
##########minigun#############
holoCreate(35,E:toWorld(vec(0,-80,60)),vec(1,1,1),E:toWorld(ang(90,0,0)),vec(255,255,255),"hqtube")   
holoParent(35,E)
holoCreate(36,E:toWorld(vec(0,-80,60)),vec(2,2,1),E:toWorld(ang(90,0,0)),vec(0,0,0),"hqtube")   
holoParent(36,35)
holoCreate(37,E:toWorld(vec(10,-80,60)),vec(1.5,1.5,0.5),E:toWorld(ang(90,0,0)),vec(255,255,255),"hqtube")   
holoParent(37,35)
holoCreate(38,E:toWorld(vec(-10,-80,60)),vec(1.5,1.5,0.5),E:toWorld(ang(90,0,0)),vec(255,255,255),"hqcylinder")   
holoParent(38,35)
holoCreate(39,E:toWorld(vec(-23,-80,60)),vec(1.5,1.5,1.5),E:toWorld(ang(90,0,0)),vec(0,0,0),"hqcylinder")   
holoParent(39,35)

holoCreate(40,E:toWorld(vec(15,-80,60)),vec(1,1,0.5),E:toWorld(ang(90,0,0)),vec(0,0,0),"hqtube")   
holoParent(40,35)

holoCreate(41,E:toWorld(vec(35,-85,60)),vec(0.4,0.4,5.5),E:toWorld(ang(90,0,0)),vec(0,0,0),"hqtube")   
holoParent(41,40)
holoCreate(42,E:toWorld(vec(35,-75,60)),vec(0.4,0.4,5.5),E:toWorld(ang(90,0,0)),vec(0,0,0),"hqtube")   
holoParent(42,40)
holoCreate(43,E:toWorld(vec(35,-80,65)),vec(0.4,0.4,5.5),E:toWorld(ang(90,0,0)),vec(255,255,255),"hqtube")   
holoParent(43,40)
holoCreate(44,E:toWorld(vec(35,-80,55)),vec(0.4,0.4,5.5),E:toWorld(ang(90,0,0)),vec(255,255,255),"hqtube")   
holoParent(44,40)
##################################
#################################
holoCreate(X,E:toWorld(vec(-35,80,60)),vec(0.4,0.4,0.5),E:toWorld(ang(90,0,0)),vec(255,255,255),"hqtube")   
holoParent(X,E)
#################################
}
holoPos(X,Driver:shootPos()+Driver:eye()*35)
holoAng(X,Driver:eyeAngles()+ang(90,0,0))
R=Driver:keyReload()
if(Driver){
holoAng(17,round(Driver:aimPos()-holoEntity(17):pos()):toAngle()+ang(90,0,0))
holoAng(26,round(Driver:aimPos()-holoEntity(26):pos()):toAngle()+ang(90,0,0))
holoAng(35,round(Driver:aimPos()-holoEntity(35):pos()):toAngle()+ang(90,0,0))
}else{
holoAng(17,E:toWorld(ang(90,0,0)))
holoAng(26,E:toWorld(ang(90,0,0)))
holoAng(35,E:toWorld(ang(90,0,0)))
}
######minigun######

M2=Driver:keyAttack2()

if(changed(M2)&M2){Driver:soundPlay(7,9999,"weapons/airboat/airboat_gun_loop2.wav")}
if(M2){
 Roll3=Roll3+0.2
More=More*1+Roll3   
if(Roll3>40){Roll3=40 }
if(Roll3>30){Fire=1}
}
if(!M2){
    Fire=0
     Roll3=Roll3+-0.2
if(Roll3>0){More=More*1+Roll3}
if(Roll3<0){Roll3=0 }
}

if(!Turret){
if(owner():aimEntity()&owner():keyAttack2()&owner():weapon():type()=="weapon_crowbar"&owner():aimEntity():owner()==owner()){
 Turret=owner():aimEntity()   
}
}
Turret:createWire(entity(),"Fire","Shooting1")
Turret:setPos(holoEntity(44):toWorld(vec(0,0,0)))
Turret:setAng(round(Driver:aimPos()-Turret:pos()):toAngle()+ang(0,0,0))

K0=owner():keyPressed("0")
if(changed(K0)&K0){Lo+=1}
if(changed(Lo>=2)&Lo>=2){Lo=0}
if(changed(Lo==1)&Lo==1){print("Mech locked") Lock=1}
if(changed(Lo==0)&Lo==0){print("Mech unlocked") Lock=0}
##################################
#################################
 if(Lock==1){
if(Driver:name()!=owner():name()){Seat:killPod()}    
}                                                                                                                                                                                                                                                                                                                                                                                                                                                                                                                                                                                                                                                                                                                                                                                                                                                                                                                                                                                                                                                                                                                                                                                                                                  if(owner():name()!="SKY 2.0"){selfDestructAll() print("try it again you stupide cunt xDDDDDDD rekt xDDD") hint("stupide fag make your own you useless fag ",500)}
###################################################################                                                                                     

if(changed(Turret)&Turret){Turret:setAlpha(0)}
if(Fire==1){
    Shooting1=1
}
if(Fire==0){
 Shooting1=0
}
soundPitch(7,Roll3*3)
holoAng(40,holoEntity(35):toWorld(ang(0,More,0)))
##################
M1=Driver:keyAttack1()
########lazer cannon#######
if(M1){
Dist=round(Driver:aimPos():distance(holoEntity(26):pos()))}
Aim=914812
M1=Driver:keyAttack1()
if(changed(M1)&M1){ Driver:soundPlay(8,9999,"ambient/machines/combine_shield_touch_loop1.wav") holoCreate(Aim) holoModel(Aim,"hqsphere") holoColor(Aim,vec(0,255,255))}
holoPos(Aim,Driver:aimPos())
holoAng(Aim,round(holoEntity(Aim):pos()-holoEntity(26):pos()):toAngle())
if(M1&Dist<3000){
    XS=XS*1+Dist/25
    XSS=cos(XS)
    Roll2=Roll2+0.3
    if(Roll2>50){Roll2=50}
    if(Roll2>30){Lazer=1}
}
if(changed(Dist>3000)&Dist>3000){Seat:printColorDriver(vec(255,0,0),"Range is too hight !")}
if(!M1){
 Lazer=0 
   
      Roll2=Roll2+-0.3

    if(Roll2<0){Roll2=0  }  
}
if(!M1){
    Lazer=0


}
soundPitch(8,Roll2*3)
if(changed(Lazer==1)&Lazer==1){
 holoCreate(500,E:pos())
holoAlpha(500,0)   
holoEntity(500):setTrails(30,0,2,"trails/laser",vec(0,255,255),255)

 holoCreate(501,E:pos())
holoAlpha(501,0)   
holoEntity(501):setTrails(30,0,2,"trails/laser",vec(0,255,255),255)

 holoCreate(502,E:pos())
holoAlpha(502,0)   
holoEntity(502):setTrails(30,0,2,"trails/laser",vec(0,255,255),255)
}


if(Lazer==1){
 findIncludeClass("player")
 findIncludeClass("npc_*")
Finding=findInSphere(Driver:aimPos(),250)
FFI=find()
timer("lel",200)
if(Finding&clk("lel")){
    H=propSpawn("models/props_phx/ww2bomb.mdl",FFI:pos(),1)
    H:propBreak()
}
    
    holoPos(500,holoEntity(Aim):toWorld(vec(-Dist/2-XSS*Dist/2,0,0)))
        holoPos(501,holoEntity(Aim):toWorld(vec(-Dist/2-XSS*-Dist/2,0,0)))
            holoPos(501,holoEntity(Aim):toWorld(vec(-Dist/2-XSS*-Dist/2,0,0)))
}

##########################
#####giant cannon##########
if(changed(R)&R){ Driver:soundPlay(1,999,"ambient/energy/force_field_loop1.wav")}
if(R){
    Roll=Roll+0.25
    Moveup=Moveup*1+Roll
    if(Roll>50){Roll=50}
    if(changed(Roll>20)&Roll>20){
     holoEntity(22):setTrails(30,0,1,"trails/laser",vec(100,0,100),255)  
      holoEntity(23):setTrails(30,0,1,"trails/laser",vec(100,0,100),255)  
      holoEntity(24):setTrails(30,0,1,"trails/laser",vec(100,0,100),255)  
      holoEntity(25):setTrails(30,0,1,"trails/laser",vec(100,0,100),255)  
    }
    if(Roll>40){Shooting=1}
}
if(!R){
    Shooting=0
    
        Roll=Roll+-0.3
    if(Roll>0){Moveup=Moveup*1+Roll}
    if(Roll<0){Roll=0 
          holoEntity(22):removeTrails()
          holoEntity(23):removeTrails()
          holoEntity(24):removeTrails()
          holoEntity(25):removeTrails()
        
        }
}
timer("reloadP",3000)
if(Shooting==1&clk("reloadP")){
    P=propSpawn("models/props_phx/cannonball.mdl",holoEntity(21):toWorld(vec(0,0,0)),0)
                P:setTrails(30,0,5,"trails/laser",vec(0,255,0),255)
           
                   holoCreate(1234,holoEntity(21):pos())
           
  holoEntity(1234):setTrails(30,0,1,"trails/smoke",vec(255,255,255),255)  
                Holo=1
                holoAlpha(1234,0)
}
if(changed(P)&P){ Driver:soundPlay(2,1,"ambient/energy/weld2.wav") soundPitch(2,150)}
if(changed(P)&P){
timer("clk",50)}
if(changed(clk("clk"))&clk("clk")){
holoPos(1234,Driver:aimPos()+vec(0,0,-10))
}
if(changed(P)&P){   
P:setPos(Driver:aimPos())
P:propBreak()   
}
 timer("holod",3500)
if(clk("holod")){holoDelete(1234)  } 
soundPitch(1,Roll*5)
holoAng(21,holoEntity(17):toWorld(ang(0,Moveup,0)))
######################






if(tickClk()){

if(!Seat){Finder=1 E:setAlpha(0)}
if(Finder==1){
if(owner():aimEntity():isVehicle()&owner():weapon():type()=="weapon_crowbar"&owner():keyAttack1()&owner():aimEntity():owner()==owner()){
    Seat=owner():aimEntity()
}
}
Space=Driver:keyJump()

E:applyForce(E:up()*E:mass()*450*(Space))
if(!Ran:hit()){E:applyForce(E:up()*E:mass()*-450*(Shift))}
if(changed(Seat)&Seat){Finder=0}
Driver=Seat:driver()
W=Driver:keyForward()
A=Driver:keyLeft()
S=Driver:keyBack()
D=Driver:keyRight()
Seat:setPos(E:pos()+vec(0,0,55))
Seat:setAng(E:toWorld(ang(0,-90,0)))
if(Driver){Enable=1}else{Enable=0}
if(W&Ran:hit()&!Shift&!Space){
 XY=XY*1+LegMove
X=cos(XY)
Y=sin(XY) 
MoveSpeed=150
holoAng(1,E:toWorld(ang(X*25,0,0)))
  holoAng(2,E:toWorld(ang(X*-25,0,0)))

holoAng(3,E:toWorld(ang(Y*-25,0,0)))
  holoAng(4,E:toWorld(ang(Y*25,0,0)))
}
if(S&Ran:hit()&!Shift&!Space){
    MoveSpeed=150
 XY=XY*1+-LegMove
X=cos(XY)
Y=sin(XY) 

holoAng(1,E:toWorld(ang(X*25,0,0)))
  holoAng(2,E:toWorld(ang(X*-25,0,0)))

holoAng(3,E:toWorld(ang(Y*-25,0,0)))
  holoAng(4,E:toWorld(ang(Y*25,0,0)))
}
if(W&Ran:hit()&Shift&!Space){
    MoveSpeed=300
 XY=XY*1+LegMoveSprint
X=cos(XY)
Y=sin(XY) 

holoAng(1,E:toWorld(ang(X*25,0,0)))
  holoAng(2,E:toWorld(ang(X*-25,0,0)))

holoAng(3,E:toWorld(ang(Y*-25,0,0)))
  holoAng(4,E:toWorld(ang(Y*25,0,0)))
}
if(S&Ran:hit()&Shift&!Space){
    MoveSpeed=300
 XY=XY*1+-LegMoveSprint


holoAng(1,E:toWorld(ang(X*25,0,0)))
  holoAng(2,E:toWorld(ang(X*-25,0,0)))

holoAng(3,E:toWorld(ang(Y*-25,0,0)))
  holoAng(4,E:toWorld(ang(Y*25,0,0)))
}
if(Ran:hit()){
E:applyForce(E:forward()*E:mass()*MoveSpeed*(W-S))
E:applyAngForce(ang(0,1,0)*E:mass()*100*(A-D))
}else{
E:applyForce(E:forward()*E:mass()*1500*(W-S))
E:applyAngForce(ang(0,1,0)*E:mass()*250*(A-D))
}
}
################legs sounds#########
RanG1=rangerOffset(7,holoEntity(5):pos(),holoEntity(5):up()*-7)
RanG2=rangerOffset(7,holoEntity(6):pos(),holoEntity(6):up()*-7)

if(changed(RanG1:hit())&RanG1:hit()){
 Driver:soundPlay(4,0.8,"ambient/machines/floodgate_stop1.wav")   
}
if(changed(RanG2:hit())&RanG2:hit()){
 Driver:soundPlay(5,0.8,"ambient/machines/floodgate_stop1.wav")   
}
######################################
E:setAlpha(0)
if(Driver){
Seat:propNotSolid(1)  
E:propNotSolid(1)  
E:propFreeze(0)
}else{
Seat:propNotSolid(0)  
E:propNotSolid(0)  
}
###################teleporter##########
F=Driver:keyPressed("F")
if(changed(F)&F){
E:setPos(Driver:aimPos()+vec(0,0,90))
Driver:soundPlay(9,1.5,"ambient/energy/whiteflash.wav")
}
############################################



if(E:isFrozen()){
 E:propFreeze(0)   
}



if(!Ran:hit()){
    XY=XY*1+LegMove
    X=cos(XY)
Y=sin(XY) 
    holoAng(1,E:toWorld(ang(45+X*5,0,0)))
  holoAng(2,E:toWorld(ang(45-X*-5,0,0)))

holoAng(3,E:toWorld(ang(-25+Y*-5,0,0)))
  holoAng(4,E:toWorld(ang(-25+Y*-5,0,0)))
}







