@name SkyShield 2
@inputs 
@outputs 
@persist [P1 P2 P3 None]:entity On Find:entity Tick  Sended Find2:entity Fix Anti Anti2 Type
 

runOnTick(1)
runOnChat(1)
runOnLast(1)
#if(last()){propDeleteAll()}  
#if(!P1){P1=propSpawn("models/hunter/misc/sphere075x075.mdl",entity():pos()+vec(0,0,150),1) P1:setMass(50000) P1:setTrails(50,0,3,"trails/smoke",vec(75,75,75),255)  P1:setMaterial("phoenix_storms/gear") P1:setAlpha(150)  P1:setColor(vec(0,0,0))}

#if(!P2){P2=propSpawn("models/hunter/misc/sphere075x075.mdl",entity():pos()+vec(0,50,150),1)  P2:setTrails(50,0,3,"trails/smoke",vec(75,75,75),255)  P2:setMaterial("phoenix_storms/gear") P2:setAlpha(150) P2:setColor(vec(0,0,0))}
#if(!P3){P3=propSpawn("models/hunter/misc/sphere075x075.mdl",entity():pos()+vec(0,-50,150),1) P3:setTrails(50,0,3,"trails/smoke",vec(75,75,75),255)  P3:setMaterial("phoenix_storms/gear") P3:setAlpha(150)  P3:setColor(vec(0,0,0))}

DG=owner():weapon():type()=="weapon_crowbar"&owner():keyPressed("1")
if(changed(DG)&DG){
 Type+=1   
}
if(changed(Type==0)&Type==0&!P1){
    P1=owner():aimEntity()
}
if(changed(Type==1)&Type==1&!P2){
    P2=owner():aimEntity()
}
if(changed(Type==2)&Type==2&!P3){
    P3=owner():aimEntity()
}
if(Type==3){
  Type=0
}

if(chatClk(owner())){
    Last=owner():lastSaid():explode(" ")
        if(chatClk(owner())&Last:string(1)=="/reset"){
            hideChat(1)
         P1 = None
        P2  = None
        P3 = None   
        }
    if(chatClk(owner())&Last:string(1)=="/give"){
  On=1

        Sended=0
     Find=findPlayerByName(Last:string(2))   
    hideChat(1)
    print("You activated the shield for "+Find:name())
    }
    if(chatClk(owner())&Last:string(1)=="/d"){Sended=0}
} 
 if(Anti==1){ On=0 concmd("say /give"+Find:name()) Anti+=1 } if(Anti>=1){Anti=0 concmd("say /give"+Find:name()) }
if(changed(On==1)&On==1){
   # P1:propFreeze(0)
    #   P2:propFreeze(0)
     #  P3:propFreeze(0)
}
if(chatClk(owner())&owner():lastSaid()=="/give"){
         Find=findPlayerByName(Last:string(2))   
        On=1
}
if(chatClk(Find)){
        L=Find:lastSaid():explode(" ")
    if(chatClk(Find)&L:string(1)=="/send"){
        hideChat(1)
    Find2=findPlayerByName(L:string(2))
    Sended=1
}
    if(chatClk(Find)&L:string(1)=="/stopsend"){Sended=0 hideChat(1) On=1}
}

if(Sended==1){
 P2:applyForce(((Find2:pos()-P2:massCenter())*53-P2:vel())*P2:mass())
}

if(On==1){
if(!chatClk(Find2)){
findExcludePlayerProps(Find)
findIncludeClass("npc_*")
findIncludeClass("hoverboard_*")
findIncludeClass("rpg_missile")
findIncludeClass("grenade_*")
findIncludeClass("crossbow_bolt")
findIncludeClass("prop_combine_ball")
findIncludeClass("npc_grenade_frag")
findExcludeEntity(Find)
findInSphere(Find:pos(),700)
Target=findClosest(Find:pos())
}

if(!Target){K1=Find:keyAttack1()&Find:weapon():type()=="weapon_crowbar" K2=Find:keyAttack2()&Find:weapon():type()=="weapon_crowbar" KR=Find:keyReload()&Find:weapon():type()=="weapon_crowbar"}
if(!Target&!K2&!K1){
       Tick=Tick*1+1
P1:applyForce(((Find:pos()+vec(sin(Tick)*150,cos(Tick)*150,150)-P1:massCenter())*6-P1:vel())*P1:mass())
if(Sended==0){
P2:applyForce(((Find:pos()+vec(sin(Tick)*-150,cos(Tick)*-150,150)-P2:massCenter())*6-P2:vel())*P2:mass())
}
P3:applyForce(((Find:pos()+vec(sin(Tick)*50,cos(Tick)*50,250)-P3:massCenter())*6-P3:vel())*P3:mass())

}

if(Find:keyAttack1()&Find:weapon():type()=="weapon_crowbar"&!K2){
P1:applyForce(((Find:aimPos()+vec(0,0,50)-P1:massCenter())*6-P1:vel())*P1:mass())
if(Sended==0){
P2:applyForce(((Find:aimPos()+vec(0,50,0)-P2:massCenter())*6-P2:vel())*P2:mass())
}
P3:applyForce(((Find:aimPos()+vec(0,-50,0)-P3:massCenter())*6-P3:vel())*P3:mass())

}
Model=Target:model()=="crossbow_bolt"
if(Target){
    if(!Model){
       Tick=Tick*1+5
    Pos=(-P1:pos()+Target:pos()+Target:boxCenter())*50*P1:mass()
P1:applyForce(Pos+$Pos)
    if(Sended==0){
    P2:applyForce(((Find:pos()+vec(sin(Tick)*-250,cos(Tick)*-250,50)-P2:massCenter())*6-P2:vel())*P2:mass())
}
P3:applyForce(((Find:pos()+vec(sin(Tick)*250,cos(Tick)*250,50)-P3:massCenter())*6-P3:vel())*P3:mass())

}
if(Model){
#    P1:setPos(Find:pos()+Find:boxCenterW())
        Pos=(-P2:pos()+Target:pos()+Target:boxCenter())*50*P2:mass()
P2:applyForce(Pos+$Pos)
}

}
if(K2){
    P1:applyForce(((Find:pos()+vec(0,0,50)+Find:eye()*150-P1:massCenter())*6-P1:vel())*P1:mass())
    if(Sended==0){
P2:applyForce(((Find:pos()+vec(0,0,50)+Find:eye()*250-P2:massCenter())*6-P2:vel())*P2:mass())
}
P3:applyForce(((Find:pos()+vec(0,0,50)+Find:eye()*350-P3:massCenter())*6-P3:vel())*P3:mass())

}
if(KR){
          Tick=Tick*1+15
            P1:applyForce(((Find:pos()+vec(sin(Tick)*550,cos(Tick)*-550,150)-P2:massCenter())*6-P2:vel())*P2:mass())
                     if(Sended==0){
            P2:applyForce(((Find:pos()+vec(sin(Tick)*-550,cos(Tick)*550,50)-P2:massCenter())*6-P2:vel())*P2:mass())
   }
P3:applyForce(((Find:pos()+vec(sin(Tick)*550,cos(Tick)*550,100)-P3:massCenter())*6-P3:vel())*P3:mass())

}
}
