@name FailCake holoTest =)
@outputs I

if(first()){
    holoCreate(1)
    holoModel(1,"models/combine_strider_vsdog.mdl")
    holoAnim(1,0)
    holoParent(1,entity())
    I++
    timer("changeanim",holoAnimLength(1)*1000)
}
if(clk("changeanim")){
    holoAnim(1,I)
    I++
    print(I)
    timer("changeanim",holoAnimLength(1)*1000)
}
