@name FailCake MineCraft Portal_2 V1
@inputs Connect2:entity
@outputs First Up Left Ready Connect:entity Delete Open
@persist Up I Left Por1:array Por2:array
@trigger all
runOnTick(1)
runOnChat(1)
E = entity()

Connect = E


if(first()){
E:setAlpha(0)
propSpawnEffect(0)
First = 1
Up = 0
hint("Made By FailCake",7)
hint("Creating Portal!",7)
}

if(First){
timer("spawn",800)
if(clk("spawn")){
I+=1
if(I <= 3){
Portal = propSpawn("models/hunter/blocks/cube05x05x05.mdl",E:toWorld(vec(0,-35,10+Up)),ang(0,0,0),1) 
Portal2 = propSpawn("models/hunter/blocks/cube05x05x05.mdl",E:toWorld(vec(0,35,10+Up)),ang(0,0,0),1) 
Up+=23.9
Portal:setMaterial("phoenix_storms/gear")
Portal2:setMaterial("phoenix_storms/gear")
Portal2:setColor(vec(135,135,135))
Portal:setColor(vec(135,135,135))
Por1:pushEntity(Portal)
Por2:pushEntity(Portal2)
}else{
Portal2 = propSpawn("models/hunter/blocks/cube05x05x05.mdl",E:toWorld(vec(0,35-Left,80)),ang(0,0,0),1) 
Left+=23.3
Portal2:setMaterial("phoenix_storms/gear")
Portal2:setColor(vec(135,135,135))
Por2:pushEntity(Portal2)
}
if(I>= 7){ 
First = 0 
I = 0
Ready = 1
Once = 1
hint("Portal Created!",7)  
}
}
}

if(Connect2 & Once){
Once = 0
hint("Portal 1 Connected!",7)    
}

if(Ready & Connect2 & Open){
holoCreate(1)
holoModel(1,"cube")
holoPos(1,E:toWorld(vec(0,0,35.5)))
holoScale(1,vec(0.1,4,6))
holoColor(1,vec(250,150,0))
holoMaterial(1,"models/alyx/emptool_glow")

    R1=rangerOffset(40,holoEntity(1):pos(),(vec(0,0,1)):rotate(holoEntity(1):angles()))
    if(R1:hit()&R1:entity()){
        R1:entity():setPosition(Connect2:pos()+Connect2:up()*(R1:entity():radius()+40)-vec(0,0,(R1:entity():boxSize():z()/2)*R1:entity():isPlayer()))
    }

}else{
holoDelete(1)
}

if(Delete){
for(O = 0,10){
Por1[O,entity]:propDelete()
Por2[O,entity]:propDelete()
if(O == 10){
Delete = 0
O = 0
selfDestructAll()
}   
}   
}

if(chatClk(owner())) {if(lastSaid() == "-cleanall" & Delete == 0){
Delete = 1
}
}

if(chatClk(owner())) {if(lastSaid() == "-open" & Open == 0){
Open = 1
}
}
if(chatClk(owner())) {if(lastSaid() == "-close" & Open == 1){
Open = 0
}
}

if(chatClk(owner())) {if(lastSaid() == "-clean2" & Delete == 0){
Delete = 1
hint("** Cleaning Portal2 **",100)
}
}
if(duped()){selfDestructAll()}

####################################################################
## Do not rename the E2 or remove the hint("Made by Failcake",100)##
####################################################################
