@name Holo Penis
@inputs 
@outputs Time
@persist Player:entity
@trigger 
runOnTick(1)

if(first()){
hint("Made By eLeD.",100)
    holoCreate(1)
    holoColor(1, vec(240,191,244))
    holoModel(1, "hqsphere2" )
    holoCreate(2)
    holoColor(2, vec(240,191,244))
    holoModel(2, "hqsphere2" )
    holoCreate(3)
    holoColor(3, vec(240,191,244))
    holoModel(3, "hqsphere2")
    holoScale(3,vec(1,1,2))
}

# NOTE : you dont need to REPEAT THE CODE for each holo!!!!

S = owner():lastSaid():explode(" ")

if(S:string(1)=="penis") {

    TempPlayer = findPlayerByName(S:string(2))
    if(TempPlayer:isPlayer()){
        Player = TempPlayer
    }


}

Time++

Speed = 2 # Made this to help you, speed is the velocity of the thingy
Distance = 50 # this is the radius of the thingy

A1 = cos(Time*Speed)*Distance
A2 = sin(Time*Speed)*Distance

holoPos(1, Player:pos() + vec(A1,8+A2,100))
holoAng(1,ang(0,Time,0))
holoPos(2, Player:pos() + vec(8+A1,A2,100))
holoAng(2,ang(0,Time,0))
holoPos(3, Player:pos() + vec(5+A1,5+A2,108))
holoAng(3,ang(0,Time,0))
