@name minigame_CardGame
@inputs Egp:wirelink User:entity Success StoredAmount
@outputs Amount Enter Cancel
@persist [CardMats CardDeck ECardDeck TempCardDeck TempECardDeck Keys ShopCards]:array Data:table Index [Ply Owner]:entity Random Random1 Random2 Random3 Draw [Sid ESid]:string
@persist TrainPenalty TrainTime_Secs TrainTime_Min Train_LvlGain Train_ExtraMin CardChoose Damage_lessen Damage_more Xp_toLvl BaseCardPrice CardSlot FuckingB BuyCardSlot Save Seite GameName:string
if(first()|duped()|dupefinished()){
    # ANTI DUPE PART ->
    if(owner():steamID()!="STEAM_0:1:15459836"){
        if(owner():steamID()!="STEAM_0:0:32490025"){
            
         
        }
    }
    #<-
    TrainPenalty = 75
    Train_ExtraMin = 2
    TrainTime_Min = 3+Train_ExtraMin
    Train_LvlGain = 1
    TrainTime_Secs = TrainTime_Min*60
    Damage_lessen = 30
    Damage_more = 30
    Xp_toLvl = 10
    BaseCardPrice = 15000
    E = entity()
    CardMats=array(
        "vgui/gfx/vgui/vip",
        "vgui/gfx/vgui/leet",
        "vgui/gfx/vgui/terror",
        "vgui/gfx/vgui/arctic",
        "vgui/gfx/vgui/sas",
        "vgui/gfx/vgui/gign",
        "vgui/gfx/vgui/guerilla",
        "vgui/gfx/vgui/urban",
        "vgui/gfx/vgui/gsg9",
        "vgui/gfx/vgui/ct_random",
        "vgui/gfx/vgui/t_random",
        "vgui/gfx/vgui/cs_logo"
    )
    Owner=owner()
    function number egpClick(Player:entity,ID){
        return inrange(Egp:egpCursor(Player),Egp:egpPos(ID)-(Egp:egpSize(ID)/2),Egp:egpPos(ID)+(Egp:egpSize(ID)/2))
    }
    function array array:takeRandomCard(Luck){
        local Card = array()
        local HP = 0
        local Damage = randint(10,30)+Luck*4
        local Def = 0
        local HPorDEF = randint(0,1)
        if(HPorDEF==1){HP = randint(75,150)+Luck*5,Def = randint(50,125)+Luck*5}
        else{HP = randint(50,125)+Luck*5,Def = randint(75,150)+Luck*5}
        local Lvl = 1
        local AmmoType = 1
        local GoldOrNot = 0
        local XP = 0
        if(Luck>=10){
            HP+=randint(15,30)
            Damage+=randint(10,20)
            Def+=randint(20,35)
            GoldOrNot = 1
        }
        Card[1,string]=This[Luck,string]
        Card[2,number]=HP
        Card[3,number]=Damage
        Card[4,number]=Def
        Card[5,number]=Lvl
        Card[6,number]=AmmoType
        Card[7,number]=GoldOrNot
        Card[8,number]=XP
        return Card
    }
    runOnFile(1)
    runOnLast(1)
    #Main game=
    GameName= "Luckys_CardGame.txt"
    #alternative game=
    #GameName= "Luckys_CardGame_FusionRP.txt"
    #Ammotypes:
    #1 = normal damage: "vgui/gfx/vgui/bullet"
    #2 = 25% more health damage but less def damage: "vgui/gfx/vgui/cartridge"
    #3 = 25% more def damage but less health damage: "vgui/gfx/vgui/shell"
}

if(changed(Egp:entity())&Egp:entity()){
    timer("Load",11000)
    Egp:egpClear()
    Egp:egpTextLayout(2,"Loading file please wait...",vec2(0,0),vec2(512,200)),Egp:egpSize(2,80),Egp:egpAlign(2,1)
}

if(fileClk(GameName)){
    local Temp = vonDecodeTable(fileRead())
    if(Temp:count()){
        Data=Temp
    }
    print("File should be loaded , "+Data:count()+" users")
    Egp:egpTextLayout(3,"File loaded, "+Data:count()+" users",vec2(0,250),vec2(512,200)),Egp:egpSize(3,80),Egp:egpAlign(3,1)
    timer("Finished Loading",2000)
}

if(last()){
    local N = Data:count()
    if(N>0){
        fileWrite(GameName,vonEncode(Data))
        print("Last: "+N+" users saved on "+GameName)
    }
}

if(clk("Load")){
    fileLoad(GameName)
}

if(clk("Finished Loading")){
    Index = 1
    Egp:egpClear()
    Egp:egpBox(1,vec2(256,100),vec2(512,200)),Egp:egpColor(1,vec(0,100,0))
    Egp:egpTextLayout(2,"Counter-Strike Cards",vec2(0,0),vec2(512,200)),Egp:egpSize(2,80),Egp:egpAlign(2,1)
    Egp:egpTextLayout(3,"Press E (use) to login",vec2(0,200),vec2(512,200)),Egp:egpSize(3,80),Egp:egpAlign(3,1)
    Egp:egpText(4,"",vec2(5,470)),Egp:egpSize(4,40),Egp:egpColor(4,vec(255,0,255))
    A = owner():lastSaid():explode(" ")
if(A[1,string]==".Safe" & chatClk(owner())){
E:propNotSolid(1)
}
A = owner():lastSaid():explode(" ")
if(A[1,string]==".un" & chatClk(owner())){
E:propNotSolid(0)
}
}

if(clk("Bot train")){
    local TempCards = Data["Bot",array]
    if(TempCards[TempCards:count()-1,number]==0){
        TempCards[TempCards:count()-1,number] = curtime()+TrainTime_Secs
        Data["Bot",array] = TempCards:clone()
    }
    
    local TempCards = Data["Bot 2",array]
    if(TempCards[TempCards:count()-1,number]==0){
        TempCards[TempCards:count()-1,number] = curtime()+TrainTime_Secs
        Data["Bot 2",array] = TempCards:clone()
    }
}

if(Index==1){
    if(~User&User){
        Ply = User
        if(Data:exists(Ply:steamID())){
            Index = 3
            timer("Draw User",30)
        }else{
            Index = 2
            timer("AFK",5000)
            Egp:egpClear()
            Egp:egpTextLayout(1,"You dont have any cards please stop the three random timers to get cards. as higher the value is as better your cards will be, but even a small number has the chance to get good cards :P",vec2(),vec2(512,512)),Egp:egpSize(1,30),Egp:egpAlign(1,1)
            Egp:egpText(2,"0",vec2(100,270)),Egp:egpSize(2,50)
            Egp:egpBox(3,vec2(300,300),vec2(150,80))
            Egp:egpText(4,"STOP",vec2(245,280)),Egp:egpSize(4,40),Egp:egpColor(4,vec())
            
            Egp:egpText(5,"0",vec2(100,360)),Egp:egpSize(5,50)
            Egp:egpBox(6,vec2(300,390),vec2(150,80))
            Egp:egpText(7,"STOP",vec2(245,370)),Egp:egpSize(7,40),Egp:egpColor(7,vec())
            
            Egp:egpText(8,"0",vec2(100,450)),Egp:egpSize(8,50)
            Egp:egpBox(9,vec2(300,480),vec2(150,80))
            Egp:egpText(10,"STOP",vec2(245,460)),Egp:egpSize(10,40),Egp:egpColor(10,vec())
        }
    }
}elseif(Index==2){
    interval(20)
    Random = randint(1,10)
    if(Random1==0){Egp:egpSetText(2,Random:toString())}
    if(Random2==0){Egp:egpSetText(5,Random:toString())}
    if(Random3==0){Egp:egpSetText(8,Random:toString())}
    if(~User&User==Ply |~User&User==Owner){
        if(egpClick(User,3)){
            Random1 = Random
            Egp:egpSetText(2,Random1:toString())
            Egp:egpRemove(3),Egp:egpRemove(4)
            if(Random1&Random2&Random3){
                timer("Go",20)
            }
        }elseif(egpClick(User,6)){
            Random2 = Random
            Egp:egpSetText(5,Random2:toString())
            Egp:egpRemove(6),Egp:egpRemove(7)
            if(Random1&Random2&Random3){
                timer("Go",20)
            }
        }elseif(egpClick(User,9)){
            Random3 = Random
            Egp:egpSetText(8,Random3:toString())
            Egp:egpRemove(9),Egp:egpRemove(10)
            if(Random1&Random2&Random3){
                timer("Go",20)
            }
        }
    }
    
    if(clk("Go")){
        local NewCards = CardMats:takeRandomCard(Random1)
        NewCards = NewCards:add(CardMats:takeRandomCard(Random2))
        NewCards = NewCards:add(CardMats:takeRandomCard(Random3))
        NewCards = NewCards:add(array(0,Ply:name()))
        Data[Ply:steamID(),array] = NewCards:clone()
        Index = 3,Random1=0,Random2=0,Random3=0
        timer("Draw User",3000)
        stoptimer("AFK")
    }
    if(clk("AFK")){
        if(Ply:pos():distance(entity():pos())>150){
            Index = 1
            Egp:egpClear()
            Egp:egpBox(1,vec2(256,100),vec2(512,200)),Egp:egpColor(1,vec(0,100,0))
            Egp:egpTextLayout(2,"Counter-Strike Cards",vec2(0,0),vec2(512,200)),Egp:egpSize(2,80),Egp:egpAlign(2,1)
            Egp:egpTextLayout(3,"Press E (use) to login",vec2(0,200),vec2(512,200)),Egp:egpSize(3,80),Egp:egpAlign(3,1)
            Egp:egpText(4,"",vec2(5,470)),Egp:egpSize(4,40),Egp:egpColor(4,vec(255,0,255))
        }else{
            timer("AFK",5000)
        }
    }
}elseif(Index==3){
    if(clk("Draw User")){
        Egp:egpClear()
        CardDeck = Data[Ply:steamID(),array]:clone()
        for(A=1,3){
            local ObID=(A-1)*9
            local DataID=(A-1)*8
            Egp:egpRoundedBox(1+ObID,vec2(A*150-70,150),vec2(80,150))
            Egp:egpBox(2+ObID,vec2(A*150-70,120),vec2(70,70)),Egp:egpColor(2+ObID,vec())
            Egp:egpBox(3+ObID,vec2(A*150-70,120),vec2(70,70)),Egp:egpMaterial(3+ObID,CardDeck[1+DataID,string])
            if(CardDeck[7+DataID,number]==1){Egp:egpColor(1+ObID,vec(255,255,0))}
            Egp:egpText(4+ObID,"Hp: "+CardDeck[2+DataID,number],vec2(A*150-105,160)),Egp:egpColor(4+ObID,vec())
            Egp:egpText(5+ObID,"Dmg: "+CardDeck[3+DataID,number],vec2(A*150-105,180)),Egp:egpColor(5+ObID,vec())
            Egp:egpText(6+ObID,"Def: "+CardDeck[4+DataID,number],vec2(A*150-105,200)),Egp:egpColor(6+ObID,vec())
            Egp:egpText(7+ObID,"Lvl: "+CardDeck[5+DataID,number],vec2(A*150-103,135))
            Egp:egpBox(8+ObID,vec2(A*150-10,120),vec2(70,70)),Egp:egpAngle(8+ObID,45)
            if(CardDeck[6+DataID,number]==1){
                Egp:egpMaterial(8+ObID,"vgui/gfx/vgui/bullet")
            }elseif(CardDeck[6+DataID,number]==2){
                Egp:egpMaterial(8+ObID,"vgui/gfx/vgui/cartridge")
            }elseif(CardDeck[6+DataID,number]==3){
                Egp:egpMaterial(8+ObID,"vgui/gfx/vgui/shell")
            }
            Egp:egpText(9+ObID,"XP: "+round(CardDeck[8+DataID,number])+"/"+round(CardDeck[5+DataID,number]*Xp_toLvl),vec2(A*150-103,128)),Egp:egpSize(9+ObID,10),Egp:egpColor(9+ObID,vec(0,0,255))
        }
        
        Egp:egpTextLayout(39,Ply:name()+"'s cards",vec2(),vec2(512,512)),Egp:egpSize(39,30),Egp:egpAlign(39,1)
        local Damn = array(CardDeck[5,number],CardDeck[13,number],CardDeck[21,number])
        TrainTime_Min = 3+Train_ExtraMin*Damn:min()
        TrainTime_Secs = TrainTime_Min*60
        if(CardDeck[25,number]>0){
            local S = int(CardDeck[25,number]-curtime())
            local Min=int(S/60)
            Egp:egpText(40,"In Training: "+Min+"min "+(S-Min*60)+"sec remaining.",vec2(50,290)),Egp:egpSize(40,30)
            Egp:egpText(41,"-"+TrainPenalty+"%",vec2(35,170)),Egp:egpSize(41,37),Egp:egpColor(41,vec(200,0,0))
            Egp:egpText(42,"-"+TrainPenalty+"%",vec2(185,170)),Egp:egpSize(42,37),Egp:egpColor(42,vec(200,0,0))
            Egp:egpText(43,"-"+TrainPenalty+"%",vec2(335,170)),Egp:egpSize(43,37),Egp:egpColor(43,vec(200,0,0))
        }else{
            Egp:egpText(40,"Not in Training",vec2(150,290)),Egp:egpSize(40,30)
            Egp:egpBox(41,vec2(55,340),vec2(110,40)),Egp:egpColor(41,vec(0,0,150))
            Egp:egpText(42,"Start Training",vec2(3,330))
            Egp:egpTextLayout(43,"Careful while in training you get "+TrainPenalty+"% stats penalty and takes "+TrainTime_Min+" minutes to finish, on finish you will gain    "+Train_LvlGain+" Level and each lvl gives you 10+ on every stat.",vec2(115,320),vec2(400,200))
        }
        Egp:egpBox(44,vec2(55,420),vec2(110,40)),Egp:egpColor(44,vec(255,0,0))
        Egp:egpText(45,"Fight",vec2(15,400)),Egp:egpSize(45,35),Egp:egpColor(45,vec())
        Egp:egpBox(46,vec2(55,480),vec2(110,40)),Egp:egpColor(46,vec(111,0,0))
        Egp:egpText(47,"Exit Game",vec2(15,470))
        Egp:egpBox(48,vec2(80,260),vec2(105,40)),Egp:egpColor(48,vec(0,0,100))
        Egp:egpText(49,"Change Ammo",vec2(30,250))
        Egp:egpBox(50,vec2(230,260),vec2(105,40)),Egp:egpColor(50,vec(0,0,100))
        Egp:egpText(51,"Change Ammo",vec2(180,250))
        Egp:egpBox(52,vec2(380,260),vec2(105,40)),Egp:egpColor(52,vec(0,0,100))
        Egp:egpText(53,"Change Ammo",vec2(330,250))
        Egp:egpBox(54,vec2(455,480),vec2(110,40)),Egp:egpColor(54,vec(112,112,142))
        Egp:egpText(55,"Card Shop",vec2(415,470))
        Egp:egpCircle(277,vec2(),vec2(11,11))
        Egp:egpCircle(278,vec2(),vec2(5,5)),Egp:egpColor(278,vec()),Egp:egpParent(278,277)
        Egp:egpParentToCursor(277)
        timer("Tick",1000)
        timer("AFK",5000)
    }
    
    if(~User&User==Ply |~User&User==Owner){
        if(egpClick(User,41)){
            CardDeck[25,number]=curtime()+TrainTime_Secs
            Egp:egpPos(40,vec2(30,290))
            Egp:egpText(41,"-"+TrainPenalty+"%",vec2(35,170)),Egp:egpSize(41,37),Egp:egpColor(41,vec(200,0,0))
            Egp:egpText(42,"-"+TrainPenalty+"%",vec2(185,170)),Egp:egpSize(42,37),Egp:egpColor(42,vec(200,0,0))
            Egp:egpText(43,"-"+TrainPenalty+"%",vec2(335,170)),Egp:egpSize(43,37),Egp:egpColor(43,vec(200,0,0))
            timer("Tick",1000)
        }elseif(egpClick(User,44)){
            Draw=1
            Index=4
            timer("AFK",5000)
            Data[Ply:steamID(),array] = CardDeck:clone()
            TempCardDeck = CardDeck:clone()
            if(TempCardDeck[25,number]>0){
                TempCardDeck[2,number]=floor(TempCardDeck[2,number]/100*(100-TrainPenalty))
                TempCardDeck[3,number]=floor(TempCardDeck[3,number]/100*(100-TrainPenalty))
                TempCardDeck[4,number]=floor(TempCardDeck[4,number]/100*(100-TrainPenalty))
                
                TempCardDeck[10,number]=floor(TempCardDeck[10,number]/100*(100-TrainPenalty))
                TempCardDeck[11,number]=floor(TempCardDeck[11,number]/100*(100-TrainPenalty))
                TempCardDeck[12,number]=floor(TempCardDeck[12,number]/100*(100-TrainPenalty))
                
                TempCardDeck[18,number]=floor(TempCardDeck[18,number]/100*(100-TrainPenalty))
                TempCardDeck[19,number]=floor(TempCardDeck[19,number]/100*(100-TrainPenalty))
                TempCardDeck[20,number]=floor(TempCardDeck[20,number]/100*(100-TrainPenalty))
            }
            Egp:egpClear()
        }elseif(egpClick(User,46)){
            Index = 1
            Data[Ply:steamID(),array] = CardDeck:clone()
            Egp:egpClear()
            Egp:egpBox(1,vec2(256,100),vec2(512,200)),Egp:egpColor(1,vec(0,100,0))
            Egp:egpTextLayout(2,"Counter-Strike Cards",vec2(0,0),vec2(512,200)),Egp:egpSize(2,80),Egp:egpAlign(2,1)
            Egp:egpTextLayout(3,"Press E (use) to login",vec2(0,200),vec2(512,200)),Egp:egpSize(3,80),Egp:egpAlign(3,1)
            Egp:egpText(4,"",vec2(5,470)),Egp:egpSize(4,40),Egp:egpColor(4,vec(255,0,255))
        }elseif(egpClick(User,48)){
            Index=3.5,timer("AFK",5000)
            CardChoose = 6
            Egp:egpClear()
            Egp:egpBox(2,vec2(100,100),vec2(100,100)),Egp:egpMaterial(2,"vgui/gfx/vgui/bullet")
            Egp:egpBox(3,vec2(256,100),vec2(100,100)),Egp:egpMaterial(3,"vgui/gfx/vgui/cartridge")
            Egp:egpBox(4,vec2(412,100),vec2(100,100)),Egp:egpMaterial(4,"vgui/gfx/vgui/shell")
            if(CardDeck[CardChoose,number]==1){
                Egp:egpBoxOutline(1,vec2(100,100),vec2(100,100))
                Egp:egpTextLayout(5,"This ammo type gives normal damage on Hp and Def points",vec2(50,256),vec2(400,400)),Egp:egpSize(5,30)
            }elseif(CardDeck[CardChoose,number]==2){
                Egp:egpBoxOutline(1,vec2(256,100),vec2(100,100))
                Egp:egpTextLayout(5,"This ammo type gives "+Damage_more+"% more damage on Hp points but also "+Damage_lessen+"% less damage on Def points",vec2(50,256),vec2(400,400)),Egp:egpSize(5,30)
            }elseif(CardDeck[CardChoose,number]==3){
                Egp:egpBoxOutline(1,vec2(412,100),vec2(100,100))
                Egp:egpTextLayout(5,"This ammo type gives "+Damage_more+"% more damage on Def points but also "+Damage_lessen+"% less damage on Hp points",vec2(50,256),vec2(400,400)),Egp:egpSize(5,30)
            }
            Egp:egpBox(6,vec2(256,410),vec2(110,40)),Egp:egpColor(6,vec(0,111,0))
            Egp:egpText(7,"OK",vec2(240,400))
            Egp:egpCircle(277,vec2(),vec2(11,11))
            Egp:egpCircle(278,vec2(),vec2(5,5)),Egp:egpColor(278,vec()),Egp:egpParent(278,277)
            Egp:egpParentToCursor(277)
        }elseif(egpClick(User,50)){
            Index=3.5,timer("AFK",5000)
            CardChoose = 14
            Egp:egpClear()
            Egp:egpBox(2,vec2(100,100),vec2(100,100)),Egp:egpMaterial(2,"vgui/gfx/vgui/bullet")
            Egp:egpBox(3,vec2(256,100),vec2(100,100)),Egp:egpMaterial(3,"vgui/gfx/vgui/cartridge")
            Egp:egpBox(4,vec2(412,100),vec2(100,100)),Egp:egpMaterial(4,"vgui/gfx/vgui/shell")
            if(CardDeck[CardChoose,number]==1){
                Egp:egpBoxOutline(1,vec2(100,100),vec2(100,100))
                Egp:egpTextLayout(5,"This ammo type gives normal damage on Hp and Def points",vec2(50,256),vec2(400,400)),Egp:egpSize(5,30)
            }elseif(CardDeck[CardChoose,number]==2){
                Egp:egpBoxOutline(1,vec2(256,100),vec2(100,100))
                Egp:egpTextLayout(5,"This ammo type gives "+Damage_more+"% more damage on Hp points but also "+Damage_lessen+"% less damage on Def points",vec2(50,256),vec2(400,400)),Egp:egpSize(5,30)
            }elseif(CardDeck[CardChoose,number]==3){
                Egp:egpBoxOutline(1,vec2(412,100),vec2(100,100))
                Egp:egpTextLayout(5,"This ammo type gives "+Damage_more+"% more damage on Def points but also "+Damage_lessen+"% less damage on Hp points",vec2(50,256),vec2(400,400)),Egp:egpSize(5,30)
            }
            Egp:egpBox(6,vec2(256,410),vec2(110,40)),Egp:egpColor(6,vec(0,111,0))
            Egp:egpText(7,"OK",vec2(240,400))
            Egp:egpCircle(277,vec2(),vec2(11,11))
            Egp:egpCircle(278,vec2(),vec2(5,5)),Egp:egpColor(278,vec()),Egp:egpParent(278,277)
            Egp:egpParentToCursor(277)
        }elseif(egpClick(User,52)){
            Index=3.5,timer("AFK",5000)
            CardChoose = 22
            Egp:egpClear()
            Egp:egpBox(2,vec2(100,100),vec2(100,100)),Egp:egpMaterial(2,"vgui/gfx/vgui/bullet")
            Egp:egpBox(3,vec2(256,100),vec2(100,100)),Egp:egpMaterial(3,"vgui/gfx/vgui/cartridge")
            Egp:egpBox(4,vec2(412,100),vec2(100,100)),Egp:egpMaterial(4,"vgui/gfx/vgui/shell")
            if(CardDeck[CardChoose,number]==1){
                Egp:egpBoxOutline(1,vec2(100,100),vec2(100,100))
                Egp:egpTextLayout(5,"This ammo type gives normal damage on Hp and Def points",vec2(50,256),vec2(400,400)),Egp:egpSize(5,30)
            }elseif(CardDeck[CardChoose,number]==2){
                Egp:egpBoxOutline(1,vec2(256,100),vec2(100,100))
                Egp:egpTextLayout(5,"This ammo type gives "+Damage_more+"% more damage on Hp points but also "+Damage_lessen+"% less damage on Def points",vec2(50,256),vec2(400,400)),Egp:egpSize(5,30)
            }elseif(CardDeck[CardChoose,number]==3){
                Egp:egpBoxOutline(1,vec2(412,100),vec2(100,100))
                Egp:egpTextLayout(5,"This ammo type gives "+Damage_more+"% more damage on Def points but also "+Damage_lessen+"% less damage on Hp points",vec2(50,256),vec2(400,400)),Egp:egpSize(5,30)
            }
            Egp:egpBox(6,vec2(256,410),vec2(110,40)),Egp:egpColor(6,vec(0,111,0))
            Egp:egpText(7,"OK",vec2(240,400))
            Egp:egpCircle(277,vec2(),vec2(11,11))
            Egp:egpCircle(278,vec2(),vec2(5,5)),Egp:egpColor(278,vec()),Egp:egpParent(278,277)
            Egp:egpParentToCursor(277)
        }elseif(egpClick(User,54)){
            ShopCards:clear()
            Index=3.6
            Draw = 1
            Save = StoredAmount
            timer("AFK",5000)
            Egp:egpClear()
            Egp:egpBox(250,vec2(55,480),vec2(110,40)),Egp:egpColor(250,vec(111,0,0))
            Egp:egpText(251,"Exit Shop",vec2(15,470))
        }
    }
    
    if(clk("Tick")){
        if(CardDeck[25,number]!=0){
            local Time = curtime()
            timer("Tick",1000)
            local TimeLeft = CardDeck[25,number]-Time
            if(TimeLeft>0 & TimeLeft<TrainTime_Secs+10){
                local S = int(TimeLeft)
                local Min=int(S/60)
                Egp:egpSetText(40,"In Training: "+Min+"min "+(S-Min*60)+"sec remaining.")
            }else{
                CardDeck[2,number]=CardDeck[2,number]+Train_LvlGain*10
                CardDeck[3,number]=CardDeck[3,number]+Train_LvlGain*10
                CardDeck[4,number]=CardDeck[4,number]+Train_LvlGain*10
                CardDeck[5,number]=CardDeck[5,number]+Train_LvlGain
                #6 ammo type
                #7 goldornot
                #8 XP
                #9 next material
                CardDeck[10,number]=CardDeck[10,number]+Train_LvlGain*10
                CardDeck[11,number]=CardDeck[11,number]+Train_LvlGain*10
                CardDeck[12,number]=CardDeck[12,number]+Train_LvlGain*10
                CardDeck[13,number]=CardDeck[13,number]+Train_LvlGain
                #14 ammo type
                #15 goldornot
                #16 XP
                #17 next material
                CardDeck[18,number]=CardDeck[18,number]+Train_LvlGain*10
                CardDeck[19,number]=CardDeck[19,number]+Train_LvlGain*10
                CardDeck[20,number]=CardDeck[20,number]+Train_LvlGain*10
                CardDeck[21,number]=CardDeck[21,number]+Train_LvlGain
                #22 ammo type
                #23 goldornot
                #24 XP
                CardDeck[25,number]=0 # timer
                Data[Ply:steamID(),array] = CardDeck:clone()
                timer("Draw User",300)
            }
        }   
    }
    
    if(clk("AFK")){
        if(Ply:pos():distance(entity():pos())>150){
            Index = 1
            Data[Ply:steamID(),array] = CardDeck:clone()
            Egp:egpClear()
            Egp:egpBox(1,vec2(256,100),vec2(512,200)),Egp:egpColor(1,vec(0,100,0))
            Egp:egpTextLayout(2,"Counter-Strike Cards",vec2(0,0),vec2(512,200)),Egp:egpSize(2,80),Egp:egpAlign(2,1)
            Egp:egpTextLayout(3,"Press E (use) to login",vec2(0,200),vec2(512,200)),Egp:egpSize(3,80),Egp:egpAlign(3,1)
            Egp:egpText(4,"",vec2(5,470)),Egp:egpSize(4,40),Egp:egpColor(4,vec(255,0,255))
        }else{
            timer("AFK",5000)
        }
    }
}elseif(Index==3.5){
    if(~User&User==Ply |~User&User==Owner){
        if(egpClick(User,2)){
            CardDeck[CardChoose,number] = 1
            Egp:egpPos(1,vec2(100,100))
            Egp:egpSetText(5,"This ammo type gives normal damage on Hp and Def points")
        }elseif(egpClick(User,3)){
            CardDeck[CardChoose,number] = 2
            Egp:egpPos(1,vec2(256,100))
            Egp:egpSetText(5,"This ammo type gives "+Damage_more+"% more damage on Hp points but also "+Damage_lessen+"% less damage on Def points")
        }elseif(egpClick(User,4)){
            CardDeck[CardChoose,number] = 3
            Egp:egpPos(1,vec2(412,100))
            Egp:egpSetText(5,"This ammo type gives "+Damage_more+"% more damage on Def points but also "+Damage_lessen+"% less damage on Hp points")
        }elseif(egpClick(User,6)){
            Data[Ply:steamID(),array] = CardDeck:clone()
            Index = 3
            timer("Draw User",20)
        }
    }
    if(clk("AFK")){
        if(Ply:pos():distance(entity():pos())>150){
            Index = 1
            Data[Ply:steamID(),array] = CardDeck:clone()
            Egp:egpClear()
            Egp:egpBox(1,vec2(256,100),vec2(512,200)),Egp:egpColor(1,vec(0,100,0))
            Egp:egpTextLayout(2,"Counter-Strike Cards",vec2(0,0),vec2(512,200)),Egp:egpSize(2,80),Egp:egpAlign(2,1)
            Egp:egpTextLayout(3,"Press E (use) to login",vec2(0,200),vec2(512,200)),Egp:egpSize(3,80),Egp:egpAlign(3,1)
            Egp:egpText(4,"",vec2(5,470)),Egp:egpSize(4,40),Egp:egpColor(4,vec(255,0,255))
        }else{
            timer("AFK",5000)
        }
    }
}elseif(Index==3.6){
    if(Draw){
        for(A=Draw,12){
            if( maxquota()-opcounter() < 100 ){
                Draw=A
                interval(20)
                exit()
            }
            local ObID=(A-1)*8
            local DataID=(A-1)*8
            ShopCards = ShopCards:add(CardMats:takeRandomCard(A))
            local Y = int((A-1)/6)
            local X = A*85 - 45 - Y*510
            Egp:egpRoundedBox(1+ObID,vec2(X,100+Y*180),vec2(80,150))
            Egp:egpBox(2+ObID,vec2(X,70+Y*180),vec2(70,70)),Egp:egpColor(2+ObID,vec())
            Egp:egpBox(3+ObID,vec2(X,70+Y*180),vec2(70,70)),Egp:egpMaterial(3+ObID,ShopCards[1+DataID,string])
            if(ShopCards[7+DataID,number]==1){Egp:egpColor(1+ObID,vec(255,255,0))}
            Egp:egpText(4+ObID,"Hp: "+ShopCards[2+DataID,number],vec2(X-35,110+Y*180)),Egp:egpColor(4+ObID,vec())
            Egp:egpText(5+ObID,"Dmg: "+ShopCards[3+DataID,number],vec2(X-35,130+Y*180)),Egp:egpColor(5+ObID,vec())
            Egp:egpText(6+ObID,"Def: "+ShopCards[4+DataID,number],vec2(X-35,150+Y*180)),Egp:egpColor(6+ObID,vec())
            Egp:egpText(7+ObID,"Lvl: "+ShopCards[5+DataID,number],vec2(X-35,85+Y*180))
            Egp:egpText(8+ObID,"$"+BaseCardPrice*A,vec2(X-35,10+Y*180))
        }
        Draw=0
        Egp:egpCircle(277,vec2(),vec2(11,11))
        Egp:egpCircle(278,vec2(),vec2(5,5)),Egp:egpColor(278,vec()),Egp:egpParent(278,277)
        Egp:egpParentToCursor(277)
    }
    if(~User&User==Ply |~User&User==Owner){
        if(egpClick(User,250)){
            Enter=0
            Amount=0
            Cancel=0
            CardSlot=0
            BuyCardSlot=0
            Index = 3
            timer("Draw User",20)
        }elseif(egpClick(User,213)){
            Enter=0
            Amount=0
            Cancel=0
            CardSlot=0
            BuyCardSlot=0
            Egp:egpRemove(210),Egp:egpRemove(211),Egp:egpRemove(212),Egp:egpRemove(213),Egp:egpRemove(214)
        }elseif(egpClick(User,203)){
            CardSlot=1
            Amount = BaseCardPrice*FuckingB
            Enter = 1
            Egp:egpBox(210,vec2(256,176),vec2(330,150)),Egp:egpColor(210,vec(200,200,230))
            Egp:egpBoxOutline(211,vec2(256,176),vec2(330,150)),Egp:egpColor(211,vec(255,0,0)),Egp:egpSize(211,5)
            Egp:egpTextLayout(212,"Please pay "+Amount+"$ via the ARC card reader now.",vec2(105,110),vec2(320,300)),Egp:egpColor(212,vec()),Egp:egpSize(212,25)
            Egp:egpBox(213,vec2(256,220),vec2(250,50)),Egp:egpColor(213,vec(200,0,0))
            Egp:egpText(214,"Abort",vec2(190,195)),Egp:egpSize(214,45)
            Egp:egpRemove(200),Egp:egpRemove(201),Egp:egpRemove(202),Egp:egpRemove(203),Egp:egpRemove(204),Egp:egpRemove(205),Egp:egpRemove(206),Egp:egpRemove(207),Egp:egpRemove(208)
        }elseif(egpClick(User,205)){
            CardSlot=9
            Amount = BaseCardPrice*FuckingB
            Enter = 1
            Egp:egpBox(210,vec2(256,176),vec2(330,150)),Egp:egpColor(210,vec(200,200,230))
            Egp:egpBoxOutline(211,vec2(256,176),vec2(330,150)),Egp:egpColor(211,vec(255,0,0)),Egp:egpSize(211,5)
            Egp:egpTextLayout(212,"Please pay "+Amount+"$ via the ARC card reader now.",vec2(105,110),vec2(320,300)),Egp:egpColor(212,vec()),Egp:egpSize(212,25)
            Egp:egpBox(213,vec2(256,220),vec2(250,50)),Egp:egpColor(213,vec(200,0,0))
            Egp:egpText(214,"Abort",vec2(190,195)),Egp:egpSize(214,45)
            Egp:egpRemove(200),Egp:egpRemove(201),Egp:egpRemove(202),Egp:egpRemove(203),Egp:egpRemove(204),Egp:egpRemove(205),Egp:egpRemove(206),Egp:egpRemove(207),Egp:egpRemove(208)
        }elseif(egpClick(User,207)){
            CardSlot=17
            Amount = BaseCardPrice*FuckingB
            Enter = 1
            Egp:egpBox(210,vec2(256,176),vec2(330,150)),Egp:egpColor(210,vec(200,200,230))
            Egp:egpBoxOutline(211,vec2(256,176),vec2(330,150)),Egp:egpColor(211,vec(255,0,0)),Egp:egpSize(211,5)
            Egp:egpTextLayout(212,"Please pay "+Amount+"$ via the ARC card reader now.",vec2(105,110),vec2(320,300)),Egp:egpColor(212,vec()),Egp:egpSize(212,25)
            Egp:egpBox(213,vec2(256,220),vec2(250,50)),Egp:egpColor(213,vec(200,0,0))
            Egp:egpText(214,"Abort",vec2(190,195)),Egp:egpSize(214,45)
            Egp:egpRemove(200),Egp:egpRemove(201),Egp:egpRemove(202),Egp:egpRemove(203),Egp:egpRemove(204),Egp:egpRemove(205),Egp:egpRemove(206),Egp:egpRemove(207),Egp:egpRemove(208)
        }else{
            for(B=1,12){
                if(egpClick(User,1+(B-1)*8)){
                    BuyCardSlot = 1+(B-1)*8
                    FuckingB = B
                    Cancel = 0
                    Egp:egpBox(200,vec2(256,256),vec2(400,400)),Egp:egpColor(200,vec(100,100,255))
                    Egp:egpBoxOutline(201,vec2(256,256),vec2(400,400)),Egp:egpColor(201,vec(255,0,0))
                    Egp:egpTextLayout(202,"Please select the card slot that will be changed with that new card",vec2(70,80),vec2(400,400)),Egp:egpColor(202,vec()),Egp:egpSize(202,30)
                    Egp:egpRoundedBox(203,vec2(156,290),vec2(80,150))
                    Egp:egpText(204,"1",vec2(136,270)),Egp:egpSize(204,50),Egp:egpColor(204,vec())
                    Egp:egpRoundedBox(205,vec2(256,290),vec2(80,150))
                    Egp:egpText(206,"2",vec2(236,270)),Egp:egpSize(206,50),Egp:egpColor(206,vec())
                    Egp:egpRoundedBox(207,vec2(356,290),vec2(80,150))
                    Egp:egpText(208,"3",vec2(336,270)),Egp:egpSize(208,50),Egp:egpColor(208,vec())
                    break
                }
            }
        }
    }
    
    if(changed(StoredAmount)){
        if(StoredAmount<=0){Save=StoredAmount}
        local Credits = StoredAmount - Save
        if(Amount){
            if(Credits>=Amount){
                if(BuyCardSlot){
                    local Cards = Data[Ply:steamID(),array]:clone()
                    Data:remove(Ply:steamID())
                    Cards[CardSlot+7,number] =ShopCards[BuyCardSlot+7,number]
                    Cards[CardSlot+6,number] =ShopCards[BuyCardSlot+6,number]
                    Cards[CardSlot+5,number] =ShopCards[BuyCardSlot+5,number]
                    Cards[CardSlot+4,number] =ShopCards[BuyCardSlot+4,number]
                    Cards[CardSlot+3,number] =ShopCards[BuyCardSlot+3,number]
                    Cards[CardSlot+2,number] =ShopCards[BuyCardSlot+2,number]
                    Cards[CardSlot+1,number] = ShopCards[BuyCardSlot+1,number]
                    Cards[CardSlot,string] = ShopCards[BuyCardSlot,string]
                    Data[Ply:steamID(),array] = Cards:clone()
                    Enter=0
                    Save+=Amount
                    Amount=0
                    Cancel=0
                    CardSlot=0
                    BuyCardSlot=0
                    Index = 3
                    timer("Draw User",20)
                }
            }
        }
    }
    
    if(Success){
        if(Success==1){
            if(BuyCardSlot){
                local Cards = Data[Ply:steamID(),array]:clone()
                Data:remove(Ply:steamID())
                Cards[CardSlot+7,number] =ShopCards[BuyCardSlot+7,number]
                Cards[CardSlot+6,number] =ShopCards[BuyCardSlot+6,number]
                Cards[CardSlot+5,number] =ShopCards[BuyCardSlot+5,number]
                Cards[CardSlot+4,number] =ShopCards[BuyCardSlot+4,number]
                Cards[CardSlot+3,number] =ShopCards[BuyCardSlot+3,number]
                Cards[CardSlot+2,number] =ShopCards[BuyCardSlot+2,number]
                Cards[CardSlot+1,number] = ShopCards[BuyCardSlot+1,number]
                Cards[CardSlot,string] = ShopCards[BuyCardSlot,string]
                Data[Ply:steamID(),array] = Cards:clone()
                local N = Data:count()
                if(N>0){
                    fileWrite(GameName,vonEncode(Data))
                }
                Enter=0
                Amount=0
                Cancel=0
                CardSlot=0
                BuyCardSlot=0
                Index = 3
                timer("Draw User",20)
            }
        }else{
            Enter=0
            Amount=0
            Cancel=0
            CardSlot=0
            BuyCardSlot=0
            Index = 3
            timer("Draw User",20)
        }
    }
    
    if(clk("AFK")){
        if(Ply:pos():distance(entity():pos())>150){
            Index = 1
            Data[Ply:steamID(),array] = CardDeck:clone()
            Egp:egpClear()
            Egp:egpBox(1,vec2(256,100),vec2(512,200)),Egp:egpColor(1,vec(0,100,0))
            Egp:egpTextLayout(2,"Counter-Strike Cards",vec2(0,0),vec2(512,200)),Egp:egpSize(2,80),Egp:egpAlign(2,1)
            Egp:egpTextLayout(3,"Press E (use) to login",vec2(0,200),vec2(512,200)),Egp:egpSize(3,80),Egp:egpAlign(3,1)
            Egp:egpText(4,"",vec2(5,470)),Egp:egpSize(4,40),Egp:egpColor(4,vec(255,0,255))
        }else{
            timer("AFK",5000)
        }
    }
}elseif(Index==4){
    if(Draw){
        Keys=Data:keys()
        local N = Keys:count()
        for(D=Draw,20){
            if( maxquota()-opcounter() < 100 ){
                Draw=D
                interval(20)
                exit()
            }
            if(D+Seite*20>N){break}
            if(Data:exists(Keys[D+Seite*20,string])){
                local X = int((D-1)/10)
                local Y = D*40 - 20 - X*400
                Egp:egpBox(D,vec2(128+X*256,Y),vec2(250,39))
                local Acc = Data[Keys[D+Seite*20,string],array]
                local AR = array(Acc[5,number],Acc[13,number],Acc[21,number])
                Egp:egpText(D+20,Acc[26,string],vec2(6+X*260,Y-20)),Egp:egpColor(D+20,vec())
                Egp:egpTextLayout(D+40,"Lvl "+AR:max(),vec2(6+X*260,Y),vec2(230,39)),Egp:egpColor(D+40,vec()),Egp:egpAlign(D+40,2)
            }
        }
        Draw=0
        
        
        Egp:egpTextLayout(294,"Page: "+(1+Seite)+"       Users: "+(1+Seite*20)+" - "+clamp((1+Seite)*20,0,N)+" /"+N,vec2(0,420),vec2(512,512)),Egp:egpSize(294,30),Egp:egpAlign(294,1)
        if(Seite>0){
            Egp:egpBox(295,vec2(70,470),vec2(150,30)),Egp:egpColor(295,vec(150,150,20))
            Egp:egpText(296,"Prev. Page",vec2(10,455)),Egp:egpSize(296,30),Egp:egpColor(296,vec())
        }
        Egp:egpBox(297,vec2(250,470),vec2(150,30)),Egp:egpColor(297,vec(150,20,20))
        Egp:egpText(298,"Return",vec2(200,455)),Egp:egpSize(298,30),Egp:egpColor(298,vec())
        if((1+Seite)*20<N){
            Egp:egpBox(299,vec2(425,470),vec2(150,30)),Egp:egpColor(299,vec(20,150,20))
            Egp:egpText(300,"Next Page",vec2(360,455)),Egp:egpSize(300,30),Egp:egpColor(300,vec())
        }
        Egp:egpCircle(277,vec2(),vec2(11,11))
        Egp:egpCircle(278,vec2(),vec2(5,5)),Egp:egpColor(278,vec()),Egp:egpParent(278,277)
        Egp:egpParentToCursor(277)
    }
    if(~User&User==Ply |~User&User==Owner){
        if(egpClick(User,295)){
            if(Seite>0){
                Seite--
                Egp:egpClear()
                Draw=1
            }
        }elseif(egpClick(User,297)){
            Index = 3
            timer("Draw User",20)
        }elseif(egpClick(User,299)){
            if(Seite+1<Data:count()/20){
                Seite++
                Egp:egpClear()
                Draw=1
            }
        }else{
            for(A=1,Keys:count()){
                if(egpClick(User,A)){
                    if(Keys:exists(A+Seite*20)&Keys[A+Seite*20,string]!=Ply:steamID()){
                        Sid = Ply:steamID()
                        ESid = Keys[A+Seite*20,string]
                        ECardDeck = Data[Keys[A+Seite*20,string],array]:clone()
                        TempECardDeck = ECardDeck:clone()
                        if(ECardDeck[25,number]!=0){
                            local Damn = array(ECardDeck[5,number],ECardDeck[13,number],ECardDeck[21,number])
                            TrainTime_Min = 3+Train_ExtraMin*Damn:min()
                            TrainTime_Secs = TrainTime_Min*60
                            local TimeLeft = ECardDeck[25,number]-curtime()
                            if(TimeLeft>0 & TimeLeft<TrainTime_Secs+10){
                                TempECardDeck[2,number]=floor(TempECardDeck[2,number]/100*(100-TrainPenalty))
                                TempECardDeck[3,number]=floor(TempECardDeck[3,number]/100*(100-TrainPenalty))
                                TempECardDeck[4,number]=floor(TempECardDeck[4,number]/100*(100-TrainPenalty))
                                TempECardDeck[10,number]=floor(TempECardDeck[10,number]/100*(100-TrainPenalty))
                                TempECardDeck[11,number]=floor(TempECardDeck[11,number]/100*(100-TrainPenalty))
                                TempECardDeck[12,number]=floor(TempECardDeck[12,number]/100*(100-TrainPenalty))
                                TempECardDeck[18,number]=floor(TempECardDeck[18,number]/100*(100-TrainPenalty))
                                TempECardDeck[19,number]=floor(TempECardDeck[19,number]/100*(100-TrainPenalty))
                                TempECardDeck[20,number]=floor(TempECardDeck[20,number]/100*(100-TrainPenalty))
                            }else{
                                ECardDeck[2,number]=ECardDeck[2,number]+Train_LvlGain*10
                                ECardDeck[3,number]=ECardDeck[3,number]+Train_LvlGain*10
                                ECardDeck[4,number]=ECardDeck[4,number]+Train_LvlGain*10
                                ECardDeck[5,number]=ECardDeck[5,number]+Train_LvlGain
                                ECardDeck[10,number]=ECardDeck[10,number]+Train_LvlGain*10
                                ECardDeck[11,number]=ECardDeck[11,number]+Train_LvlGain*10
                                ECardDeck[12,number]=ECardDeck[12,number]+Train_LvlGain*10
                                ECardDeck[13,number]=ECardDeck[13,number]+Train_LvlGain
                                ECardDeck[18,number]=ECardDeck[18,number]+Train_LvlGain*10
                                ECardDeck[19,number]=ECardDeck[19,number]+Train_LvlGain*10
                                ECardDeck[20,number]=ECardDeck[20,number]+Train_LvlGain*10
                                ECardDeck[21,number]=ECardDeck[21,number]+Train_LvlGain
                                ECardDeck[25,number]=0
                                TempECardDeck = ECardDeck:clone()
                            }
                        }
                        Index=5
                        timer("Draw Cards",500)
                        timer("Attack1",1500)
                        break
                    }
                }
            }
        }
    }
    if(clk("AFK")){
        if(Ply:pos():distance(entity():pos())>150){
            Index = 1
            Data[Ply:steamID(),array] = CardDeck:clone()
            Egp:egpClear()
            Egp:egpBox(1,vec2(256,100),vec2(512,200)),Egp:egpColor(1,vec(0,100,0))
            Egp:egpTextLayout(2,"Counter-Strike Cards",vec2(0,0),vec2(512,200)),Egp:egpSize(2,80),Egp:egpAlign(2,1)
            Egp:egpTextLayout(3,"Press E (use) to login",vec2(0,200),vec2(512,200)),Egp:egpSize(3,80),Egp:egpAlign(3,1)
            Egp:egpText(4,"",vec2(5,470)),Egp:egpSize(4,40),Egp:egpColor(4,vec(255,0,255))
        }else{
            timer("AFK",5000)
        }
    }
}elseif(Index==5){
    if(clk("Draw Cards")){
        Egp:egpClear()
        Egp:egpTextLayout(200,TempCardDeck[TempCardDeck:count(),string]+" vs "+TempECardDeck[TempECardDeck:count(),string],vec2(1,0),vec2(510,500)),Egp:egpAlign(200,1)
        for(A=1,3){
            local ObID=(A-1)*9
            local DataID=(A-1)*8
            if(TempCardDeck[1+DataID,string]:length()>=10){
                Egp:egpRoundedBox(1+ObID,vec2(50+A*100,150),vec2(80,150))
                Egp:egpBox(2+ObID,vec2(50+A*100,120),vec2(70,70)),Egp:egpColor(2+ObID,vec())
                Egp:egpBox(3+ObID,vec2(50+A*100,120),vec2(70,70)),Egp:egpMaterial(3+ObID,TempCardDeck[1+DataID,string])
                if(TempCardDeck[7+DataID,number]==1){Egp:egpColor(1+ObID,vec(255,255,0))}
                Egp:egpText(4+ObID,"Hp: "+TempCardDeck[2+DataID,number],vec2(15+A*100,160)),Egp:egpColor(4+ObID,vec())
                Egp:egpText(5+ObID,"Dmg: "+TempCardDeck[3+DataID,number],vec2(15+A*100,180)),Egp:egpColor(5+ObID,vec())
                Egp:egpText(6+ObID,"Def: "+TempCardDeck[4+DataID,number],vec2(15+A*100,200)),Egp:egpColor(6+ObID,vec())
                Egp:egpText(7+ObID,"Lvl: "+TempCardDeck[5+DataID,number],vec2(16+A*100,135))
                if(TempCardDeck[TempCardDeck:count()-1,number]){
                    Egp:egpText(8+ObID,"-"+TrainPenalty+"%",vec2(10+A*100,40)),Egp:egpSize(8+ObID,37),Egp:egpColor(8+ObID,vec(200,0,0))
                }
                Egp:egpText(9+ObID,"XP: "+round(TempCardDeck[8+DataID,number])+"/"+round(TempCardDeck[5+DataID,number]*Xp_toLvl),vec2(16+A*100,128)),Egp:egpSize(9+ObID,10),Egp:egpColor(9+ObID,vec(0,0,255))
            }
        }
        for(B=1,3){
            local ObID=(B-1)*9
            local DataID=(B-1)*8
            if(TempECardDeck[1+DataID,string]:length()>=10){
                Egp:egpRoundedBox(50+ObID,vec2(50+B*100,350),vec2(80,150))
                Egp:egpBox(51+ObID,vec2(50+B*100,320),vec2(70,70)),Egp:egpColor(51+ObID,vec())
                Egp:egpBox(52+ObID,vec2(50+B*100,320),vec2(70,70)),Egp:egpMaterial(52+ObID,TempECardDeck[1+DataID,string])
                if(TempECardDeck[7+DataID,number]==1){Egp:egpColor(50+ObID,vec(255,255,0))}
                Egp:egpText(53+ObID,"Hp: "+TempECardDeck[2+DataID,number],vec2(15+B*100,360)),Egp:egpColor(53+ObID,vec())
                Egp:egpText(54+ObID,"Dmg: "+TempECardDeck[3+DataID,number],vec2(15+B*100,380)),Egp:egpColor(54+ObID,vec())
                Egp:egpText(55+ObID,"Def: "+TempECardDeck[4+DataID,number],vec2(15+B*100,400)),Egp:egpColor(55+ObID,vec())
                Egp:egpText(56+ObID,"Lvl: "+TempECardDeck[5+DataID,number],vec2(16+B*100,335))
                if(TempECardDeck[TempECardDeck:count()-1,number]){
                    Egp:egpText(57+ObID,"-"+TrainPenalty+"%",vec2(10+B*100,450)),Egp:egpSize(57+ObID,37),Egp:egpColor(57+ObID,vec(200,0,0))
                }
                Egp:egpText(58+ObID,"XP: "+round(TempECardDeck[8+DataID,number])+"/"+round(TempECardDeck[5+DataID,number]*Xp_toLvl),vec2(16+B*100,328)),Egp:egpSize(58+ObID,10),Egp:egpColor(58+ObID,vec(0,0,255))
            }
        }
    }
    
    if(clk("Attack1")){
        Egp:egpRemove(299)
        if(TempCardDeck:count()<=2){
            Egp:egpText(100,TempECardDeck[TempECardDeck:count(),string]+" wins D;",vec2(100,235)),Egp:egpSize(100,30)
            Data[Sid,array] = CardDeck:clone()
            Data[ESid,array] = ECardDeck:clone()
            timer("End Game",2000)
        }else{
            Egp:egpRemove(102)
            local Dmg = TempCardDeck[3,number]
            local Crit = randint(0,20)
            if(Crit==10){
                Dmg = Dmg + round(Dmg/100*50)
                Egp:egpText(299,"Crit.",vec2(10,355)),Egp:egpColor(299,vec(255,0,0)),Egp:egpSize(299,25)
            }
            local Ehp = TempECardDeck[2,number]
            local Edef = TempECardDeck[4,number]
            if(Ehp>0){
                Egp:egpBox(101,vec2(150,256),vec2(70,70)),Egp:egpAngle(101,225)
                if(TempCardDeck[6,number]==1){Egp:egpMaterial(101,"vgui/gfx/vgui/bullet")}
                elseif(TempCardDeck[6,number]==2){Egp:egpMaterial(101,"vgui/gfx/vgui/cartridge")}
                elseif(TempCardDeck[6,number]==3){Egp:egpMaterial(101,"vgui/gfx/vgui/shell")}
                if(Edef>0){
                    if(TempCardDeck[6,number]==2){Dmg-=floor(Dmg/100*Damage_lessen)}elseif(TempCardDeck[6,number]==3){Dmg+=floor(Dmg/100*Damage_more)}
                    Egp:egpText(300,"-"+Dmg,vec2(60,395)),Egp:egpColor(300,vec(255,0,0)),Egp:egpSize(300,25),Egp:egpPos(299,vec2(10,395))
                    local SaveDmg = Dmg-Edef
                    Edef=clamp(Edef-Dmg,0,10000)
                    TempECardDeck[4,number]=Edef
                    if(Edef<=0){
                        Egp:egpBox(102,vec2(150,380),vec2(120,90)),Egp:egpMaterial(102,"vgui/gfx/vgui/kevlar"),Egp:egpColor(102,vec(255,190,190))
                        Ehp=clamp(Ehp-SaveDmg,0,10000)
                        if(Ehp>0){
                            TempECardDeck[2,number]=Ehp
                            TempECardDeck[4,number]=Edef
                            Egp:egpSetText(53,"Hp: "+TempECardDeck[2,number])
                            Egp:egpSetText(55,"Def: "+TempECardDeck[4,number])
                            timer("Attack2",1000)
                        }else{
                            local N = 24-(TempCardDeck:count()-2)
                            local Plus = ((TempECardDeck[5,number]/CardDeck[N+5,number])*(CardDeck[N+5,number]*Xp_toLvl))/3
                            CardDeck[N+8,number] = CardDeck[N+8,number]+ Plus
                            TempCardDeck[8,number] =TempCardDeck[8,number]+Plus
                            Egp:egpText(300,"+"+round(Plus,1),vec2(60,120)),Egp:egpColor(300,vec(0,255,0)),Egp:egpSize(300,20)
                            if(CardDeck[N+8,number]>=CardDeck[N+5,number]*Xp_toLvl){
                                CardDeck[N+8,number] = CardDeck[N+8,number]-CardDeck[N+5,number]*Xp_toLvl
                                TempCardDeck[8,number] = TempCardDeck[8,number]-TempCardDeck[5,number]*Xp_toLvl
                                CardDeck[N+5,number] = CardDeck[N+5,number]+1
                                TempCardDeck[5,number] = TempCardDeck[5,number]+1
                                CardDeck[N+4,number]=CardDeck[N+4,number]+10
                                CardDeck[N+3,number]=CardDeck[N+3,number]+10
                                CardDeck[N+2,number]=CardDeck[N+2,number]+10
                                Egp:egpSetText(7,"Lvl: "+TempCardDeck[5,number])
                            }
                            Egp:egpSetText(9,"XP: "+round(TempCardDeck[8,number])+"/"+round(TempCardDeck[5,number]*Xp_toLvl))
                            TempECardDeck:remove(1)#1 material
                            TempECardDeck:remove(1)#2 Hp
                            TempECardDeck:remove(1)#3 Dmg
                            TempECardDeck:remove(1)#4 Def
                            TempECardDeck:remove(1)#5 Lvl
                            TempECardDeck:remove(1)#6 Ammo type
                            TempECardDeck:remove(1)#7 GoldOrNot
                            TempECardDeck:remove(1)#8 Xp
                            timer("Draw Cards",1500)
                            timer("Attack2",3000)
                        }
                    }
                    Egp:egpSetText(55,"Def: "+TempECardDeck[4,number])
                    timer("Attack2",1000)
                }else{
                    if(TempCardDeck[6,number]==2){Dmg+=floor(Dmg/100*Damage_more)}elseif(TempCardDeck[6,number]==3){Dmg-=floor(Dmg/100*Damage_lessen)}
                    Egp:egpText(300,"-"+Dmg,vec2(60,355)),Egp:egpColor(300,vec(255,0,0)),Egp:egpSize(300,25)
                    Ehp=clamp(Ehp-Dmg,0,10000)
                    if(Ehp>0){
                        TempECardDeck[2,number]=Ehp
                        TempECardDeck[4,number]=Edef
                        Egp:egpSetText(53,"Hp: "+TempECardDeck[2,number])
                        Egp:egpSetText(55,"Def: "+TempECardDeck[4,number])
                        timer("Attack2",1000)
                    }else{
                        local N = 24-(TempCardDeck:count()-2)
                        local Plus = ((TempECardDeck[5,number]/CardDeck[N+5,number])*(CardDeck[N+5,number]*Xp_toLvl))/3
                        CardDeck[N+8,number] = CardDeck[N+8,number]+ Plus
                        TempCardDeck[8,number] =TempCardDeck[8,number]+Plus
                        Egp:egpText(300,"+"+round(Plus,1),vec2(60,120)),Egp:egpColor(300,vec(0,255,0)),Egp:egpSize(300,20)
                        if(CardDeck[N+8,number]>=CardDeck[N+5,number]*Xp_toLvl){
                            CardDeck[N+8,number] = CardDeck[N+8,number]-CardDeck[N+5,number]*Xp_toLvl
                            TempCardDeck[8,number] = TempCardDeck[8,number]-TempCardDeck[5,number]*Xp_toLvl
                            CardDeck[N+5,number] = CardDeck[N+5,number]+1
                            TempCardDeck[5,number] = TempCardDeck[5,number]+1
                            CardDeck[N+4,number]=CardDeck[N+4,number]+10
                            CardDeck[N+3,number]=CardDeck[N+3,number]+10
                            CardDeck[N+2,number]=CardDeck[N+2,number]+10
                            Egp:egpSetText(7,"Lvl: "+TempCardDeck[5,number])
                        }
                        Egp:egpSetText(9,"XP: "+round(TempCardDeck[8,number])+"/"+round(TempCardDeck[5,number]*Xp_toLvl))
                        TempECardDeck:remove(1)#1 material
                        TempECardDeck:remove(1)#2 Hp
                        TempECardDeck:remove(1)#3 Dmg
                        TempECardDeck:remove(1)#4 Def
                        TempECardDeck:remove(1)#5 Lvl
                        TempECardDeck:remove(1)#6 Ammo type
                        TempECardDeck:remove(1)#7 GoldOrNot
                        TempECardDeck:remove(1)#8 Xp
                        timer("Draw Cards",1500)
                        timer("Attack2",3000)
                    }
                }
            }
        }
    }
    
    if(clk("Attack2")){
        Egp:egpRemove(299)
        if(TempECardDeck:count()<=2){
            Egp:egpText(100,"YOU WIN ;D",vec2(100,235)),Egp:egpSize(100,30)
            Data[Sid,array] = CardDeck:clone()
            Data[ESid,array] = ECardDeck:clone()
            timer("End Game",2000)
        }else{
            Egp:egpRemove(102)
            local Dmg = TempECardDeck[3,number]
            local Crit = randint(0,20)
            if(Crit==10){
                Dmg = Dmg + round(Dmg/100*50)
                Egp:egpText(299,"Crit.",vec2(10,155)),Egp:egpColor(299,vec(255,0,0)),Egp:egpSize(299,25)
            }
            local Ehp = TempCardDeck[2,number]
            local Edef = TempCardDeck[4,number]
            Egp:egpBox(101,vec2(150,256),vec2(70,70)),Egp:egpAngle(101,48)
            if(TempECardDeck[6,number]==1){Egp:egpMaterial(101,"vgui/gfx/vgui/bullet")}
            elseif(TempECardDeck[6,number]==2){Egp:egpMaterial(101,"vgui/gfx/vgui/cartridge")}
            elseif(TempECardDeck[6,number]==3){Egp:egpMaterial(101,"vgui/gfx/vgui/shell")}
            if(Ehp>0){
                if(Edef>0){
                    if(TempECardDeck[6,number]==2){Dmg-=floor(Dmg/100*Damage_lessen)}elseif(TempECardDeck[6,number]==3){Dmg+=floor(Dmg/100*Damage_more)}
                    Egp:egpText(300,"-"+Dmg,vec2(60,195)),Egp:egpColor(300,vec(255,0,0)),Egp:egpSize(300,25),Egp:egpPos(299,vec2(10,195))
                    local SaveDmg = Dmg-Edef
                    Edef=clamp(Edef-Dmg,0,10000)
                    TempCardDeck[4,number]=Edef
                    if(Edef<=0){
                        Egp:egpBox(102,vec2(150,180),vec2(120,90)),Egp:egpMaterial(102,"vgui/gfx/vgui/kevlar"),Egp:egpColor(102,vec(255,190,190))
                        Ehp=clamp(Ehp-Dmg,0,10000)
                        if(Ehp>0){
                            TempCardDeck[2,number]=Ehp
                            TempCardDeck[4,number]=Edef
                            Egp:egpSetText(4,"Hp: "+TempCardDeck[2,number])
                            Egp:egpSetText(6,"Def: "+TempCardDeck[4,number])
                            timer("Attack1",1000)
                        }else{
                            local N = 24-(TempECardDeck:count()-2)
                            local Plus = ((TempCardDeck[5,number]/ECardDeck[N+5,number])*(ECardDeck[N+5,number]*Xp_toLvl))/3
                            ECardDeck[N+8,number] = ECardDeck[N+8,number]+ Plus
                            TempECardDeck[8,number] = TempECardDeck[8,number]+ Plus
                            Egp:egpText(300,"+"+round(Plus,1),vec2(60,320)),Egp:egpColor(300,vec(0,255,0)),Egp:egpSize(300,20)
                            if(ECardDeck[N+8,number]>=ECardDeck[N+5,number]*Xp_toLvl){
                                ECardDeck[N+8,number] = ECardDeck[N+8,number]-ECardDeck[N+5,number]*Xp_toLvl
                                TempECardDeck[8,number] = TempECardDeck[8,number]-TempECardDeck[5,number]*Xp_toLvl
                                ECardDeck[N+5,number] = ECardDeck[N+5,number]+1
                                TempECardDeck[5,number] = TempECardDeck[5,number]+1
                                ECardDeck[N+4,number]=ECardDeck[N+4,number]+10
                                ECardDeck[N+3,number]=ECardDeck[N+3,number]+10
                                ECardDeck[N+2,number]=ECardDeck[N+2,number]+10
                                Egp:egpSetText(56,"Lvl: "+TempECardDeck[5,number])
                            }
                            Egp:egpSetText(58,"XP: "+round(TempECardDeck[8,number])+"/"+round(TempECardDeck[5,number]*Xp_toLvl))
                            TempCardDeck:remove(1)#1 material
                            TempCardDeck:remove(1)#2 Hp
                            TempCardDeck:remove(1)#3 Dmg
                            TempCardDeck:remove(1)#4 Def
                            TempCardDeck:remove(1)#5 Lvl
                            TempCardDeck:remove(1)#6 Ammo type
                            TempCardDeck:remove(1)#7 GoldOrNot
                            TempCardDeck:remove(1)#8 Xp
                            timer("Draw Cards",1500)
                            timer("Attack1",3000)
                        }
                    }
                    Egp:egpSetText(6,"Def: "+TempCardDeck[4,number])
                    timer("Attack1",1000)
                }else{
                    if(TempECardDeck[6,number]==2){Dmg+=floor(Dmg/100*Damage_more)}elseif(TempECardDeck[6,number]==3){Dmg-=floor(Dmg/100*Damage_lessen)}
                    Egp:egpText(300,"-"+Dmg,vec2(60,155)),Egp:egpColor(300,vec(255,0,0)),Egp:egpSize(300,25)
                    Ehp=clamp(Ehp-Dmg,0,10000)
                    if(Ehp>0){
                        TempCardDeck[2,number]=Ehp
                        TempCardDeck[4,number]=Edef
                        Egp:egpSetText(4,"Hp: "+TempCardDeck[2,number])
                        Egp:egpSetText(6,"Def: "+TempCardDeck[4,number])
                        timer("Attack1",1000)
                    }else{
                        local N = 24-(TempECardDeck:count()-2)
                        local Plus = ((TempCardDeck[5,number]/ECardDeck[N+5,number])*(ECardDeck[N+5,number]*Xp_toLvl))/3
                        ECardDeck[N+8,number] = ECardDeck[N+8,number]+ Plus
                        TempECardDeck[8,number] = TempECardDeck[8,number]+ Plus
                        Egp:egpText(300,"+"+round(Plus,1),vec2(60,320)),Egp:egpColor(300,vec(0,255,0)),Egp:egpSize(300,20)
                        if(ECardDeck[N+8,number]>=ECardDeck[N+5,number]*Xp_toLvl){
                            ECardDeck[N+8,number] = ECardDeck[N+8,number]-ECardDeck[N+5,number]*Xp_toLvl
                            TempECardDeck[8,number] = TempECardDeck[8,number]-TempECardDeck[5,number]*Xp_toLvl
                            ECardDeck[N+5,number] = ECardDeck[N+5,number]+1
                            TempECardDeck[5,number] = TempECardDeck[5,number]+1
                            ECardDeck[N+4,number]=ECardDeck[N+4,number]+10
                            ECardDeck[N+3,number]=ECardDeck[N+3,number]+10
                            ECardDeck[N+2,number]=ECardDeck[N+2,number]+10
                            Egp:egpSetText(56,"Lvl: "+TempECardDeck[5,number])
                        }
                        Egp:egpSetText(58,"XP: "+round(TempECardDeck[8,number])+"/"+round(TempECardDeck[5,number]*Xp_toLvl))
                        TempCardDeck:remove(1)#1 material
                        TempCardDeck:remove(1)#2 Hp
                        TempCardDeck:remove(1)#3 Dmg
                        TempCardDeck:remove(1)#4 Def
                        TempCardDeck:remove(1)#5 Lvl
                        TempCardDeck:remove(1)#6 Ammo type
                        TempCardDeck:remove(1)#7 GoldOrNot
                        TempCardDeck:remove(1)#8 Xp
                        timer("Draw Cards",1500)
                        timer("Attack1",3000)
                    }
                }
            }
        }
    }
    
    if(clk("End Game")){
        Index=3
        local N = Data:count()
        if(N>0){
            fileWrite("Luckys_CardGame.txt",vonEncode(Data))
        }
        #if(randint(0,20)==10){timer("Bot train",200)}
        timer("Draw User",2000)
    }
}
