@name Agario
@inputs 
@outputs 
@persist Player:array Playing:array Speed Scale
@trigger 
Area=200
MaxPlayers=10
runOnTick(1)
runOnChat(1)
runOnLast(1)
E=entity()
FS=0.1

StartSize=0.2+FS
if(first()){
    Speed=2
Scale=0.2

}

Last=owner():lastSaid():explode(" ")
if(chatClk(owner())){
if(chatClk(owner())&Last:string(1)=="/add"){
Ply=findPlayerByName(Last:string(2))
    hideChat(1)
    print("Player added == "+Ply:name())
if(Ply:isPlayer()){ if(Player:count()<MaxPlayers){
    Player:pushEntity(Ply)
}   
    }
}
if(chatClk(owner())&Last:string(1)=="/status"){
 hideChat(1)

for(P=1,Player:count()){
    print(P+" "+Player[P,entity]:name())
}   
}
}
if(Player:count()>0){
for(P=1,Player:count()){
    Plyy=Player[P,entity]
  
if(chatClk(Plyy)){
    if(chatClk(Plyy)&Plyy:lastSaid()=="/join"){
     hideChat(1)
    print(Plyy:name()+" has joined the game :D")   
    Playing:pushEntity(Plyy)
    }
}
}
}
if(changed(Playing:count()>0)&Playing:count()>0){
for(D=1,180){
 holoCreate(D)
holoPos(D,E:toWorld(vec(random(Area)-Area/2,random(Area)-Area/2,10)))
holoModel(D,"hqsphere")
holoScale(D,vec(FS))
holoColor(D,vec(random(255),random(255),random(255)))
holoParent(D,E)
}
}
for(X=1,Playing:count()){


if(changed(Playing[X,entity])&Playing[X,entity]){
    holoCreate(X+150)
holoModel(X+150,"hqsphere")
holoScale(X+150,vec(Scale))
}
    AFA=(Playing[X,entity]:aimPos()-holoEntity(X+150):pos()):toAngle()
    if(holoEntity(X+150):pos():distance(Playing[X,entity]:aimPos()+vec(0,0,10))>4){
    holoPos(X+150,holoEntity(X):pos()+holoEntity(X+150):forward()*Speed)
}
    holoAng(X+150,ang(0,AFA:yaw(),0))

   if(holoEntity(X+150):pos():distance(E:pos())>Area-Area/2){
 holoPos(X+150,holoEntity(X+150):pos()+holoEntity(X+150):forward()*-50)
}

    timer("res",20000)
    if(clk("res")){
       for(D=1,150){
 holoCreate(D)
holoPos(D,E:toWorld(vec(random(Area)-Area/2,random(Area)-Area/2,10)))
holoModel(D,"hqsphere")
holoScale(D,vec(FS))
holoColor(D,vec(random(255),random(255),random(255)))
holoParent(D,E)
} 
    }
    timer("d",150)
    if(clk("d")){
    for(D=1,150){
    if(changed(holoEntity(D):pos():distance(holoEntity(X+150):pos()))<Scale){
 holoDelete(D)
Scale=Scale+FS/2   
}
}
}
}
E:propFreeze(1)
