@name Auto Jail System
@inputs 
@outputs Plys:array Reset On Pos:vector Area C [ Attacker Victem]:entity
@persist Whitelist:entity
@model models/props_junk/PlasticCrate01a.mdl
runOnTick(1)
runOnChat(1)
runOnDeath(1)
C++
Area = 3000
Pos = vec(-896.173828 , -1348.485229 , -11071.968750)
if(first()|clk("Recheck")){ # Saves Ops.~
O = owner()
E = entity()
timer("Recheck",1000)
}
if(first()){
    
    holoCreate(1,Pos,vec(3),ang(),vec(255,0,0),"hq_sphere")
    holoEntity(1):setTrails(50,0.1,20,"trails/smoke",vec(255,0,0),150)
}

if(O:lastSaid()=="!on"&chatClk(O)){
    On =!On
}

if(deathClk()) {
    Victem = lastDeath()
    Attacker = lastDeathAttacker()
    
    if(Victem != Attacker & Victem:pos():distance(Pos)<Area &!Attacker:isAdmin() &!Attacker:isSteamFriend(Victem) &!Attacker:isSuperAdmin()&Attacker:isPlayer()){
      
    
     concmd("ulx jail  "+Attacker:name():explode(" "):string(1)+" 10" ) #there is jail time
    
    
    }
    
}

if(Attacker){
    timer("reset",100)
}
if(clk("reset")){
    Reset = 1
    Attacker=entity()
}
else{
    Reset = 0
}
if(!Attacker){
    stoptimer("reset")
}

holoPos(1,Pos+vec(sin(C/2)*Area,cos(C/2)*Area,100))

