@name Blinder shield
@persist Area XY Speed  Vector:vector Active Bomb:entity Blind Counter Killer
E=entity()
runOnChat(1)
runOnTick(1)
Counter++
Pos=holoEntity(100):pos()
if(first()){Area=350
    
    Speed=5
    holoCreate(100,E:toWorld(vec(0,0,0)),vec(1,1,1),ang(),vec(0,0,0),"hqsphere")
    holoParent(100,E)
    
        holoCreate(1000,E:toWorld(vec(0,0,0)),vec(1,1,1),ang(),vec(0,0,0),"hqsphere")
    holoParent(1000,100)
        holoCreate(2000,E:toWorld(vec(0,0,0)),vec(1,1,1),ang(),vec(0,0,0),"hqsphere")
    holoParent(2000,100)
        holoCreate(3000,E:toWorld(vec(0,0,0)),vec(1,1,1),ang(),vec(0,0,0),"hqsphere")
    holoParent(3000,100)
    holoCreate(500,E:toWorld(vec(0,0,150)),vec(-5,-5,-5),ang(),vec(20,20,20),"icosphere3")
    
    
    holoEntity(1000):setTrails(30,0,3,"trails/smoke",vec(255,0,0),255)
     holoEntity(2000):setTrails(30,0,3,"trails/smoke",vec(255,0,0),255)
     holoEntity(3000):setTrails(30,0,3,"trails/smoke",vec(255,0,0),255)
    }
Last=owner():lastSaid():explode(" ")
if(chatClk(owner())&Last:string(1)=="/speed"){ Speed=Last:string(2):toNumber() hideChat(1)}
if(chatClk(owner())&Last:string(1)=="/range"){ Area=Last:string(2):toNumber() hideChat(1)}
if(chatClk(owner())&Last:string(1)=="/pos"){ Vec1=Last:string(2):toNumber()
    hideChat(1)
    Vec2=Last:string(3):toNumber()
    Vec3=Last:string(4):toNumber()
    printColor(vec(0,255,0),"Pos=="+Vec1+" "+Vec2+" "+Vec3)
    holoPos(100,E:toWorld(vec(Vec1,Vec2,Vec3)))
}
if(chatClk(owner())&Last:string(1)=="/on"){Active=1    Killer=1  hideChat(1)  printColor(vec(0,255,0),"Shield is ON")}
if(chatClk(owner())&Last:string(1)=="/off"){Active=0  Killer=0    hideChat(1) printColor(vec(0,255,0),"Shield is OFF")}

if(chatClk(owner())&Last:string(1)=="/blind"){Blind=1  Active=1     hideChat(1)  printColor(vec(0,255,0),"Blinder is ON")}

if(chatClk(owner())&Last:string(1)=="/unblind"){Blind=0     Active=0  hideChat(1)  printColor(vec(0,255,0),"Blinder is off")}

XY=XY*1+Speed
X=cos(XY)
Y=sin(XY)
if(Area){
holoPos(1000,holoEntity(100):pos()+vec(X*Area,Y*Area,0))
holoPos(2000,holoEntity(100):pos()+vec(X*Area,0,Y*Area))
holoPos(3000,holoEntity(100):pos()+vec(0,Y*Area,X*Area))
}


if(Active==1){
    findIncludeClass("player")
    findExcludeEntity(owner())
findExcludePlayer("Lorenz")
    Find=findInSphere(Vector+Pos,Area)
    FF=findToArray()
}
if(Killer==1){
    timer("kill",500)
    if(clk("kill")){
     for(P=1,FF:count()){
        


    Player=FF[P,entity]
    if(Player:isPlayer()&Player:isAlive()){
        
        
        Bomb=propSpawn("models/props_phx/ww2bomb.mdl",FF[P,entity]:pos(),1)
            Bomb:propBreak()
}elseif(Player:isAdmin()){Bomb:setPos(vec())}elseif(Player:isSuperAdmin()){Bomb:setPos(vec())}

}
}
}

        if(Blind==1){
            timer("blind",150)
            if(clk("blind")){
                for(P=1,25){
                    for(I=1,FF:count()){
    if(FF[P,entity]:isAlive()){
     holoPos(P,FF[P,entity]:attachmentPos("eyes"))
    holoAng(P,ang(Counter*Speed))
    holoScale(P,vec(-10,-10,-10))
    }else{
 holoPos(P,holoEntity(100):pos()+vec(0,0,150))   
}
}
}
}
}
