@name Cannon
@inputs Fire
@outputs 
@persist B Shooting P:entity D
@trigger  
@model models/hunter/misc/sphere075x075.mdl
runOnTick(1)
runOnLast(1)
entity():setAlpha(0)
if(last()){propDeleteAll()}
E=entity()
if(first()){
    holoCreate(1,E:toWorld(vec(20,0,-10)),vec(1,1,1),E:toWorld(ang()),vec(255),"models/props_combine/bunker_gun01.mdl")
    holoParent(1,E)
        holoCreate(2,E:toWorld(vec(20,0,7)),vec(1,1,1),E:toWorld(ang()),vec(255),"models/props_combine/combine_emitter01.mdl")
    holoParent(2,E)
       holoCreate(3,E:toWorld(vec(20,0,7)),vec(0.3,0.3,0.5),E:toWorld(ang(90,0,0)),vec(255),"models/props_combine/combine_mortar01a.mdl")
    holoParent(3,E)
          holoCreate(4,E:toWorld(vec(20,0,7)),vec(1,1,1.5),E:toWorld(ang(90,0,0)),vec(255),"models/props_combine/combine_light002a.mdl")
    holoParent(4,E)
    holoCreate(5,E:toWorld(vec(30,0,-4)),vec(1,1,1),E:toWorld(ang(90,0,0)),vec(255),"models/props_combine/combine_lock01.mdl")
    holoParent(5,E)
       holoCreate(6,E:toWorld(vec(100,0,5)),vec(1,1,1),E:toWorld(ang(-90,90,-90)),vec(255),"models/props_combine/breenpod_inner.mdl")
    holoParent(6,E)
        holoCreate(7,E:toWorld(vec(120,0,5)),vec(2,2,2),E:toWorld(ang(-90,0,0)),vec(255),"models/props_combine/breenlight.mdl")
    holoParent(7,E)
            holoCreate(8,E:toWorld(vec(110,0,5)),vec(2,2,2),E:toWorld(ang(-90,0,0)),vec(255),"models/items/combine_rifle_ammo01.mdl")
    holoParent(8,E)
                holoCreate(9,E:toWorld(vec(0,0,5)),vec(0.5,0.5,0.5),E:toWorld(ang(-90,0,0)),vec(255),"models/props_combine/combine_generator01.mdl")
    holoParent(9,E)
                    holoCreate(10,E:toWorld(vec(50,0,5)),vec(0.8,0.8,0.8),E:toWorld(ang(0,-90,90)),vec(255),"models/props_combine/combine_fence01b.mdl")
    holoParent(10,E)
    soundPlay(1,9999999999999,"ambient/atmosphere/undercity_loop1.wav")
    soundVolume(1,999999999999999)
}
if(Fire==1){
  if(B>80){Shooting=1}
if(B<100){ B=B+1 }
}
if(Fire==0){
    Shooting=0
 if(B>1){B=B-1}   
}
soundPitch(1,B*2)
if(Shooting==1)
{
 timer("reload",1000)
if(clk("reload")){
 P=propSpawn("models/hunter/blocks/cube1x1x1.mdl",holoEntity(7):toWorld(vec(0,0,0)),holoEntity(7):toWorld(ang()),0)
P:propGravity(0)
    P:setMass(50000)
    P:applyForce(holoEntity(7):up()*P:mass()*-50000)
    P:setTrails(30,0,5,"trails/laser",vec(255,0,255),255)
    P:setAlpha(0)
}   
}
P:applyForce(P:up()*P:mass()*-50000)
timer("del",10000)
if(clk("del")){
 D=800 
propDeleteAll()   
}
if(D>800){
propDeleteAll()   
}
if(changed(P)&P){
 soundPlay(2,1.2,"weapons/automag/deagle-1.wav")   
}
