@name DoorOpener
@inputs Door:entity
@outputs 
@persist Open Rotate
@trigger 

interval(40)

if(first()|clk("resetp")){

}
for( P = 1 , players( ):count()){
#Ply = players( )[P,entity]
Ply = owner()
if(Ply:aimEntity() == Door & (Ply:pos() - Door:pos()):length() < 70 & (changed(Ply:keyUse())&Ply:keyUse())){
    Open = 1
}
}

if(changed(Door)){
 holoCreate(1,Door:pos() + vec(-25,-0,-50),vec(1,1,1),ang(),vec(255),"")  
holoAlpha(1,0) 
}
if( Open == 1 )
{
if(Rotate <= 89){
   Rotate = Rotate * 1 + 3 
}    
Door:setPos(holoEntity(1):toWorld(vec(25,0,50)))
Door:setAng(holoEntity(1):angles()+ang(0,0,90))
    holoAng(1,ang(0,Rotate,0))
if(changed(Rotate >= 70)){
 timer("back",5000)   
}
}
if(clk("back")){
Open = 0
stoptimer("back")
}
if(Open == 0){
 if(Rotate >= 1){
   Rotate = Rotate * 1 - 3 
}    
Door:setPos(holoEntity(1):toWorld(vec(25,0,50)))
Door:setAng(holoEntity(1):angles()+ang(0,0,90))
    holoAng(1,ang(0,Rotate,0))   
}
