@name EXO-M
@inputs [Turret Egp]:wirelink
@outputs 
@persist Seat:entity Build [Body Body2 Body3 Body4 Body5 Body6 Body7 Body8 Body10 Body9]:entity Move XY M Driver:entity Shot Shooting Shotl
@persist Moveup Roll
@trigger  

runOnTick(1)
runOnChat(1)
runOnLast(1)
Ent=entity()
if(!Seat){
    findByClass("prop_vehicle_*")
 findSortByDistance(Ent:pos())   
if(find():owner()==owner()){
 Seat=find()
if(changed(Seat)&Seat){
 print("Seat found")   
}
}
}

Driver=Seat:driver()
W=Driver:keyForward()
A=Driver:keyLeft()
S=Driver:keyBack()
D=Driver:keyRight()
Space=Driver:keyJump()
Shift=Driver:keySprint()
M1=Driver:keyAttack1()
R=Driver:keyReload()
M2=Driver:keyAttack2()
F=Driver:keyPressed("F")
XY=XY*1+M
X=cos(XY)
Y=sin(XY)
if(W){
 M=5   
}
if(S){ M=-5
}
WS=W+S
if(!WS){M=5}
if(first()){
 holoCreate(1,Ent:toWorld(vec(0,0,150)),vec(0.01,0.01,0.01),ang(),vec(75,75,75),"hqsphere") 
}
if(changed(Body9)&Body9){
  holoCreate(2,Body9:toWorld(vec(20,0,0)),vec(0.3,0.3,5),ang(90,0,0),vec(75,75,75),"hqtube") 
holoParent(2,Body9)   

  holoCreate(3,Body9:toWorld(vec(20,0,0)),vec(0.3,0.3,0.3),ang(0,0,0),vec(75,75,75),"models/XQM/panel360.mdl") 
holoParent(3,Body9)   
  holoCreate(4,Body9:toWorld(vec(15,0,0)),vec(2,2,1),ang(90,0,0),vec(75,75,75),"hqtube") 
holoParent(4,Body9)   
  holoCreate(5,Body9:toWorld(vec(30,0,0)),vec(0.5,0.5,3),ang(90,0,0),vec(75,75,75),"hqcylinder") 
holoParent(5,Body9)   
  holoCreate(6,Body9:toWorld(vec(25,0,0)),vec(1,1,2),ang(90,0,0),vec(75,75,75),"hqtube") 
holoParent(6,Body9)  
 
  holoCreate(7,Body9:toWorld(vec(10,0,25)),vec(1,1,2),ang(90,0,0),vec(75,75,75),"hqsphere") 
holoParent(7,3)   
  holoCreate(8,Body9:toWorld(vec(10,25,0)),vec(1,1,2),ang(90,0,0),vec(75,75,75),"hqsphere") 
holoParent(8,3)   
  holoCreate(9,Body9:toWorld(vec(10,0,-25)),vec(1,1,2),ang(90,0,0),vec(75,75,75),"hqsphere") 
holoParent(9,3)   
  holoCreate(10,Body9:toWorld(vec(10,-25,0)),vec(1,1,2),ang(90,0,0),vec(75,75,75),"hqsphere") 
holoParent(10,3)   
}
Turret:entity():setAlpha(0)
Turret:entity():setPos(holoEntity(6):toWorld(vec(5,0,15)))
Turret:entity():setAng(holoEntity(6):toWorld(ang(-90,0,0)))
if(changed(M2)&M2){soundPlay(1,2,"ambient/energy/force_field_loop1.wav")}
if(M2){
Shot++ 
    Moveup=Moveup+0.05
    Roll=Roll*1+Moveup
    holoAng(3,Body9:toWorld(ang(0,0,Roll)))
    if(changed(Moveup>20)&Moveup>20){holoEntity(7):setTrails(30,0,1,"trails/laser",vec(100,0,100),255)
        holoEntity(8):setTrails(30,0,1,"trails/laser",vec(100,0,100),255)
        holoEntity(9):setTrails(30,0,1,"trails/laser",vec(100,0,100),255)
        holoEntity(10):setTrails(30,0,1,"trails/laser",vec(100,0,100),255)
        }
        
    if(Moveup>100){Moveup=100}
if(Shot>400){
    Shot=400
    soundStop(1,0)
 Turret["Fire",number]=1   }
}
if(!M2){
    Roll=0
    Moveup=0
holoEntity(7):removeTrails()
holoEntity(8):removeTrails()
holoEntity(9):removeTrails()
holoEntity(10):removeTrails()

Shot=0
 Turret["Fire",number]=0   
Shooting=0
}

rangerFilter(Body)
rangerFilter(Body2)
rangerFilter(Body3)
rangerFilter(Body4)
rangerFilter(Body5)
rangerFilter(Body6)
rangerFilter(Seat)
Ran=rangerOffset(60,holoEntity(1):pos(),holoEntity(1):up()*-60)
holoPos(1,Ran:pos()+vec(0,0,45+X*0.5))
Seat:setPos(holoEntity(1):toWorld(vec(0,0,10)))
Seat:setAng(holoEntity(1):toWorld(ang(0,-90,0)))

if(changed(Seat)&Seat){
 Build=1   
Seat:setColor(vec(75,75,75))
Seat:setMaterial("phoenix_storms/gear")
}
if(Build==1){
 if(!Body){Body=propSpawn("models/hunter/misc/sphere075x075.mdl",Seat:toWorld(vec(0,0,0)),1)}  
if(!Body2){Body2=propSpawn("models/hunter/misc/sphere1x1.mdl",Seat:toWorld(vec(0,0,40)),1)}   
 if(!Body3){Body3=propSpawn("models/hunter/misc/sphere075x075.mdl",Seat:toWorld(vec(20,0,-20)),1)}  
if(!Body4){Body4=propSpawn("models/hunter/misc/sphere075x075.mdl",Seat:toWorld(vec(-20,0,-20)),1)}    
 if(!Body5){Body5=propSpawn("models/hunter/misc/sphere075x075.mdl",Seat:toWorld(vec(-25,0,-40)),1)}  
if(!Body6){Body6=propSpawn("models/hunter/misc/sphere075x075.mdl",Seat:toWorld(vec(25,0,-40)),1)}  

 if(!Body7){Body7=propSpawn("models/hunter/misc/sphere075x075.mdl",Seat:toWorld(vec(35,0,25)),1)}  
if(!Body8){Body8=propSpawn("models/hunter/misc/sphere075x075.mdl",Seat:toWorld(vec(-35,0,25)),1)}     

 if(!Body9){Body9=propSpawn("models/hunter/misc/sphere075x075.mdl",Seat:toWorld(vec(35,15,20)),1)}  
if(!Body10){Body10=propSpawn("models/hunter/misc/sphere075x075.mdl",Seat:toWorld(vec(-35,15,20)),1)} 
}
if(changed(Body2)&Body2){
    holoCreate(2,Body2:toWorld(vec(0,0,0)),vec(4,4,4),ang(),vec(75,75,75),"hqsphere") 
    holoParent(2,Body2)
}
if(last()){
propDeleteAll()
}
Body9:setAng(Driver:eyeAngles())
Body10:setAng(Driver:eyeAngles())
Body:setPos(Seat:pos()+vec(0,0,5))
Body2:setPos(Seat:toWorld(vec(0,0,30)))
Body3:setPos(Seat:toWorld(vec(20,+X*1,-20+X*2)))
Body4:setPos(Seat:toWorld(vec(-20+X*-1,0,-20+X*2)))
Body5:setPos(Seat:toWorld(vec(-25+X*1,0,-40+X*2)))
Body6:setPos(Seat:toWorld(vec(25+X*-1,0,-40+X*2)))
Body7:setPos(Seat:toWorld(vec(30+X*0.5,0,25+X*1)))
Body8:setPos(Seat:toWorld(vec(-30+X*-0.5,0,25+X*1)))
Body9:setPos(Seat:toWorld(vec(35+X*0.5,15,15+X*1)))
if(Driver){
if(!M1){
Body10:setPos(Seat:toWorld(vec(-35+X*-0.5,15,15+X*1)))
Body10:propFreeze(1)
}else{
Body10:propFreeze(0)
}
rangerFilter(Body10)
Ran=rangerOffset(50,Body10:pos(),Body10:forward()*50)
if(M1){
    if(!Ran:hit()){
 Body10:applyForce(Body10:forward()*Body10:mass()*5000)
}else{
Body10:propFreeze(1)
}

Body10:propGravity(0)   
Body10:setMass(50000)
}else{
Body10:propGravity(0) 
}
Body:propFreeze(1)
Seat:propFreeze(1)
Body:setAng(Seat:toWorld(ang()))
if(W){
 holoPos(1,holoEntity(1):pos()+holoEntity(1):forward()*5) 

Body:setPos(Seat:pos()+vec(0,0,5))
Body2:setPos(Seat:toWorld(vec(0,0,30)))
Body3:setPos(Seat:toWorld(vec(20,X*5,-20+Y*-1)))
Body4:setPos(Seat:toWorld(vec(-20,X*-5,-20+Y*1)))
Body5:setPos(Seat:toWorld(vec(-25,X*-10,-40+Y*5)))
Body6:setPos(Seat:toWorld(vec(25,X*10,-40+Y*-5)))

Body7:setPos(Seat:toWorld(vec(30+X*1,0,25+X*1)))
Body8:setPos(Seat:toWorld(vec(-30+X*-1,0,25+X*1)))
}
if(S){
 holoPos(1,holoEntity(1):pos()+holoEntity(1):forward()*-5) 
Body:setPos(Seat:pos()+vec(0,0,5))
Body2:setPos(Seat:toWorld(vec(0,0,30)))
Body3:setPos(Seat:toWorld(vec(20,X*5,-20+Y*-1)))
Body4:setPos(Seat:toWorld(vec(-20,X*-5,-20+Y*1)))
Body5:setPos(Seat:toWorld(vec(-25,X*-10,-40+Y*5)))
Body6:setPos(Seat:toWorld(vec(25,X*10,-40+Y*-5)))

Body7:setPos(Seat:toWorld(vec(30+X*1,0,25+X*1)))
Body8:setPos(Seat:toWorld(vec(-30+X*-1,0,25+X*1)))

}
Move++
if(A){
    if(Move>50){
     Move=50   
    }
 holoAng(1,holoEntity(1):toWorld(ang(0,Move*0.05,0))) 
}
if(D){
     if(Move>50){
     Move=50   
    }
 holoAng(1,holoEntity(1):toWorld(ang(0,Move*-0.05,0))) 
}
}
if(Driver:name()!=owner():name()){Seat:killPod()}


Driver:setAlpha(0)
if(!Driver){
Body:propNotSolid(1)
}else{
Body:propNotSolid(0)
}
Body2:setAlpha(100)
Body2:setColor(vec(75,75,75))
holoAlpha(2,200)
if(Egp:entity()){
 timer("egp",150)
if(changed(Egp:entity())&Egp:entity()|clk("egp")){
    for(P=1,players():count()){
        Ply=players()[P,entity]
     Egp:egp3DTracker(P+100,Ply:pos())
    Egp:egpText(P+10,P+" "+Ply:name(),vec2(-20,20))
    Egp:egpBoxOutline(P+15,vec2(),vec2(20,30))
    Egp:egpParent(P+15,P+100)
        Egp:egpParent(P+10,P+100)
    if(Ply:isAdmin()){Egp:egpColor(P+10,vec(255,0,255))
        }elseif(Ply:isSuperAdmin()){Egp:egpColor(P+10,vec(255,255,0))
        }elseif(Ply:isPlayer()){Egp:egpColor(P+10,vec(0,255,0))
        }
        if(!Ply:isAlive()){Egp:egpColor(P+10,vec(random(255),0,0))}
    }
}   
}
