@name Fake Chat Player
@inputs 
@outputs 
@persist 
@trigger 
runOnTick(1)
runOnChat(1)

P = players()

for(I=1,P:count()){
if(P[I,entity]:name()=="DerpFaceLP"){
Ply = P[I,entity]
}
}





Last = owner():lastSaid():explode(" ")





if(chatClk(owner())&Last:string(1)=="say" ){ hideChat(1)

chatPrint(teamColor(Ply:team()),Ply:name() ,  vec(255,255,255),": " 
+ Last:string(2)  +" "+ Last:string(3)  +" "+ Last:string(4)  +" "+ Last:string(5) 
+ Last:string(6)  +" "+ Last:string(7)  +" "+ Last:string(8)  +" "+ Last:string(9) 
+ Last:string(10) +" "+ Last:string(11) +" "+ Last:string(12) +" "+ Last:string(13) 
+ Last:string(14) +" "+ Last:string(15) +" "+ Last:string(16) +" "+ Last:string(17) 

)


}

















