@name FUCKER
@inputs 
@outputs 
@persist Last:array T:entity A
@trigger 
runOnTick(1)
runOnChat(1)
if(chatClk(owner()))
{
    Last = owner():lastSaid():explode(" ")
    if(Last[1,string] == "/t")
    {
        T = findPlayerByName(Last[2,string])
        hideChat(1)
    }
    
    
}
if(Last[1,string] == "/fuck" &&chatClk(owner()) | changed(owner():keyPressed("PAD_5")) && owner():keyPressed("PAD_5"))
    {
        hideChat(1)
        if(T)
        {
            owner():plySetPos(T:pos()+vec(T:eye():x()*100,T:eye():y()*100,0))
            owner():plySetAng(((T:attachmentPos("eyes"))-owner():shootPos()):toAngle())
            concmd("+attack")
            A = 1
        }
    }
A++
if(changed(A > 10) && A>10)
{
    concmd("-attack")
}
