@name lastsaid_music
runOnChat(1)

if (lastSaid()=="music1") {soundPlay(0,10000,"music/VLVX_song4.mp3")} 
if (lastSaid()=="music2") {soundPlay(0,0,"")} 
if (lastSaid()=="music3") {soundPlay(0,10000,"music/HL1_song10.mp3")} 
if (lastSaid()=="music4") {soundPlay(0,10000,"music/HL1_song25_remix3.mp3")}
if (lastSaid()=="music5") {soundPlay(0,10000,"music/portal_still_alive.mp3")}
if (lastSaid()=="music6") {soundPlay(0,10000,"music/HL2_song20_submix4.mp3")}
if (lastSaid()=="music7") {soundPlay(0,10000,"music/HL2_song23_suitsong3.mp3")}

