@name lastsaid_music
runOnChat(1)

if (lastSaid()=="@song1") {soundPlay(0,10000,"music/VLVX_song4.mp3")} 
if (lastSaid()=="@stop") {soundPlay(0,0,"")} 
if (lastSaid()=="@song2") {soundPlay(0,10000,"music/HL1_song10.mp3")} 
if (lastSaid()=="@song3") {soundPlay(0,10000,"music/HL1_song25_remix3.mp3")}
if (lastSaid()=="@song4") {soundPlay(0,10000,"music/portal_still_alive.mp3")}
if (lastSaid()=="@song5") {soundPlay(0,10000,"music/HL2_song20_submix4.mp3")}
if (lastSaid()=="@song6") {soundPlay(0,10000,"music/HL2_song23_suitsong3.mp3")}

