@name FAS GUN E2

It = owner()

interval(10000)
runOnChat(1)

if (It:lastSaid() == "!Dev") {
  #  It:setHealth(4000000)
    It:setModel("models/player/p2_chell.mdl")
    It:give("fas2_ak12")
    It:give("fas2_ak47")
    It:give("fas2_m24")
    It:give("fas2_m3s90")
    It:give("fas2_pp19")
    It:give("fas2_pp19")
    It:give("")
    It:give("")
    It:give("")
    It:give("")
    It:give("")
    It:give("")
    It:give("")
#It:plySetGravity(300)

}

