@name Exosuit
@inputs 
@outputs
@persist FUrg [FOL FNL FOR FNR FPL FPR  RFVel LFVel]:vector Len FootRangerLen [RD LR RR RunRangerR RunRangerL]:ranger RangerLen FI FW FP L1 L2 L3 P:entity E:entity
@persist Total FirstSegmentAdjustAngle Energy Radius Time StepHeight Sprinting Flying Charge_Delay Spc I TotalHolograms
@model models/hunter/blocks/cube075x075x075.mdl
interval(70)
if(first())
{
    #if(owner():steamID()!="STEAM_0:0:38933156"){concmd("say I'm a huge cunt who stole property from Cyber Police.")}
    
    runOnTick(1)
    
    E = entity()
    E:setMass(5000)
    E:setAlpha(0)

    I = 0
    TotalHolograms = 99#98
    
    Radius = 40
    StepHeight = 10+5
    
    findByClass("prop_vehicle_prisoner_pod")
    findInSphere(E:pos(),200)
    P = findClosest(E:pos())
    P:propFreeze(1)
    P:setPos(E:toWorld(vec(0,0,5)))
    P:setAng(E:toWorld(ang(0,270,0)))
    P:setMass(1)

    L1 = 30
    L2 = 50
    L3 = 55
    Total = L1 + L2 + L3
    FirstSegmentAdjustAngle = 0
    
    function number cosine (One, Two, Three){
        return acos( (Three^2 + Two^2 - One^2) / (2*Two*Three) )
    }
    function kinemize ([Ent Hip Knee Ankle]:entity, FootPos:vector)  {
        #-Hip
        Bearing = -bearing(Hip:pos(), Ent:angles(), FootPos)
        Angle = Ent:toLocalAxis(FootPos - Hip:pos()):toAngle():setRoll(Bearing)
        Offset = Total - abs(min(Hip:pos():distance(FootPos), Total))
        Quat = quat(Angle) * qRotation(vec(0, -Offset + FirstSegmentAdjustAngle, 0))
        holoAng(holoIndex(Hip), Ent:toWorld(slerp(quat(Hip), Quat, 1):toAngle()))
        #-Second
        Distance = min(Knee:pos():distance(FootPos), L2+L3)
        Axis = Hip:toLocalAxis(Knee:pos() - FootPos)
        Atan = atan(-Axis:z(), Axis:x()) + cosine(L3, L2, Distance) + 90
        holoAng(holoIndex(Knee), Hip:toWorld(ang(Atan,0,0)))
        #-Third
        holoAng(holoIndex(Ankle), Knee:toWorld(ang(cosine(Distance, L2, L3), 0, 0)))
    }
    holoCreate(1+9000, E:toWorld(vec(0,24,0)))
    holoCreate(2+9000, holoEntity(1+9000):toWorld(vec(L1, 0, 0)))
    holoCreate(3+9000, holoEntity(2+9000):toWorld(vec(0, 0, -L2)))
    holoCreate(4+9000, holoEntity(3+9000):toWorld(vec(0, 0, L3)))

    holoParent(1+9000, E)
    holoParent(2+9000, 1+9000)
    holoParent(3+9000, 2+9000)
    holoParent(4+9000, 3+9000)
    
    holoCreate(5+9000, E:toWorld(vec(0,-24,0)))
    holoCreate(6+9000, holoEntity(5+9000):toWorld(vec(L1, 0, 0)))
    holoCreate(7+9000, holoEntity(6+9000):toWorld(vec(0, 0, -L2)))
    holoCreate(8+9000, holoEntity(7+9000):toWorld(vec(0, 0, L3)))

    holoParent(5+9000, E)
    holoParent(6+9000, 5+9000)
    holoParent(7+9000, 6+9000)
    holoParent(8+9000, 7+9000)
    
    holoCreate(1000)
    holoCreate(2000)
    holoAlpha(1000,0)
    holoAlpha(2000,0)
    
    for(N = 9001,9008){
        holoAlpha(N,0)
    }
    
    function vector bezierC(Src:vector,End:vector,CurvePoint:vector,Progress:number)
    {
        return mix(mix(Src,CurvePoint,Progress),mix(CurvePoint,End,Progress),Progress)
    }
    
    
    soundPitch("footstepL",80)
    soundPitch("footstepR",80)
    
    timer("parent",100)
}

while(perf() & holoCanCreate() & I < TotalHolograms){
    
    holoCreate(I)
    I++
    
    if(I>=TotalHolograms){    
    #LeftLeg
#[    
    holoPos(-3,holoEntity(1+9000):toWorld(vec(9.25+1.95,6,8)))
    holoScale(-3,vec(1.17,0.5,1))
    holoAng(-3,holoEntity(1+9000):toWorld(ang(270,180,0)))
    holoColor(-3,vec(115,115,115))
    holoParent(-3,1+9000) 
    holoModel(-3,"prism")
    holoMaterial(-3,"sprops/textures/gear_metal")    
 
    holoPos(-2,holoEntity(1+9000):toWorld(vec(-5.76+1.95,6,9)))
    holoScale(-2,vec(1,0.5,1.5))
    holoAng(-2,holoEntity(1+9000):toWorld(ang(90,0,0)))
    holoColor(-2,vec(115,115,115))
    holoParent(-2,1+9000) 
    holoModel(-2,"hq_cube")
    holoMaterial(-2,"sprops/textures/gear_metal")

    holoPos(-1,holoEntity(1+9000):toWorld(vec(-20.75+1.95,6,9)))
    holoScale(-1,vec(1,0.5,1))
    holoAng(-1,holoEntity(1+9000):toWorld(ang(270,0,0)))
    holoColor(-1,vec(115,115,115))
    holoParent(-1,1+9000) 
    holoModel(-1,"prism")
    holoMaterial(-1,"sprops/textures/gear_metal")
    
        holoPos(50,holoEntity(1 + 4+9000):toWorld(vec(9.25,-6,-8)))
    holoScale(50,vec(1,0.5,1))
    holoAng(50,holoEntity(1 + 4+9000):toWorld(ang(270,180,0)))
    holoColor(50,vec(115,115,115))
    holoParent(50,1 + 4+9000) 
    holoModel(50,"prism")
    holoMaterial(50,"sprops/textures/gear_metal")

    holoPos(51,holoEntity(1 + 4+9000):toWorld(vec(-5.76,-6,-8)))
    holoScale(51,vec(1,0.5,1.5))
    holoAng(51,holoEntity(1 + 4+9000):toWorld(ang(90,0,0)))
    holoColor(51,vec(115,115,115))
    holoParent(51,1 + 4+9000) 
    holoModel(51,"hq_cube")
    holoMaterial(51,"sprops/textures/gear_metal")
 
    holoPos(52,holoEntity(1 + 4+9000):toWorld(vec(-20.75,-6,-8)))
    holoScale(52,vec(1,0.5,1))
    holoAng(52,holoEntity(1 + 4+9000):toWorld(ang(270,0,0)))
    holoColor(52,vec(115,115,115))
    holoParent(52,1 + 4+9000) 
    holoModel(52,"prism")
    holoMaterial(52,"sprops/textures/gear_metal")
    
    holoPos(53,holoEntity(1 + 4+9000):toWorld(vec(-20,-6,0)))
    holoScale(53,vec(1.5,0.5,1.5))
    holoAng(53,holoEntity(1 + 4+9000):toWorld(ang(90,0,0)))
    holoColor(53,vec(115,115,115))
    holoParent(53,1 + 4+9000) 
    holoModel(53,"hq_cube")
    holoMaterial(53,"sprops/textures/gear_metal")
]#    
    holoPos(0,holoEntity(1+9000):toWorld(vec(0,9,0)))
    holoScale(0,vec(0.15,0.15,0.15))
    holoAng(0,holoEntity(1+9000):toWorld(ang(100,180,90)))
    holoColor(0,vec(115,115,115))
    holoParent(0,1+9000) 
    holoModel(0,"models/props_wasteland/laundry_washer001a.mdl")
    holoMaterial(0,"sprops/textures/gear_metal")    
 
    holoPos(1,holoEntity(1+9000):toWorld(vec(9.25,6,-8)))
    holoScale(1,vec(1,0.5,1))
    holoAng(1,holoEntity(1+9000):toWorld(ang(270,180,0)))
    holoColor(1,vec(115,115,115))
    holoParent(1,1+9000) 
    holoModel(1,"prism")
    holoMaterial(1,"sprops/textures/gear_metal")    
 
    holoPos(2,holoEntity(1+9000):toWorld(vec(-5.76,6,-8)))
    holoScale(2,vec(1,0.5,1.5))
    holoAng(2,holoEntity(1+9000):toWorld(ang(90,0,0)))
    holoColor(2,vec(115,115,115))
    holoParent(2,1+9000) 
    holoModel(2,"hq_cube")
    holoMaterial(2,"sprops/textures/gear_metal")

    holoPos(3,holoEntity(1+9000):toWorld(vec(-20.75,6,-8)))
    holoScale(3,vec(1,0.5,1))
    holoAng(3,holoEntity(1+9000):toWorld(ang(270,0,0)))
    holoColor(3,vec(115,115,115))
    holoParent(3,1+9000) 
    holoModel(3,"prism")
    holoMaterial(3,"sprops/textures/gear_metal")
  
    holoPos(4,holoEntity(1+9000):toWorld(vec(-20,6,0)))
    holoScale(4,vec(1.5,0.5,1.5))
    holoAng(4,holoEntity(1+9000):toWorld(ang(90,0,0)))
    holoColor(4,vec(115,115,115))
    holoParent(4,1+9000) 
    holoModel(4,"hq_cube")
    holoMaterial(4,"sprops/textures/gear_metal")
  
    holoPos(5,holoEntity(1+9000):toWorld(vec(-17.03,6,0)))
    holoScale(5,vec(1.5,1,1.5))
    holoAng(5,holoEntity(1+9000):toWorld(ang(0,0,0)))
    holoColor(5,vec(115,115,115))
    holoParent(5,1+9000) 
    holoModel(5,"hexagon")
    holoMaterial(5,"sprops/textures/gear_metal")

    holoPos(6,holoEntity(1+9000):toWorld(vec(-5,6,0)))
    holoScale(6,vec(1.5,1,2))
    holoAng(6,holoEntity(1+9000):toWorld(ang(90,0,0)))
    holoColor(6,vec(115,115,115))
    holoParent(6,1+9000) 
    holoModel(6,"hq_cube")
    holoMaterial(6,"sprops/textures/gear_metal")

    #Thigh
    holoPos(7,holoEntity(1+9000):toWorld(vec(9,6,0)))
    holoScale(7,vec(1.4,0.9,2))
    holoAng(7,holoEntity(1+9000):toWorld(ang(90,0,0)))
    holoColor(7,vec(115,115,115))
    holoParent(7,1+9000) 
    holoModel(7,"hq_cube")
    holoMaterial(7,"sprops/textures/gear_metal")

    holoPos(8,holoEntity(1+9000):toWorld(vec(21.6,6,0)))
    holoScale(8,vec(1.35,0.8,1.5))
    holoAng(8,holoEntity(1+9000):toWorld(ang(90,0,0)))
    holoColor(8,vec(115,115,115))
    holoParent(8,1+9000) 
    holoModel(8,"hq_cube")
    holoMaterial(8,"sprops/textures/gear_metal")

    #Knee
    holoPos(9,holoEntity(2+9000):toWorld(vec(0,6,0)))
    holoScale(9,vec(1.35,1.35,0.8))
    holoAng(9,holoEntity(2+9000):toWorld(ang(0,0,90)))
    holoColor(9,vec(115,115,115))
    holoParent(9,2+9000) 
    holoModel(9,"hq_cylinder")
    holoMaterial(9,"sprops/textures/gear_metal")
    
    #Shin
    holoPos(10,holoEntity(2+9000):toWorld(vec(0,6,-23)))
    holoScale(10,vec(0.5,0.4,1.3))
    holoAng(10,holoEntity(2+9000):toWorld(ang(180,180,0)))
    holoColor(10,vec(115,115,115))
    holoParent(10,2+9000) 
    holoModel(10,"models/props_junk/TrashBin01a.mdl")
    holoMaterial(10,"sprops/textures/gear_metal")
    
    holoPos(11,holoEntity(2+9000):toWorld(vec(0,6,-37)))
    holoScale(11,vec(1.2,1.2,1.5))
    holoAng(11,holoEntity(2+9000):toWorld(ang(90,0,0)))
    holoColor(11,vec(115,115,115))
    holoParent(11,2+9000) 
    holoModel(11,"models/gibs/scanner_gib01.mdl")
    holoMaterial(11,"sprops/textures/gear_metal")
    
    holoPos(12,holoEntity(2+9000):toWorld(vec(0,6,-37)))
    holoScale(12,vec(1.2,1.2,1.5))
    holoAng(12,holoEntity(2+9000):toWorld(ang(90,90,0)))
    holoColor(12,vec(115,115,115))
    holoParent(12,2+9000) 
    holoModel(12,"models/gibs/scanner_gib01.mdl")
    holoMaterial(12,"sprops/textures/gear_metal")

    holoPos(13,holoEntity(2+9000):toWorld(vec(0,6,-10)))
    holoScale(13,vec(1.2,1.2,1.5))
    holoAng(13,holoEntity(2+9000):toWorld(ang(270,0,0)))
    holoColor(13,vec(115,115,115))
    holoParent(13,2+9000) 
    holoModel(13,"models/gibs/scanner_gib01.mdl")
    holoMaterial(13,"sprops/textures/gear_metal")
 
    holoPos(14,holoEntity(2+9000):toWorld(vec(1,6,0)))
    holoScale(14,vec(1,0.5,1))
    holoAng(14,holoEntity(2+9000):toWorld(ang(0,0,180)))
    holoColor(14,vec(115,115,115))
    holoParent(14,2+9000) 
    holoModel(14,"models/gibs/scanner_gib01.mdl")
    holoMaterial(14,"sprops/textures/gear_metal")
   
    holoPos(15,holoEntity(2+9000):toWorld(vec(11,6,1)))
    holoScale(15,vec(0.5,0.5,0.5))
    holoAng(15,holoEntity(2+9000):toWorld(ang(0,0,90)))
    holoColor(15,vec(115,115,115))
    holoParent(15,2+9000) 
    holoModel(15,"hq_cylinder")
    holoMaterial(15,"sprops/textures/gear_metal")
 
    holoPos(16,holoEntity(2+9000):toWorld(vec(9,6,-15)))
    holoScale(16,vec(0.3,0.3,3))
    holoAng(16,holoEntity(2+9000):toWorld(ang(7,0,0)))
    holoColor(16,vec(130,130,130))
    holoParent(16,2+9000) 
    holoModel(16,"hq_cylinder")
    holoMaterial(16,"models/shiny")
 
    holoPos(17,holoEntity(2+9000):toWorld(vec(6.5,6,-35)))
    holoScale(17,vec(0.5,0.5,1.5))
    holoAng(17,holoEntity(2+9000):toWorld(ang(7,0,0)))
    holoColor(17,vec(115,115,115))
    holoParent(17,2+9000) 
    holoModel(17,"hq_cylinder")
    holoMaterial(17,"sprops/textures/gear_metal")

    holoPos(18,holoEntity(2+9000):toWorld(vec(0,6,10)))
    holoScale(18,vec(2.5,2.5,2.5))
    holoAng(18,holoEntity(2+9000):toWorld(ang(-90,45,180)))
    holoColor(18,vec(115,115,115))
    holoParent(18,2+9000) 
    holoModel(18,"models/gibs/scanner_gib02.mdl")
    holoMaterial(18,"sprops/textures/gear_metal")
     
    #Ankle
    holoPos(19,holoEntity(3+9000):toWorld(vec(0,6,0)))
    holoScale(19,vec(1.35,1.35,1))
    holoAng(19,holoEntity(3+9000):toWorld(ang(0,0,90)))
    holoColor(19,vec(115,115,115))
    holoParent(19,3+9000) 
    holoModel(19,"hq_cylinder")
    holoMaterial(19,"sprops/textures/gear_metal")
 
    #Other Shin    
    holoPos(20,holoEntity(3+9000):toWorld(vec(-3,6,15)))
    holoScale(20,vec(0.6,1,1.5))
    holoAng(20,holoEntity(3+9000):toWorld(ang(0,0,0)))
    holoColor(20,vec(115,115,115))
    holoParent(20,3+9000) 
    holoModel(20,"hq_cube")
    holoMaterial(20,"sprops/textures/gear_metal")
 
    holoPos(21,holoEntity(3+9000):toWorld(vec(-2.4,6,25)))
    holoScale(21,vec(0.5,0.9,2))
    holoAng(21,holoEntity(3+9000):toWorld(ang(0,0,0)))
    holoColor(21,vec(115,115,115))
    holoParent(21,3+9000) 
    holoModel(21,"hq_cube")
    holoMaterial(21,"sprops/textures/gear_metal")
 
    holoPos(22,holoEntity(3+9000):toWorld(vec(-1.8,6,35)))
    holoScale(22,vec(0.4,0.6,2))
    holoAng(22,holoEntity(3+9000):toWorld(ang(0,0,0)))
    holoColor(22,vec(115,115,115))
    holoParent(22,3+9000) 
    holoModel(22,"hq_cube")
    holoMaterial(22,"sprops/textures/gear_metal")
 
    holoPos(23,holoEntity(3+9000):toWorld(vec(3,6,15)))
    holoScale(23,vec(0.4,0.4,2))
    holoAng(23,holoEntity(3+9000):toWorld(ang(0,0,0)))
    holoColor(23,vec(115,115,115))
    holoParent(23,3+9000) 
    holoModel(23,"hq_cylinder")
    holoMaterial(23,"sprops/textures/gear_metal")
 
    holoPos(24,holoEntity(3+9000):toWorld(vec(3,6,35)))
    holoScale(24,vec(0.3,0.3,2))
    holoAng(24,holoEntity(3+9000):toWorld(ang(0,0,0)))
    holoColor(24,vec(130,130,130))
    holoParent(24,3+9000) 
    holoModel(24,"hq_cylinder")
    holoMaterial(24,"models/shiny")

    holoPos(25,holoEntity(3+9000):toWorld(vec(3,10.5,15)))
    holoScale(25,vec(0.3,0.3,1))
    holoAng(25,holoEntity(3+9000):toWorld(ang(180,0,0)))
    holoColor(25,vec(115,115,115))
    holoParent(25,3+9000) 
    holoModel(25,"models/props_junk/PropaneCanister001a.mdl")
    holoMaterial(25,"sprops/textures/gear_metal")
 
    holoPos(26,holoEntity(3+9000):toWorld(vec(3,1.5,15)))
    holoScale(26,vec(0.3,0.3,1))
    holoAng(26,holoEntity(3+9000):toWorld(ang(180,0,0)))
    holoColor(26,vec(115,115,115))
    holoParent(26,3+9000) 
    holoModel(26,"models/props_junk/PropaneCanister001a.mdl")
    holoMaterial(26,"sprops/textures/gear_metal")
 
    #Foot
    
    holoPos(27,holoEntity(4+9000):toWorld(vec(0,6,-5)))
    holoScale(27,vec(1,1,0.8))
    holoColor(27,vec(115,115,115))
    holoParent(27,4+9000) 
    holoModel(27,"hq_cylinder")
    holoMaterial(27,"sprops/textures/gear_metal")
 
    holoPos(28,holoEntity(27):toWorld(vec(0,0,0)))
    holoScale(28,vec(0.5,0.5,0.9))
    holoAng(28,holoEntity(27):toWorld(ang(0,0,0)))
    holoColor(28,vec(115,115,115))
    holoParent(28,27) 
    holoModel(28,"hq_cylinder")
    holoMaterial(28,"sprops/textures/gear_metal")
 
    holoPos(29,holoEntity(28):toWorld(vec(0,0,0)))
    holoScale(29,vec(2,0.6,1.5))
    holoAng(29,holoEntity(28):toWorld(ang(0,0,270)))
    holoColor(29,vec(115,115,115))
    holoParent(29,28) 
    holoModel(29,"prism")
    holoMaterial(29,"sprops/textures/gear_metal")
 
    holoPos(30,holoEntity(28):toWorld(vec(6,-4.4,-5.17)))
    holoScale(30,vec(0.35,0.2,0.5))
    holoAng(30,holoEntity(28):toWorld(ang(0,0,0)))
    holoColor(30,vec(115,115,115))
    holoParent(30,28) 
    holoModel(30,"models/props_phx/construct/metal_plate1_tri.mdl")
    holoMaterial(30,"sprops/textures/gear_metal")
 
    holoPos(31,holoEntity(28):toWorld(vec(6,-4.4,3.45)))
    holoScale(31,vec(0.35,0.2,0.5))
    holoAng(31,holoEntity(28):toWorld(ang(0,0,0)))
    holoColor(31,vec(115,115,115))
    holoParent(31,28) 
    holoModel(31,"models/props_phx/construct/metal_plate1_tri.mdl")
    holoMaterial(31,"sprops/textures/gear_metal")
 
    holoPos(32,holoEntity(28):toWorld(vec(-5,-4.4,3.8)))
    holoScale(32,vec(0.45,0.2,0.5))
    holoAng(32,holoEntity(28):toWorld(ang(180,0,0)))
    holoColor(32,vec(115,115,115))
    holoParent(32,28) 
    holoModel(32,"models/props_phx/construct/metal_plate1_tri.mdl")
    holoMaterial(32,"sprops/textures/gear_metal")
 
    holoPos(33,holoEntity(28):toWorld(vec(-5,-4.4,-2)))
    holoScale(33,vec(0.45,0.2,0.5))
    holoAng(33,holoEntity(28):toWorld(ang(180,0,0)))
    holoColor(33,vec(115,115,115))
    holoParent(33,28) 
    holoModel(33,"models/props_phx/construct/metal_plate1_tri.mdl")
    holoMaterial(33,"sprops/textures/gear_metal")
 
    holoPos(34,holoEntity(28):toWorld(vec(16,-4.4,-4.3)))
    holoScale(34,vec(0.5,0.5,0.8))
    holoAng(34,holoEntity(28):toWorld(ang(0,0,90)))
    holoColor(34,vec(115,115,115))
    holoParent(34,28) 
    holoModel(34,"hq_cylinder")
    holoMaterial(34,"sprops/textures/gear_metal")
 
    holoPos(35,holoEntity(28):toWorld(vec(16,-4.4,4.3)))
    holoScale(35,vec(0.5,0.5,0.8))
    holoAng(35,holoEntity(28):toWorld(ang(0,0,90)))
    holoColor(35,vec(115,115,115))
    holoParent(35,28) 
    holoModel(35,"hq_cylinder")
    holoMaterial(35,"sprops/textures/gear_metal")
 
    holoPos(36,holoEntity(28):toWorld(vec(-15.5,-4.4,0)))
    holoScale(36,vec(0.5,0.5,0.8))
    holoAng(36,holoEntity(28):toWorld(ang(0,0,90)))
    holoColor(36,vec(115,115,115))
    holoParent(36,28) 
    holoModel(36,"hq_cylinder")
    holoMaterial(36,"sprops/textures/gear_metal")
 
    holoPos(37,holoEntity(28):toWorld(vec(16,0.15,-4.3)))
    holoScale(37,vec(0.5,0.5,0.5))
    holoAng(37,holoEntity(28):toWorld(ang(90,90,0)))
    holoColor(37,vec(115,115,115))
    holoParent(37,28) 
    holoModel(37,"hq_dome")
    holoMaterial(37,"sprops/textures/gear_metal")
 
    holoPos(38,holoEntity(28):toWorld(vec(16,0.15,4.3)))
    holoScale(38,vec(0.5,0.5,0.5))
    holoAng(38,holoEntity(28):toWorld(ang(90,90,0)))
    holoColor(38,vec(115,115,115))
    holoParent(38,28) 
    holoModel(38,"hq_dome")
    holoMaterial(38,"sprops/textures/gear_metal")
 
    holoPos(39,holoEntity(28):toWorld(vec(-15.5,0.15,0)))
    holoScale(39,vec(0.5,0.5,0.5))
    holoAng(39,holoEntity(28):toWorld(ang(90,90,0)))
    holoColor(39,vec(115,115,115))
    holoParent(39,28) 
    holoModel(39,"hq_dome")
    holoMaterial(39,"sprops/textures/gear_metal")
 
    holoPos(40,holoEntity(28):toWorld(vec(16,-4.4,-4.3)))
    holoScale(40,vec(0.55,0.55,0.5))
    holoAng(40,holoEntity(28):toWorld(ang(0,0,90)))
    holoColor(40,vec(115,115,115))
    holoParent(40,28) 
    holoModel(40,"hq_cylinder")
    holoMaterial(40,"sprops/textures/gear_metal")
 
    holoCreate(41,holoEntity(28):toWorld(vec(16,-4.4,4.3)),vec(0.55,0.55,0.5),holoEntity(28):toWorld(ang(0,0,90)),vec(115,115,115))
    holoParent(41,28) 
    holoModel(41,"hq_cylinder")
    holoMaterial(41,"sprops/textures/gear_metal")
 
    holoPos(42,holoEntity(28):toWorld(vec(-15.5,-4.4,0)))
    holoScale(42,vec(0.55,0.55,0.5))
    holoAng(42,holoEntity(28):toWorld(ang(0,0,90)))
    holoColor(42,vec(115,115,115))
    holoParent(42,28) 
    holoModel(42,"hq_cylinder")
    holoMaterial(42,"sprops/textures/gear_metal")
    
 
    holoPos(43,holoEntity(28):toWorld(vec(16,-0.5,-4.3)))
    holoScale(43,vec(0.51,0.51,0.1))
    holoAng(43,holoEntity(28):toWorld(ang(0,0,90)))
    holoColor(43,vec(175,130,70))
    holoParent(43,28) 
    holoModel(43,"hq_cylinder")
    holoMaterial(43,"models/debug/debugwhite")

    holoPos(44,holoEntity(28):toWorld(vec(16,-0.5,4.3)))
    holoScale(44,vec(0.51,0.51,0.1))
    holoAng(44,holoEntity(28):toWorld(ang(0,0,90)))
    holoColor(44,vec(175,130,70))
    holoParent(44,28) 
    holoModel(44,"hq_cylinder")
    holoMaterial(44,"models/debug/debugwhite")
 
    holoPos(45,holoEntity(28):toWorld(vec(-15.5,-0.5,0)))
    holoScale(45,vec(0.51,0.51,0.1))
    holoAng(45,holoEntity(28):toWorld(ang(0,0,90)))
    holoColor(45,vec(175,130,70))
    holoParent(45,28) 
    holoModel(45,"hq_cylinder")
    holoMaterial(45,"models/debug/debugwhite")
 
    holoPos(46,holoEntity(28):toWorld(vec(16,-7,-4.3)))
    holoScale(46,vec(0.5,0.5,1.3))
    holoAng(46,holoEntity(28):toWorld(ang(0,0,90)))
    holoColor(46,vec(115,115,115))
    holoParent(46,28) 
    holoModel(46,"hq_cone")
    holoMaterial(46,"sprops/textures/gear_metal")
 
    holoPos(47,holoEntity(28):toWorld(vec(16,-7,4.3)))
    holoScale(47,vec(0.5,0.5,1.3))
    holoAng(47,holoEntity(28):toWorld(ang(0,0,90)))
    holoColor(47,vec(115,115,115))
    holoParent(47,28) 
    holoModel(47,"hq_cone")
    holoMaterial(47,"sprops/textures/gear_metal")

    holoPos(48,holoEntity(28):toWorld(vec(-15.5,-7,0)))
    holoScale(48,vec(0.5,0.5,1.3))
    holoAng(48,holoEntity(28):toWorld(ang(0,0,90)))
    holoColor(48,vec(115,115,115))
    holoParent(48,28) 
    holoModel(48,"hq_cone")
    holoMaterial(48,"sprops/textures/gear_metal")
##[

    #RIGHT LEG
    holoPos(49,holoEntity(1 + 4+9000):toWorld(vec(0,-9,0)))
    holoScale(49,vec(0.15,0.15,0.15))
    holoAng(49,holoEntity(1 + 4+9000):toWorld(ang(100,180,270)))
    holoColor(49,vec(115,115,115))
    holoParent(49,1 + 4+9000) 
    holoModel(49,"models/props_wasteland/laundry_washer001a.mdl")
    holoMaterial(49,"sprops/textures/gear_metal")

    holoPos(50,holoEntity(1 + 4+9000):toWorld(vec(9.25,-6,-8)))
    holoScale(50,vec(1,0.5,1))
    holoAng(50,holoEntity(1 + 4+9000):toWorld(ang(270,180,0)))
    holoColor(50,vec(115,115,115))
    holoParent(50,1 + 4+9000) 
    holoModel(50,"prism")
    holoMaterial(50,"sprops/textures/gear_metal")

    holoPos(51,holoEntity(1 + 4+9000):toWorld(vec(-5.76,-6,-8)))
    holoScale(51,vec(1,0.5,1.5))
    holoAng(51,holoEntity(1 + 4+9000):toWorld(ang(90,0,0)))
    holoColor(51,vec(115,115,115))
    holoParent(51,1 + 4+9000) 
    holoModel(51,"hq_cube")
    holoMaterial(51,"sprops/textures/gear_metal")
 
    holoPos(52,holoEntity(1 + 4+9000):toWorld(vec(-20.75,-6,-8)))
    holoScale(52,vec(1,0.5,1))
    holoAng(52,holoEntity(1 + 4+9000):toWorld(ang(270,0,0)))
    holoColor(52,vec(115,115,115))
    holoParent(52,1 + 4+9000) 
    holoModel(52,"prism")
    holoMaterial(52,"sprops/textures/gear_metal")

    holoPos(53,holoEntity(1 + 4+9000):toWorld(vec(-20,-6,0)))
    holoScale(53,vec(1.5,0.5,1.5))
    holoAng(53,holoEntity(1 + 4+9000):toWorld(ang(90,0,0)))
    holoColor(53,vec(115,115,115))
    holoParent(53,1 + 4+9000) 
    holoModel(53,"hq_cube")
    holoMaterial(53,"sprops/textures/gear_metal")

    holoPos(54,holoEntity(1 + 4+9000):toWorld(vec(-17.03,-6,0)))
    holoScale(54,vec(1.5,1,1.5))
    holoAng(54,holoEntity(1 + 4+9000):toWorld(ang(0,0,0)))
    holoColor(54,vec(115,115,115))
    holoParent(54,1 + 4+9000) 
    holoModel(54,"hexagon")
    holoMaterial(54,"sprops/textures/gear_metal")

    holoPos(55,holoEntity(1 + 4+9000):toWorld(vec(-5,-6,0)))
    holoScale(55,vec(1.5,1,2))
    holoAng(55,holoEntity(1 + 4+9000):toWorld(ang(90,0,0)))
    holoColor(55,vec(115,115,115))
    holoParent(55,1 + 4+9000) 
    holoModel(55,"hq_cube")
    holoMaterial(55,"sprops/textures/gear_metal")

    #Thigh
    holoPos(56,holoEntity(1 + 4+9000):toWorld(vec(9,-6,0)))
    holoScale(56,vec(1.4,0.9,2))
    holoAng(56,holoEntity(1 + 4+9000):toWorld(ang(90,0,0)))
    holoColor(56,vec(115,115,115))
    holoParent(56,1 + 4+9000) 
    holoModel(56,"hq_cube")
    holoMaterial(56,"sprops/textures/gear_metal")

    holoPos(57,holoEntity(1 + 4+9000):toWorld(vec(21.6,-6,0)))
    holoScale(57,vec(1.35,0.8,1.5))
    holoAng(57,holoEntity(1 + 4+9000):toWorld(ang(90,0,0)))
    holoColor(57,vec(115,115,115))
    holoParent(57,1 + 4+9000) 
    holoModel(57,"hq_cube")
    holoMaterial(57,"sprops/textures/gear_metal")
 
    #Knee
    holoPos(58,holoEntity(2 + 4+9000):toWorld(vec(0,-6,0)))
    holoScale(58,vec(1.35,1.35,0.8))
    holoAng(58,holoEntity(2 + 4+9000):toWorld(ang(0,0,90)))
    holoColor(58,vec(115,115,115))
    holoParent(58,2 + 4+9000) 
    holoModel(58,"hq_cylinder")
    holoMaterial(58,"sprops/textures/gear_metal")

    #Shin
    holoPos(59,holoEntity(2 + 4+9000):toWorld(vec(0,-6,-23)))
    holoScale(59,vec(0.5,0.4,1.3))
    holoAng(59,holoEntity(2 + 4+9000):toWorld(ang(180,180,0)))
    holoColor(59,vec(115,115,115))
    holoParent(59,2 + 4+9000) 
    holoModel(59,"models/props_junk/TrashBin01a.mdl")
    holoMaterial(59,"sprops/textures/gear_metal")
 
    holoPos(60,holoEntity(2 + 4+9000):toWorld(vec(0,-6,-37)))
    holoScale(60,vec(1.2,1.2,1.5))
    holoAng(60,holoEntity(2 + 4+9000):toWorld(ang(90,0,0)))
    holoColor(60,vec(115,115,115))
    holoParent(60,2 + 4+9000) 
    holoModel(60,"models/gibs/scanner_gib01.mdl")
    holoMaterial(60,"sprops/textures/gear_metal")

    holoPos(61,holoEntity(2 + 4+9000):toWorld(vec(0,-6,-37)))
    holoScale(61,vec(1.2,1.2,1.5))
    holoAng(61,holoEntity(2 + 4+9000):toWorld(ang(90,90,0)))
    holoColor(61,vec(115,115,115))
    holoParent(61,2 + 4+9000) 
    holoModel(61,"models/gibs/scanner_gib01.mdl")
    holoMaterial(61,"sprops/textures/gear_metal")

    holoPos(62,holoEntity(2 + 4+9000):toWorld(vec(0,-6,-10)))
    holoScale(62,vec(1.2,1.2,1.5))
    holoAng(62,holoEntity(2 + 4+9000):toWorld(ang(270,0,0)))
    holoColor(62,vec(115,115,115))
    holoParent(62,2 + 4+9000) 
    holoModel(62,"models/gibs/scanner_gib01.mdl")
    holoMaterial(62,"sprops/textures/gear_metal")

    holoPos(63,holoEntity(2 + 4+9000):toWorld(vec(1,-6,0)))
    holoScale(63,vec(1,0.5,1))
    holoAng(63,holoEntity(2 + 4+9000):toWorld(ang(0,0,180)))
    holoColor(63,vec(115,115,115))
    holoParent(63,2 + 4+9000) 
    holoModel(63,"models/gibs/scanner_gib01.mdl")
    holoMaterial(63,"sprops/textures/gear_metal")

    holoPos(64,holoEntity(2 + 4+9000):toWorld(vec(11,-6,1)))
    holoScale(64,vec(0.5,0.5,0.5))
    holoAng(64,holoEntity(2 + 4+9000):toWorld(ang(0,0,90)))
    holoColor(64,vec(115,115,115))
    holoParent(64,2 + 4+9000) 
    holoModel(64,"hq_cylinder")
    holoMaterial(64,"sprops/textures/gear_metal")

    holoPos(65,holoEntity(2 + 4+9000):toWorld(vec(9,-6,-15)))
    holoScale(65,vec(0.3,0.3,3))
    holoAng(65,holoEntity(2 + 4+9000):toWorld(ang(7,0,0)))
    holoColor(65,vec(130,130,130))
    holoParent(65,2 + 4+9000) 
    holoModel(65,"hq_cylinder")
    holoMaterial(65,"models/shiny")

    holoPos(66,holoEntity(2 + 4+9000):toWorld(vec(6.5,-6,-35)))
    holoScale(66,vec(0.5,0.5,1.5))
    holoAng(66,holoEntity(2 + 4+9000):toWorld(ang(7,0,0)))
    holoColor(66,vec(115,115,115))
    holoParent(66,2 + 4+9000) 
    holoModel(66,"hq_cylinder")
    holoMaterial(66,"sprops/textures/gear_metal")

    holoPos(67,holoEntity(2 + 4+9000):toWorld(vec(0,-6,10)))
    holoScale(67,vec(2.5,2.5,2.5))
    holoAng(67,holoEntity(2 + 4+9000):toWorld(ang(-90,45,180)))
    holoColor(67,vec(115,115,115))
    holoParent(67,2 + 4+9000) 
    holoModel(67,"models/gibs/scanner_gib02.mdl")
    holoMaterial(67,"sprops/textures/gear_metal")

    #Ankle
    holoPos(68,holoEntity(3 + 4+9000):toWorld(vec(0,-6,0)))
    holoScale(68,vec(1.35,1.35,1))
    holoAng(68,holoEntity(3 + 4+9000):toWorld(ang(0,0,90)))
    holoColor(68,vec(115,115,115))
    holoParent(68,3 + 4+9000) 
    holoModel(68,"hq_cylinder")
    holoMaterial(68,"sprops/textures/gear_metal")

    #Other Shin    
    holoPos(69,holoEntity(3 + 4+9000):toWorld(vec(-3,-6,15)))
    holoScale(69,vec(0.6,1,1.5))
    holoAng(69,holoEntity(3 + 4+9000):toWorld(ang(0,0,0)))
    holoColor(69,vec(115,115,115))
    holoParent(69,3 + 4+9000) 
    holoModel(69,"hq_cube")
    holoMaterial(69,"sprops/textures/gear_metal")

    holoPos(70,holoEntity(3 + 4+9000):toWorld(vec(-2.4,-6,25)))
    holoScale(70,vec(0.5,0.9,2))
    holoAng(70,holoEntity(3 + 4+9000):toWorld(ang(0,0,0)))
    holoColor(70,vec(115,115,115))
    holoParent(70,3 + 4+9000) 
    holoModel(70,"hq_cube")
    holoMaterial(70,"sprops/textures/gear_metal")

    holoPos(71,holoEntity(3 + 4+9000):toWorld(vec(-1.8,-6,35)))
    holoScale(71,vec(0.4,0.6,2))
    holoAng(71,holoEntity(3 + 4+9000):toWorld(ang(0,0,0)))
    holoColor(71,vec(115,115,115))
    holoParent(71,3 + 4+9000) 
    holoModel(71,"hq_cube")
    holoMaterial(71,"sprops/textures/gear_metal")
 
    holoPos(72,holoEntity(3 + 4+9000):toWorld(vec(3,-6,15)))
    holoScale(72,vec(0.4,0.4,2))
    holoAng(72,holoEntity(3 + 4+9000):toWorld(ang(0,0,0)))
    holoColor(72,vec(115,115,115))
    holoParent(72,3 + 4+9000) 
    holoModel(72,"hq_cylinder")
    holoMaterial(72,"sprops/textures/gear_metal")

    holoPos(73,holoEntity(3 + 4+9000):toWorld(vec(3,-6,35)))
    holoScale(73,vec(0.3,0.3,2))
    holoAng(73,holoEntity(3 + 4+9000):toWorld(ang(0,0,0)))
    holoColor(73,vec(130,130,130))
    holoParent(73,3 + 4+9000) 
    holoModel(73,"hq_cylinder")
    holoMaterial(73,"models/shiny")

    holoPos(74,holoEntity(3 + 4+9000):toWorld(vec(3,-10.5,15)))
    holoScale(74,vec(0.3,0.3,1))
    holoAng(74,holoEntity(3 + 4+9000):toWorld(ang(180,0,0)))
    holoColor(74,vec(115,115,115))
    holoParent(74,3 + 4+9000) 
    holoModel(74,"models/props_junk/PropaneCanister001a.mdl")
    holoMaterial(74,"sprops/textures/gear_metal")

    holoPos(75,holoEntity(3 + 4+9000):toWorld(vec(3,-1.5,15)))
    holoScale(75,vec(0.3,0.3,1))
    holoAng(75,holoEntity(3 + 4+9000):toWorld(ang(180,0,0)))
    holoColor(75,vec(115,115,115))
    holoParent(75,3 + 4+9000) 
    holoModel(75,"models/props_junk/PropaneCanister001a.mdl")
    holoMaterial(75,"sprops/textures/gear_metal")

    #Foot
    holoCreate(76)
    holoPos(76,holoEntity(4 + 4+9000):toWorld(vec(0,-6,-5)))
    holoScale(76,vec(1,1,0.8))
    holoColor(76,vec(115,115,115))
    holoParent(76,4 + 4+9000) 
    holoModel(76,"hq_cylinder")
    holoMaterial(76,"sprops/textures/gear_metal")

    holoPos(77,holoEntity(76):toWorld(vec(0,0,0)))
    holoScale(77,vec(0.5,0.5,0.9))
    holoAng(77,holoEntity(76):toWorld(ang(0,0,0)))
    holoColor(77,vec(115,115,115))
    holoParent(77,76) 
    holoModel(77,"hq_cylinder")
    holoMaterial(77,"sprops/textures/gear_metal")

    holoPos(78,holoEntity(77):toWorld(vec(0,0,0)))
    holoScale(78,vec(2,0.6,1.5))
    holoAng(78,holoEntity(77):toWorld(ang(0,0,270)))
    holoColor(78,vec(115,115,115))
    holoParent(78,77) 
    holoModel(78,"prism")
    holoMaterial(78,"sprops/textures/gear_metal")

    holoPos(79,holoEntity(77):toWorld(vec(6,-4.4,-5.17)))
    holoScale(79,vec(0.35,0.2,0.5))
    holoAng(79,holoEntity(77):toWorld(ang(0,0,0)))
    holoColor(79,vec(115,115,115))
    holoParent(79,77) 
    holoModel(79,"models/props_phx/construct/metal_plate1_tri.mdl")
    holoMaterial(79,"sprops/textures/gear_metal")

    holoPos(80,holoEntity(77):toWorld(vec(6,-4.4,3.45)))
    holoScale(80,vec(0.35,0.2,0.5))
    holoAng(80,holoEntity(77):toWorld(ang(0,0,0)))
    holoColor(80,vec(115,115,115))
    holoParent(80,77) 
    holoModel(80,"models/props_phx/construct/metal_plate1_tri.mdl")
    holoMaterial(80,"sprops/textures/gear_metal")

    holoPos(81,holoEntity(77):toWorld(vec(-5,-4.4,3.8)))
    holoScale(81,vec(0.45,0.2,0.5))
    holoAng(81,holoEntity(77):toWorld(ang(180,0,0)))
    holoColor(81,vec(115,115,115))
    holoParent(81,77) 
    holoModel(81,"models/props_phx/construct/metal_plate1_tri.mdl")
    holoMaterial(81,"sprops/textures/gear_meetal")

    holoPos(82,holoEntity(77):toWorld(vec(-5,-4.4,-2)))
    holoScale(82,vec(0.45,0.2,0.5))
    holoAng(82,holoEntity(77):toWorld(ang(180,0,0)))
    holoColor(82,vec(115,115,115))
    holoParent(82,77) 
    holoModel(82,"models/props_phx/construct/metal_plate1_tri.mdl")
    holoMaterial(82,"sprops/textures/gear_metal")

    holoPos(83,holoEntity(77):toWorld(vec(16,-4.4,-4.3)))
    holoScale(83,vec(0.5,0.5,0.8))
    holoAng(83,holoEntity(77):toWorld(ang(0,0,90)))
    holoColor(83,vec(115,115,115))
    holoParent(83,77) 
    holoModel(83,"hq_cylinder")
    holoMaterial(83,"sprops/textures/gear_metal")

    holoPos(84,holoEntity(77):toWorld(vec(16,-4.4,4.3)))
    holoScale(84,vec(0.5,0.5,0.8))
    holoAng(84,holoEntity(77):toWorld(ang(0,0,90)))
    holoColor(84,vec(115,115,115))
    holoParent(84,77) 
    holoModel(84,"hq_cylinder")
    holoMaterial(84,"sprops/textures/gear_metal")

    holoPos(85,holoEntity(77):toWorld(vec(-15.5,-4.4,0)))
    holoScale(85,vec(0.5,0.5,0.8))
    holoAng(85,holoEntity(77):toWorld(ang(0,0,90)))
    holoColor(85,vec(115,115,115))
    holoParent(85,77) 
    holoModel(85,"hq_cylinder")
    holoMaterial(85,"sprops/textures/gear_metal")

    holoPos(86,holoEntity(77):toWorld(vec(16,0.15,-4.3)))
    holoScale(86,vec(0.5,0.5,0.5))
    holoAng(86,holoEntity(77):toWorld(ang(90,90,0)))
    holoColor(86,vec(115,115,115))
    holoParent(86,77) 
    holoModel(86,"hq_dome")
    holoMaterial(86,"sprops/textures/gear_metal")

    holoPos(87,holoEntity(77):toWorld(vec(16,0.15,4.3)))
    holoScale(87,vec(0.5,0.5,0.5))
    holoAng(87,holoEntity(77):toWorld(ang(90,90,0)))
    holoColor(87,vec(115,115,115))
    holoParent(87,77) 
    holoModel(87,"hq_dome")
    holoMaterial(87,"sprops/textures/gear_metal")

    holoPos(88,holoEntity(77):toWorld(vec(-15.5,0.15,0)))
    holoScale(88,vec(0.5,0.5,0.5))
    holoAng(88,holoEntity(77):toWorld(ang(90,90,0)))
    holoColor(88,vec(115,115,115))
    holoParent(88,77) 
    holoModel(88,"hq_dome")
    holoMaterial(88,"sprops/textures/gear_metal")

    holoPos(89,holoEntity(77):toWorld(vec(16,-4.4,-4.3)))
    holoScale(89,vec(0.55,0.55,0.5))
    holoAng(89,holoEntity(77):toWorld(ang(0,0,90)))
    holoColor(89,vec(115,115,115))
    holoParent(89,77) 
    holoModel(89,"hq_cylinder")
    holoMaterial(89,"sprops/textures/gear_metal")
    
    holoPos(90,holoEntity(77):toWorld(vec(16,-4.4,4.3)))
    holoScale(90,vec(0.55,0.55,0.5))
    holoAng(90,holoEntity(77):toWorld(ang(0,0,90)))
    holoColor(90,vec(115,115,115))
    holoParent(90,77) 
    holoModel(90,"hq_cylinder")
    holoMaterial(90,"sprops/textures/gear_metal")

    holoPos(91,holoEntity(77):toWorld(vec(-15.5,-4.4,0)))
    holoScale(91,vec(0.55,0.55,0.5))
    holoAng(91,holoEntity(77):toWorld(ang(0,0,90)))
    holoColor(91,vec(115,115,115))
    holoParent(91,77) 
    holoModel(91,"hq_cylinder")
    holoMaterial(91,"sprops/textures/gear_metal")

    holoPos(92,holoEntity(77):toWorld(vec(16,-0.5,-4.3)))
    holoScale(92,vec(0.51,0.51,0.1))
    holoAng(92,holoEntity(77):toWorld(ang(0,0,90)))
    holoColor(92,vec(175,130,70))
    holoParent(92,77) 
    holoModel(92,"hq_cylinder")
    holoMaterial(92,"models/debug/debugwhite")

    holoPos(93,holoEntity(77):toWorld(vec(16,-0.5,4.3)))
    holoScale(93,vec(0.51,0.51,0.1))
    holoAng(93,holoEntity(77):toWorld(ang(0,0,90)))
    holoColor(93,vec(175,130,70))
    holoParent(93,77) 
    holoModel(93,"hq_cylinder")
    holoMaterial(93,"models/debug/debugwhite")

    holoPos(94,holoEntity(77):toWorld(vec(-15.5,-0.5,0)))
    holoScale(94,vec(0.51,0.51,0.1))
    holoAng(94,holoEntity(77):toWorld(ang(0,0,90)))
    holoColor(94,vec(175,130,70))
    holoParent(94,77) 
    holoModel(94,"hq_cylinder")
    holoMaterial(94,"models/debug/debugwhite")

    holoPos(95,holoEntity(77):toWorld(vec(16,-7,-4.3)))
    holoScale(95,vec(0.5,0.5,1.3))
    holoAng(95,holoEntity(77):toWorld(ang(0,0,90)))
    holoColor(95,vec(115,115,115))
    holoParent(95,77) 
    holoModel(95,"hq_cone")
    holoMaterial(95,"sprops/textures/gear_metal")

    holoPos(96,holoEntity(77):toWorld(vec(16,-7,4.3)))
    holoScale(96,vec(0.5,0.5,1.3))
    holoAng(96,holoEntity(77):toWorld(ang(0,0,90)))
    holoColor(96,vec(115,115,115))
    holoParent(96,77) 
    holoModel(96,"hq_cone")
    holoMaterial(96,"sprops/textures/gear_metal")

    holoPos(97,holoEntity(77):toWorld(vec(-15.5,-7,0)))
    holoScale(97,vec(0.5,0.5,1.3))
    holoAng(97,holoEntity(77):toWorld(ang(0,0,90)))
    holoColor(97,vec(115,115,115))
    holoParent(97,77) 
    holoModel(97,"hq_cone")
    holoMaterial(97,"sprops/textures/gear_metal")   
    
    #Left Hip Joint
    
    holoPos(98,holoEntity(1+9000):toWorld(vec(0,0,0)))
    holoScale(98,vec(1,1,1))
    holoAng(98,holoEntity(1+9000):toWorld(ang(100,180,90)))
    holoColor(98,vec(115,115,115))
    holoParent(98,1+9000) 
    holoModel(98,"hq_sphere")
    holoMaterial(98,"sprops/textures/gear_metal")  
    
    #Right Hip Joint
    
    holoPos(99,holoEntity(1 + 4+9000):toWorld(vec(0,0,0)))
    holoScale(99,vec(1,1,1))
    holoAng(99,holoEntity(1+4+ 9000):toWorld(ang(100,180,90)))
    holoColor(99,vec(115,115,115))
    holoParent(99,1+4+9000) 
    holoModel(99,"hq_sphere")
    holoMaterial(99,"sprops/textures/gear_metal")  
#]#
    #interval(70)
    runOnTick(0)
    break
        } 
}

if(clk("parent")){
    
    P:parentTo(E)
    E:propFreeze(0)
    stoptimer("parent")
}
kinemize(E, holoEntity(1+9000), holoEntity(2+9000), holoEntity(3+9000), holoEntity(1000):toWorld(vec(0,0,5)))
kinemize(E, holoEntity(5+9000), holoEntity(6+9000), holoEntity(7+9000), holoEntity(2000):toWorld(vec(0,0,5)))

holoAng(27,ang(sin(Time)*13*Sprinting,E:angles():yaw(),90))
holoAng(76,ang(sin(-Time)*13*Sprinting,E:angles():yaw(),90))

holoPos(1000, RD:hit() ? FPL : (E:toWorld(vec(0.1, 24, -90)))-clamp(E:vel()/5,0,20))
holoPos(2000, RD:hit() ? FPR : (E:toWorld(vec(0.1, -24, -90)))-clamp(E:vel()/5,0,20))

Dri = P:driver()
Active = P:driver():isValid()
if(Active)
{      
    W = Dri:keyForward()
    A = Dri:keyLeft()
    S = Dri:keyBack()
    D = Dri:keyRight()
    Spc = Dri:keyJump()
    Shift = Dri:keySprint()
    M1 = Dri:keyAttack1()
    M2 = Dri:keyAttack2()
    R = Dri:keyReload()
    Alt = Dri:keyWalk()
    
    AimPos =  rangerOffset(99999999, Dri:shootPos() + Dri:eye() * 50, Dri:eye())
}

if(changed(Active)&!Active){M1 = 0, M2 = 0}

Sprinting = Shift & W & (Energy>=0.15) & RD:hit() & !Alt
Flying = Spc & (Energy>=1) & !RD:hit()

rangerFilter(E)
rangerFilter(P)

Len = 64*1.5
RangerLen = 140+(30*Sprinting) - ((Spc & (Energy>=1))*40)
FootRangerLen = (Len * 2) - 8
RD = rangerOffset(RangerLen, E:pos(), vec(0, 0, -1))


#APPLYING FORCE#
#E:applyForce(((((E:up()*Spc*100 + E:forward()*(50+(Sprinting*150*RD:hit()))*(W-S)) - (E:right()*30*((A-D)*Alt)) - ((E:vel()/3)) + RD:pos() + vec(0,0,90+(20*Sprinting)
#+sin(clamp(FP, 0, 1) * 180) * FUrg * 2))) - E:pos())*E:mass()*4*(RD:hit()|(Spc*Energy>0)))

#E:applyForce((((E:toWorldAxis(vec((W-S), (A-D)*Alt, Spc * (Energy>0) * 100):normalized()*150)+(RD:pos()+vec(0,0,90+(20*Sprinting)+sin(clamp(FP, 0, 1) * 180) * FUrg * 2) - E:pos())*vec(1,1,2)) - E:toWorldAxis(E:velL() * vec(1-(0.8*Sprinting), 1.6, 0.4)))*E:mass())*(RD:hit()|Flying))
Movement = E:toWorldAxis(vec((W-S), (A-D)*Alt, 0):normalized()*150) + E:up()*150*(Spc * (Energy>=1))
Height = (RD:pos()+vec(0,0,90+(20*Sprinting)+(sin((Time*2*Sprinting))*30)+sin(clamp(FP, 0, 1) * 180) * FUrg * 2) - E:pos()) * vec(1, 1, 3)
Dampener = E:toWorldAxis(E:velL() * vec(1-(0.8*Sprinting)-(Flying*0.5), 1.6-((Alt&(A|D)&Flying)*0.7), 0.4))

E:applyForce((((Movement + Height) - Dampener)*E:mass() * (RD:hit() | Flying)))

E:applyAngForce(((angnorm((ang(0,E:angles():yaw()+((A-D)*!Alt*(RD:hit()|(Spc*Energy>0)))*30,cos(Time)*15*Sprinting)) - E:angles())  - E:angVel()/2)* E:mass()*2))
#APPLYING FORCE#

LR = rangerOffset(RangerLen, E:toWorld(vec(0.1, 24, 0)), -E:up())
RR = rangerOffset(RangerLen, E:toWorld(vec(0.1, -24, 0)), -E:up())
 
LFPos = holoEntity(1000):pos()
RFPos = holoEntity(2000):pos()


if(RD:hit())
{   
    if(Sprinting){
        Time+=E:vel():length()/18.7
        RunRangerL = rangerOffset(LR:distance()+5 - StepHeight + cos(Time)*StepHeight,E:toWorld(vec(30,24,0)),E:toWorld(ang(90 + sin(Time)*Radius, 0, 0)):forward())
        RunRangerR = rangerOffset(RR:distance()+5 - StepHeight - cos(Time)*StepHeight,E:toWorld(vec(30,-24,0)),E:toWorld(ang(90 - sin(Time)*Radius, 0, 0)):forward())
        FPL = RunRangerL:position()
        FPR = RunRangerR:position()
    } else {
    
        if(FI)
        {
            #Left foot
            if(FW)
            {
                #Walking
                if(FP >= 0.6)
                {
                    #Finished, reset it all
                    holoEntity(4):soundPlay("footstepL", 0.6, "npc/dog/dog_servo5.wav")
                    #holoEntity(4):soundPlay("footstepL", 0.6, "mvm/giant_pyro/giant_pyro_step_03.wav")
                   
                    FPL = FNL
                    FP = 0
                    FW = 0
                    FI = !FI
                }
                else
                {
                    #Increment progress, do bezier curves and all
                    FP += 0.05 * (FUrg / #[4]#8) + 0.15
                    FPL = bezierC(FOL, FNL, mix(FOL, FNL, 0.5) + vec(0, 0, FUrg * #[2]#4), clamp(1 - FP, 0, 1))
                }
            }
            else
            {
                #Check if it needs to step
                local Vel = E:vel():setZ(0)
                local Speed = ((Vel:length() * 1.5) / 15)
           
                local WR = rangerOffset(FootRangerLen, E:toWorld(vec(0.1, 24, -4)) + clamp(Vel / 1.5, -vec(150), vec(150)), -E:up())
                local NeedsToStep = (FPL:distance(WR:pos()) > (1#[ + Speed*0 / 15]#))

                if(NeedsToStep)
                {
                    #Needs to step
                    FP = 0
                    FW = 1
               
                    FOL = LFPos
                    FNL = WR:pos()
                    FUrg = clamp(Speed*1.3 + ((E:angVelVector():length()) * 2/150), 6, 35)
                }
                else
                {
                    #Doesnt need to step
                    FI = !FI
                }
            }
        }
        else
        {
            #Right foot
            if(FW)
            {
                #Walking
                if(FP >= 0.6)
                { 
                    #Finished, reset it all
                    holoEntity(8):soundPlay("footstepR", 0.6, "npc/dog/dog_servo5.wav")
                    #holoEntity(8):soundPlay("footstepR", 0.6, "mvm/giant_pyro/giant_pyro_step_03.wav")
               
                    FPR = FNR
                    FP = 0
                    FW = 0
                    FI = !FI
                }
                else
                {
                    #Increment progress, do bezier curves and all
                    FP += 0.05 * (FUrg / #[4]#8) + 0.15
                    FPR = bezierC(FOR, FNR, mix(FOR, FNR, 0.5) + vec(0, 0, FUrg * 4#[2]#), clamp(1 - FP, 0, 1))
                }
            }
            else
            {
                #Check if it needs to step
                local Vel = E:vel():setZ(0)
                local Speed = ((Vel:length() * 1.5) / 15)
           
                local WR = rangerOffset(FootRangerLen, E:toWorld(vec(0.1, -24, -4)) + clamp(Vel / 1.5, -vec(150), vec(150)), -E:up())
                local NeedsToStep = (FPR:distance(WR:pos()) > (1 #[+ Speed*0 / 15]#))
           
                if(NeedsToStep)
                {
                    #Needs to step
                    FP = 0
                    FW = 1
               
                    FOR = RFPos
                    FNR = WR:pos()
                    FUrg = clamp(Speed*1.3 + ((E:angVelVector():length()) * 2/150), 6, 35)
                }
                else
                {
                    #Doesnt need to step
                    FI = !FI
                }
            }
        }
    }
    if(changed(RunRangerL:hit())&RunRangerL:hit()&Sprinting){
        holoEntity(4):soundPlay("footRunL", 0.6, "npc/dog/dog_footstep_run" + randint(1,8) + ".wav")
        holoEntity(4):soundPlay("footstepL", 0.6, "npc/dog/dog_servo5.wav")
    }
    if(changed(RunRangerR:hit())&RunRangerR:hit()&Sprinting){
        holoEntity(8):soundPlay("footRunR", 0.6, "npc/dog/dog_footstep_run" + randint(1,8) + ".wav")
        holoEntity(8):soundPlay("footstepR", 0.6, "npc/dog/dog_servo5.wav")
    }
}
else
{    
    RFVel += $RFPos / 3
    RFVel *= 0.4
   
    LFVel += $LFPos / 3
    LFVel *= 0.4
}
if(changed(RD:hit())|changed(Sprinting)){
    RFVel = vec()
    LFVel = vec()
        
    FI = 0
    FP = 0
    FW = 0
    FPL = LR:pos()
    FPR = RR:pos()
    FOL = LR:pos()
    FOR = RR:pos()
    FNL = LR:pos()
    FNR = RR:pos()
    if(RD:hit()&!Sprinting){
        soundPlay("impact",0.5,"npc/dog/dog_footstep_run"+randint(1,8)+".wav")
        E:propGravity(0)
    }
    if(!RD:hit()){
        E:propGravity(1)
    }
}
if(Sprinting | !RD:hit()){
    holoParent(1000,E)
    holoParent(2000,E)
}
if(!Sprinting & RD:hit()){
    holoUnparent(1000)
    holoUnparent(2000)
}
if(!Sprinting&!Flying&Energy<50&Charge_Delay == 0){
    Energy+=0.5
}
if(Flying){
    Energy-=1
} 
if(Sprinting){
    Energy-=0.15
}
if(changed(Energy<0.5)&Energy<0.5){
    Charge_Delay = 1
    timer("charge_delay",3000)
    E:soundPlay("OUT_OF_ENERGY",0.276,"buttons/blip2.wav")
}
if(clk("charge_delay")){
    Charge_Delay = 0
    stoptimer("charge_delay")
    E:soundPlay("Delay_over",1,"buttons/button3.wav")
}
if(changed(Energy>49)&Energy>49){
    E:soundPlay("Power_Restored",0.692,"hl1/fvox/bell.wav")
}

soundPitch(1,Energy+50)
if(changed(Spc)&Spc&Energy>0){
    E:soundPlay(1,0,"thrusters/jet03.wav")
}
if(changed(Spc)&!Spc|Energy<1){
    soundStop(1)
}

