@name Bezier Curves Demo
@inputs 
@outputs 
@persist PointCount E:entity Points:array Progress Sets PointsOnSet
interval(25)

if(first()){
    E = entity()
    
    PointCount = 4
    MovingPoints = ((PointCount*(PointCount+1))/2)-PointCount
    Sets = PointCount - 1
    PointsOnSet = Sets + 1
    
    
    for(I = 1, PointCount){  
    Points:pushEntity(propSpawn("models/hunter/blocks/cube025x025x025.mdl",E:pos()+vec(0,0,I*20),ang(0,0,0),1))
    }
    
    for(I = 1, PointCount-1){  
    holoCreate(I)
    }
    
    for(I = 1001, MovingPoints){
    holoCreate(I)
    }
}

Progress = 0.5 + sinr(curtime()/5)*0.5

#First Set of Lines
for(I = 1, PointCount-1){
    holoPos(I,mix(Points[I+1,entity]:pos(), Points[I,entity]:pos(), 0.5))   
    holoScaleUnits(I,vec((Points[I+1,entity]:pos()-Points[I,entity]:pos()):length(),5,5))
    holoAng(I,(Points[I+1,entity]:pos()-Points[I,entity]:pos()):toAngle())
}

#Moving Points
for(I = 1001, MovingPoints){
    for(I2 = I - , PointCount - 1){
        
    }
}

# set = pointcount - 1


