#@name idk poop
@persist MaxEnts A:array E:entity 
@model models/hunter/blocks/cube01x01x01.mdl
if(first())
{
    E = entity()
    #E:setAlpha(0)
    runOnTick(1)
    MaxEnts = 60
    for(I=1,MaxEnts)
    
    {
        holoCreate(I,E:toWorld(vec(-8+(-I*2),0,0)))
        holoScale(I,vec(1,1,1))
        holoParent(I,I-1)
        holoModel(I,"hq_sphere")
        holoColor(I,vec(255,255,255))
    }
    holoUnparent(1)
    holoParent(1,E)
}

A:unshiftAngle(E:angles())

for(I=1,MaxEnts)
{
    holoAng(I,A[I,angle])
}

if(dupefinished()){reset()}
