@name hentai machine
@persist MaxEnts A:array E:entity Time 
@model models/hunter/blocks/cube05x05x05.mdl
if(first())
{
    E = holoCreate(9901)
    holoPos(9901,entity():pos())
    holoParent(9901,entity())
    E:setAlpha(0)
    
    entity():setAlpha(0)
    runOnTick(1)
    MaxEnts = 20
    for(I=1,MaxEnts)
    
    {
        holoCreate(I,E:toWorld(vec(0+(-I*24),0,0)))
        holoScale(I,vec(5,5,5))
        holoParent(I,I-1)
        holoModel(I,"hq_rcylinder_thick")
        holoColor(I,vec(49,46,33))
        holoAng(I,E:toWorld(ang(90,0,0)))
    }
    holoUnparent(1)
    holoParent(1,E)
}
Time+=7
Cos = 15*cos(Time)
holoAng(9901,entity():toWorld(ang(Cos,0,0)))

A:unshiftAngle(E:angles())

for(I=1,MaxEnts)
{
    holoAng(I,A[I,angle])
}

if(dupefinished()){reset()}
