@name 
@inputs 
@outputs 
@persist 
@trigger 
runOnTick(1)
R = owner():keyReload()

 S = owner():lastSaid():explode(" ")
    if(S:string(1)=="."){
        TempPlayer = findPlayerByName(S:string(2))
        if(TempPlayer:isPlayer()){
            Player=TempPlayer
        
        }
    
    
    }

if(R&$R){Player:soundPlay(1,5,"scarenginesounds/13.wav")}
