@name ur fukin dun kiddo
@persist Reload Sec
@persist [E T]:array
@model models/props_c17/FurnitureBathtub001a.mdl
interval(10)
if(first())
{
    propSpawnEffect(0)
    entity():setMaterial("models/debug/debugwhite")
    Sec = 10
}
entity():setColor(random(255),random(666),random(777),(1000))

if(changed(owner():keyReload())&owner():keyReload())
{
    A = random(255),random(666),random(777),(1000)
    Prop = propSpawn("models/props_combine/combine_train02a.mdl",owner():shootPos()+owner():eye()*200,owner():eyeAngles(),0)
    Prop:soundPlay("fire",1.25,"common/wpn_select.wav")
    Prop:setMass(50000)
    Prop:applyForce(Prop:forward()*Prop:mass()^2)
    Prop:setTrails(10,0,10,"trails/smoke",vec(A),255)
    Prop:setColor(random(255),random(666),random(777),(1000))
    Prop:setMaterial("models/debug/debugwhite")
    E:pushEntity(Prop)
    T:pushNumber(Sec*50)
}

if(E:count()>0)
{
    for(I=1,E:count())
    {
        TE = E[I,entity]
        T[I,number] = T[I,number]-1
        if(!T[I,number])
        {
            TE:propDelete()
            E:remove(I)
            T:remove(I)
        }
    }
}
