@name Event Planner
@inputs 
@outputs 
@persist 
@trigger 
runOnChat(1)
OLS = owner():lastSaid():explode(" ")
if(first()){
 print("Mailman and Erza's E2 event Planner")   
 print("Type .list to see the list of event ideas")
 print("Type .todo to see the to do list of events!")
 print("This stays between Erza and Mailman02")
}
if(first()|dupefinished()){
if(owner():steamID() != "STEAM_0:0:40552625"){
    if(owner():steamID() != "STEAM_0:0:56021974"){
        entity():propNotSolid(1)
        print("Sorry this aint yo dupe, FUCK OFF CUNT ")
        selfDestructAll()
    }
  }
}
if(OLS[1, string]== ".list" & chatClk(owner())){
hideChat(1)  
     print("This is a list of event ideas that are and maybe in the process of making")
     print("1. ")   
     print("2. ")
     print("3. ")
     print("4. ")
     print("5. ")
     print("6. ")
     print("7. ")
     print("8. ")
     print("9. ")
     print("10. ")
}

if(OLS[1, string]== ".todo" & chatClk(owner())){
hideChat(1)  
     print("This is a todo list of events and/or event e2's that need to be made")
     print("1. Combine Event in the concept of the zombie event")   
     print("2. Emperor Madness #5 bosses to fight!")
     print("3. ")
     print("4. ")
     print("5. ")
     print("6. ")
     print("7. ")
     print("8. ")
     print("9. ")
     print("10. ")
}
