[Info]
Type:AdvDupe File
Creator:""
#Date:07/04/09
Description:"Hover car made by Kristian02"
Entities:61
Constraints:63
[More Information]
FileVersion:0.84
AdvDupeVersion:1.85
AdvDupeToolVersion:1.9
AdvDupeSharedVersion:1.72
SerialiserVersion:1.4
WireVersion:1270
Time:01:42 PM
Head:1695
HoldAngle:0,-17.2156,0
HoldPos:51.6233,0.54677,2.3965
StartPos:-805.412,-7221.74,-230.969
[Save]
Entities:4B216028{S:"a"=N:255;S:"b"=N:255;S:"g"=N:255;S:"r"=N:255;}03AC60C0{Y:45=T:03A81980;S:"Src"=N:1681;Y:47=Y:90;Y:48=V:-2.0695,0.321828,0.73146;Y:49=T:03AAC7C0;Y:51=Y:50;Y:52=V:2.88621,2.92598,0.917776;Y:53=N:0.43999999761581;}49642CC8{Y:45=T:4963B1F8;S:"Src"=N:1649;Y:47=Y:90;Y:48=V:-0.0443387,0.341642,0.731749;Y:49=T:49641AF8;Y:51=Y:50;Y:52=V:3.43844,-1.92315,1.88842;Y:53=N:0;}4783CFE8{V:4420.31,-5329.29,-176.675;A:87.2884,154.802,-111.987;Y:68;Y:99;B:f;B:f;B:t;}48C6F1E0{;}4963C530{Y:89=T:49642CC8;}03AFD440{S:"a"=N:255;S:"b"=N:255;S:"g"=N:255;S:"r"=N:255;}4BB21378{Y:45=T:4BB21530;S:"Src"=N:1691;Y:47=S:"Out";Y:48=V:0.113992,-0.103824,0.431109;Y:49=T:4BC2F0F0;Y:51=Y:50;Y:52=V:-2.16373,1.78947,0.682942;Y:53=N:0.43999999761581;}4956FC08{Y:54=N:1700;S:"Pos"=V:23.2247,44.483,2.5312;}03ACDB60{Y:63=N:20;}49644208{Y:63=N:20;}4B2C9C00{V:4529.49,-5298.09,-179.152;A:-1.2024,86.463,0.575898;Y:150;Y:149;Y:151;T:47789508;}48DD2200{;}46CD4CE8{Y:5=T:46CD3208;Y:8=Y:20;Y:19=T:4BC30F40;Y:1=A:0.0264237,-141.351,-0.376892;Y:2=V:102.397,1.87988,56.1163;Y:18=Y:21;Y:9=N:0;Y:3=A:0.0264237,-141.351,-0.376892;Y:22=B:t;S:"Pos"=V:102.397,1.87988,56.1163;}4B988DE8{;}03A40B00{Y:58=T:03A5C400;}03A9DF60{N:0=T:03ACC900;}4B98A030{N:8;N:1;N:0;}4B5BA120{;}49641468{Y:25;Y:26;Y:27;Y:28;Y:29;Y:30;Y:31;Y:32;Y:33;Y:34;Y:35;Y:36;Y:37;}03A3CAC0{Y:45=T:03B0DD40;S:"Src"=N:1703;Y:47=Y:90;Y:48=V:-0.805178,1.19562,0.731784;Y:49=T:03AAF1C0;Y:51=Y:50;Y:52=V:-0.0421777,-4.07407,1.63001;Y:53=N:0.43999999761581;}4B989BF8{N:0=T:4B98B430;}4B5BDAA0{S:"a"=N:255;S:"b"=N:255;S:"g"=N:255;S:"r"=N:255;}03A90F40{Y:54=N:1700;S:"Pos"=V:-11.8625,-17.7938,2.5313;}471B9C68{A:-0.797944,176.766,178.889;V:4527.11,-5265.38,-186.425;N:10000;B:f;B:t;B:f;B:t;B:t;B:f;B:f;B:f;B:f;B:f;B:f;B:f;B:f;B:f;B:f;B:t;B:f;B:f;B:f;}4B21FC90{Y:89=T:4B2112D0;}03ABFB80{S:"a"=N:255;S:"b"=N:255;S:"g"=N:255;S:"r"=N:255;}4BA3AF20{Y:1=A:1.07737,-51.3591,-0.596893;Y:8=Y:61;Y:19=T:03A7B0C0;Y:3=A:1.07737,-51.3591,-0.596893;Y:2=V:40.8773,-6.65576,50.7689;Y:18=Y:121;Y:5=T:49637BC0;Y:60=T:4BA3E670;Y:9=N:0;S:"Pos"=V:40.8773,-6.65576,50.7689;}46228158{S:"a"=N:255;S:"b"=N:255;S:"g"=N:255;S:"r"=N:255;}49260720{Y:25;Y:26;Y:27;Y:28;Y:29;Y:30;Y:31;Y:32;Y:33;Y:34;Y:35;Y:36;Y:37;}4B6026E0{Y:45=T:4B601B78;S:"Src"=N:1652;Y:47=S:"Out";Y:48=V:0.734114,0.67301,0.431293;Y:49=T:4B600408;Y:51=Y:50;Y:52=V:-1.96186,-1.79979,0.731759;Y:53=N:0.43999999761581;}46D33C80{Y:46=T:46D35350;S:"WP"=T:46D30418;S:"DP"=T:46D323A8;S:"Ex"=T:46D3B110;Y:56=T:46D36228;S:"DR"=T:46D3AE90;Y:57=T:46D30828;}45E30DF8{;}4B21B0F0{Y:1=A:0.992587,-52.5327,359.964;Y:2=V:-27.4883,-20.8613,58.2061;Y:3=A:0.992587,-52.5327,359.964;S:"Pos"=V:-27.4883,-20.8613,58.2061;Y:4=B:f;}03A614A0{;}4B2102E0{N:0=T:4B212630;}03AA4980{Y:5=T:03A82200;Y:8=Y:100;Y:101=N:10000;Y:9=N:0;Y:102=B:f;Y:60=T:03ACC700;Y:12=B:f;Y:19=T:4B2CFC40;Y:14=B:t;Y:3=A:0.0228608,-141.346,179.588;S:"Pos"=V:115.839,12.772,40.3378;Y:104=Y:103;Y:105=N:0;Y:1=A:0.0228608,-141.346,179.588;Y:2=V:115.839,12.772,40.3378;Y:18=Y:17;Y:11=N:1;Y:106=B:t;Y:107=B:t;Y:108=Y:15;}462263D0{Y:58=T:4622AC00;}03B08B00{Y:5=T:038970A0;Y:66=Y:99;Y:8=Y:67;Y:19=T:46A69250;Y:3=A:89.5635,127.69,179.034;Y:14=B:t;Y:9=N:0;Y:2=V:109.13,-0.672363,53.1055;Y:18=Y:68;Y:69=B:f;Y:60=T:03B00E60;Y:1=A:89.5635,127.69,179.034;S:"Pos"=V:109.13,-0.672363,53.1055;}4778FCA0{Y:162=Y:161;Y:163=S:"0";}4B2CE8B8{V:4531.03,-5259.57,-176.45;A:88.6629,123.103,36.3456;Y:68;Y:65;B:f;B:f;B:t;}4B990ED0{;}038E2720{Y:89=N:0;Y:58=T:03ACF400;Y:91=N:0;Y:92=N:0;Y:93=N:1653;Y:94=N:1700;Y:95=N:0;}4B98FB20{Y:59=T:4B9869A8;}4B5FB188{;}03ACC900{Y:1=A:-0.795942,-141.369,358.898;Y:2=V:69.8481,56.9746,56.948;Y:3=A:-0.795942,-141.369,358.898;S:"Pos"=V:69.8481,56.9746,56.948;Y:4=B:f;}48C7BA08{Y:1=A:-0.610385,-141.349,-1.1427;Y:19=T:03A9B020;Y:40=Y:111;Y:8=Y:41;Y:3=A:-0.610385,-141.349,-1.1427;Y:9=N:0;Y:42=T:4B4142E8;Y:43=Y:119;Y:2=V:33.9626,-12.2246,52.3622;Y:18=Y:23;Y:44=Y:118;Y:60=T:48C76620;Y:5=T:4BC8F9D8;S:"Pos"=V:33.9626,-12.2246,52.3622;}03B1F480{S:"a"=N:255;S:"b"=N:255;S:"g"=N:255;S:"r"=N:255;}03A39B80{Y:45=T:03AA5B60;S:"Src"=N:1703;Y:47=S:"TF";Y:48=V:1.725,0.73633,0.731463;Y:49=T:03AF0CE0;Y:51=Y:50;Y:52=V:-0.229979,1.87401,-1.43533;Y:53=N:0.43999999761581;}03AD1920{Y:45=T:03AC6440;S:"Src"=N:1681;Y:47=Y:90;Y:48=V:-2.08635,-0.236223,0.731319;Y:49=T:03A37300;Y:51=Y:50;Y:52=V:-2.55574,3.15792,0.575276;Y:53=N:0.43999999761581;}03A69200{Y:59=T:03AD49E0;}48C78790{N:0=T:48C76300;}03AE30A0{;}03AB4660{Y:89=N:0;Y:58=T:038C5120;Y:91=N:0;Y:92=N:0;Y:93=N:1700;Y:94=N:1669;Y:95=N:0;}4B2130D0{Y:5=T:4B214840;Y:8=Y:20;Y:19=T:494CCBE8;Y:9=N:0;Y:1=A:-0.0161236,-141.36,-1.02228;Y:22=B:t;Y:18=Y:21;Y:14=B:t;Y:3=A:-0.0161236,-141.36,-1.02228;Y:2=V:-20.5388,-15.3071,58.1295;S:"Pos"=V:-20.5388,-15.3071,58.1295;}03A57940{S:"A"=T:03A8D7C0;}46D38910{N:0=T:46D35B20;}45E26EC0{Y:5=T:4B1F0470;Y:66=S:"+";Y:8=Y:67;Y:19=T:4B833B20;Y:3=A:88.4996,139.618,-131.522;Y:14=B:t;Y:9=N:0;Y:2=V:88.5014,4.72363,79.965;Y:18=Y:68;Y:69=B:f;Y:60=T:45E28DD8;Y:1=A:88.4996,139.618,-131.522;S:"Pos"=V:88.5014,4.72363,79.965;}49641710{N:0=T:4963E010;}4963A280{Y:1=A:0.820893,-64.0931,-0.916534;Y:8=Y:88;Y:19=T:493F9768;Y:3=A:0.820893,-64.0931,-0.916534;Y:2=V:26.0743,-59.2437,56.9015;Y:9=N:0;Y:5=T:49640888;Y:60=T:49638340;Y:18=Y:96;S:"Pos"=V:26.0743,-59.2437,56.9015;}46D30828{Y:45=T:46D36728;S:"Src"=N:1683;Y:47=S:"He";Y:48=V:-0.622429,0.585344,0.731666;Y:49=T:46D33078;Y:51=Y:50;Y:52=V:1.14854,0.826219,0.732115;Y:53=N:0;}4B98FFF8{S:"a"=N:255;S:"b"=N:255;S:"g"=N:255;S:"r"=N:255;}46D30E40{N:0=T:46D2C458;}48D013C8{Y:45=T:48D059F0;S:"Src"=N:1654;Y:47=S:"Out";Y:48=V:0.807656,4.0314,0.823683;Y:49=T:48D0C868;Y:51=Y:50;Y:52=V:-0.298742,1.74992,0.731624;Y:53=N:0.43999999761581;}46D30E18{;}49575E28{Y:54=N:1700;S:"Pos"=V:0.000123425,-17.7936,2.5313;}4B211668{Y:89=N:0;Y:58=T:4B21FC90;Y:91=N:0;Y:92=N:0;Y:93=N:1644;Y:94=N:1700;Y:95=N:0;}4B21BAA0{Y:45=T:4B21A1C8;S:"Src"=N:1657;Y:47=S:"TF";Y:48=V:-1.99666,0.12389,0.732023;Y:49=T:4B213D00;Y:51=Y:50;Y:52=V:-0.568268,-1.86846,1.17202;Y:53=N:0;}4B21D440{S:"a"=N:255;S:"b"=N:255;S:"g"=N:255;S:"r"=N:255;}4B9866D8{S:"A"=T:4B98C5D8;S:"D"=T:4B991740;S:"S"=T:4B991858;S:"W"=T:4B98A030;}4BB210F8{S:"a"=N:255;S:"b"=N:255;S:"g"=N:255;S:"r"=N:255;}48C77598{Y:59=T:48C71198;}03A86F60{;}496430B0{;}46BD6DA8{V:4468.19,-5290.65,-178.314;A:-0.596496,176.768,-1.07764;Y:68;Y:65;B:f;B:f;B:t;}03A51D20{S:"a"=N:1;Y:1=A:0.0257718,-141.367,-0.429413;S:"b"=N:0;Y:8=Y:123;S:"ab"=N:0;S:"aa"=N:255;Y:9=N:0;Y:60=T:03AAD920;S:"bg"=N:255;S:"ag"=N:0;Y:14=B:t;Y:19=T:494CDC28;Y:3=A:0.0257718,-141.367,-0.429413;S:"bb"=N:0;Y:125=Y:124;S:"ba"=N:255;Y:2=V:95.4526,-3.68262,56.1855;Y:18=Y:96;Y:5=T:03AE4A80;S:"ar"=N:255;S:"br"=N:0;S:"Pos"=V:95.4526,-3.68262,56.1855;}4B988A78{Y:1=A:-0.773964,104.345,1.04486;Y:2=V:54.8077,4.44336,52.1172;Y:3=A:-0.773964,104.345,1.04486;S:"Pos"=V:54.8077,4.44336,52.1172;Y:4=B:f;}4918F618{Y:17;A:-0.796542,176.765,178.899;V:4544.33,-5266.3,-189.964;N:1;N:0;N:10000;Y:15;Y:103;B:t;B:t;B:f;B:f;B:t;B:f;B:f;B:f;}46D2C430{S:"a"=N:255;S:"b"=N:255;S:"g"=N:255;S:"r"=N:255;}49533308{Y:1=A:88.6551,164.719,36.0741;Y:2=V:56.2336,54.1001,54.7557;Y:3=A:88.6551,164.719,36.0741;S:"Pos"=V:56.2336,54.1001,54.7557;Y:4=B:f;}46BD0228{V:4532.48,-5329.4,-174.777;A:0.022889,176.746,-0.465912;}46D2C4A8{N:0=T:46D367C8;}03ACC700{Y:74=N:20;Y:59=T:03AD2EC0;}46D39F90{S:"a"=N:255;S:"b"=N:255;S:"g"=N:255;S:"r"=N:255;}4B9914E8{S:"A"=T:4B98B408;}47789508{Y:18=Y:150;Y:152=T:4778A700;Y:154=Y:153;Y:156=Y:155;Y:8=Y:149;Y:158=Y:157;Y:160=Y:159;Y:164=T:4778FCA0;}03AA1FA0{;}03AC0900{Y:21;A:-0.713259,176.769,-1.02506;V:4417.09,-5322.93,-174.031;B:t;B:t;B:f;B:f;B:f;}03ABB6A0{Y:1=A:88.6117,163.73,35.0864;Y:19=T:4BC38718;Y:40=Y:24;Y:8=Y:41;Y:3=A:88.6117,163.73,35.0864;Y:9=N:0;Y:42=T:03ACC6A0;Y:43=Y:39;Y:2=V:58.8815,56.3096,50.9384;Y:18=Y:23;Y:44=Y:38;Y:60=T:03A69200;Y:5=T:038C5F60;S:"Pos"=V:58.8815,56.3096,50.9384;}492FC3C8{Y:5=T:495304C8;Y:66=Y:99;Y:8=Y:67;Y:19=T:48D7E308;Y:3=A:88.6551,164.719,36.0741;Y:14=B:t;Y:9=N:0;Y:2=V:56.2336,54.1001,54.7557;Y:18=Y:68;Y:69=B:f;Y:60=T:492FC3A0;Y:1=A:88.6551,164.719,36.0741;S:"Pos"=V:56.2336,54.1001,54.7557;}49640EC8{Y:1=A:1.07737,-51.3591,359.403;Y:2=V:40.8773,-6.65576,50.7689;S:"Pos"=V:40.8773,-6.65576,50.7689;Y:3=A:1.07737,-51.3591,359.403;Y:4=B:f;}49574028{Y:54=N:1700;S:"Pos"=V:23.2254,8.89565,2.53138;}03900500{;}4B988898{N:0=T:4B9873D0;}4B982E70{Y:45=T:4B988DE8;S:"Src"=N:1692;Y:47=Y:46;Y:48=V:2.92759,0.0638746,2.48012;Y:49=T:4B98FFF8;Y:51=Y:50;Y:52=V:-0.534182,-0.102458,0.431033;Y:53=N:0.43999999761581;}03A7E5E0{Y:45=T:038C3980;S:"Src"=N:1697;Y:47=Y:46;Y:48=V:-0.262205,-2.6074,1.48859;Y:49=T:03A9E9E0;Y:51=Y:50;Y:52=V:-0.315481,0.516114,0.431602;Y:53=N:0.43999999761581;}03AAC7C0{S:"a"=N:255;S:"b"=N:255;S:"g"=N:255;S:"r"=N:255;}48D8B8A0{Y:96;A:0.815857,-105.979,-0.915649;V:4408.21,-5322.43,-173.846;N:1;N:255;N:0;N:0;N:255;N:0;N:0;N:255;N:0;N:255;Y:124;B:t;B:f;B:f;B:f;}4B984D60{S:"a"=N:255;S:"b"=N:255;S:"g"=N:255;S:"r"=N:255;}4B211500{S:"a"=N:255;S:"b"=N:255;S:"g"=N:255;S:"r"=N:255;}46D33078{S:"a"=N:255;S:"b"=N:255;S:"g"=N:255;S:"r"=N:255;}4B98B408{Y:45=T:4B98BE30;S:"Src"=N:1699;Y:47=Y:46;Y:48=V:-0.0542929,2.59081,0.427853;Y:49=T:4B984D60;Y:51=Y:50;Y:52=V:-0.524689,0.426773,0.431402;Y:53=N:0.43999999761581;}03A6AE40{S:"a"=N:255;S:"b"=N:255;S:"g"=N:255;S:"r"=N:255;}4B211438{Y:59=T:4B219688;}03873E40{N:0=T:038CC060;}03AAF320{Y:1=A:88.6117,163.73,35.0864;Y:2=V:58.8815,56.3096,50.9384;Y:3=A:88.6117,163.73,35.0864;S:"Pos"=V:58.8815,56.3096,50.9384;Y:4=B:f;}4BA416E0{S:"a"=N:255;S:"b"=N:255;S:"g"=N:255;S:"r"=N:255;}4B21AEC0{;}4B6021E0{Y:45=T:4B5FB188;S:"Src"=N:1692;Y:47=Y:46;Y:48=V:2.5235,0.630634,0.238952;Y:49=T:4B5F91A8;Y:51=Y:50;Y:52=V:-1.98887,0.539482,0.731793;Y:53=N:0.43999999761581;}4B213AA8{;}46D2C6D8{S:"a"=N:255;S:"b"=N:255;S:"g"=N:255;S:"r"=N:255;}4BB21530{;}46D3AFA8{N:0=T:46D2DA88;}46ECEDF0{V:4429.48,-5260.11,-172.768;A:0.998643,-94.4159,-0.036438;}4B2112D0{Y:45=T:4B213AA8;S:"Src"=N:1657;Y:47=Y:90;Y:48=V:0.683907,0.835096,0.731692;Y:49=T:4B21AD80;Y:51=Y:50;Y:52=V:-3.11333,-2.40585,1.94788;Y:53=N:0;}4B9174C8{N:0=T:4B9141D8;}4622AC00{S:"A"=T:462272A8;S:"H"=T:48D013C8;S:"S"=T:48D03AB0;Y:182=T:3E493728;S:"D"=T:3E48FC68;S:"W"=T:4BAF3808;S:"L"=T:491D7A30;}46D2CC78{;}038C3980{;}03A81980{;}03A3CAE0{Y:5=T:03A9B300;Y:8=Y:20;Y:19=T:4BC87A20;Y:1=A:-0.596507,-141.348,-1.07764;Y:2=V:40.9121,-6.66797,52.5495;Y:18=Y:21;Y:9=N:0;Y:3=A:-0.596507,-141.348,-1.07764;Y:22=B:t;S:"Pos"=V:40.9121,-6.66797,52.5495;}46D323A8{Y:45=T:46D30E18;S:"Src"=N:1693;Y:47=S:"Out";Y:48=V:0.391536,0.895949,0.431066;Y:49=T:46D31F48;Y:51=Y:50;Y:52=V:-0.556126,-0.233548,0.731967;Y:53=N:0;}03AA06E0{Y:74=N:20;Y:59=T:038E1C60;}4B98C4E8{Y:5=T:4B988898;Y:19=T:491933D0;Y:8=Y:127;Y:9=N:0;Y:128=N:0;Y:129=N:12;Y:130=N:5;Y:2=V:40.4531,8.15381,52.3762;Y:18=Y:126;Y:10=B:f;Y:3=A:-0.633883,-141.354,-1.13541;Y:1=A:-0.633883,-141.354,-1.13541;S:"Pos"=V:40.4531,8.15381,52.3762;}03A55F20{Y:45=T:03A47F40;S:"Src"=N:1675;Y:47=S:"Out";Y:48=V:0.954661,0.996583,0.430775;Y:49=T:03B00700;Y:51=Y:50;Y:52=V:-1.16874,-0.695311,0.731434;Y:53=N:0.43999999761581;}4B98C5D8{N:512;N:1;N:0;}4B213558{Y:45=T:4B21B7D0;S:"Src"=N:1701;Y:47=S:"Out";Y:48=V:0.358321,-0.542932,0.431666;Y:49=T:4B21D440;Y:51=Y:50;Y:52=V:-0.690097,-0.480882,0.732087;Y:53=N:0;}03B013E0{Y:59=T:03AC4DE0;}4B215AD8{Y:5=T:4B21BD98;Y:66=Y:65;Y:8=Y:67;Y:19=T:03AA4780;Y:3=A:88.9927,128.982,0.355554;Y:14=B:t;Y:9=N:0;Y:2=V:-21.6506,-8.18555,55.6365;Y:18=Y:68;Y:69=B:f;Y:60=T:4B211438;Y:1=A:88.9927,128.982,0.355554;S:"Pos"=V:-21.6506,-8.18555,55.6365;}03AD19E0{Y:54=N:1700;S:"Pos"=V:-0.000221501,-17.7938,2.53152;}471B6338{A:-0.712144,176.83,178.979;V:4416.94,-5322.7,-186.514;N:10000;B:f;B:t;B:f;B:t;B:t;B:f;B:f;B:f;B:f;B:f;B:f;B:f;B:f;B:f;B:f;B:t;B:f;B:f;B:f;}03A84AC0{Y:5=T:03A47960;Y:8=Y:100;Y:101=N:10000;Y:9=N:0;Y:102=B:f;Y:60=T:03AA7A40;Y:12=B:f;Y:19=T:4918F618;Y:14=B:t;Y:3=A:-0.796542,-141.351,178.899;S:"Pos"=V:76.0462,62.3149,41.0047;Y:104=Y:103;Y:105=N:0;Y:1=A:-0.796542,-141.351,178.899;Y:2=V:76.0462,62.3149,41.0047;Y:18=Y:17;Y:11=N:1;Y:106=B:t;Y:107=B:t;Y:108=Y:15;}4B214A48{N:0=T:4B21B0F0;}03A50540{Y:1=A:-0.596496,-141.348,358.922;Y:2=V:35.6194,-6.64893,52.6551;Y:3=A:-0.596496,-141.348,358.922;S:"Pos"=V:35.6194,-6.64893,52.6551;Y:4=B:f;}45E28DD8{Y:59=T:45E2B128;}03A8BA60{;}4B9882D0{S:"A"=T:4B982E70;}4B2CFC40{Y:17;A:0.0228608,176.77,179.588;V:4540.88,-5329.75,-190.631;N:1;N:0;N:10000;Y:15;Y:103;B:t;B:t;B:f;B:f;B:t;B:f;B:f;B:f;}4B2146B0{Y:45=T:4B215420;S:"Src"=N:1690;Y:47=Y:55;Y:48=V:-1.1691,-3.88629,1.06026;Y:49=T:4B2199A8;Y:51=Y:50;Y:52=V:0.332854,0.620623,0.431255;Y:53=N:0;}03A90D60{Y:1=A:-0.797944,-141.349,178.889;Y:2=V:62.6152,51.4956,44.5433;Y:3=A:-0.797944,-141.349,178.889;S:"Pos"=V:62.6152,51.4956,44.5433;Y:4=B:f;}4B9869A8{Y:58=T:4B9882D0;}4918C080{V:4480.33,-5306.54,-178.735;A:-0.596642,176.762,-1.07761;N:13;B:f;N:0;N:-5;Y:126;B:f;B:f;B:f;}4B213C38{Y:1=A:88.9927,128.982,0.355554;Y:2=V:-21.6506,-8.18555,55.6365;Y:3=A:88.9927,128.982,0.355554;S:"Pos"=V:-21.6506,-8.18555,55.6365;Y:4=B:f;}46D39590{Y:45=T:46D352B0;S:"Src"=N:1649;Y:47=S:"TR";Y:48=V:0.183286,-0.928783,0.731165;Y:49=T:46D2C6D8;Y:51=Y:50;Y:52=V:-0.489028,1.8742,-0.045799;Y:53=N:0;}4B21A1C8{;}46D352B0{;}038EA800{Y:54=N:1700;S:"Pos"=V:-11.8624,-8.89693,2.53122;}4B657FD8{Y:1=A:89.299,126.829,178.179;Y:19=T:46BD02C8;Y:40=Y:24;Y:8=Y:41;Y:3=A:89.299,126.829,178.179;Y:9=N:0;Y:42=T:49260720;Y:43=Y:39;Y:2=V:106.255,-2.93555,49.5435;Y:18=Y:23;Y:44=Y:38;Y:60=T:4B658B18;Y:5=T:4BA360B0;S:"Pos"=V:106.255,-2.93555,49.5435;}4B2196D8{S:"a"=N:1;Y:1=A:0.992587,-52.5327,-0.0362854;S:"b"=N:0;Y:8=Y:123;S:"ab"=N:0;S:"aa"=N:255;Y:9=N:0;Y:60=T:4B21C090;S:"bg"=N:255;S:"ag"=N:0;Y:14=B:t;Y:19=T:494465A8;Y:3=A:0.992587,-52.5327,-0.0362854;S:"bb"=N:0;Y:125=Y:124;S:"ba"=N:255;Y:2=V:-27.4883,-20.8613,58.2061;Y:18=Y:96;Y:5=T:4B214A48;S:"ar"=N:255;S:"br"=N:0;S:"Pos"=V:-27.4883,-20.8613,58.2061;}48C76300{Y:1=A:89.0809,164.029,253.089;Y:2=V:89.8528,4.87549,77.1739;Y:3=A:89.0809,164.029,253.089;S:"Pos"=V:89.8528,4.87549,77.1739;Y:4=B:f;}494465A8{Y:96;A:0.992587,-94.4173,-0.0362854;V:4411.72,-5259.1,-172.763;N:1;N:255;N:0;N:0;N:255;N:0;N:0;N:255;N:0;N:255;Y:124;B:t;B:f;B:f;B:f;}494CDDE0{V:4476.79,-5296.87,-178.83;A:-0.633942,176.762,-1.13528;Y:68;Y:141;B:f;B:f;B:t;}4B6005E8{Y:45=T:4B5F7E98;S:"Src"=N:1692;Y:47=Y:120;Y:48=V:2.75469,-0.348458,0.562326;Y:49=T:4BC92480;Y:51=Y:50;Y:52=V:-1.7722,-0.498909,0.731675;Y:53=N:0.43999999761581;}492FF690{;}46D3B110{Y:45=T:46D3A8C8;S:"Src"=N:1696;Y:47=S:"LF";Y:48=V:0.914179,2.34627,0.699156;Y:49=T:46D2C430;Y:51=Y:50;Y:52=V:0.809995,1.55551,0.731324;Y:53=N:0;}46D39D10{Y:5=T:46D38910;Y:8=Y:100;Y:101=N:10000;Y:9=N:0;Y:102=B:f;Y:60=T:46D2F860;Y:12=B:f;Y:19=T:46EC96E8;Y:14=B:t;Y:3=A:0.926244,25.9426,-179.137;S:"Pos"=V:5.29071,-75.5059,41.3719;Y:104=Y:103;Y:105=N:0;Y:1=A:0.926244,25.9426,-179.137;Y:2=V:5.29071,-75.5059,41.3719;Y:18=Y:17;Y:11=N:1;Y:106=B:t;Y:107=B:t;Y:108=Y:15;}03A47F40{;}03AA1FC0{S:"A"=T:03A7E5E0;}49641530{Y:59=T:4963CA58;}03B00700{S:"a"=N:255;S:"b"=N:255;S:"g"=N:255;S:"r"=N:255;}03A612A0{Y:1=A:-1.00489,128.651,0.713091;Y:8=Y:61;Y:19=T:03A9CB20;Y:3=A:-1.00489,128.651,0.713091;Y:2=V:1.27557,-71.2134,45.1222;Y:18=Y:62;Y:5=T:03B1F980;Y:60=T:03A7ACE0;Y:9=N:0;S:"Pos"=V:1.27557,-71.2134,45.1222;}3E4853A8{;}4B65AE18{Y:45=T:4B658B90;S:"Src"=N:1699;Y:47=Y:46;Y:48=V:-0.721358,2.45519,0.561677;Y:49=T:4B656890;Y:51=Y:50;Y:52=V:-2.1842,0.575944,0.53108;Y:53=N:0.43999999761581;}46D39180{Y:45=T:46D35F30;S:"Src"=N:1689;Y:47=Y:55;Y:48=V:-0.554678,-1.96253,2.3014;Y:49=T:46D33B40;Y:51=Y:50;Y:52=V:-0.134511,-0.883406,0.430818;Y:53=N:0;}476013B8{A:88.9451,87.4045,0.661947;V:4420.96,-5253.29,-178.938;Y:23;Y:24;T:49641468;Y:38;Y:39;}4B219868{Y:5=T:4B213B48;Y:66=Y:99;Y:8=Y:67;Y:19=T:471BA6B8;Y:3=A:88.9877,128.955,0.328189;Y:14=B:t;Y:9=N:0;Y:2=V:-28.0763,-13.3213,55.6892;Y:18=Y:68;Y:69=B:f;Y:60=T:4B217310;Y:1=A:88.9877,128.955,0.328189;S:"Pos"=V:-28.0763,-13.3213,55.6892;}46D2EC08{Y:58=T:46D34FE0;}4B21B1B8{Y:5=T:4B21FCB8;Y:8=Y:20;Y:19=T:471BE858;Y:1=A:-0.797695,-141.348,-1.13455;Y:2=V:62.9028,51.4155,57.0255;Y:18=Y:21;Y:9=N:0;Y:3=A:-0.797695,-141.348,-1.13455;Y:22=B:t;S:"Pos"=V:62.9028,51.4155,57.0255;}4B33D970{N:0=T:4B3462C8;}48C796B8{;}03A41620{S:"a"=N:255;S:"b"=N:255;S:"g"=N:255;S:"r"=N:255;}4B5BF788{Y:63=N:1;}4B5B6200{Y:19=T:46EC6BF0;Y:1=A:-1.11398,91.059,1.25472;Y:134=B:t;Y:3=A:-1.11398,91.059,1.25472;Y:135=Y:133;Y:8=Y:136;Y:18=Y:131;Y:137=B:f;Y:138=B:f;Y:139=Y:132;Y:2=V:90.335,5.4834,72.6174;Y:9=N:0;Y:5=T:4B5BCD80;Y:60=T:4B5BD758;Y:140=B:t;S:"Pos"=V:90.335,5.4834,72.6174;}4B656750{;}49641BE8{Y:58=T:4963E6C8;}038CE4A0{T:03A51940;T:03AAD1A0;T:03A7A4C0;T:038EA800;T:03A90F40;T:03AD19E0;}03AAE160{Y:45=T:03ADF480;S:"Src"=N:1697;Y:47=Y:46;Y:48=V:0.0883813,-2.62888,1.89957;Y:49=T:03ABFB80;Y:51=Y:50;Y:52=V:-2.0525,0.099611,0.732399;Y:53=N:0.43999999761581;}4963FB18{Y:1=A:0.815857,-64.0942,359.084;Y:2=V:12.1774,-70.3574,57.123;Y:3=A:0.815857,-64.0942,359.084;S:"Pos"=V:12.1774,-70.3574,57.123;Y:4=B:f;}03AAD920{Y:59=T:03A46D60;}4778A700{;}03A77C20{Y:58=T:03ABDD00;}4B1F3DF0{Y:1=A:88.4996,139.618,228.478;Y:2=V:88.5014,4.72363,79.965;Y:3=A:88.4996,139.618,228.478;S:"Pos"=V:88.5014,4.72363,79.965;Y:4=B:f;}48C7CDB8{S:"a"=N:255;S:"b"=N:255;S:"g"=N:255;S:"r"=N:255;}48C76620{Y:59=T:4B5F9400;}4B21B7D0{;}4BC87A20{Y:21;A:-0.596507,176.768,-1.07764;V:4472.12,-5294.2,-178.419;B:t;B:f;B:f;B:f;B:f;}491E62B0{Y:1=A:0.633902,38.6483,1.13532;Y:2=V:47.8573,-1.10986,52.1412;Y:3=A:0.633902,38.6483,1.13532;S:"Pos"=V:47.8573,-1.10986,52.1412;Y:4=B:f;}4B21B910{Y:1=A:0.998643,-52.5314,359.964;Y:2=V:-13.5886,-9.75391,58.2011;Y:3=A:0.998643,-52.5314,359.964;S:"Pos"=V:-13.5886,-9.75391,58.2011;Y:4=B:f;}4B219638{;}4B211848{Y:45=T:4B211528;S:"Src"=N:1657;Y:47=Y:90;Y:48=V:-0.36943,0.624159,0.731734;Y:49=T:4B2145C0;Y:51=Y:50;Y:52=V:-1.46727,-3.37244,3.05196;Y:53=N:0;}4B987E20{Y:5=T:4B9842E8;Y:66=Y:65;Y:8=Y:67;Y:19=T:46BCD2A8;Y:3=A:89.5303,127.369,178.718;Y:14=B:t;Y:9=N:0;Y:2=V:103.523,-5.16211,53.2346;Y:18=Y:68;Y:69=B:f;Y:60=T:4B98AF30;Y:1=A:89.5303,127.369,178.718;S:"Pos"=V:103.523,-5.16211,53.2346;}48C71198{Y:58=T:48C78D08;}46D3A8C8{;}491E19B8{;}038A61C0{Y:59=T:03AB4660;}4963A398{Y:64=T:49644208;}03A774A0{Y:1=A:-1.00489,128.651,0.713091;Y:2=V:1.27557,-71.2134,45.1222;Y:3=A:-1.00489,128.651,0.713091;Y:4=B:f;S:"Pos"=V:1.27557,-71.2134,45.1222;}4918B3B0{Y:96;A:-0.796645,176.745,-1.12567;V:4518.39,-5265.13,-173.774;N:1;N:255;N:0;N:0;N:255;N:0;N:0;N:255;N:0;N:255;Y:124;B:t;B:f;B:f;B:f;}03B02940{Y:25;Y:26;Y:27;Y:28;Y:29;Y:30;Y:31;Y:32;Y:33;Y:34;Y:35;Y:36;Y:37;}03B17EA0{Y:45=T:03A614A0;S:"Src"=N:1683;Y:47=S:"He";Y:48=V:0.977412,0.395006,0.731668;Y:49=T:03A6AE40;Y:51=Y:50;Y:52=V:-1.22914,-0.528294,0.731313;Y:53=N:0;}4963E678{Y:45=T:49638E08;S:"Src"=N:1680;Y:47=Y:46;Y:48=V:0.945289,2.39515,0.297903;Y:49=T:4963E510;Y:51=Y:50;Y:52=V:-0.404355,-0.397368,0.430843;Y:53=N:0;}4B991858{N:16;N:1;N:0;}48C7C390{Y:1=A:0.402328,-41.0329,179.583;Y:70=B:f;Y:71=B:t;Y:72=B:f;Y:73=N:10000;Y:19=T:471B0938;Y:3=A:0.402328,-41.0329,179.583;S:"Pos"=V:40.8536,-6.65527,48.6976;Y:9=N:0;Y:60=T:48C77598;Y:5=T:48C72598;Y:75=B:f;Y:14=B:t;Y:76=B:t;Y:77=B:f;Y:78=B:f;Y:79=B:f;Y:80=B:f;Y:81=B:f;Y:82=B:t;Y:2=V:40.8536,-6.65527,48.6976;Y:18=Y:83;Y:84=B:f;Y:8=Y:85;Y:86=B:f;Y:87=B:f;}4B2188F0{Y:45=T:4B21AEC0;S:"Src"=N:1682;Y:47=Y:46;Y:48=V:0.563042,-2.52195,0.115873;Y:49=T:4B21DD50;Y:51=Y:50;Y:52=V:-0.516366,0.992795,0.431197;Y:53=N:0;}4B98AF30{Y:59=T:4B9913D0;}49446440{V:4468.03,-5297.22,-178.75;A:-0.63374,176.768,-1.13538;Y:68;Y:65;B:f;B:f;B:t;}49640BD0{Y:63=N:1;}4963CA58{Y:58=T:49644A78;}03A42880{N:0=T:03A728C0;}46EC96E8{Y:17;A:0.926244,-15.942,-179.137;V:4399.64,-5321.66,-189.597;N:1;N:0;N:10000;Y:15;Y:103;B:t;B:t;B:f;B:f;B:t;B:f;B:f;B:f;}4B2146D8{;}03AC2FE0{S:"a"=N:255;S:"b"=N:255;S:"g"=N:255;S:"r"=N:255;}03A9BA40{Y:1=A:-0.795942,-141.369,-1.10156;Y:8=Y:88;Y:19=T:48D81F08;Y:3=A:-0.795942,-141.369,-1.10156;Y:2=V:69.8481,56.9746,56.948;Y:9=N:0;Y:5=T:03A9DF60;Y:60=T:03A78840;Y:18=Y:96;S:"Pos"=V:69.8481,56.9746,56.948;}46D31F48{S:"a"=N:255;S:"b"=N:255;S:"g"=N:255;S:"r"=N:255;}4BAF1A58{S:"a"=N:0;S:"b"=N:255;S:"g"=N:0;S:"r"=N:255;}03A40240{Y:1=A:0.027151,-141.349,179.525;Y:2=V:88.8205,-8.82178,40.3211;Y:3=A:0.027151,-141.349,179.525;S:"Pos"=V:88.8205,-8.82178,40.3211;Y:4=B:f;}4B5430C8{Y:1=A:0.802012,-51.3586,359.226;Y:2=V:80.2407,57.9512,44.5187;S:"Pos"=V:80.2407,57.9512,44.5187;Y:3=A:0.802012,-51.3586,359.226;Y:4=B:f;}4B213D00{S:"a"=N:255;S:"b"=N:255;S:"g"=N:255;S:"r"=N:255;}4BC8DF48{;}4BC2F410{S:"a"=N:255;S:"b"=N:255;S:"g"=N:255;S:"r"=N:255;}4B656700{S:"a"=N:255;S:"b"=N:255;S:"g"=N:255;S:"r"=N:255;}03A7A4C0{Y:54=N:1700;S:"Pos"=V:-11.8623,3.95769e-005,2.53119;}03A728C0{Y:1=A:0.022889,-141.37,359.534;Y:2=V:109.351,7.42773,56.1913;Y:3=A:0.022889,-141.37,359.534;S:"Pos"=V:109.351,7.42773,56.1913;Y:4=B:f;}46D34FE0{S:"A"=T:46D39590;}4B215420{;}4B21CD38{Y:58=T:4B2119D8;}03A5A9A0{Y:59=T:03A87CA0;}4BC2F3C0{;}03A47960{N:0=T:03A73A40;}03AC4DE0{Y:58=T:03AB9EC0;}46D3AE90{Y:45=T:46D2CC78;S:"Src"=N:1672;Y:47=S:"Out";Y:48=V:0.0280717,-0.511233,0.430944;Y:49=T:46D3A198;Y:51=Y:50;Y:52=V:0.241016,1.50047,0.731591;Y:53=N:0;}48DD0360{S:"a"=N:255;S:"b"=N:255;S:"g"=N:255;S:"r"=N:255;}4622CA78{;}46232248{Y:1=A:0.633902,38.6483,1.13532;Y:19=T:4BC60FE0;Y:40=Y:169;Y:8=Y:41;Y:3=A:0.633902,38.6483,1.13532;Y:9=N:0;Y:42=T:4B596520;Y:43=Y:181;Y:2=V:47.8573,-1.10986,52.1412;Y:18=Y:23;Y:44=Y:180;Y:60=T:46228AB8;Y:5=T:491E2A70;S:"Pos"=V:47.8573,-1.10986,52.1412;}4B5F9400{Y:58=T:4B5FE360;}48DCF140{Y:45=T:48DD6300;S:"Src"=N:1690;Y:47=Y:55;Y:48=V:0.18369,1.97196,2.32428;Y:49=T:48DDC390;Y:51=Y:50;Y:52=V:0.168209,-0.564164,0.431393;Y:53=N:0;}491933D0{V:4481.67,-5282.86,-178.593;A:-0.633883,176.762,-1.13541;N:12;B:f;N:0;N:5;Y:126;B:f;B:f;B:f;}4B211F50{S:"a"=N:255;S:"b"=N:255;S:"g"=N:255;S:"r"=N:255;}4963C2D8{S:"a"=N:255;S:"b"=N:255;S:"g"=N:255;S:"r"=N:255;}4B21C090{Y:59=T:4B21F808;}4B659B80{Y:46=T:4B65AE18;S:"WP"=T:4BB21120;S:"DP"=T:4B656840;S:"Ex"=T:4956CF80;Y:56=T:4BC2F140;S:"DR"=T:4BB21378;Y:57=T:4B656868;}4BB21328{S:"a"=N:255;S:"b"=N:255;S:"g"=N:255;S:"r"=N:255;}496466C0{Y:1=A:87.29,-163.207,248.121;Y:2=V:20.578,-71.543,54.6644;Y:3=A:87.29,-163.207,248.121;S:"Pos"=V:20.578,-71.543,54.6644;Y:4=B:f;}46D39AE0{Y:59=T:46D2CC00;}4B5FCAD8{Y:45=T:4B6028E8;S:"Src"=N:111;Y:47=Y:55;Y:48=V:-1.63424,-1.0518,2.33274;Y:49=T:4BC8E650;Y:51=Y:50;Y:52=V:0.933287,1.40343,0.731648;Y:53=N:0;}48C72598{N:0=T:48C715F8;}03AF0CE0{S:"a"=N:255;S:"b"=N:255;S:"g"=N:255;S:"r"=N:255;}4B2130A8{Y:1=A:88.9877,128.955,0.328189;Y:2=V:-28.0763,-13.3213,55.6892;Y:3=A:88.9877,128.955,0.328189;S:"Pos"=V:-28.0763,-13.3213,55.6892;Y:4=B:f;}46D30418{Y:45=T:46D38C58;S:"Src"=N:1683;Y:47=S:"LF";Y:48=V:-1.41622,-1.21375,0.731633;Y:49=T:46D348B0;Y:51=Y:50;Y:52=V:0.521305,0.636867,0.731744;Y:53=N:0;}4B9873D0{Y:1=A:-0.633883,-141.354,358.865;Y:2=V:40.4531,8.15381,52.3762;Y:3=A:-0.633883,-141.354,358.865;S:"Pos"=V:40.4531,8.15381,52.3762;Y:4=B:f;}4B345C88{S:"a"=N:255;S:"b"=N:255;S:"g"=N:255;S:"r"=N:255;}494CDC28{Y:96;A:0.0257718,176.748,-0.429413;V:4514.72,-5328.39,-174.783;N:1;N:255;N:0;N:0;N:255;N:0;N:0;N:255;N:0;N:255;Y:124;B:t;B:f;B:f;B:f;}03B02860{Y:58=T:03A62E60;}03A9B020{A:-0.610385,176.767,-1.1427;V:4463.24,-5293.69,-178.607;Y:23;Y:111;T:4B4142E8;Y:118;Y:119;}4963E510{S:"a"=N:255;S:"b"=N:255;S:"g"=N:255;S:"r"=N:255;}3E493728{Y:45=T:3E484F70;S:"Src"=N:1686;Y:47=S:"Out";Y:48=V:0.496076,0.463952,0.431225;Y:49=T:3E488D00;Y:51=Y:50;Y:52=V:-2.07758,-1.68133,0.731595;Y:53=N:0.43999999761581;}49643308{Y:5=T:48C78790;Y:66=S:"/";Y:8=Y:67;Y:19=T:4943A168;Y:3=A:89.0809,164.029,-106.911;Y:14=B:t;Y:9=N:0;Y:2=V:89.8528,4.87549,77.1739;Y:18=Y:68;Y:69=B:f;Y:60=T:49641530;Y:1=A:89.0809,164.029,-106.911;S:"Pos"=V:89.8528,4.87549,77.1739;}4B217270{Y:45=T:4B21EC00;S:"Src"=N:1704;Y:47=S:"Out";Y:48=V:-0.313126,-0.243187,0.43099;Y:49=T:4B218B48;Y:51=Y:50;Y:52=V:-0.40018,-0.591995,0.731482;Y:53=N:0;}03A9CB20{V:4399.52,-5315.79,-185.847;A:-1.00489,86.7665,0.713091;Y:62;T:03B1F980;T:03A612A0;}4B2148E0{;}03A54DE0{;}4BAFBEB8{S:"a"=N:255;S:"b"=N:255;S:"g"=N:255;S:"r"=N:255;}46BD3DB0{V:4438.04,-5266.32,-185.09;A:1.0011,-93.2575,-0.0162048;Y:62;T:49645040;T:4963E088;}4B9913D0{Y:58=T:4B9914E8;}038C5F60{N:0=T:03AAF320;}49638E08{;}4B2199A8{S:"a"=N:255;S:"b"=N:255;S:"g"=N:255;S:"r"=N:255;}4BD3CB70{Y:17;A:0.027151,176.766,179.525;V:4506.35,-5327.79,-190.648;N:1;N:0;N:10000;Y:15;Y:103;B:t;B:t;B:f;B:f;B:t;B:f;B:f;B:f;}46CD3208{N:0=T:46CDB318;}4963B1F8{;}4B21AD80{S:"a"=N:255;S:"b"=N:255;S:"g"=N:255;S:"r"=N:255;}03A3DF00{S:"a"=N:255;S:"b"=N:255;S:"g"=N:255;S:"r"=N:255;}46BD02C8{A:89.299,84.9446,178.179;V:4523.26,-5335.04,-181.425;Y:23;Y:24;T:49260720;Y:38;Y:39;}4B214D68{N:0=T:4B21E4D0;}46D377B8{N:0=T:46D353A0;}4943A168{V:4516.26,-5318.28,-153.795;A:89.0809,122.144,-106.911;Y:68;S:"/";B:f;B:f;B:t;}496436F0{Y:59=T:496369F0;}4B97C100{Y:1=A:88.9438,143.354,232.387;Y:2=V:93.2889,4.87451,81.2107;Y:3=A:88.9438,143.354,232.387;S:"Pos"=V:93.2889,4.87451,81.2107;Y:4=B:f;}4B214840{N:0=T:4B219660;}03A7DAC0{N:0=T:03A90D60;}46D39068{;}03A8B760{Y:46=T:03AAE160;S:"WP"=T:03A78E00;S:"DP"=T:03A55F20;S:"Ex"=T:038785E0;Y:56=T:03AA9060;S:"DR"=T:03B02280;Y:57=T:03B17EA0;}4B984590{Y:45=T:4B989EA0;S:"Src"=N:1683;Y:47=S:"Acu";Y:48=V:-2.07392,-1.79754,0.731606;Y:49=T:4B345C88;Y:51=Y:50;Y:52=V:-0.640484,0.110332,0.43125;Y:53=N:0.43999999761581;}03B00300{;}4B9EB468{Y:74=N:20;Y:64=T:4B9DE538;}4963A320{N:0=T:4963E858;}49572840{T:4956FC08;T:49574028;T:4956E1A0;T:4956DF48;T:49575E28;}496369F0{Y:58=T:49636DD8;}03B12140{Y:1=A:0.022889,-141.37,-0.465912;Y:8=Y:88;Y:19=T:46BD0228;Y:3=A:0.022889,-141.37,-0.465912;Y:2=V:109.351,7.42773,56.1913;Y:9=N:0;Y:5=T:03A42880;Y:60=T:038A61C0;Y:18=Y:96;S:"Pos"=V:109.351,7.42773,56.1913;}4B2176D0{Y:58=T:4B2146D8;}4B98AEB8{Y:59=T:4B986F98;}4B658B90{;}46D33B40{S:"a"=N:255;S:"b"=N:255;S:"g"=N:255;S:"r"=N:255;}4B9141D8{Y:1=A:-89.5252,-54.5852,3.23569;Y:2=V:120.003,8.35352,55.792;S:"Pos"=V:120.003,8.35352,55.792;Y:3=A:-89.5252,-54.5852,3.23569;Y:4=B:f;}4B1F0470{N:0=T:4B1F3DF0;}46D35A80{Y:59=T:46D2EC08;}4963E088{Y:1=A:1.0011,-51.373,-0.0162048;Y:8=Y:61;Y:19=T:46BD3DB0;Y:3=A:1.0011,-51.373,-0.0162048;Y:2=V:-3.07196,-8.66797,45.8787;Y:18=Y:62;Y:5=T:49645040;Y:60=T:4963A398;Y:9=N:0;S:"Pos"=V:-3.07196,-8.66797,45.8787;}03ABF7A0{Y:1=A:-0.801103,-141.351,178.926;Y:2=V:49.0369,40.7124,41.4864;Y:3=A:-0.801103,-141.351,178.926;S:"Pos"=V:49.0369,40.7124,41.4864;Y:4=B:f;}038C5120{Y:89=T:03AC60C0;}4B2119D8{S:"A"=T:4B21C2C0;}49645040{N:0=T:49638408;}471B0938{A:0.402328,-82.9175,179.583;V:4472.08,-5294.15,-182.271;N:10000;B:f;B:t;B:f;B:t;B:t;B:f;B:f;B:f;B:f;B:f;B:f;B:f;B:f;B:f;B:f;B:t;B:f;B:f;B:f;}46D3B2C8{Y:58=T:46D39068;}03A9B300{N:0=T:03A4B680;}4B21FEE8{Y:45=T:4B216DC0;S:"Src"=N:1683;Y:47=S:"RF";Y:48=V:-2.16493,2.1357,0.314653;Y:49=T:4B216028;Y:51=Y:50;Y:52=V:-0.904331,0.459156,0.731261;Y:53=N:0;}4B210420{S:"a"=N:255;S:"b"=N:255;S:"g"=N:255;S:"r"=N:255;}4B98A508{Y:59=T:4B9876A0;}4B210858{S:"a"=N:255;S:"b"=N:255;S:"g"=N:255;S:"r"=N:255;}46D35350{Y:45=T:46D331E0;S:"Src"=N:1680;Y:47=Y:46;Y:48=V:-1.01261,2.37348,0.696674;Y:49=T:46D35CB0;Y:51=Y:50;Y:52=V:-0.689725,0.490155,0.731695;Y:53=N:0;}03A51940{Y:54=N:1700;S:"Pos"=V:-23.224,44.4841,2.53096;}4963E3A8{Y:59=T:49641BE8;}4B600408{S:"a"=N:255;S:"b"=N:255;S:"g"=N:255;S:"r"=N:255;}48DDBAF8{Y:45=T:48DD2200;S:"Src"=N:1689;Y:47=Y:55;Y:48=V:-0.0392064,-2.42751,2.17508;Y:49=T:48DD0360;Y:51=Y:50;Y:52=V:0.0437854,-0.798774,0.431296;Y:53=N:0;}496409F0{Y:45=T:48C6F1E0;S:"Src"=N:1668;Y:47=S:"Out";Y:48=V:-0.110294,-0.306921,0.431009;Y:49=T:48C750E0;Y:51=Y:50;Y:52=V:-0.604814,0.644406,0.431086;Y:53=N:0;}496414E0{N:0=T:49636F90;}4963E6C8{S:"A"=T:4963E678;}4B21DD50{S:"a"=N:255;S:"b"=N:255;S:"g"=N:255;S:"r"=N:255;}4BAEE0D8{Y:74=N:20;Y:148=T:4BAF2A70;}4B21F808{Y:58=T:4B213710;}46D33F78{;}48DD7548{S:"a"=N:255;S:"b"=N:255;S:"g"=N:255;S:"r"=N:255;}4B2181E8{Y:59=T:4B219AC0;}4BAEF3E8{Y:5=T:4778C208;Y:19=T:494C6A18;Y:8=Y:142;Y:3=A:12.0962,58.1239,-91.7007;Y:143=B:f;Y:9=N:0;Y:2=V:64.3597,35.8052,75.1248;Y:18=Y:144;Y:145=B:f;Y:60=T:4BAEE0D8;Y:1=A:12.0962,58.1239,-91.7007;S:"Pos"=V:64.3597,35.8052,75.1248;}03A7BF40{Y:74=N:20;Y:59=T:03A3F5C0;}4BA360B0{N:0=T:4BA34260;}03B1F980{N:0=T:03A774A0;}03A7ACE0{Y:64=T:03ACDB60;}4B21EE08{Y:58=T:4B21DDF0;}4B9830C8{Y:1=A:-0.773964,104.345,1.04486;Y:8=Y:109;Y:19=T:03A79E80;Y:3=A:-0.773964,104.345,1.04486;Y:9=N:0;Y:2=V:54.8077,4.44336,52.1172;Y:18=Y:96;Y:110=T:4B9866D8;Y:60=T:4B98AEB8;Y:5=T:4B983910;S:"Pos"=V:54.8077,4.44336,52.1172;}038CC060{Y:1=A:-0.796645,-141.37,358.874;Y:2=V:55.9534,45.8613,57.1949;Y:3=A:-0.796645,-141.37,358.874;S:"Pos"=V:55.9534,45.8613,57.1949;Y:4=B:f;}4B21BD98{N:0=T:4B213C38;}46D2DDF8{;}48DD3BF0{S:"a"=N:255;S:"b"=N:255;S:"g"=N:255;S:"r"=N:255;}4B219660{Y:1=A:-0.0161236,-141.36,358.978;Y:2=V:-20.5388,-15.3071,58.1295;Y:3=A:-0.0161236,-141.36,358.978;S:"Pos"=V:-20.5388,-15.3071,58.1295;Y:4=B:f;}4B9DE538{Y:63=N:20;}46D331E0{;}03A97680{A:88.7313,120.477,-146.295;V:4416.66,-5329.02,-180.355;Y:23;Y:24;T:03B02940;Y:38;Y:39;}03A62E60{;}4BC13420{Y:1=A:-0.610385,-141.349,358.857;Y:2=V:33.9626,-12.2246,52.3622;Y:3=A:-0.610385,-141.349,358.857;S:"Pos"=V:33.9626,-12.2246,52.3622;Y:4=B:f;}03A4B680{Y:1=A:-0.596507,-141.348,358.922;Y:2=V:40.9121,-6.66797,52.5495;Y:3=A:-0.596507,-141.348,358.922;S:"Pos"=V:40.9121,-6.66797,52.5495;Y:4=B:f;}4B98E1A8{N:0=T:4B985788;}038DB780{S:"a"=N:1;Y:1=A:-0.796645,-141.37,-1.12567;S:"b"=N:0;Y:8=Y:123;S:"ab"=N:0;S:"aa"=N:255;Y:9=N:0;Y:60=T:03AE4300;S:"bg"=N:255;S:"ag"=N:0;Y:14=B:t;Y:19=T:4918B3B0;Y:3=A:-0.796645,-141.37,-1.12567;S:"bb"=N:0;Y:125=Y:124;S:"ba"=N:255;Y:2=V:55.9534,45.8613,57.1949;Y:18=Y:96;Y:5=T:03873E40;S:"ar"=N:255;S:"br"=N:0;S:"Pos"=V:55.9534,45.8613,57.1949;}03A9FFC0{Y:58=T:03ADBCE0;}4963C800{Y:19=T:4B2C40C0;Y:1=A:1.91431,-31.5089,-0.683716;Y:134=B:t;Y:3=A:1.91431,-31.5089,-0.683716;Y:135=Y:133;Y:8=Y:136;Y:18=Y:131;Y:137=B:t;Y:138=B:f;Y:139=Y:168;Y:2=V:65.5859,35.3677,70.3964;Y:9=N:0;Y:5=T:4963A320;Y:60=T:4963B2E8;Y:140=B:t;S:"Pos"=V:65.5859,35.3677,70.3964;}03A9E9E0{S:"a"=N:255;S:"b"=N:255;S:"g"=N:255;S:"r"=N:255;}4B658B18{Y:59=T:4B65A4B8;}4BB21120{Y:45=T:4BB21170;S:"Src"=N:1683;Y:47=S:"LB";Y:48=V:0.253717,-2.34443,0.647864;Y:49=T:4BB21328;Y:51=Y:50;Y:52=V:0.0628593,-0.0546733,0.731907;Y:53=N:0.43999999761581;}03A43C60{Y:45=T:03ACB5A0;S:"Src"=N:1692;Y:47=Y:46;Y:48=V:2.7946,0.0527415,1.34957;Y:49=T:03B1F480;Y:51=Y:50;Y:52=V:-0.631553,0.332061,0.431481;Y:53=N:0.43999999761581;}4B211B90{Y:1=A:0.492993,11.3756,180.921;Y:2=V:-7.20764,-4.29395,42.3426;Y:3=A:0.492993,11.3756,180.921;S:"Pos"=V:-7.20764,-4.29395,42.3426;Y:4=B:f;}46D36728{;}4963B2E8{Y:74=N:0;Y:64=T:49640BD0;Y:59=T:4963E9E8;}4B9876A0{Y:58=T:4B983F78;}48DDA0B8{Y:45=T:48DD15F8;S:"Src"=N:1646;Y:47=Y:55;Y:48=V:-0.0466949,4.10975,1.32921;Y:49=T:48DD3BF0;Y:51=Y:50;Y:52=V:0.0718809,0.0849771,0.431224;Y:53=N:0;}48DD6300{;}4B2198E0{Y:45=T:4B21F240;S:"Src"=N:1696;Y:47=S:"RF";Y:48=V:1.04536,-2.33299,0.332064;Y:49=T:4B210858;Y:51=Y:50;Y:52=V:-1.62818,-1.49181,0.731299;Y:53=N:0;}48C762D8{Y:45=T:48C796B8;S:"Src"=N:1664;Y:47=Y:122;Y:48=V:0.211283,-0.401803,0.431171;Y:49=T:48C7CDB8;Y:51=Y:50;Y:52=V:-0.401277,-0.121559,0.431386;Y:53=N:0;}03A6BAC0{Y:45=T:03900500;S:"Src"=N:1681;Y:47=S:"TR";Y:48=V:1.24151,0.97659,0.731354;Y:49=T:03AFD440;Y:51=Y:50;Y:52=V:0.392424,-1.86883,-1.17831;Y:53=N:0.43999999761581;}4B219688{Y:58=T:4B21ACB8;}4B65A4B8{Y:58=T:4B659B80;}4963E9E8{Y:58=T:49644280;}03AD49E0{Y:58=T:03A8B760;}H4963FFC8{N:1695=T:3AEB60A0;N:1699=T:46CD4CE8;N:1703=T:03ABB6A0;N:1644=T:4963E088;N:1648=T:4B987E20;N:1652=T:03ACD120;N:1656=T:03AC1180;N:1660=T:03B12140;N:1664=T:4B97D258;N:1668=T:45E26EC0;N:1672=T:46D2E550;N:1676=T:46D38F50;N:1680=T:46D35710;N:1684=T:4B9830C8;N:1692=T:03A3CAE0;N:1696=T:48C7BA08;N:1700=T:4BA3AF20;N:1704=T:4B215AD8;N:1645=T:03A612A0;N:1649=T:46D2D358;N:1653=T:48E10928;N:1657=T:4B215128;N:1661=T:49643308;N:1665=T:4B989590;N:1669=T:4B9E3E70;N:1425=T:4B2196D8;N:1681=T:4B657FD8;N:1689=T:46D3ACB0;N:1693=T:4963E628;N:1697=T:4B21B1B8;N:1701=T:4B219868;N:111=T:48C7C390;N:1646=T:03A9CD00;N:1650=T:038DB780;N:1654=T:4B98C4E8;N:1658=T:4B212BA8;N:1662=T:03A52AA0;N:1666=T:03A84AC0;N:1670=T:03A59E40;N:1674=T:46D39D10;N:1678=T:4B5B6200;N:1682=T:4B2130D0;N:1686=T:4B98DB90;N:1690=T:4B2133A0;N:1694=T:03A51D20;N:1698=T:4BAEF3E8;N:1423=T:4B210CB8;N:1426=T:49640FB8;N:1647=T:03A9BA40;N:1651=T:4B985058;N:1655=T:4B2142F0;N:1659=T:492FC3C8;N:1663=T:49645248;N:1667=T:4963C800;N:1671=T:03AA4980;N:1675=T:03A4B2C0;N:1679=T:4B988C08;N:1683=T:46232248;N:1687=T:03AAE660;N:1691=T:03B08B00;N:654=T:4963A280;}03AAA340{Y:17;A:0.923846,-15.9449,-179.146;V:4434.17,-5323.6,-190.027;N:1;N:0;N:10000;Y:15;Y:103;B:t;B:t;B:f;B:f;B:t;B:f;B:f;B:f;}4B21ED68{Y:45=T:4B2148E0;S:"Src"=N:1690;Y:47=Y:55;Y:48=V:-0.586614,-1.21853,2.48086;Y:49=T:4B210420;Y:51=Y:50;Y:52=V:-0.199108,0.763939,0.73205;Y:53=N:0;}4B218B48{S:"a"=N:255;S:"b"=N:255;S:"g"=N:255;S:"r"=N:255;}4963F8E8{Y:89=N:0;Y:58=T:4963C530;Y:91=N:0;Y:92=N:0;Y:93=N:1645;Y:94=N:1700;Y:95=N:0;}48DDC390{S:"a"=N:255;S:"b"=N:255;S:"g"=N:255;S:"r"=N:255;}46D36228{Y:45=T:46D33F78;S:"Src"=N:1689;Y:47=Y:55;Y:48=V:-0.0802431,-2.74397,2.03712;Y:49=T:46D39F90;Y:51=Y:50;Y:52=V:0.460758,-1.1344,0.732051;Y:53=N:0;}49638340{Y:59=T:4963F8E8;}496386D8{Y:1=A:0.820893,-64.0931,359.083;Y:2=V:26.0743,-59.2437,56.9015;Y:3=A:0.820893,-64.0931,359.083;S:"Pos"=V:26.0743,-59.2437,56.9015;Y:4=B:f;}49640888{N:0=T:496386D8;}038785E0{Y:45=T:038CE4A0;S:"Src"=N:1696;Y:47=S:"RB";Y:48=V:1.91857,-0.232422,0.731592;Y:49=T:03ACDA20;Y:51=Y:50;Y:52=V:0.182099,0.0401196,0.731007;Y:53=N:0.43999999761581;}46D2DA88{Y:1=A:-0.712144,-141.286,178.979;Y:2=V:18.8649,-64.7266,44.4543;Y:3=A:-0.712144,-141.286,178.979;S:"Pos"=V:18.8649,-64.7266,44.4543;Y:4=B:f;}493F9768{V:4425.97,-5323.43,-174.067;A:0.820893,-105.978,-0.916535;}03870300{S:"a"=N:255;S:"b"=N:255;S:"g"=N:255;S:"r"=N:255;}46D35710{Y:5=T:46D30E40;Y:8=Y:20;Y:19=T:03AC0900;Y:9=N:0;Y:1=A:-0.713259,-141.347,-1.02505;Y:22=B:t;Y:18=Y:21;Y:14=B:t;Y:3=A:-0.713259,-141.347,-1.02505;Y:2=V:19.1254,-64.8047,56.9375;S:"Pos"=V:19.1254,-64.8047,56.9375;}03A7CA40{Y:1=A:0.0257718,-141.367,359.571;Y:2=V:95.4526,-3.68262,56.1855;Y:3=A:0.0257718,-141.367,359.571;S:"Pos"=V:95.4526,-3.68262,56.1855;Y:4=B:f;}4B215B50{Y:45=T:4B219638;S:"Src"=N:1682;Y:47=Y:46;Y:48=V:1.18237,-2.39206,1.2685;Y:49=T:4B217AE0;Y:51=Y:50;Y:52=V:-2.19208,0.779982,0.476454;Y:53=N:0;}4B98BE30{;}03AA95A0{Y:45=T:03B0D760;S:"Src"=N:1656;Y:47=Y:55;Y:48=V:0.443004,-3.1358,1.82952;Y:49=T:03870300;Y:51=Y:50;Y:52=V:0.488953,0.203385,0.430865;Y:53=N:0.43999999761581;}46D3A198{S:"a"=N:255;S:"b"=N:255;S:"g"=N:255;S:"r"=N:255;}3AEB5970{N:0=T:3AEB7DB0;}03ABDD00{S:"A"=T:03AA95A0;}03B00E60{Y:59=T:03A77C20;}46A69250{V:4526.91,-5335.28,-177.863;A:89.5635,85.8056,179.034;Y:68;Y:99;B:f;B:f;B:t;}03A79E80{V:4489.88,-5295.2,-178.852;A:-0.773964,62.4605,1.04486;T:4B9866D8;B:f;B:f;B:f;}03AD8D60{Y:1=A:89.5635,127.69,179.034;Y:2=V:109.13,-0.672363,53.1055;Y:3=A:89.5635,127.69,179.034;S:"Pos"=V:109.13,-0.672363,53.1055;Y:4=B:f;}038970A0{N:0=T:03AD8D60;}4B601B78{;}03AA4780{V:4424.53,-5253.56,-175.332;A:88.9927,87.0979,0.355554;Y:68;Y:65;B:f;B:f;B:t;}03A787E0{Y:45=T:03AA1FA0;S:"Src"=N:1681;Y:47=S:"TF";Y:48=V:1.4889,-0.546418,0.731435;Y:49=T:03AD5060;Y:51=Y:50;Y:52=V:0.337514,-1.65836,-2.2053;Y:53=N:0.43999999761581;}03AAAD40{S:"A"=T:03AD1920;}03A6E2E0{S:"A"=T:03A787E0;}4B21D878{S:"A"=T:4B21BAA0;}4B991740{N:1024;N:1;N:0;}49636DD8{S:"A"=T:49641648;}4B656728{;}03B0DBA0{N:0=T:03A40240;}03AAE660{Y:5=T:03B0DBA0;Y:8=Y:100;Y:101=N:10000;Y:9=N:0;Y:102=B:f;Y:60=T:03A7BF40;Y:12=B:f;Y:19=T:4BD3CB70;Y:14=B:t;Y:3=A:0.027151,-141.349,179.525;S:"Pos"=V:88.8205,-8.82178,40.3211;Y:104=Y:103;Y:105=N:0;Y:1=A:0.027151,-141.349,179.525;Y:2=V:88.8205,-8.82178,40.3211;Y:18=Y:17;Y:11=N:1;Y:106=B:t;Y:107=B:t;Y:108=Y:15;}491E2A70{N:0=T:491E62B0;}491E0658{S:"a"=N:255;S:"b"=N:255;S:"g"=N:255;S:"r"=N:255;}4B2133A0{Y:1=A:0.228455,26.578,-179.008;Y:70=B:f;Y:71=B:t;Y:72=B:f;Y:73=N:10000;Y:19=T:494CC328;Y:3=A:0.228455,26.578,-179.008;S:"Pos"=V:-20.6859,-15.1265,45.6459;Y:9=N:0;Y:60=T:4B213738;Y:5=T:4B21A9C0;Y:75=B:f;Y:14=B:t;Y:76=B:t;Y:77=B:f;Y:78=B:f;Y:79=B:f;Y:80=B:f;Y:81=B:f;Y:82=B:t;Y:2=V:-20.6859,-15.1265,45.6459;Y:18=Y:83;Y:84=B:f;Y:8=Y:85;Y:86=B:f;Y:87=B:f;}4B213B48{N:0=T:4B2130A8;}491D7A30{Y:45=T:491E19B8;S:"Src"=N:1662;Y:47=S:"Out";Y:48=V:0.777609,-4.03106,1.34066;Y:49=T:491E0658;Y:51=Y:50;Y:52=V:-0.284339,-2.10116,0.731656;Y:53=N:0.43999999761581;}03A37300{S:"a"=N:255;S:"b"=N:255;S:"g"=N:255;S:"r"=N:255;}4BAF46E0{;}03AAD1A0{Y:54=N:1700;S:"Pos"=V:-23.2243,8.8969,2.53114;}4BAF3808{Y:45=T:4BAF46E0;S:"Src"=N:1684;Y:47=S:"W";Y:48=V:-2.56803,3.14937,0.918265;Y:49=T:4BAFBEB8;Y:51=Y:50;Y:52=V:-0.04244,-0.699232,0.731664;Y:53=N:0.43999999761581;}4B2105B0{Y:59=T:4B21EE08;}4BAED1D8{S:"a"=N:255;S:"b"=N:255;S:"g"=N:255;S:"r"=N:255;}3E48FC68{Y:45=T:3E4853A8;S:"Src"=N:1684;Y:47=S:"D";Y:48=V:-1.75815,2.69022,4.6444;Y:49=T:4BAED1D8;Y:51=Y:50;Y:52=V:0.849026,-0.48433,0.731643;Y:53=N:0.43999999761581;}3E484F70{;}4B21D288{S:"A"=T:4B2146B0;}3E488D00{S:"a"=N:255;S:"b"=N:255;S:"g"=N:255;S:"r"=N:255;}3E493E30{S:"a"=N:255;S:"b"=N:255;S:"g"=N:255;S:"r"=N:255;}48D0A7C0{;}48D03AB0{Y:45=T:48D0A7C0;S:"Src"=N:1684;Y:47=S:"S";Y:48=V:-1.8914,3.30238,2.4287;Y:49=T:3E493E30;Y:51=Y:50;Y:52=V:-0.0388132,-0.154798,0.731641;Y:53=N:0.43999999761581;}48D0C868{S:"a"=N:255;S:"b"=N:255;S:"g"=N:255;S:"r"=N:255;}46D2F860{Y:59=T:46D34B58;}48D81F08{V:4536.15,-5266.13,-174.021;A:-0.795942,176.746,-1.10156;}4B5B8BE0{S:"a"=N:255;S:"b"=N:255;S:"g"=N:255;S:"r"=N:255;}48D059F0{;}462272A8{Y:45=T:4622CA78;S:"Src"=N:1684;Y:47=S:"A";Y:48=V:-2.10339,3.45995,0.516844;Y:49=T:46228158;Y:51=Y:50;Y:52=V:-1.20641,-0.26962,0.731647;Y:53=N:0.43999999761581;}4B9E3E70{Y:1=A:-89.5252,-54.5852,3.23569;Y:8=Y:61;Y:19=T:49442A20;Y:3=A:-89.5252,-54.5852,3.23569;Y:2=V:120.003,8.35352,55.792;Y:18=Y:62;Y:5=T:4B9174C8;Y:60=T:4B9EB468;Y:9=N:0;S:"Pos"=V:120.003,8.35352,55.792;}46228AB8{Y:59=T:462263D0;}4B210448{Y:58=T:4B21D288;}4B596520{Y:170;Y:171;Y:172;Y:173;Y:174;Y:175;Y:176;Y:177;Y:178;Y:179;}03B177E0{N:0=T:03AF87E0;}4BC60FE0{A:0.633902,-3.23619,1.13532;V:4481,-5294.7,-178.828;Y:23;Y:169;T:4B596520;Y:180;Y:181;}48E185D8{Y:63=N:20;}4BC61580{Y:17;A:88.7036,115.816,119.055;V:4546.79,-5298.38,-181.338;N:8;N:5;N:561.69000244141;N:0;Y:15;N:1;N:0;B:t;B:f;B:f;B:f;}4956DF48{Y:54=N:1700;S:"Pos"=V:11.8621,-17.7947,2.53113;}4B98B430{Y:1=A:88.7036,157.701,119.055;Y:2=V:99.3003,40.0684,49.6306;Y:3=A:88.7036,157.701,119.055;S:"Pos"=V:99.3003,40.0684,49.6306;Y:4=B:f;}4B6028E8{;}49641648{Y:45=T:496430B0;S:"Src"=N:1649;Y:47=Y:90;Y:48=V:0.723674,0.341642,0.731733;Y:49=T:4963C2D8;Y:51=Y:50;Y:52=V:2.67869,2.80899,2.2914;Y:53=N:0;}4B985788{Y:1=A:-0.63374,-141.348,358.865;Y:2=V:39.8799,-11.6489,52.2183;Y:3=A:-0.63374,-141.348,358.865;S:"Pos"=V:39.8799,-11.6489,52.2183;Y:4=B:f;}4B5699A0{Y:58=T:4B5BE450;}03A87CA0{Y:58=T:03AA1FC0;}3AEB7DB0{Y:1=A:88.7683,157.532,28.8856;Y:2=V:2.94861,-1.9541,51.5606;Y:3=A:88.7683,157.532,28.8856;S:"Pos"=V:2.94861,-1.9541,51.5606;Y:4=B:f;}4963EBA0{Y:74=N:20;Y:64=T:49640E28;Y:167=T:49639678;}49644A78{S:"A"=T:496409F0;S:"B"=T:48C762D8;}49637BC0{N:0=T:49640EC8;}4B5B63B8{;}03AB2900{N:0=T:03A697A0;}03A75880{Y:1=A:88.6629,164.987,36.3456;Y:2=V:61.6548,58.4385,54.5187;Y:3=A:88.6629,164.987,36.3456;S:"Pos"=V:61.6548,58.4385,54.5187;Y:4=B:f;}038D0C60{N:0=T:03A75880;}46D30878{Y:45=T:46D2DDF8;S:"Src"=N:1649;Y:47=S:"TF";Y:48=V:0.428059,-1.37593,0.731984;Y:49=T:46D3AA80;Y:51=Y:50;Y:52=V:1.27522,1.37421,0.0782445;Y:53=N:0;}03A4B2C0{Y:5=T:038D0C60;Y:66=Y:65;Y:8=Y:67;Y:19=T:4B2CE8B8;Y:3=A:88.6629,164.987,36.3456;Y:14=B:t;Y:9=N:0;Y:2=V:61.6548,58.4385,54.5187;Y:18=Y:68;Y:69=B:f;Y:60=T:03A5A9A0;Y:1=A:88.6629,164.987,36.3456;S:"Pos"=V:61.6548,58.4385,54.5187;}03A63E40{S:"A"=T:03A6BAC0;}03AD2EC0{Y:58=T:03A63E40;}4B217310{Y:59=T:4B210448;}495304C8{N:0=T:49533308;}03A82200{N:0=T:03B15DE0;}4963AD20{S:"a"=N:255;S:"b"=N:255;S:"g"=N:255;S:"r"=N:255;}471BA6B8{V:4416.32,-5253.09,-175.28;A:88.9877,87.0703,0.328189;Y:68;Y:99;B:f;B:f;B:t;}46D2C458{Y:1=A:-0.713259,-141.347,358.975;Y:2=V:19.1254,-64.8047,56.9375;Y:3=A:-0.713259,-141.347,358.975;S:"Pos"=V:19.1254,-64.8047,56.9375;Y:4=B:f;}4B21EF20{Y:45=T:4B2145E8;S:"Src"=N:1683;Y:47=S:"He";Y:48=V:-2.16347,1.46956,0.685798;Y:49=T:4B211500;Y:51=Y:50;Y:52=V:-1.55494,-0.5276,0.731369;Y:53=N:0;}49637120{Y:45=T:49638CC8;S:"Src"=N:1698;Y:47=S:"KPH";Y:48=V:-2.92026,2.76533,0.801969;Y:49=T:4963AD20;Y:51=Y:50;Y:52=V:-0.330852,-2.37327,7.98947;Y:53=N:0.43999999761581;}4B21EC00{;}46CDB318{Y:1=A:0.0264237,-141.351,359.623;Y:2=V:102.397,1.87988,56.1163;Y:3=A:0.0264237,-141.351,359.623;S:"Pos"=V:102.397,1.87988,56.1163;Y:4=B:f;}46D3ACB0{Y:1=A:-0.712144,-141.286,178.979;Y:70=B:f;Y:71=B:t;Y:72=B:f;Y:73=N:10000;Y:19=T:471B6338;Y:3=A:-0.712144,-141.286,178.979;S:"Pos"=V:18.8649,-64.7266,44.4543;Y:9=N:0;Y:60=T:46D33320;Y:5=T:46D3AFA8;Y:75=B:f;Y:14=B:t;Y:76=B:t;Y:77=B:f;Y:78=B:f;Y:79=B:f;Y:80=B:f;Y:81=B:f;Y:82=B:t;Y:2=V:18.8649,-64.7266,44.4543;Y:18=Y:83;Y:84=B:f;Y:8=Y:85;Y:86=B:f;Y:87=B:f;}4B656890{S:"a"=N:255;S:"b"=N:255;S:"g"=N:255;S:"r"=N:255;}03B186E0{Y:45=T:03A54DE0;S:"Src"=N:1703;Y:47=Y:90;Y:48=V:-1.28137,-0.549604,0.732115;Y:49=T:03AC2FE0;Y:51=Y:50;Y:52=V:0.622371,-3.76637,2.33435;Y:53=N:0.43999999761581;}4963E858{Y:1=A:1.91431,-31.5089,359.316;Y:2=V:65.5859,35.3677,70.3964;Y:3=A:1.91431,-31.5089,359.316;S:"Pos"=V:65.5859,35.3677,70.3964;Y:4=B:f;}4956CF80{Y:45=T:49572840;S:"Src"=N:1696;Y:47=S:"LB";Y:48=V:1.27841,-0.242001,0.731887;Y:49=T:4BA416E0;Y:51=Y:50;Y:52=V:-0.1672,0.321547,0.731384;Y:53=N:0.43999999761581;}03AD5060{S:"a"=N:255;S:"b"=N:255;S:"g"=N:255;S:"r"=N:255;}49640E28{Y:63=N:1;}4963E010{Y:1=A:-1.2024,128.348,0.575898;Y:2=V:86.2208,28.7407,51.8163;Y:3=A:-1.2024,128.348,0.575898;S:"Pos"=V:86.2208,28.7407,51.8163;Y:4=B:f;}49645248{Y:5=T:49641710;Y:8=Y:149;Y:19=T:4B2C9C00;Y:3=A:-1.2024,128.348,0.575898;Y:165=T:47789508;Y:166=Y:151;Y:2=V:86.2208,28.7407,51.8163;Y:18=Y:150;Y:9=N:0;Y:60=T:4963EBA0;Y:1=A:-1.2024,128.348,0.575898;S:"Pos"=V:86.2208,28.7407,51.8163;}49533E20{S:"a"=N:255;S:"b"=N:255;S:"g"=N:255;S:"r"=N:255;}4BC32F20{Y:17;A:88.7683,115.648,28.8856;V:4447,-5265.34,-179.408;N:4;N:6;N:141.16999816895;N:0;Y:15;N:0;N:0;B:t;B:f;B:f;B:f;}4BC2F140{Y:45=T:4BC2F3C0;S:"Src"=N:1656;Y:47=Y:55;Y:48=V:0.408533,-4.03961,0.369677;Y:49=T:4BC2F410;Y:51=Y:50;Y:52=V:1.81637,0.519878,0.731544;Y:53=N:0.43999999761581;}03ADBCE0{S:"A"=T:03A3CAC0;}492FBE50{S:"A"=T:492FF6E0;}4B21DAD0{Y:1=A:0.228455,26.578,180.992;Y:2=V:-20.6859,-15.1265,45.6459;Y:3=A:0.228455,26.578,180.992;S:"Pos"=V:-20.6859,-15.1265,45.6459;Y:4=B:f;}4B212BA8{Y:5=T:4B2102E0;Y:8=Y:100;Y:101=N:10000;Y:9=N:0;Y:102=B:f;Y:60=T:4B2181E8;Y:12=B:f;Y:19=T:49186A40;Y:14=B:t;Y:3=A:0.488619,11.3785,-179.087;S:"Pos"=V:-34.2278,-25.8887,42.3521;Y:104=Y:103;Y:105=N:0;Y:1=A:0.488619,11.3785,-179.087;Y:2=V:-34.2278,-25.8887,42.3521;Y:18=Y:17;Y:11=N:1;Y:106=B:t;Y:107=B:t;Y:108=Y:15;}03A8D7C0{Y:45=T:03A86F60;S:"Src"=N:1703;Y:47=S:"TR";Y:48=V:2.20568,-1.01123,0.574246;Y:49=T:03AA51A0;Y:51=Y:50;Y:52=V:1.75635,0.893534,-1.58702;Y:53=N:0.43999999761581;}492FF708{Y:58=T:492FBE50;}492FC3A0{Y:59=T:492FF708;}48D7E308{V:4524.1,-5259.19,-176.213;A:88.6551,122.834,36.0741;Y:68;Y:99;B:f;B:f;B:t;}03B15DE0{Y:1=A:0.0228608,-141.346,179.588;Y:2=V:115.839,12.772,40.3378;Y:3=A:0.0228608,-141.346,179.588;S:"Pos"=V:115.839,12.772,40.3378;Y:4=B:f;}48D7E830{Y:17;A:0.492993,-30.5089,-179.079;V:4437.88,-5260.3,-188.626;N:1;N:0;N:10000;Y:15;Y:103;B:t;B:t;B:f;B:f;B:t;B:f;B:f;B:f;}03A5C400{S:"A"=T:03A39B80;}46D38C58{;}48C750E0{S:"a"=N:255;S:"b"=N:255;S:"g"=N:255;S:"r"=N:255;}4B21C2C0{Y:45=T:4B210F60;S:"Src"=N:1657;Y:47=S:"TR";Y:48=V:2.08651,-1.86861,0.731378;Y:49=T:4B211F50;Y:51=Y:50;Y:52=V:-1.34418,-0.722421,2.73722;Y:53=N:0;}4B983F78{S:"A"=T:4B984590;}4B21A100{N:0=T:4B211B90;}03A449C0{S:"a"=N:255;S:"b"=N:255;S:"g"=N:255;S:"r"=N:255;}4B833B20{V:4515.15,-5317.49,-151.004;A:88.4996,97.733,-131.522;Y:68;S:"+";B:f;B:f;B:t;}4BA34260{Y:1=A:89.299,126.829,178.179;Y:2=V:106.255,-2.93555,49.5435;Y:3=A:89.299,126.829,178.179;S:"Pos"=V:106.255,-2.93555,49.5435;Y:4=B:f;}47791BB8{Y:1=A:12.0962,58.1239,268.299;Y:2=V:64.3597,35.8052,75.1248;Y:3=A:12.0962,58.1239,268.299;S:"Pos"=V:64.3597,35.8052,75.1248;Y:4=B:f;}46D33CD0{S:"A"=T:46D30878;}4BA3E670{Y:64=T:4BA38950;}48D8A810{Y:17;A:88.705,115.987,-150.774;V:4443.9,-5319.97,-180.756;N:6;N:4;N:141.16999816895;N:0;Y:15;N:0;N:0;B:t;B:f;B:f;B:f;}4B5B6250{Y:45=T:4B5B63B8;S:"Src"=N:1661;Y:47=S:"Out";Y:48=V:-0.120195,-0.379423,0.43139;Y:49=T:4B5B8BE0;Y:51=Y:50;Y:52=V:-0.331264,-1.73669,5.19991;Y:53=N:0;}03A9CD00{Y:1=A:-0.797944,-141.349,178.889;Y:70=B:f;Y:71=B:t;Y:72=B:f;Y:73=N:10000;Y:19=T:471B9C68;Y:3=A:-0.797944,-141.349,178.889;S:"Pos"=V:62.6152,51.4956,44.5433;Y:9=N:0;Y:60=T:03A865E0;Y:5=T:03A7DAC0;Y:75=B:f;Y:14=B:t;Y:76=B:t;Y:77=B:f;Y:78=B:f;Y:79=B:f;Y:80=B:f;Y:81=B:f;Y:82=B:t;Y:2=V:62.6152,51.4956,44.5433;Y:18=Y:83;Y:84=B:f;Y:8=Y:85;Y:86=B:f;Y:87=B:f;}4B982268{Y:1=A:88.705,157.872,209.226;Y:2=V:37.1111,-44.6938,50.2132;Y:3=A:88.705,157.872,209.226;S:"Pos"=V:37.1111,-44.6938,50.2132;Y:4=B:f;}4BC2F0F0{S:"a"=N:255;S:"b"=N:255;S:"g"=N:255;S:"r"=N:255;}4B9842E8{N:0=T:4B98A2D8;}45E2B128{Y:58=T:45E2DE28;}4BAF2A70{Y:49=T:4BAF1A58;Y:146=N:0;Y:147=N:0;}4B213710{S:"A"=T:4B211848;}46D348B0{S:"a"=N:255;S:"b"=N:255;S:"g"=N:255;S:"r"=N:255;}03B0DD40{;}03ACF400{Y:89=T:03B186E0;}4B983910{N:0=T:4B988A78;}03A78840{Y:59=T:038E2720;}49638CC8{;}4B215128{Y:1=A:88.9451,129.289,0.661947;Y:19=T:476013B8;Y:40=Y:24;Y:8=Y:41;Y:3=A:88.9451,129.289,0.661947;Y:9=N:0;Y:42=T:49641468;Y:43=Y:39;Y:2=V:-24.4863,-10.3696,52.0303;Y:18=Y:23;Y:44=Y:38;Y:60=T:4B2105B0;Y:5=T:4B214D68;S:"Pos"=V:-24.4863,-10.3696,52.0303;}46D2CC00{Y:58=T:46D33C80;}4963A5F0{N:0=T:4963FB18;}4B21DDF0{Y:46=T:4B215B50;S:"WP"=T:4B21FEE8;S:"DP"=T:4B217270;S:"Ex"=T:4B2198E0;Y:56=T:4B21ED68;S:"DR"=T:4B213558;Y:57=T:4B21EF20;}3AEB60A0{Y:5=T:3AEB5970;Y:6=N:6;Y:8=Y:7;S:"key"=N:4;Y:9=N:0;Y:10=N:0;Y:11=N:141.16999816895;Y:12=N:0;Y:13=N:0;Y:14=B:t;Y:16=Y:15;Y:2=V:2.94861,-1.9541,51.5606;Y:18=Y:17;Y:19=T:4BC32F20;Y:1=A:88.7683,157.532,28.8856;Y:3=A:88.7683,157.532,28.8856;S:"Pos"=V:2.94861,-1.9541,51.5606;}03ADF480{;}4B989EA0{;}49636F90{Y:1=A:87.2884,-163.314,248.013;Y:2=V:25.7703,-67.3838,54.2935;Y:3=A:87.2884,-163.314,248.013;S:"Pos"=V:25.7703,-67.3838,54.2935;Y:4=B:f;}4B985058{Y:5=T:4B98DE60;Y:6=N:4;Y:8=Y:7;S:"key"=N:6;Y:9=N:0;Y:10=N:0;Y:11=N:141.16999816895;Y:12=N:0;Y:13=N:0;Y:14=B:t;Y:16=Y:15;Y:2=V:37.1111,-44.6938,50.2132;Y:18=Y:17;Y:19=T:48D8A810;Y:1=A:88.705,157.872,-150.774;Y:3=A:88.705,157.872,-150.774;S:"Pos"=V:37.1111,-44.6938,50.2132;}4B3B44C8{S:"4";}46BCD2A8{V:4519.74,-5334.88,-177.734;A:89.5303,85.4845,178.718;Y:68;Y:65;B:f;B:f;B:t;}4BC90450{S:"a"=N:255;S:"b"=N:255;S:"g"=N:255;S:"r"=N:255;}03AE4A80{N:0=T:03A7CA40;}4B986F98{S:"pod"=N:1663;Y:58=T:4B990ED0;}46D35E68{Y:58=T:46D32808;}46D35B20{Y:1=A:0.926244,25.9426,180.863;Y:2=V:5.29071,-75.5059,41.3719;Y:3=A:0.926244,25.9426,180.863;S:"Pos"=V:5.29071,-75.5059,41.3719;Y:4=B:f;}4B214688{Y:1=A:-0.797695,-141.348,358.865;Y:2=V:62.9028,51.4155,57.0255;Y:3=A:-0.797695,-141.348,358.865;S:"Pos"=V:62.9028,51.4155,57.0255;Y:4=B:f;}49640FB8{S:"a"=N:1;Y:1=A:0.815857,-64.0942,-0.915649;S:"b"=N:0;Y:8=Y:123;S:"ab"=N:0;S:"aa"=N:255;Y:9=N:0;Y:60=T:496436F0;S:"bg"=N:255;S:"ag"=N:0;Y:14=B:t;Y:19=T:48D8B8A0;Y:3=A:0.815857,-64.0942,-0.915649;S:"bb"=N:0;Y:125=Y:124;S:"ba"=N:255;Y:2=V:12.1774,-70.3574,57.123;Y:18=Y:96;Y:5=T:4963A5F0;S:"ar"=N:255;S:"br"=N:0;S:"Pos"=V:12.1774,-70.3574,57.123;}4B212630{Y:1=A:0.488619,11.3785,180.913;Y:2=V:-34.2278,-25.8887,42.3521;Y:3=A:0.488619,11.3785,180.913;S:"Pos"=V:-34.2278,-25.8887,42.3521;Y:4=B:f;}03A59E40{Y:5=T:03A9DEA0;Y:8=Y:100;Y:101=N:10000;Y:9=N:0;Y:102=B:f;Y:60=T:03AB0400;Y:12=B:f;Y:19=T:46ECFF20;Y:14=B:t;Y:3=A:-0.801103,-141.351,178.926;S:"Pos"=V:49.0369,40.7124,41.4864;Y:104=Y:103;Y:105=N:0;Y:1=A:-0.801103,-141.351,178.926;Y:2=V:49.0369,40.7124,41.4864;Y:18=Y:17;Y:11=N:1;Y:106=B:t;Y:107=B:t;Y:108=Y:15;}49442A20{V:4541.03,-5335.82,-175.177;A:-89.5252,-96.4698,3.23569;Y:62;T:4B9174C8;T:4B9E3E70;}4B54D3C0{N:0=T:4B5430C8;}4BB21170{;}46D32808{S:"A"=T:46D39180;}46D30670{Y:59=T:46D35E68;}48E19690{Y:74=N:20;Y:64=T:48E185D8;}48E10928{Y:1=A:0.802012,-51.3586,-0.7742;Y:8=Y:61;Y:19=T:475FA180;Y:3=A:0.802012,-51.3586,-0.7742;Y:2=V:80.2407,57.9512,44.5187;Y:18=Y:62;Y:5=T:4B54D3C0;Y:60=T:48E19690;Y:9=N:0;S:"Pos"=V:80.2407,57.9512,44.5187;}49638408{Y:1=A:1.0011,-51.373,359.984;Y:2=V:-3.07196,-8.66797,45.8787;Y:3=A:1.0011,-51.373,359.984;Y:4=B:f;S:"Pos"=V:-3.07196,-8.66797,45.8787;}4BC38718{A:88.6117,121.845,35.0864;V:4527.54,-5259.31,-180.03;Y:23;Y:24;T:03ACC6A0;Y:38;Y:39;}49639678{;}46ECFF20{Y:17;A:-0.801103,176.764,178.926;V:4509.8,-5264.35,-189.482;N:1;N:0;N:10000;Y:15;Y:103;B:t;B:t;B:f;B:f;B:t;B:f;B:f;B:f;}4B210CB8{Y:1=A:0.998643,-52.5314,-0.036438;Y:8=Y:88;Y:19=T:46ECEDF0;Y:3=A:0.998643,-52.5314,-0.036438;Y:2=V:-13.5886,-9.75391,58.2011;Y:9=N:0;Y:5=T:4B21F5D8;Y:60=T:4B21DD28;Y:18=Y:96;S:"Pos"=V:-13.5886,-9.75391,58.2011;}4B2142F0{Y:5=T:4B21A100;Y:8=Y:100;Y:101=N:10000;Y:9=N:0;Y:102=B:f;Y:60=T:4B211CA8;Y:12=B:f;Y:19=T:48D7E830;Y:14=B:t;Y:3=A:0.492993,11.3756,-179.079;S:"Pos"=V:-7.20764,-4.29395,42.3426;Y:104=Y:103;Y:105=N:0;Y:1=A:0.492993,11.3756,-179.079;Y:2=V:-7.20764,-4.29395,42.3426;Y:18=Y:17;Y:11=N:1;Y:106=B:t;Y:107=B:t;Y:108=Y:15;}4B210F60{;}4B97D258{Y:5=T:4B97BCA0;Y:8=Y:97;Y:19=T:46BD9468;Y:18=Y:68;Y:2=V:93.2889,4.87451,81.2107;Y:9=N:0;Y:98=T:4B3B44C8;Y:3=A:88.9438,143.354,-127.613;Y:1=A:88.9438,143.354,-127.613;S:"Pos"=V:93.2889,4.87451,81.2107;}48C78D08{;}4B98DE60{N:0=T:4B982268;}4B211CA8{Y:59=T:4B21CD38;}45E2DE28{S:"A"=T:45E2AD18;S:"D"=T:48DCF140;S:"C"=T:48DDBAF8;S:"B"=T:48DDA0B8;}494C6A18{A:12.0962,16.2394,-91.7007;V:4517.93,-5278.23,-155.844;B:f;B:f;B:f;B:f;}471B0D70{V:4413.67,-5328.92,-176.304;A:87.29,154.909,-111.879;Y:68;Y:65;B:f;B:f;B:t;}4BA38950{Y:63=N:100;}4778C208{N:0=T:47791BB8;}03B0D760{;}03AC6440{;}4B21DD28{Y:59=T:4B211668;}03A46D60{Y:58=T:03AAAD40;}03AC1180{Y:1=A:0.0256049,-141.344,179.563;Y:70=B:f;Y:71=B:t;Y:72=B:f;Y:73=N:10000;Y:19=T:46BCC5D8;Y:3=A:0.0256049,-141.344,179.563;S:"Pos"=V:102.345,1.9541,43.6287;Y:9=N:0;Y:60=T:03AA06E0;Y:5=T:03AB2900;Y:75=B:f;Y:14=B:t;Y:76=B:t;Y:77=B:f;Y:78=B:f;Y:79=B:f;Y:80=B:f;Y:81=B:f;Y:82=B:t;Y:2=V:102.345,1.9541,43.6287;Y:18=Y:83;Y:84=B:f;Y:8=Y:85;Y:86=B:f;Y:87=B:f;}46D2E550{Y:5=T:496414E0;Y:66=Y:99;Y:8=Y:67;Y:19=T:4783CFE8;Y:3=A:87.2884,-163.314,-111.987;Y:14=B:t;Y:9=N:0;Y:2=V:25.7703,-67.3838,54.2935;Y:18=Y:68;Y:69=B:f;Y:60=T:46D30670;Y:1=A:87.2884,-163.314,-111.987;S:"Pos"=V:25.7703,-67.3838,54.2935;}03AA7A40{Y:74=N:20;Y:59=T:03A75C80;}46D38F50{Y:5=T:46D2C4A8;Y:8=Y:100;Y:101=N:10000;Y:9=N:0;Y:102=B:f;Y:60=T:46D35A80;Y:12=B:f;Y:19=T:03AAA340;Y:14=B:t;Y:3=A:0.923846,25.9396,-179.146;S:"Pos"=V:32.2853,-53.8931,40.9416;Y:104=Y:103;Y:105=N:0;Y:1=A:0.923846,25.9396,-179.146;Y:2=V:32.2853,-53.8931,40.9416;Y:18=Y:17;Y:11=N:1;Y:106=B:t;Y:107=B:t;Y:108=Y:15;}4B2145C0{S:"a"=N:255;S:"b"=N:255;S:"g"=N:255;S:"r"=N:255;}4B21ACB8{S:"A"=T:4B2188F0;}4BC92480{S:"a"=N:255;S:"b"=N:255;S:"g"=N:255;S:"r"=N:255;}475FA180{V:4544.54,-5272.35,-186.45;A:0.802012,-93.2432,-0.7742;Y:62;T:4B54D3C0;T:48E10928;}4B213738{Y:59=T:4B2176D0;}46D35F30{;}494CC328{A:0.228454,-15.3065,-179.008;V:4420.61,-5259.37,-185.323;N:10000;B:f;B:t;B:f;B:t;B:t;B:f;B:f;B:f;B:f;B:f;B:f;B:f;B:f;B:f;B:f;B:t;B:f;B:f;B:f;}4B5F91A8{S:"a"=N:255;S:"b"=N:255;S:"g"=N:255;S:"r"=N:255;}48DD15F8{;}49186A40{Y:17;A:0.488619,-30.506,-179.087;V:4403.35,-5258.34,-188.617;N:1;N:0;N:10000;Y:15;Y:103;B:t;B:t;B:f;B:f;B:t;B:f;B:f;B:f;}46BCC5D8{A:0.0256049,176.771,179.563;V:4523.61,-5328.79,-187.34;N:10000;B:f;B:t;B:f;B:t;B:t;B:f;B:f;B:f;B:f;B:f;B:f;B:f;B:f;B:f;B:f;B:t;B:f;B:f;B:f;}46D353A0{Y:1=A:88.7313,162.361,213.705;Y:2=V:22.8738,-69.6147,50.6134;Y:3=A:88.7313,162.361,213.705;S:"Pos"=V:22.8738,-69.6147,50.6134;Y:4=B:f;}03AE3140{;}03A697A0{Y:1=A:0.0256049,-141.344,179.563;Y:2=V:102.345,1.9541,43.6287;Y:3=A:0.0256049,-141.344,179.563;S:"Pos"=V:102.345,1.9541,43.6287;Y:4=B:f;}03AA9060{Y:45=T:03A8BA60;S:"Src"=N:1646;Y:47=Y:55;Y:48=V:1.59009,3.80078,0.171127;Y:49=T:03A3DF00;Y:51=Y:50;Y:52=V:2.19051,1.22339,0.593772;Y:53=N:0.43999999761581;}4B3462C8{Y:1=A:-0.633942,-141.354,358.865;Y:2=V:46.1697,-5.5415,52.1387;Y:3=A:-0.633942,-141.354,358.865;S:"Pos"=V:46.1697,-5.5415,52.1387;Y:4=B:f;}4B98DB90{Y:5=T:4B33D970;Y:66=Y:141;Y:8=Y:67;Y:19=T:494CDDE0;Y:3=A:-0.633942,-141.354,-1.13528;Y:14=B:t;Y:9=N:0;Y:2=V:46.1697,-5.5415,52.1387;Y:18=Y:68;Y:69=B:f;Y:60=T:4B98A508;Y:1=A:-0.633942,-141.354,-1.13528;S:"Pos"=V:46.1697,-5.5415,52.1387;}494CCBE8{Y:21;A:-0.0161236,176.755,-1.02228;V:4420.6,-5259.6,-172.839;B:t;B:t;B:f;B:f;B:f;}4B5BD758{Y:74=N:20;Y:64=T:4B5BF788;Y:59=T:4B5699A0;}03AE4300{Y:59=T:03A9FFC0;}4963E628{Y:5=T:4963C148;Y:66=Y:65;Y:8=Y:67;Y:19=T:471B0D70;Y:3=A:87.29,-163.207,-111.879;Y:14=B:t;Y:9=N:0;Y:2=V:20.578,-71.543,54.6644;Y:18=Y:68;Y:69=B:f;Y:60=T:4963E3A8;Y:1=A:87.29,-163.207,-111.879;S:"Pos"=V:20.578,-71.543,54.6644;}4BC908D8{Y:45=T:4BC8DF48;S:"Src"=N:1665;Y:47=S:"Out";Y:48=V:1.03102,-0.309016,0.445055;Y:49=T:4BC90450;Y:51=Y:50;Y:52=V:-1.98343,1.84502,0.731604;Y:53=N:0.43999999761581;}4B219AC0{Y:58=T:4B21D878;}46D33320{Y:59=T:46D3B2C8;}4B5BE450{S:"A"=T:4B5B59E0;S:"B"=T:4B5B6250;}4B988C08{Y:5=T:4B989BF8;Y:6=N:5;Y:8=Y:7;S:"key"=N:8;Y:9=N:0;Y:10=N:0;Y:11=N:561.69000244141;Y:12=N:1;Y:13=N:0;Y:14=B:t;Y:16=Y:15;Y:2=V:99.3003,40.0684,49.6306;Y:18=Y:17;Y:19=T:4BC61580;Y:1=A:88.7036,157.701,119.055;Y:3=A:88.7036,157.701,119.055;S:"Pos"=V:99.3003,40.0684,49.6306;}038E1C60{Y:58=T:03AE3140;}4B5BAC88{Y:1=A:-1.11398,91.059,1.25472;Y:2=V:90.335,5.4834,72.6174;Y:3=A:-1.11398,91.059,1.25472;S:"Pos"=V:90.335,5.4834,72.6174;Y:4=B:f;}4B5BCD80{N:0=T:4B5BAC88;}46BD9468{Y:68;V:4518.82,-5320.57,-149.758;A:88.9438,101.469,-127.613;T:4B3B44C8;B:f;B:f;B:f;}46D3AA80{S:"a"=N:255;S:"b"=N:255;S:"g"=N:255;S:"r"=N:255;}4B4142E8{Y:112;Y:113;Y:114;Y:115;Y:116;Y:117;}4B21A9C0{N:0=T:4B21DAD0;}4B656840{Y:45=T:4B656728;S:"Src"=N:1648;Y:47=S:"Out";Y:48=V:0.0489246,0.74536,0.431322;Y:49=T:4BB210F8;Y:51=Y:50;Y:52=V:-2.16408,-1.52433,0.683522;Y:53=N:0.43999999761581;}03A865E0{Y:74=N:20;Y:59=T:03B02860;}4B216DC0{;}4B21E4D0{Y:1=A:88.9451,129.289,0.661947;Y:2=V:-24.4863,-10.3696,52.0303;Y:3=A:88.9451,129.289,0.661947;S:"Pos"=V:-24.4863,-10.3696,52.0303;Y:4=B:f;}4B98A2D8{Y:1=A:89.5303,127.369,178.718;Y:2=V:103.523,-5.16211,53.2346;Y:3=A:89.5303,127.369,178.718;S:"Pos"=V:103.523,-5.16211,53.2346;Y:4=B:f;}03ACB5A0{;}03AA5B60{;}4B217AE0{S:"a"=N:255;S:"b"=N:255;S:"g"=N:255;S:"r"=N:255;}03AB0400{Y:74=N:20;Y:59=T:03A40B00;}4B211528{;}03A9DEA0{N:0=T:03ABF7A0;}03AA51A0{S:"a"=N:255;S:"b"=N:255;S:"g"=N:255;S:"r"=N:255;}03A75C80{Y:58=T:03A57940;}03A73A40{Y:1=A:-0.796542,-141.351,178.899;Y:2=V:76.0462,62.3149,41.0047;Y:3=A:-0.796542,-141.351,178.899;S:"Pos"=V:76.0462,62.3149,41.0047;Y:4=B:f;}03AF87E0{Y:1=A:-0.596642,-141.354,358.922;Y:2=V:55.2648,-10.3774,52.2338;Y:3=A:-0.596642,-141.354,358.922;S:"Pos"=V:55.2648,-10.3774,52.2338;Y:4=B:f;}03A52AA0{Y:5=T:03B177E0;Y:19=T:4918C080;Y:8=Y:127;Y:9=N:0;Y:128=N:0;Y:129=N:13;Y:130=N:-5;Y:2=V:55.2648,-10.3774,52.2338;Y:18=Y:126;Y:10=B:f;Y:3=A:-0.596642,-141.354,-1.07761;Y:1=A:-0.596642,-141.354,-1.07761;S:"Pos"=V:55.2648,-10.3774,52.2338;}46D367C8{Y:1=A:0.923846,25.9396,180.854;Y:2=V:32.2853,-53.8931,40.9416;Y:3=A:0.923846,25.9396,180.854;S:"Pos"=V:32.2853,-53.8931,40.9416;Y:4=B:f;}03A3F5C0{Y:58=T:03A6E2E0;}4BC8F9D8{N:0=T:4BC13420;}4B2145E8{;}46EC6BF0{A:-1.11398,49.1744,1.25472;V:4517.03,-5318.15,-158.351;Y:131;B:f;B:t;Y:132;Y:133;B:f;B:t;B:f;}4BC30F40{Y:21;A:0.0264237,176.764,-0.376892;V:4523.6,-5328.88,-174.852;B:t;B:f;B:f;B:f;B:f;}49641AF8{S:"a"=N:255;S:"b"=N:255;S:"g"=N:255;S:"r"=N:255;}03AAF1C0{S:"a"=N:255;S:"b"=N:255;S:"g"=N:255;S:"r"=N:255;}4B5F7E98{;}46D2D358{Y:1=A:88.7313,162.361,-146.295;Y:19=T:03A97680;Y:40=Y:24;Y:8=Y:41;Y:3=A:88.7313,162.361,-146.295;Y:9=N:0;Y:42=T:03B02940;Y:43=Y:39;Y:2=V:22.8738,-69.6147,50.6134;Y:18=Y:23;Y:44=Y:38;Y:60=T:46D39AE0;Y:5=T:46D377B8;S:"Pos"=V:22.8738,-69.6147,50.6134;}48C715F8{Y:1=A:0.402328,-41.0329,179.583;Y:2=V:40.8536,-6.65527,48.6976;Y:3=A:0.402328,-41.0329,179.583;S:"Pos"=V:40.8536,-6.65527,48.6976;Y:4=B:f;}03A7B0C0{V:4472.1,-5294.17,-180.2;A:1.07737,-93.2437,-0.596893;Y:121;T:49637BC0;T:4BA3AF20;}03ACD120{Y:5=T:03897360;Y:66=Y:65;Y:8=Y:67;Y:19=T:46BD6DA8;Y:3=A:-0.596496,-141.348,-1.07764;Y:14=B:t;Y:9=N:0;Y:2=V:35.6194,-6.64893,52.6551;Y:18=Y:68;Y:69=B:f;Y:60=T:03B013E0;Y:1=A:-0.596496,-141.348,-1.07764;S:"Pos"=V:35.6194,-6.64893,52.6551;}46D35CB0{S:"a"=N:255;S:"b"=N:255;S:"g"=N:255;S:"r"=N:255;}49644280{S:"A"=T:49637120;}471BE858{Y:21;A:-0.797695,176.768,-1.13455;V:4527.27,-5265.64,-173.943;B:t;B:f;B:f;B:f;B:f;}4B21FCB8{N:0=T:4B214688;}4B97BCA0{N:0=T:4B97C100;}4963C148{N:0=T:496466C0;}4B21F5D8{N:0=T:4B21B910;}4B5B59E0{Y:45=T:4B5BA120;S:"Src"=N:1683;Y:47=S:"He";Y:48=V:1.13019,-1.36901,0.731663;Y:49=T:4B5BDAA0;Y:51=Y:50;Y:52=V:0.479805,4.5483,1.57742;Y:53=N:0;}4B21F240{;}03ACC6A0{Y:25;Y:26;Y:27;Y:28;Y:29;Y:30;Y:31;Y:32;Y:33;Y:34;Y:35;Y:36;Y:37;}4B656868{Y:45=T:4B656750;S:"Src"=N:1683;Y:47=S:"He";Y:48=V:-0.172513,1.5302,0.731628;Y:49=T:4B656700;Y:51=Y:50;Y:52=V:-0.101951,0.0266572,0.731403;Y:53=N:0;}492FF6E0{Y:45=T:492FF690;S:"Src"=N:1646;Y:47=Y:55;Y:48=V:1.12256,2.97951,1.83889;Y:49=T:49533E20;Y:51=Y:50;Y:52=V:0.63502,-0.00634676,0.430739;Y:53=N:0.43999999761581;}4956E1A0{Y:54=N:1700;S:"Pos"=V:11.8619,-0.00116393,2.53106;}03ACDA20{S:"a"=N:255;S:"b"=N:255;S:"g"=N:255;S:"r"=N:255;}03897360{N:0=T:03A50540;}03AB9EC0{S:"A"=T:03A43C60;}45E2AD18{Y:45=T:45E30DF8;S:"Src"=N:1656;Y:47=Y:55;Y:48=V:3.56065,-1.95162,0.639207;Y:49=T:48DD7548;Y:51=Y:50;Y:52=V:0.624829,-0.272448,0.43092;Y:53=N:0;}4B2C40C0{A:1.91431,-73.3935,-0.683716;V:4518.55,-5279.38,-160.572;Y:131;B:t;B:t;Y:168;Y:133;B:f;B:t;B:f;}4BC8E650{S:"a"=N:255;S:"b"=N:255;S:"g"=N:255;S:"r"=N:255;}03B02280{Y:45=T:03B00300;S:"Src"=N:1659;Y:47=S:"Out";Y:48=V:0.264689,0.156007,0.431672;Y:49=T:03A449C0;Y:51=Y:50;Y:52=V:-0.855721,1.69336,0.732409;Y:53=N:0.43999999761581;}4B989590{Y:5=T:4B98E1A8;Y:66=Y:65;Y:8=Y:67;Y:19=T:49446440;Y:3=A:-0.63374,-141.348,-1.13538;Y:14=B:t;Y:9=N:0;Y:2=V:39.8799,-11.6489,52.2183;Y:18=Y:68;Y:69=B:f;Y:60=T:4B98FB20;Y:1=A:-0.63374,-141.348,-1.13538;S:"Pos"=V:39.8799,-11.6489,52.2183;}03A78E00{Y:45=T:03AE30A0;S:"Src"=N:1683;Y:47=S:"RB";Y:48=V:-0.455425,2.29302,0.0601461;Y:49=T:03A41620;Y:51=Y:50;Y:52=V:1.03941,0.614257,0.731783;Y:53=N:0.43999999761581;}46D34B58{Y:58=T:46D33CD0;}4B5FE360{Y:56=T:4B5FCAD8;Y:120=T:4B6005E8;S:"RD"=T:4B6026E0;Y:46=T:4B6021E0;S:"PD"=T:4BC908D8;}
Constraints:4B990250{Y:184=N:1686;Y:185=N:0;}46D31FE8{Y:14=B:t;Y:183=N:0;Y:54=T:46D34A90;Y:186=B:t;Y:188=Y:187;}03AC6960{Y:184=N:1669;Y:185=N:0;}45E2B2E0{T:45E2B470;T:45E25070;}49638138{Y:184=N:1645;Y:185=N:0;}H494312D8{T:03A4CE80;T:4B214598;T:4B219480;T:4B5B5580;T:49641DA0;T:03A54100;T:03A4E260;T:4B218918;T:4B21A7E0;T:03B0CD20;T:45E26A38;T:477B0E40;T:46D2FCE8;T:47185FA0;T:03AD9D20;T:03A497E0;T:4B98D730;T:4963E420;T:4B987AB0;T:4B9890B8;T:03A6F800;T:46D31FE8;T:4B218530;T:46D396D0;T:4B98D1E0;T:4963E588;T:477AD740;T:03ACE5A0;T:47795C18;T:4963DE30;T:4B98E860;T:4B25B488;T:49641440;T:4B212CC0;T:46D35EB8;T:4718C5A8;T:4B21BD70;T:03A69020;T:4B1F5EC0;T:4718E8F8;T:4B978578;T:46D3ABE8;T:03B06AC0;T:4BA3ADB8;T:03AF5040;T:038CD560;T:4778CA00;T:03A5AFC0;T:46CCC868;T:48C703D8;T:03B07300;T:4B98D410;T:03A49CE0;T:4BC115F8;T:4B2182D8;T:03794820;T:46CDA260;T:4B2108A8;T:492B1A08;T:4B21D1E8;T:49640AB8;T:03AD54C0;T:4B7B9E78;}46D396D0{Y:54=T:46D33398;Y:188=Y:187;Y:186=B:t;Y:183=N:0;}46D34A90{T:46D32D30;T:46D3B138;}03A428A0{Y:184=N:1649;Y:185=N:0;}03A5AFC0{Y:14=B:t;Y:183=N:0;Y:54=T:03A88F40;Y:186=B:t;Y:188=Y:187;}03A69020{Y:14=B:t;Y:183=N:0;Y:54=T:03AC6340;Y:186=B:t;Y:188=Y:187;}4B2115F0{T:4B21F768;T:4B21C108;}4B7B64D0{Y:184=N:1653;Y:185=N:0;}4B210E98{Y:184=N:1701;Y:185=N:0;}4B7C0EA8{Y:184=N:1697;Y:185=N:0;}48C74AC8{T:48C70AE0;T:4B59F508;}49639F60{Y:192=V:1.03087,-17.7946,5.93077;Y:184=N:1644;Y:185=N:0;}4718C5A8{Y:14=B:t;Y:183=N:0;Y:54=T:4718E628;Y:186=B:t;Y:188=Y:187;}03A84680{T:03AA7740;T:03A8EFA0;}4B7B9E78{Y:14=B:t;Y:183=N:0;Y:54=T:4B7C1AD8;Y:186=B:t;Y:188=Y:187;}46D2D2E0{Y:184=N:1645;Y:185=N:0;}46D2C868{Y:184=N:1645;Y:185=N:0;}49644398{Y:184=N:1678;Y:185=N:0;}03A9A160{Y:184=N:1660;Y:185=N:0;}4B212CC0{Y:14=B:t;Y:183=N:0;Y:54=T:4B21A498;Y:186=B:t;Y:188=Y:187;}4B21F768{Y:184=N:1425;Y:185=N:0;}4B218530{Y:54=T:4B2112F8;Y:188=Y:187;Y:186=B:t;Y:183=N:0;}03AD54C0{Y:14=B:t;Y:183=N:0;Y:54=T:03A941E0;Y:186=B:t;Y:188=Y:187;}47185FA0{Y:54=T:47182008;Y:188=Y:187;Y:183=N:0;}49638ED0{Y:184=N:1700;Y:185=N:0;}4B25B488{Y:14=B:t;Y:183=N:0;Y:54=T:4B25D530;Y:186=B:t;Y:188=Y:187;}4B21D1E8{Y:14=B:t;Y:183=N:0;Y:54=T:4B21BA50;Y:186=B:t;Y:188=Y:187;}03A86D40{Y:184=N:1666;Y:185=N:0;}46CCD740{Y:184=N:1681;Y:185=N:0;}49640AB8{Y:14=B:t;Y:183=N:0;Y:54=T:49636E78;Y:186=B:t;Y:188=Y:187;}4B215D08{Y:184=N:1644;Y:185=N:0;}03ABA120{Y:184=N:1700;Y:185=N:0;}46D35EB8{Y:54=T:46D32718;Y:188=Y:187;Y:186=B:t;Y:183=N:0;}03B0DEA0{T:03AD7580;T:03ABC4C0;}4B2112F8{T:4B21E6B0;T:4B216668;}4BC115F8{Y:189=N:1;Y:14=N:0;Y:190=N:0;Y:191=V:23.7565,53.3825,-0.00201086;Y:183=N:0;Y:54=T:4BC157E8;Y:188=Y:193;Y:194=V:-5.92819,-17.7949,12.8955;Y:195=V:-5.92791,-17.7948,13.8952;}49637288{Y:184=N:1695;Y:185=N:0;}03A4CE80{Y:14=B:t;Y:183=N:0;Y:54=T:03AAAE00;Y:186=B:t;Y:188=Y:187;}4BA3ADB8{Y:54=T:4920A8E8;Y:188=Y:187;Y:186=B:t;Y:183=N:0;}492B40C8{Y:184=N:1650;Y:185=N:0;}03872F60{Y:184=N:1662;Y:185=N:0;}03AAAE00{T:03B082E0;T:03ABA120;}4B209138{Y:184=N:1659;Y:185=N:0;}4B2182D8{Y:14=B:t;Y:183=N:0;Y:54=T:4B214250;Y:186=B:t;Y:188=Y:187;}492B1AD0{T:492B40C8;T:492ADCC8;}492B1A08{Y:14=B:t;Y:183=N:0;Y:54=T:492B1AD0;Y:186=B:t;Y:188=Y:187;}49640310{T:4963A870;T:496387C8;}4B337858{Y:192=V:23.7565,53.3825,-0.00201086;Y:184=N:1700;Y:185=N:0;}4B98A698{Y:184=N:1700;Y:185=N:0;}03ABC4C0{Y:184=N:1653;Y:185=N:0;}4B21A290{Y:184=N:111;Y:185=N:0;}4B213260{Y:184=N:1423;Y:185=N:0;}46CD05F8{Y:192=V:-23.7562,53.38,-0.00058523;Y:184=N:1700;Y:185=N:0;}4963E588{Y:14=B:t;Y:183=N:0;Y:54=T:49644820;Y:186=B:t;Y:188=Y:187;}4B21F560{Y:184=N:1690;Y:185=N:0;}49637260{Y:184=N:1667;Y:185=N:0;}4B9904D0{Y:184=N:1700;Y:185=N:0;}03AF5040{Y:14=B:t;Y:183=N:0;Y:54=T:03A3E1C0;Y:186=B:t;Y:188=Y:187;}46CD35F0{Y:192=V:1.03156,-17.7937,5.93124;Y:184=N:1653;Y:185=N:0;}46CCD420{T:46CD35F0;T:46CD05F8;}4963A550{Y:184=N:1657;Y:185=N:0;}03ABC5A0{Y:184=N:1700;Y:185=N:0;}46CDA260{Y:189=N:1;Y:14=N:0;Y:190=N:0;Y:191=V:-23.7562,53.38,-0.00058523;Y:183=N:0;Y:54=T:46CCD420;Y:188=Y:193;Y:194=V:1.03156,-17.7937,5.93124;Y:195=V:2.03128,-17.7936,5.93123;}4778F5C0{Y:184=N:1663;Y:185=N:0;}03AA7740{Y:184=N:1703;Y:185=N:0;}4B216668{Y:184=N:1644;Y:185=N:0;}477B0E40{Y:54=T:4963A4D8;Y:188=Y:187;Y:183=N:0;}4963CF08{T:49639F60;T:496371C0;}03A49CE0{Y:54=T:03A3CCE0;Y:188=Y:187;Y:186=B:t;Y:183=N:0;}4B97C560{T:4B9740B8;T:4B5F9090;}4B21A768{Y:184=N:1704;Y:185=N:0;}03794820{Y:14=B:t;Y:183=N:0;Y:54=T:03A6B880;Y:186=B:t;Y:188=Y:187;}4B2004C0{Y:184=N:1653;Y:185=N:0;}03A497E0{Y:14=B:t;Y:183=N:0;Y:54=T:03A84680;Y:186=B:t;Y:188=Y:187;}03A941E0{T:03A9A160;T:03AF1DC0;}4B32B6E8{Y:192=V:-5.92819,-17.7949,12.8955;Y:184=N:1669;Y:185=N:0;}4718EEC0{Y:184=N:1663;Y:185=N:0;}4B9855F8{T:4B986EA8;T:4B9904D0;}4BC157E8{T:4B32B6E8;T:4B337858;}4B21BA50{T:4B21BDE8;T:4B215D08;}47186540{Y:184=N:1663;Y:185=N:0;}03AC2760{Y:184=N:1653;Y:185=N:0;}49636E78{T:49637288;T:49638ED0;}477948E0{Y:184=N:1700;Y:185=N:0;}03AB37E0{Y:184=N:1645;Y:185=N:0;}03A7C4C0{Y:184=N:1648;Y:185=N:0;}496443C0{Y:184=N:1698;Y:185=N:0;}47182260{Y:184=N:1678;Y:185=N:0;}4B210628{T:4B21A290;T:4B2167F8;}4B214598{Y:14=B:t;Y:183=N:0;Y:54=T:4B21E868;Y:186=B:t;Y:188=Y:187;}4B986BD8{Y:184=N:1700;Y:185=N:0;}47795C18{Y:54=T:47798080;Y:188=Y:187;Y:183=N:0;}4B2108A8{Y:14=B:t;Y:183=N:0;Y:54=T:4B21AAB0;Y:186=B:t;Y:188=Y:187;}038CD400{Y:184=N:1694;Y:185=N:0;}46D37948{Y:184=N:1676;Y:185=N:0;}49641440{Y:14=B:t;Y:183=N:0;Y:54=T:49640310;Y:186=B:t;Y:188=Y:187;}4B98D410{Y:14=B:t;Y:183=N:0;Y:54=T:4B98AAA8;Y:186=B:t;Y:188=Y:187;}4B986EA8{Y:184=N:1679;Y:185=N:0;}03AC5B20{Y:184=N:1653;Y:185=N:0;}03AD9D20{Y:54=T:03AF86E0;Y:188=Y:187;Y:186=B:t;Y:183=N:0;}4963DE30{Y:14=B:t;Y:183=N:0;Y:54=T:4963DF98;Y:186=B:t;Y:188=Y:187;}4BB17278{Y:184=N:1700;Y:185=N:0;}03A62180{Y:184=N:1646;Y:185=N:0;}03AF86E0{T:03A68320;T:03A93FC0;}46D3ADF0{Y:184=N:1680;Y:185=N:0;}46D2E4D8{Y:184=N:1674;Y:185=N:0;}4B218918{Y:14=B:t;Y:183=N:0;Y:54=T:4B21FBF0;Y:186=B:t;Y:188=Y:187;}03ACAA60{T:03872F60;T:03ABC5A0;}4B7C1AD8{T:4B7C0EA8;T:4B7B64D0;}46D2DFB0{T:46D38F00;T:46D2D2E0;}4B21BD70{Y:54=T:4B21F470;Y:188=Y:187;Y:186=B:t;Y:183=N:0;}48C70AE0{Y:184=N:1668;Y:185=N:0;}4778CA00{Y:54=T:477982D8;Y:188=Y:187;Y:183=N:0;}4B991E70{T:4B985328;T:4B98B548;}03A68320{Y:184=N:1687;Y:185=N:0;}03AC6340{T:038CD400;T:03AB4EC0;}03A6B880{T:03A7C4C0;T:03A7C0E0;}46CCC868{Y:54=T:46CCC318;Y:188=Y:187;Y:183=N:0;}47793170{Y:184=N:1667;Y:185=N:0;}03B07300{Y:14=B:t;Y:183=N:0;Y:54=T:03A7BAE0;Y:186=B:t;Y:188=Y:187;}4718E8F8{Y:54=T:47186B80;Y:188=Y:187;Y:183=N:0;}46CCE078{Y:184=N:1669;Y:185=N:0;}4B25D530{T:4B25E0E8;T:4B25E098;}4B21E6B0{Y:184=N:1655;Y:185=N:0;}03A8F940{Y:192=V:1.03136,-17.7927,5.93379;Y:184=N:1645;Y:185=N:0;}03A93FC0{Y:184=N:1669;Y:185=N:0;}45E2B470{Y:184=N:1683;Y:185=N:0;}03B17460{Y:184=N:1700;Y:185=N:0;}03A88F40{T:03ADA340;T:03A68E40;}4B21E318{Y:184=N:1644;Y:185=N:0;}03A6CF00{T:03AA3080;T:03B17460;}03A7C0E0{Y:184=N:1669;Y:185=N:0;}03AB4EC0{Y:184=N:1669;Y:185=N:0;}46CCC318{T:46CCD740;T:46CCE078;}4B98D898{Y:184=N:1700;Y:185=N:0;}477982D8{T:47792978;T:4778F5C0;}03AA3080{Y:184=N:1692;Y:185=N:0;}49639178{Y:184=N:1426;Y:185=N:0;}03B04880{Y:184=N:1656;Y:185=N:0;}03AA7100{Y:184=N:1653;Y:185=N:0;}496387C8{Y:184=N:1645;Y:185=N:0;}4718B270{Y:184=N:1700;Y:185=N:0;}4B21E868{T:4B210E98;T:4B218BE8;}03A540C0{Y:184=N:1647;Y:185=N:0;}03A780A0{Y:192=V:23.7559,-53.382,-0.000714879;Y:184=N:1700;Y:185=N:0;}03AB6B60{T:03A540C0;T:03AA7100;}4963A4D8{T:496443C0;T:49637260;}4BB142F8{T:4BB0DA98;T:4BB17278;}496371C0{Y:192=V:-23.7564,-53.3803,-0.00314049;Y:184=N:1700;Y:185=N:0;}03A5A6A0{Y:184=N:1653;Y:185=N:0;}46D32718{T:46D2E4D8;T:46D2C868;}4B98D730{Y:14=B:t;Y:183=N:0;Y:54=T:4B9855F8;Y:186=B:t;Y:188=Y:187;}03A3E1C0{T:03A94D40;T:03A5A6A0;}03A8EFA0{Y:184=N:1653;Y:185=N:0;}4B98AAA8{T:4B987F88;T:4B986BD8;}4B25E098{Y:184=N:1669;Y:185=N:0;}4B2167F8{Y:184=N:1700;Y:185=N:0;}46D3A2B0{T:46D3ADF0;T:46D383C0;}4920AB18{Y:184=N:1669;Y:185=N:0;}4B21C108{Y:184=N:1644;Y:185=N:0;}49644CF8{Y:184=N:1700;Y:185=N:0;}4920A960{Y:184=N:1671;Y:185=N:0;}03B082E0{Y:184=N:1652;Y:185=N:0;}4920A8E8{T:4920A960;T:4920AB18;}4B990E80{T:4B986138;T:4B991BF0;}47798080{T:47793170;T:477948E0;}46D33398{T:46D37948;T:46D33D98;}03A3CCE0{T:03A86D40;T:03AC2760;}4963F578{Y:184=N:1645;Y:185=N:0;}03B06AC0{Y:14=B:t;Y:183=N:0;Y:54=T:03AB8320;Y:186=B:t;Y:188=Y:187;}49641DA0{Y:14=B:t;Y:183=N:0;Y:54=T:4963E150;Y:186=B:t;Y:188=Y:187;}4B218BE8{Y:184=N:1644;Y:185=N:0;}4B21F470{T:4B21F8F8;T:4B21D580;}46D38F00{Y:184=N:1672;Y:185=N:0;}46D3ABE8{Y:14=B:t;Y:183=N:0;Y:54=T:46D2DFB0;Y:186=B:t;Y:188=Y:187;}03A6F800{Y:14=B:t;Y:183=N:0;Y:54=T:03ACAA60;Y:186=B:t;Y:188=Y:187;}4B5F9090{Y:184=N:1667;Y:185=N:0;}03AD7580{Y:184=N:1670;Y:185=N:0;}4B98E860{Y:14=B:t;Y:183=N:0;Y:54=T:4B98FC60;Y:186=B:t;Y:188=Y:187;}47792978{Y:184=N:1667;Y:185=N:0;}4B978578{Y:54=T:4B97C560;Y:188=Y:187;Y:183=N:0;}4B991BF0{Y:184=N:1700;Y:185=N:0;}47186B80{T:47186540;T:4718B270;}49636A90{T:49644398;T:49644CF8;}03A4E260{Y:14=B:t;Y:183=N:0;Y:54=T:03AF6960;Y:186=B:t;Y:188=Y:187;}46D33D98{Y:184=N:1645;Y:185=N:0;}4B986138{Y:184=N:1654;Y:185=N:0;}4B212298{Y:184=N:1644;Y:185=N:0;}4B1F5EC0{Y:14=B:t;Y:183=N:0;Y:54=T:4BB142F8;Y:186=B:t;Y:188=Y:187;}4B21F8F8{Y:184=N:1658;Y:185=N:0;}4B21FBF0{T:4B21A768;T:4B21E318;}03ADA340{Y:184=N:1691;Y:185=N:0;}4B21D580{Y:184=N:1644;Y:185=N:0;}46230F10{Y:184=N:1678;Y:185=N:0;}46224418{Y:184=N:1661;Y:185=N:0;}4963E150{T:4963BCE8;T:49638138;}4718E628{T:46224418;T:46230F10;}03A68E40{Y:184=N:1669;Y:185=N:0;}03A94D40{Y:184=N:1675;Y:185=N:0;}4B21BDE8{Y:184=N:1682;Y:185=N:0;}4B21A498{T:4B213260;T:4B212298;}4B98A238{Y:184=N:1651;Y:185=N:0;}4B59F508{Y:184=N:1678;Y:185=N:0;}4B21A7E0{Y:14=B:t;Y:183=N:0;Y:54=T:4B210628;Y:186=B:t;Y:188=Y:187;}46D383C0{Y:184=N:1645;Y:185=N:0;}48C703D8{Y:14=B:t;Y:183=N:0;Y:54=T:48C74AC8;Y:186=B:t;Y:188=Y:187;}038CD560{Y:14=B:t;Y:183=N:0;Y:54=T:03AB6B60;Y:186=B:t;Y:188=Y:187;}4B987F88{Y:184=N:1665;Y:185=N:0;}4B25E0E8{Y:184=N:1699;Y:185=N:0;}4963A870{Y:184=N:654;Y:185=N:0;}45E25070{Y:184=N:1700;Y:185=N:0;}4B21AAB0{T:4B21F560;T:4B212AB8;}46D3B138{Y:184=N:1645;Y:185=N:0;}45E26A38{Y:14=B:t;Y:183=N:0;Y:54=T:45E2B2E0;Y:186=B:t;Y:188=Y:187;}4B9740B8{Y:184=N:1678;Y:185=N:0;}03AB8320{T:03A428A0;T:03AB37E0;}4B991538{T:4B990250;T:4B98A698;}4963DF98{T:49639178;T:4963F578;}47182008{T:4718EEC0;T:47182260;}4B985328{Y:184=N:1684;Y:185=N:0;}03A7BAE0{T:03A62180;T:03AC5B20;}46D2FCE8{Y:14=B:t;Y:183=N:0;Y:54=T:46D3A2B0;Y:186=B:t;Y:188=Y:187;}03B0CD20{Y:54=T:03B0DEA0;Y:188=Y:187;Y:186=B:t;Y:183=N:0;}49644820{T:4963A550;T:4963DC28;}03AF1DC0{Y:184=N:1669;Y:185=N:0;}4B212AB8{Y:184=N:1644;Y:185=N:0;}03ACE5A0{Y:14=B:t;Y:183=N:0;Y:54=T:03A6CF00;Y:186=B:t;Y:188=Y:187;}4B6F9888{Y:184=N:1664;Y:185=N:0;}4BB0DA98{Y:184=N:1696;Y:185=N:0;}4B5B5580{Y:14=B:t;Y:183=N:0;Y:54=T:4B7020F0;Y:186=B:t;Y:188=Y:187;}4B214250{T:4B209138;T:4B2004C0;}477AD740{Y:54=T:49636A90;Y:188=Y:187;Y:183=N:0;}4963DC28{Y:184=N:1644;Y:185=N:0;}492ADCC8{Y:184=N:1653;Y:185=N:0;}4B98D1E0{Y:14=B:t;Y:183=N:0;Y:54=T:4B991538;Y:186=B:t;Y:188=Y:187;}03A54100{Y:189=N:1;Y:14=N:0;Y:190=N:0;Y:191=V:23.7559,-53.382,-0.000714879;Y:183=N:0;Y:54=T:03A88CE0;Y:188=Y:193;Y:194=V:1.03136,-17.7927,5.93379;Y:195=V:2.03134,-17.7929,5.93379;}4963E420{Y:189=N:1;Y:14=N:0;Y:190=N:0;Y:191=V:-23.7564,-53.3803,-0.00314049;Y:183=N:0;Y:54=T:4963CF08;Y:188=Y:193;Y:194=V:1.03087,-17.7946,5.93077;Y:195=V:2.03085,-17.7945,5.93077;}4963BCE8{Y:184=N:1693;Y:185=N:0;}03AF6960{T:03B04880;T:03AC6960;}4B219480{Y:14=B:t;Y:183=N:0;Y:54=T:4B2115F0;Y:186=B:t;Y:188=Y:187;}4B7020F0{T:4B6F9888;T:4B702A28;}46D32D30{Y:184=N:1689;Y:185=N:0;}4B9890B8{Y:14=B:t;Y:183=N:0;Y:54=T:4B990E80;Y:186=B:t;Y:188=Y:187;}4B98FC60{T:4B98A238;T:4B98D898;}4B98B548{Y:184=N:1700;Y:185=N:0;}4B702A28{Y:184=N:1678;Y:185=N:0;}4B987AB0{Y:14=B:t;Y:183=N:0;Y:54=T:4B991E70;Y:186=B:t;Y:188=Y:187;}03A88CE0{T:03A8F940;T:03A780A0;}
[Dict]
1:"LocalAngle"
2:"LocalPos"
3:"Angle"
4:"Frozen"
5:"PhysicsObjects"
6:"key_bck"
7:"gmod_thruster"
8:"Class"
9:"Skin"
10:"toggle"
11:"force"
12:"sound"
13:"damageable"
14:"nocollide"
15:"fire"
16:"effect"
17:"models/props_phx2/garbage_metalcan001a.mdl"
18:"Model"
19:"arglist"
20:"gmod_wire_gyroscope"
21:"models/cheeze/wires/gyroscope.mdl"
22:"out180"
23:"models/cheeze/wires/cpu2.mdl"
24:"Hovercar Truster"
25:"WH = WHeigth"
26:"WPitch = 0"
27:"TF = RT + TP"
28:"TR = RT + -TP"
29:"Trust  = (((WH - Rang) * 5) - (DR * 7)) "
30:"PitchT = (((Pitch - WP) * 2) + (DP * 2))"
31:"Trust >= 0 -> RT = Trust + Ex;"
32:"Trust < 0 -> RT = 0 + Ex2;"
33:"TP = PitchT, PitchT < -30 -> TP = -30;"
34:"TP = PitchT, PitchT > 30 -> TP = 30;"
35:"Lock = 0, DP < -20 | DP > 20 -> Lock = 1;"
36:"Ex >= 0 -> Ex2 = Ex;"
37:"Ex < 0 -> Ex2 = 0;"
38:"Pitch Rang WHeigth WP DP DR Ex"
39:"TF TR RT Lock"
40:"GateName"
41:"gmod_wire_expression"
42:"GateLines"
43:"GateOutputs"
44:"GateInputs"
45:"Path"
46:"Pitch"
47:"SrcId"
48:"SrcPos"
49:"Color"
50:"arrowire/arrowire2"
51:"Material"
52:"StartPos"
53:"Width"
54:"Entity"
55:"Dist"
56:"Rang"
57:"WHeigth"
58:"Wires"
59:"WireDupeInfo"
60:"EntityMods"
61:"prop_physics"
62:"models/hunter/blocks/cube025x075x025.mdl"
63:"Mass"
64:"mass"
65:"Delta360"
66:"action"
67:"gmod_wire_gate"
68:"models/cheeze/wires/mini_cpu.mdl"
69:"noclip"
70:"ignore_world"
71:"show_beam"
72:"default_zero"
73:"range"
74:"CollisionGroupMod"
75:"out_hnrm"
76:"out_dist"
77:"out_ang"
78:"out_vel"
79:"out_val"
80:"out_sid"
81:"out_uid"
82:"trace_water"
83:"models/jaanus/wiretool/wiretool_range.mdl"
84:"out_col"
85:"gmod_wire_ranger"
86:"out_pos"
87:"out_eid"
88:"gmod_wire_latch"
89:"Activate"
90:"Lock"
91:"Bone2"
92:"Bone1"
93:"Ent2"
94:"Ent1"
95:"NoCollide"
96:"models/jaanus/wiretool/wiretool_siren.mdl"
97:"gmod_wire_value"
98:"value"
99:"Delta"
100:"gmod_wire_thruster"
101:"force_max"
102:"bidir"
103:"same"
104:"uweffect"
105:"force_min"
106:"uwater"
107:"owater"
108:"oweffect"
109:"gmod_wire_pod"
110:"Keys"
111:"Hovercar Roll Picth"
112:"LF = -RT + PT"
113:"LB = -RT + PT"
114:"RF = RT + -PT"
115:"RB = RT + -PT"
116:"RT = 0, Rang > 150 -> RT = ((Roll * 1) - (RD * 2))"
117:"PT = ((Pitch * 2) - (PD * 2));"
118:"Roll Pitch RD PD Rang"
119:"RF RB LF LB Rollt"
120:"Roll"
121:"models/hunter/plates/plate1x3.mdl"
122:"Value1"
123:"gmod_wire_indicator"
124:"models/debug/debugwhite"
125:"material"
126:"models/beer/wiremod/numpad.mdl"
127:"gmod_wire_input"
128:"value_off"
129:"keygroup"
130:"value_on"
131:"models/kobilica/wiremonitorsmall.mdl"
132:"Wanted Elevtion"
133:"Current"
134:"Floor"
135:"TextB"
136:"gmod_wire_screen"
137:"SingleValue"
138:"LeftAlign"
139:"TextA"
140:"SingleBigFont"
141:"accumulator"
142:"gmod_wire_speedometer"
143:"AngVel"
144:"models/jaanus/wiretool/wiretool_speed.mdl"
145:"z_only"
146:"RenderMode"
147:"RenderFX"
148:"colour"
149:"prop_vehicle_prisoner_pod"
150:"models/nova/airboat_seat.mdl"
151:"Seat_Airboat"
152:"Members"
153:"Airboat Seat"
154:"Name"
155:"Half-Life 2"
156:"Category"
157:"VALVe"
158:"Author"
159:"A Seat from VALVe's Airboat"
160:"Information"
161:"scripts/vehicles/prisoner_pod.txt"
162:"vehiclescript"
163:"limitview"
164:"KeyValues"
165:"VehicleTable"
166:"VehicleName"
167:"VehicleMemDupe"
168:"Speed"
169:"Hovercar Control"
170:"RF = 0"
171:"RB = 0"
172:"LF = 0"
173:"LB = 0"
174:"W == 1 -> RF = 20, LF = 20,RB = 20, LB = 20;"
175:"S == 1 -> RB = -20, RF = -20, LB = -20, LF = -20;"
176:"D == 1 -> LF = 20, LB = 20, RB = -20;"
177:"A == 1 -> RF = 20, LB = -20;"
178:"Acu = H + L"
179:"He = Acuin"
180:"W A S D H L Acuin"
181:"RF RB LF LB He Acu"
182:"Acuin"
183:"forcelimit"
184:"Index"
185:"Bone"
186:"deleteonbreak"
187:"Weld"
188:"Type"
189:"friction"
190:"torquelimit"
191:"LPos2"
192:"LPos"
193:"Axis"
194:"LPos1"
195:"LocalAxis"
Saved:2690
