@name HoloMan
@inputs 
@outputs 
@persist 
@trigger 
interval(10)

if (first()) {
    holoCreate(1)
    holoModel(1,"models/Kleiner.mdl")
    holoAng(1,ang(0,180,0))
    holoAnim(1,8)
    holoParent(1,entity())
    
    Prop = propSpawn("models/props_borealis/bluebarrel001.mdl",1)
    Prop:setPos(entity():toWorld(vec(0,0,40)))
    Prop:setColor(vec(),0)
}


