@name Minimap
@persist E:entity Players:array Props:array Attack1:array Beams:array PCount PropCount PC PropC PH PropH Find
@persist XN XP XLength XOff YN YP YLength YOff ZN ZP ZLength ZOff Max MapX MapY MapZ
@persist Safe
interval(100)

Scale = 500
timer("1",1)
timer("2",1)
timer("3",1) #if dont work delete this <- timer

if(first()) {
    holoDelete(1)
    E = entity()
    timer("map",100)
    
    #----------Map Scaling----------
    #FLATGRASS!
    #X
    XN = -15456
    XP = 12288
    XLength = XP + -XN
    XOff = (-XN - XP)*Scale*6/XLength
    #Y
    YN = -15360
    YP = 12096
    YLength = YP + -YN
    YOff = (-YN - YP)*Scale*6/YLength
    #Z
    ZN = -1
    ZP = 7167
    ZLength = ZP + -ZN
    ZOff = (-ZN - ZP)*Scale*6/ZLength

    Max = max(XLength,YLength,ZLength)

    MapX = XLength*Scale/Max
    MapY = YLength*Scale/Max
    MapZ = ZLength*Scale/Max
}
#----------Finding Players/Props----------
Find = Find%500+1
    if(Find == 250) {
        findClearBlackList()
        PCount = findByClass("Player")
        Players = findToArray()
    }
    if(Find == 500) {
        findClearBlackList()
        findExcludeModel("ZeikJT")
        PropCount = findByClass("prop_physics")
        Props = findToArray()
}

#----------Player Scaling----------
#Cycle Players
if(PCount) {
    PC = PC%PCount+1
    P = Players:entity(PC)
    PAng = P:angles()
}

#Player Size
PSize = P:boxSize()

PX = PSize:x()*Scale/Max
PY = PSize:y()*Scale/Max
PZ = PSize:z()*Scale/Max

#----------Prop Scaling----------
#Cycle Props
if(PropCount) {
    PropC = PropC%PropCount+1
    Prop = Props:entity(PropC)
    PropAng = Prop:angles()
    PropColor = Prop:getColor()
    PropMat = Prop:getMaterial()
}
#Prop Size
PropSize = Prop:boxSize()+1

PropX = PropSize:x()*Scale/Max
PropY = PropSize:y()*Scale/Max
PropZ = PropSize:z()*Scale/Max

#----------Hologram Creation/Deletion----------
#Map


timer("wait",100)
if(clk("wait")) {
#Players
    if(PH < PCount) {
        PH++
        holoCreate(PH)
        holoParent(PH,1337)
    }
    if(PH > PCount) {
        holoDelete(PH)
        PH--
    }
    #Props 
    if(PropH < PropCount) {
        PropH++
        holoCreate(PropH+500)
        holoParent(PropH+500,1337)
    }
    if(PropH > PropCount) {
        holoDelete(PropH+500)
        PropH--
    }
}


#----------Hologram Movement----------
#Map
holoPos(1337,E:massCenter() + vec(-XOff,-YOff,MapZ*6))
#Players
holoPos(PC,E:massCenter() + vec(0,0,PZ*6) + P:pos()*Scale*12/Max)
holoScale(PC,vec(PX/2,PY/2.5,PZ/4))
holoModel(PC,P:model())
holoAnim(PC,2)
holoAng(PC,PAng)
#Props 
holoPos(PropC+500,E:massCenter() + Prop:toWorld(Prop:boxCenter())*Scale*12/Max)
holoScale(PropC+500,vec(PropX,PropY,PropZ))
holoColor(PropC+500,PropColor)
holoAng(PropC+500,PropAng)
holoMaterial(PropC+500,PropMat)

#Prop Model Changer
if(Prop:model():find("sphere")|Prop:model():find("wheel")|Prop:model():find("tire")|Prop:model():find("shell")) {holoModel(PropC+500,"icosphere3")}
elseif(Prop:model():find("cone")) {holoModel(PropC+500,"cone")}
elseif((Prop:model():find("tube")&!Prop:model():find("metal"))|Prop:model():find("curve")|Prop:model():find("barrel")|Prop:model():find("drum")) {holoModel(PropC+500,"cylinder")}
elseif(Prop:model():find("triangle")) {holoModel(PropC+500,"prism")}
else{holoModel(PropC+500,"cube")}
