@name Googler Opener
@inputs Screen:wirelink
@outputs Door
@persist P:array Distance:array A:array Target:entity D Z
@trigger 
#MADE BY GOOGLE
#Do not give this to anyone!
runOnChat(1)
interval(100)
#Distance
D = 50
S = owner():lastSaid():explode(" ")
#After linking everything together, type !protect to prevent anyone from stealing my E2. :)
if(S[1,string]=="!protect" & chatClk(owner())) {
    entity():propNotSolid(1)
}
#Type !addplayer PLAYERNAME to add a player.
if(S[1,string]=="!addplayer" & chatClk(owner())){
    TP = findPlayerByName(S[2,string])
    hint("Player added successfully!",5)
    if(TP:isPlayer()){
        Target = TP
        P:pushEntity(TP)
           }
   
}
#Type !removeplayer PLAYERNAME to remove a player.
if(S[1,string]=="!removeplayer"& chatClk(owner())){
    hint("Player removed successfully!",5)
    TP = findPlayerByName(S[2,string])
    if(TP:isPlayer()){
        while(Z < 20){
        if(TP == P[Z,entity])
        {
        P:remove(Z)
        }
        Z++
}
}
Z = 0
}
    Black = vec(0,0,0)
    White = vec(255,255,255) 
    Grey = vec(180,180,180)
    DrkGry = vec(80,80,80)
    Red = vec(255,0,0)
    Green = vec(0,60,0)
    GrnYel = vec(0,100,0)
    Blue = vec(0,0,255)
    Yellow = vec(255,255,0)
    Magenta = vec(255,0,255)
    Cyan = vec(0,255,255)
    Orange = vec(255,180,0)    

if(first()){
    Screen:egpClear()
}

    Screen:egpDrawTopLeft(1)
    Screen:egpBox(1,vec2(0,0),vec2(512,512))
    Screen:egpColor(1,Black)
    
    Screen:egpDrawTopLeft(2)
    Screen:egpBoxOutline(2,vec2(0,0),vec2(512,512))
    Screen:egpColor(2,Black)
    Screen:egpSize(2,10)
    
    Screen:egpDrawTopLeft(3)
    Screen:egpBox(3,vec2(10,10),vec2(492,120))
    Screen:egpColor(3,White)
    Screen:egpSize(3,30)
    
    Screen:egpDrawTopLeft(4)
    Screen:egpLine(4,vec2(10,130),vec2(502,130))
    Screen:egpColor(4,Black)
    Screen:egpSize(4,10)
    
    Screen:egpDrawTopLeft(5)
    Screen:egpTriangle(5,vec2(30,100),vec2(125,100),vec2(75,20))
    
    Screen:egpDrawTopLeft(6)
    Screen:egpText(6, "Members", vec2(142,40))
    Screen:egpColor(6,Black)
    Screen:egpSize(6,50)
    Screen:egpFont(6,"Trebuchet")
    
    Screen:egpDrawTopLeft(7)
    Screen:egpText(7,">",vec2(62,14))
    Screen:egpColor(7,Black)
    Screen:egpSize(7,96)
    
Distance1 = round(((entity():pos() - P[1,entity]:pos()):length()))
Distance2 = round(((entity():pos() - P[2,entity]:pos()):length()))
Distance3 = round(((entity():pos() - P[3,entity]:pos()):length()))
Distance4 = round(((entity():pos() - P[4,entity]:pos()):length()))
Distance5 = round(((entity():pos() - P[5,entity]:pos()):length()))
Distance6 = round(((entity():pos() - P[6,entity]:pos()):length()))
Distance7 = round(((entity():pos() - P[7,entity]:pos()):length()))
Distance8 = round(((entity():pos() - P[8,entity]:pos()):length()))
Distance9 = round(((entity():pos() - P[9,entity]:pos()):length()))
Distance10 = round(((entity():pos() - P[10,entity]:pos()):length()))
Distance11 = round(((entity():pos() - P[11,entity]:pos()):length()))
Distance12 = round(((entity():pos() - P[12,entity]:pos()):length()))
Distance13 = round(((entity():pos() - P[13,entity]:pos()):length()))
Distance14 = round(((entity():pos() - P[14,entity]:pos()):length()))
Distance15 = round(((entity():pos() - P[15,entity]:pos()):length()))  
Distance16 = round(((entity():pos() - P[16,entity]:pos()):length()))
Distance17 = round(((entity():pos() - P[17,entity]:pos()):length()))
Distance18 = round(((entity():pos() - P[18,entity]:pos()):length()))
Distance19 = round(((entity():pos() - P[19,entity]:pos()):length()))
Distance20 = round(((entity():pos() - P[20,entity]:pos()):length()))
Screen:egpText(8,"1) " + P[1,entity]:name(),vec2(30,140))
Screen:egpText(9,"2) " + P[2,entity]:name(),vec2(30,170))
Screen:egpText(10,"3) " + P[3,entity]:name(),vec2(30,200))
Screen:egpText(11,"4) " + P[4,entity]:name(),vec2(30,230))
Screen:egpText(12,"5) " + P[5,entity]:name(),vec2(30,270))
Screen:egpText(13,"6) " + P[6,entity]:name(),vec2(30,300))
Screen:egpText(14,"7) " + P[7,entity]:name(),vec2(30,330))
Screen:egpText(15,"8) " + P[8,entity]:name(),vec2(30,360))
Screen:egpText(16,"9) " + P[9,entity]:name(),vec2(30,390))
Screen:egpText(17,"10) " + P[10,entity]:name(),vec2(30,420))
Screen:egpText(28,"",vec2(80,430))
Screen:egpText(29,"",vec2(70,450))
Screen:egpText(30,"Commands: !addplayer !removeplayer",vec2(55,455))
Screen:egpText(31,"Made by Google",vec2(5,495) )
Screen:egpFont(8,"ariel",25)
Screen:egpFont(9,"ariel",25)
Screen:egpFont(10,"ariel",25)
Screen:egpFont(11,"ariel",25)
Screen:egpFont(12,"ariel",25)
Screen:egpFont(13,"ariel",25)
Screen:egpFont(14,"ariel",25)
Screen:egpFont(15,"ariel",25)
Screen:egpFont(16,"ariel",25)
Screen:egpFont(17,"ariel",25)
Screen:egpFont(18,"ariel",25)
Screen:egpFont(19,"ariel",25)
Screen:egpFont(20,"ariel",25)
Screen:egpFont(21,"ariel",25)
Screen:egpFont(22,"ariel",25)
Screen:egpFont(23,"ariel",25)
Screen:egpFont(24,"ariel",25)
Screen:egpFont(25,"ariel",25)
Screen:egpFont(26,"ariel",25)
Screen:egpFont(27,"ariel",25)
Screen:egpFont(28,"ariel",25)
Screen:egpFont(29,"ariel",25)
Screen:egpFont(30,"ariel",25)
Screen:egpFont(31,"ariel",15)
Door = 0
if(Distance1<D){Door = 1
}elseif(Distance2<D){Door = 1
}elseif(Distance3<D){Door = 1
}elseif(Distance4<D){Door = 1
}elseif(Distance5<D){Door = 1
}elseif(Distance6<D){Door = 1
}elseif(Distance7<D){Door = 1
}elseif(Distance8<D){Door = 1
}elseif(Distance9<D){Door = 1
}elseif(Distance10<D){Door = 1
}elseif(Distance11<D){Door = 1
}elseif(Distance12<D){Door = 1
}elseif(Distance13<D){Door = 1
}elseif(Distance14<D){Door = 1
}elseif(Distance15<D){Door = 1
}elseif(Distance16<D){Door = 1
}elseif(Distance17<D){Door = 1
}elseif(Distance18<D){Door = 1
}elseif(Distance19<D){Door = 1
}elseif(Distance20<D){Door = 1
}
#MADE BY GOOGLE
