@name FailCake Bombing V1
@inputs Pos:vector FaceDir:vector BodyDir:vector Scale
@outputs 
@persist StillCount CR2 Timer BaseIndex Arm_AnimSeq Arm_AnimActions:array Arm_AnimActionIndex Arm_AnimTickCount Leg_AnimSeq Leg_AnimActions:array Leg_AnimActionIndex Leg_AnimTickCount AnimLeftLeg:angle AnimRightLeg:angle AnimLeftArm:angle AnimRightArm:angle Seq_Legs_Run:array Seq_Arms_Run:array Seq_Arms_LClick:array Seq_Arms_RClick:array IHead IBody ILeftArm IRightArm ILeftLeg IRightLeg ArmAng:angle LastPos:vector LeftArmEndPos:vector RightArmEndPos:vector ICylinder1 IBullet1 Bullet1State Bullet1Pos:vector Bullet1Target:vector Bullet1Tick
@trigger all
Offset = 0
Scale = 0.7

##PROTECTION SISTEM MUAHAHAHAH##

if(duped()){selfDestructAll()
print("FUCK YOU COPYCAT")

}
if(duped()){selfDestructAll()
print("FUCK YOU COPYCAT")
}

OPP=Timer
Timer=Timer+1*1
CR = 669
I = 666
P = 667

holoEntity(IBullet1):setTrails(5,5,5,"trails/laser",vec(250,0,0),200)
    holoCreate(I)
    holoModel(I,"torus")
    holoPos(I,owner():aimPos())
    holoCreate(P)
    holoColor(P,vec(0,0,0))
    holoModel(P,"icosphere3")
    holoPos(P,owner():aimPos())
    holoScale(P,vec(0.5,0.5,0.5))
    holoScale(I,vec(1,1,1))
    holoAng(I,ang(0,OPP,0))
    

if( first() | duped() )
{
       holoColor(I,vec(0,150,0))
    
    # Initialize
    runOnTick(1)
    # Initialize the animation sequence data
    AnimSeqIndex = 0
    AnimSeq = 0
    
    
    if( Pos == vec() | FaceDir == vec() | BodyDir == vec() )
    {
        # Use the player's position if no position or no angle
        # was specified.
        Pos = entity():owner():pos() + entity():owner():forward()*100
    }
    if( Scale == 0 ) { Scale = 1 }
    
    # Make the owner invisible
    #cylinder special effect
    ICylinder1 = BaseIndex+6
    holoCreate(ICylinder1)
    holoModel(ICylinder1,"cylinder")
    #bullet special effect
    IBullet1 = BaseIndex+7
    holoCreate(IBullet1)
    holoModel(IBullet1,"icosphere3")
    
    #ACTION1# Auto-aim right hand at target
    Seq_Arms_LClick:setNumber(0,800 ) # Do this animation for 800 ticks
    Seq_Arms_LClick:setNumber(1, 5 ) # Draw transparent cylinder from right hand
    Seq_Arms_LClick:setNumber(2, 1 ) # Auto-aim right hand
    Seq_Arms_LClick:setAngle(3,ang(0,0,0))
    Seq_Arms_LClick:setAngle(4,ang(0,0,0))
    # It will automatically loop back to ACTION1
    
    
    
    ######### RIGHT-CLICK HOLD-DOWN SEQUENCE ####
    ###### This fires a ball at the target
    ###### while making a large explosion on
    ###### impact. (holographic impact, it doesn't
    ###### do any real damage of course!
    
    #ACTION1# Auto-aim right hand at target
    Seq_Arms_RClick:setNumber(0,1 ) # Do this animation for 800 ticks
    Seq_Arms_RClick:setNumber(1, 1 ) # Fire sphere from right hand
    Seq_Arms_RClick:setNumber(2, 1 ) # Auto-aim right hand
    Seq_Arms_RClick:setAngle(3,ang(0,0,0))
    Seq_Arms_RClick:setAngle(4,ang(0,0,0))
    

    # It will automatically loop back to ACTION1
    
    print("FailCake Bombing V1 loading...")
    exit()
}

if( tickClk() )
{   
    # Set the input variables if they were not specified
    if( Pos == vec() | FaceDir == vec() | BodyDir == vec() )
    {
        # Use the player's position if no position or no angle
        # was specified.
        Pos = entity():pos() + entity():forward()*Offset
        
    
        if(LastPos == Pos)
        {
            StillCount++
            if(StillCount > 3)
            {
                if( Arm_AnimSeq == 1 )
                { Arm_AnimSeq = 0 }
                holoScale(ICylinder1,vec(0,0,0))
                Leg_AnimSeq = 0
                StillCount = 0
            }
        }else{
            StillCount = 0
        }
    }
    
    # Left-Click Animation
    if( entity():owner():keyAttack1() & Arm_AnimSeq != 2 )
    {
        # Begin the aim sequence
        Arm_AnimSeq = 2 # index 1 is for walking
        Arm_AnimTickCount = 0
        Arm_AnimActionIndex = 0
        Arm_AnimActions = Seq_Arms_LClick # Set the run sequence to the current sequence
        
        # Play the beam engage sound
        entity():owner():soundPlay(3,1000,"weapons/357/357_spin1.wav")
        entity():owner():soundPlay(4,0,"weapons/physcannon/hold_loop.wav")
        
    }elseif( (Arm_AnimSeq == 2) & (entity():owner():keyAttack1()!=1) & Leg_AnimSeq == 1 )
    {
        # Play the walk arm animation
        Arm_AnimSeq = 1 # index 1 is for walking
        Arm_AnimTickCount = 0
        Arm_AnimActionIndex = 0
        Arm_AnimActions = Seq_Arms_Run # Set the run sequence to the current sequence
        soundStop(4)
    
    }elseif( (Arm_AnimSeq == 2) & (entity():owner():keyAttack1()!=1) )
    {
    }
    
    # Right-Click Animation
    if( entity():owner():keyAttack2() & Arm_AnimSeq != 3 )
    {
        # Begin the fire sphere sequence
        Arm_AnimSeq = 3
        Arm_AnimTickCount = 0
        Arm_AnimActionIndex = 0
        Arm_AnimActions = Seq_Arms_RClick
     # Set the run sequence to the current sequence
    
}elseif( (Arm_AnimSeq == 3) & (entity():owner():keyAttack2()!=1) & Leg_AnimSeq == 1 )
    {
    }elseif( (Arm_AnimSeq == 3) & (entity():owner():keyAttack2()!=1) )
    {
        # Play no arm animation sequence
      
    }
    

        Leg_AnimTickCount = Leg_AnimTickCount + 1
    }else{
    }
    
        # Read in the aim specifier variable
        AimSpecifier = Arm_AnimActions:number(Arm_AnimActionIndex*5+2)
        if( AimSpecifier == 0 )
        {
            # No auto-aim
            AnimLeftArm = AnimLeftArm + Arm_AnimActions:angle(Arm_AnimActionIndex*5+3)
            AnimRightArm = AnimRightArm + Arm_AnimActions:angle(Arm_AnimActionIndex*5+4):setYaw(-Arm_AnimActions:angle(Arm_AnimActionIndex*5+4):yaw())
        }elseif( AimSpecifier == 1 )
        {
            # No auto-aim for left hand
            AnimLeftArm = AnimLeftArm + Arm_AnimActions:angle(Arm_AnimActionIndex*5+3)
            # Auto-aim right hand
            Direction = owner():aimPos() - RightArmEndPos
            AnimRightArm = ang(45,90,0) + (Direction:toAngle() - BodyDir:toAngle()):setPitch(-(Direction:toAngle() - BodyDir:toAngle()):pitch())
        }
        
        # Perform the special drawing actions
        Special = Arm_AnimActions:number(Arm_AnimActionIndex*5+1)
        if( Special == 5 )
        {
            holoColor(I,vec(0,150,0))
        }else{
            holoScale(ICylinder1,vec(0,0,0))
    }
        if( Special == 1 )
        {
            if(Bullet1State == 0)
            {
                
                # Launch a new bullet
                Bullet1Pos = RightArmEndPos
                Bullet1Target = owner():aimPos()
                holoPos(IBullet1,Bullet1Pos)
                holoColor(I,vec(250,0,0))
                holoScale(IBullet1,vec(5*Scale,5*Scale,5*Scale))
                holoColor(IBullet1,vec(0,0,0)) #Red
                Bullet1State = 1
                # Play the fire sound: weapons/mortar/mortar_fire1.wav
                entity():owner():soundPlay(1,1000,"weapons/mortar/mortar_fire1.wav")
            }
        }
        
        

    #### Process the bullet fire
    if( Bullet1State == 1 )
    {
        # Bullet is in travelling state
        Speed = 30
        Direction = Bullet1Target - Bullet1Pos
        CR=+2
        holoCreate(CR)
        # Check to see if we hit the target
        if( Direction:length() < 15 )
        {
            
            # We hit the target, BOOM!
            Bullet1State = 2
            Bullet1Tick = 1
            #holoPos(IBullet1,Bullet1Target)
            holoColor(IBullet1,vec(255,255,0)) #Yellow
            holoScale(IBullet1,vec((1+Bullet1Tick)*Scale,(1+Bullet1Tick)*Scale,(1+Bullet1Tick)*Scale))
            
            # Play the explode sound on the nearest entity to the explosion
            findInSphere(Bullet1Target,5000)
            ExplodeSound = findClosest(Bullet1Target)
            if( ExplodeSound )
            {
                ExplodeSound:soundPlay(2,1000,"weapons/explode5.wav")
                soundVolume(2,1000)
            }
        }else{
            # Move it towards it's target
            Bullet1Pos = Bullet1Pos + Direction:normalized()*Speed
            holoPos(IBullet1,Bullet1Pos)
        }
    }elseif( Bullet1State == 2 )
    {
        # Explosion state
        holoScale(IBullet1,vec((1+Bullet1Tick*2)*Scale,(1+Bullet1Tick*2)*Scale,(1+Bullet1Tick*2)*Scale))
        if( mod(Bullet1Tick,2) == 0 )
        {
            holoColor(IBullet1,vec(250,100,0)) #Yellow
        }else{
            holoColor(IBullet1,vec(255,0,0)) #Red
        }
        
        if( Bullet1Tick > 100 )
        {
            # Explosion done
            holoScale(IBullet1,vec(0,0,0))
            Bullet1State = 0
            
        }
            
            CR = CR2
            CR2++
            holoCreate(CR2)
            holoModel(CR2,"icosphere2")
            holoScale(CR2,vec(20,20,3))
            holoMaterial(CR2,"models/props_debris/concretefloor020a")
            holoColor(CR2,vec(250,250,250))
            soundPlay(2,1000,"weapons/explode5.wav")
            soundVolume(2,1000)
            holoPos(CR2,Bullet1Target)
    
        Bullet1Tick = Bullet1Tick +1
    
        
    }


if (owner():lastSaid() == "hide") {
    entity():setAlpha(0)
}
if (owner():lastSaid() == "show") {
    entity():setAlpha(255)
}

if (owner():lastSaid() == "#clear") {
holoDelete(CR2)
holoDelete(CR)}
##PROTECTION SISTEM MUAHAHAHAH##

if(duped()){selfDestructAll()}
if(duped()){selfDestructAll()}
if(duped()){selfDestructAll()}
if(duped()){selfDestructAll()}
if(duped()){selfDestructAll()}
if(duped()){selfDestructAll()}

##INVISIBLE !##

entity():setColor(0,0,0,0)
