@name egpMaterials
@inputs EGP:wirelink
@outputs X Y Idx Materials:array
@persist 
@trigger 

interval(1)

EGP=entity():isWeldedTo():wirelink()

if(first()){
    EGP:egpClear()
    
    X=1
    Y=1
    Idx=1
    
    #Materials = 
    
    
    }

if(Idx<100){
EGP:egpBox(Idx, vec2(-5+X*40,Y*40),vec2(40,40))
EGP:egpColor(Idx,hsv2rgb(vec((Idx*4)%360,1,1)))

Idx++
X++
if(X==13){Y++ X=1}
}
