@name Annoying PlayerFinder 
@inputs  
@outputs  
@persist Player:entity 
@trigger  

interval(1)
runOnChat(1) 

if(first()){ 
holoCreate(1) 
} 

S = owner():lastSaid():explode(" ") 

if(S:string(1)=="!hide"){
    hideChat(S:string(2):toNumber())
}


if (S:string(1)=="/t"){ 
TempPlayer = findPlayerByName(S:string(2)) 
if (TempPlayer:isPlayer()){ 
Player = TempPlayer
} 
} 

holoCreate(1) 
holoModel(1,"cube") 
holoScale(1,vec(-10,-10,-10)) 
holoColor(1,vec(250,250,250)) 
holoAng(1,ang(0,360,0)) 
holoPos(1, Player:pos() + vec(0,0,Player:height()))
holoMaterial(1,"matsys_regressiontest/background")   
holoEntity(1):soundPlay(999,999,"misc/happy_birthday_tf_02.wav")  


if (duped()) {selfDestruct()}  
