@name Chat
@inputs 
@outputs Door
@persist 
@trigger 

   runOnChat(1)
A = owner():lastSaid():explode(" ")
    if(A[1,string]=="!open"& chatClk(owner())) {
        hideChat(1)
     Door = 1
hint("Opened",7)
print("Opened")
}

if(A[1,string]=="!close"& chatClk(owner())) {
        hideChat(1)
     Door = 0
hint("Closed",7)
print("Closed")
}

hint("!cmds for more info",5)

if(A[1,string]=="!guit1"& chatClk(owner())) {
        hideChat(1)
 soundPlay(1,100,"ambient/guit1.wav")
}

if(A[1,string]=="!opera"& chatClk(owner())) {
hideChat(1)
soundPlay(2,100,"ambient/opera.wav")
}


if(A[1,string]=="!cmds"& chatClk(owner())) {
hideChat(1)
hint("!open",10)
hint("!close",10)
hint("!stop",10)
hint("!guit1",10)
hint("!opera",10)
hint("!cmds",10)
hint("!beams",10)
}

if(A[1,string]=="!stop"& chatClk(owner())) {
        hideChat(1)
 soundStop(1)
soundStop(2)
soundStop(3)
}

if(A[1,string]=="!beams"& chatClk(owner())) { 
hideChat(1)
soundPlay(3,100,"beams/beamstart5.wav")
}
