@name Gunz
@inputs E:wirelink SA1 SA2 SA3 SA4 SA5 SA6 SA7 SA8
@outputs 
@persist Page U:entity CUR:entity
@trigger 

interval(1000)

Amount = SA1+SA2+SA3+SA4+SA5+SA6+SA7+SA8


Cur=E:egpCursor(U)
  if(findCanQuery())
{
    findByClass("player")
    U = findClosest(entity():pos())
}









#Page 1



E:egpBox(1,vec2(10,10),vec2(1000,1000))
E:egpColor(1,vec(230,1,226))

E:egpText(2,"ASIXX GUNS SHOP LIM.",vec2(150,10))
E:egpColor(2,vec(25,25,25))
E:egpFont(2,"Arial",20) E:egpColor(2,vec(27,255,15))
E:egpLine(3,vec2(1,30),vec2(520,30)) E:egpSize(3,3.5)
E:egpColor(3,vec(256,256,256))


E:egpText(4,"Hello: "+U:name(),vec2(10,40)) E:egpSize(4,25)
E:egpColor(4,vec(0,255,255))

E:egpText(5,", Welcome to Asixx Guns Shop.",vec2(260,45))
E:egpText(6,"We strive for excellence as you buy our guns, so it is required to go",vec2(3,60))
E:egpText(7,"through this process.",vec2(180,80)) 
E:egpColor(5,vec(256,256,256))
E:egpColor(6,vec(256,256,256))
E:egpColor(7,vec(256,256,256))

E:egpLine(8,vec2(1,100),vec2(520,100)) E:egpSize(8,3.5) E:egpColor(8,vec(256,256,256))
E:egpLine(9,vec2(1,150),vec2(520,150)) E:egpSize(9,2.5) E:egpColor(9,vec(256,256,256))
E:egpLine(10,vec2(1,190),vec2(520,190)) E:egpSize(10,2.5) E:egpColor(10,vec(256,256,256))
E:egpLine(11,vec2(1,230),vec2(520,230)) E:egpSize(11,2.5) E:egpColor(11,vec(256,256,256))
E:egpLine(12,vec2(1,270),vec2(520,270)) E:egpSize(12,2.5) E:egpColor(12,vec(256,256,256))
E:egpLine(13,vec2(1,310),vec2(520,310)) E:egpSize(13,2.5) E:egpColor(13,vec(256,256,256))
E:egpLine(14,vec2(1,350),vec2(520,350)) E:egpSize(14,2.5) E:egpColor(14,vec(256,256,256))
E:egpLine(15,vec2(1,390),vec2(520,390)) E:egpSize(15,2.5) E:egpColor(15,vec(256,256,256))
E:egpLine(16,vec2(1,430),vec2(520,430)) E:egpSize(16,2.5) E:egpColor(16,vec(256,256,256))
E:egpLine(17,vec2(1,470),vec2(520,470)) E:egpSize(17,3.5) E:egpColor(17,vec(256,256,256))
E:egpLine(18,vec2(250,510),vec2(250,100)) E:egpColor(18,vec(256,256,256)) E:egpSize(18,2.5)
E:egpLine(19,vec2(120,470),vec2(120,100)) E:egpColor(19,vec(256,256,256)) E:egpSize(19,2.5)
E:egpLine(20,vec2(420,510),vec2(420,470)) E:egpColor(20,vec(256,256,256)) E:egpSize(20,3.5)


E:egpText(21,"ITEM:",vec2(20,110)) E:egpColor(21,vec(256,256,256)) E:egpSize(21,25)
E:egpText(22,"PRICE:",vec2(140,110)) E:egpColor(22,vec(256,256,256)) E:egpSize(22,25)
E:egpText(23,"PURCHASE:",vec2(300,110)) E:egpColor(23,vec(256,256,256)) E:egpSize(23,25)
E:egpText(24,"CASH: $"+Amount,vec2(255,480)) E:egpColor(24,vec(256,256,256)) E:egpSize(24,30)
