@name Sphere
@persist Timer
interval(10)
Me=owner()
Chip=entity()
Timer=Timer+1*1
T=Timer

if(first()) {holoCreate(1)}

holoModel(1,"sphere")
holoPos(1,Chip:pos()+vec(0,0,25))
holoAng(1,ang(0,T,0))
holoColor(1,vec4(0,255,0,200))
holoScale(1, vec(2,2,1))

