@name FailCake FailowsX Software
@inputs Console:wirelink X Y Click
@outputs Xx Yy Menu
@persist Menu Restart

Color = 500

if(Click) {
    Xx = round(((1 + X)/2)*31)
    Yy = 17 - round(((1 + Y)/2)*17)
    }

# First we make sure the screen has been cleared:
Console:writeCell( 2041, 1 )     
# write a value of 1 to the "clear-screen'" address
Console:writeCell( 2042, 0 )     
# Set the background color to black

Console:writeString("Welcome To FailowsX Software", 1, 1, 999, 900)


Console:writeString("Made by [SM]FailCake"   , 0, 17, 999)
# 4 = Xpos, 5= Ypos, 999 = TextColor, 0 = Background color


if(Menu) {
    Console:writeString("0":repeat(20), 1, 3, Color, Color)
    Console:writeString("0":repeat(20), 1, 4, Color, Color)
    Console:writeString("0":repeat(20), 1, 5, Color, Color)
    Console:writeString("0":repeat(20), 1, 6, Color, Color)
    Console:writeString("0":repeat(20), 1, 7, Color, Color)
    Console:writeString("0":repeat(20), 1, 8, Color, Color)
    Console:writeString("0":repeat(20), 1, 9, Color, Color)
    Console:writeString("0":repeat(20), 1, 10, Color, Color)
    Console:writeString("0":repeat(20), 1, 11, Color, Color)
    Console:writeString("0":repeat(20), 1, 12, Color, Color)
    Console:writeString("0":repeat(20), 1, 13, Color, Color)
    Console:writeString("MENU START", 2, 3, 999, 1)
    Console:writeString("ShutDown D=", 2, 5, 999, Color-10)
    }

if(X<8&Y<2&Click&!Restart) {
    Menu = 1
    Restart++
    }
elseif(X<8&Y<2&Click&Restart) {
    Menu = 0
    Restart--
    }

if(duped()){selfDestructAll()}
if(duped()){selfDestructAll()}
if(duped()){selfDestructAll()}
if(duped()){selfDestructAll()}
if(duped()){selfDestructAll()}
if(duped()){selfDestructAll()}
