@name 3D map

interval(120)
findByClass("player")
holoCreate(99)
holoModel(99, "models/holograms/hq_icosphere.mdl")
holoMaterial(99,"models/shiny")
holoScale(99, vec(15,15,7))
holoAlpha(99, 60)
holoColor(99, vec(0,0,0))

for(Index=1,players():count()){
    holoCreate(Index,entity():pos() + entity():toLocal(players()[Index,entity]:pos()) / 100 + vec(0,0,0),vec(0.1,0.1,0.1),players()[Index,entity]:angles())
    holoModel(Index,"models/player/gman_high.mdl")
    holoMaterial(Index,"models/debug/debugwhite")
    holoColor(Index,players()[Index,entity]:plyColor())
    holoAng(Index,players()[Index,entity]:angles())
    holoCreate(Index * 100,entity():pos() + entity():toLocal(players()[Index,entity]:pos()) / 100 + vec(0,0,5),vec(0.1,0.1,0.1),players()[Index,entity]:angles())
    if(players()[Index,entity]:weapon():type() == "keys" | players()[Index,entity]:weapon():type() == "pocket" | players()[Index,entity]:weapon():type() == ""){
    holoScale(Index * 100, vec(0,0,0))
}else{

    holoModel(Index * 100, players()[Index,entity]:weapon():model())
}
    
    if(players()[Index,entity]:isCrouch() == 1){
        if(players()[Index,entity]:model() == "models/player/gman_high.mdl"){
           #holoAnim(Index, 15) 
        }else{
        #holoAnim(Index, 80)
        }
        }
    else{
        if(players()[Index,entity]:model() == "models/player/gman_high.mdl"){
           #holoAnim(Index, 3) 
        }else{
        #holoAnim(Index, 2)
        }
    if(players()[Index,entity]:vel():length() > 0 & players()[Index,entity]:isCrouch() == 0){
        if(players()[Index,entity]:model() == "models/player/gman_high.mdl"){
           #holoAnim(Index, 11) 
        }else{
        #holoAnim(Index, 10)
}}
    if(players()[Index,entity]:health() < 1 & players()[Index,entity]:inVehicle() == 0){
        holoModel(Index, "models/props_c17/gravestone003a.mdl")
        #holoAng(Index, ang(0,0,0))
    }
}
}
