@name 
@inputs 
@outputs Color:vector
@persist 
@trigger 

interval(10)
A=random(1,0)
B=random(1,0)
if(round(A)==1)
{BLU=255
RED=0
GREEN=0}
else
{if(round(B)==1)
{RED=255
BLU=255
GREEN=255
}else{RED=255
BLU=0
GREEN=0}}


Color=vec(RED,GREEN,BLU)

