@name Lazar Pointer
@inputs Vector:vector
@outputs 
@persist 

if(first()==1)
{holoCreate(1)
holoModel(1,"hq_icosphere")
holoColor(1,vec(255,0,0))
holoScale(1,vec(0.75,0.75,0.75))
}


interval(10)

holoPos(1,Vector+vec(0,0,0))

