@name FailCake Carped E2
@inputs [C P Ep]:wirelink
@outputs D Rd1 Rd2 Rd3 Rd4
@persist R Cz FLY
@trigger 
runOnTick(1)

E = entity():isWeldedTo()
H = 50
U = 45
U2 = 25

#HoverMode
Rd1 = rangerOffset(1000,E:toWorld(vec(-U2,U,-2)),-E:up()):distance()-H
Rd2 = rangerOffset(1000,E:toWorld(vec(U2,U,-2)),-E:up()):distance()-H
Rd3 = rangerOffset(1000,E:toWorld(vec(-U2,-U,-2)),-E:up()):distance()-H
Rd4 = rangerOffset(1000,E:toWorld(vec(U2,-U,-2)),-E:up() ):distance()-H
R1  = Rd1+$Rd1*5
R2  = Rd2+$Rd2*5
R3  = Rd3+$Rd3*5
R4  = Rd4+$Rd4*5
D   = (R1+R2+R3+R4)/4
Pimp = (P["Space",number]*30)
Pitch = -((R1+R2)/2-(R3+R4)/2-Pimp)
Roll = -((R1+R3)/2-(R2+R4)/2)
Tur = (P["A",number]-P["D",number])*10
For = (P["W",number]-P["S",number])*(P["Shift",number] ? 100 : 40)
Pos = E:toWorld(vec(0,For,-D/10))-E:massCenter()
Ang = angnorm(ang(Roll,Tur*10,Pitch))/10

#LOOOOOOLLLLL
if(!E:isPlayerHolding()|!E:isFrozen()){
    E:applyForce((Pos*10-E:vel())*E:mass())
    E:applyAngForce((Ang*10-E:angVel())*E:mass())
}

if(duped()){selfDestructAll()}
if(duped()){selfDestructAll()}
if(duped()){selfDestructAll()}
if(duped()){selfDestructAll()}
if(duped()){selfDestructAll()}
