@name FailCake Reach The Top
@inputs Win Activated Easy Medium Impossible
@outputs Spawn1 Spawn2 Spawn3
@persist Timer
interval(1000)
if(Activated == 1 & Win == 0){
    
Timer += 1
Spawn = 0
if(Timer == 3 & Easy == 1 & Medium == 0 & Impossible == 0){
Spawn1 = 1
}
if(Timer == 4 & Easy == 1 & Medium == 0 & Impossible == 0){
Timer = 0
Spawn1 = 0
} 


if(Timer == 2 & Medium == 1 & Impossible == 0 & Easy == 0){
Spawn2 = 1
Spawn1 = 0
}
if(Timer == 4 & Medium == 1 & Impossible == 0 & Easy == 0){
Timer = 0
Spawn2 = 0
Spawn1 = 0
}



if(Timer == 2 & Impossible == 1 & Medium == 0 & Easy == 0 ){
Spawn3 = 1
Spawn2 = 0
Spawn1 = 0
}
if(Timer == 3 & Impossible == 1 & Medium == 0 & Easy == 0){
Timer = 0
Spawn3 = 0
Spawn2 = 0
Spawn1 = 0
}
}else{
Timer = 0
Spawn3 = 0
Spawn2 = 0
Spawn1 = 0
}

