@name FailCake Slot Machine
@inputs Money
@outputs Price R R2 R3 Start Run Stop
@persist 
@trigger all
runOnTick(1)

if(first()){
E = entity()
Start = 0
Stop = 0
Money = 100    
}

### SETTINGS ###
Price = 100
### SETTINGS ###

if(Money == Price){
Stop = 0    
}

if(Money == Price | Start == 1){
Start = 1

if(Stop == 0){
R = randint(1,2)
R2 = randint(1,2) 
R3 = randint(1,2)   
}
timer("clk",2000)

if(clk("clk")){
Stop = 1 

}
}

if(Start){
if(R == R2 == R3){
E:soundPlay(100,100,"items/spawn_item.wav")   
}
}
