@name Police Ligths
@inputs Active
@outputs Ligth1 Ligth2
@persist Timer
@trigger 
interval(10)
if(Active == 1){
Timer+=1

if(Timer == 1){Ligth1 = 100 Ligth2 = 0}
if(Timer == 3){Ligth1 = 0 Ligth2 = 100}
if(Timer >= 5){Timer = 0}
}else{
Timer = 0
Ligth1 = 0
Ligth2 = 0
}
