@name SirRobin E2
@inputs Ply:entity
@outputs Start Player:entity A:array
@persist T
@trigger all

if(first()){
    
    findByClass("player")
    A=findToArray() 
    Start = 0 

}

runOnTick(1)
E = entity()

for(I=1,A:count()){
if(A[I,entity]:keyUse() & A[I,entity]:aimEntity()==entity() & Start == 0 & A[I,entity]:pos():distance(entity():pos())<= 70)
{
Player = A[I,entity]
Start = 1
T = 0
}
}

if(Start){
T+=0.1
if(T == 1){
E:soundPlay(1000,1000,"npc/fast_zombie/car_scream1.wav")   
Start =0
}
}
