[Info]
Type:AdvDupe File
Creator:"^9 нadeѕ ѕυтυĸ [†Â‡"
Date:04/16/10
Description:"none"
Entities:26
Constraints:123
[More Information]
FileVersion:0.84
AdvDupeVersion:1.85
AdvDupeToolVersion:1.9
AdvDupeSharedVersion:1.72
SerialiserVersion:1.4
WireVersion:2092
Time:04:48 PM
Head:211
HoldAngle:0,92.8061,0
HoldPos:115.41,0.337686,12.9434
StartPos:3850.2,1516.91,-168.969
[Save]
Entities:03DC1F60{Y:13=T:03F24268;Y:20=N:0;Y:21=N:0;}03F24268{S:"a"=N:0;S:"b"=N:255;S:"g"=N:0;S:"r"=N:216;}03F51D58{N:0=T:03F1E3B8;}03F559A8{Y:18=T:03F6C9F0;}03EB2348{N:0=T:03DC9E90;}03F32BB0{Y:18=T:03F28200;}03F3C2C8{Y:22=T:03F4B1B0;Y:62=T:03F26900;}03EC12D0{S:"a"=N:0;S:"b"=N:255;S:"g"=N:0;S:"r"=N:216;}03EEA8D8{;}03F3A950{N:0=T:03EE6C38;}03F67428{Y:1=A:2.6973,-66.2654,359.987;Y:2=V:-0.312744,54.1907,164.464;Y:3=B:f;}03F2C1C0{Y:25=B:t;Y:4=T:03F23138;Y:8=N:0;Y:6=Y:46;Y:47=N:10;Y:1=A:0.2412,-90.0032,-0.0552673;Y:48=N:13;Y:49=N:12;Y:2=V:-1.12549,101.533,115.772;Y:30=Y:50;Y:51=N:10;Y:23=T:03F6DAA8;Y:52=N:0;}03DC07A0{S:"A"=T:03E9C3E0;}03F468B8{N:0=T:03DC1DD0;}03F552F0{Y:13=T:03EDB130;Y:20=N:0;Y:21=N:0;}03F35CE8{N:0=T:03F2E6C8;}03F6FA10{Y:22=T:03ECBD98;}03F69188{Y:13=T:03EA9928;Y:20=N:0;Y:21=N:0;}03EE7610{Y:18=T:03EC8EE0;}03F2D818{S:"A"=T:03F134E0;}03F72F08{S:"a"=N:0;S:"b"=N:255;S:"g"=N:0;S:"r"=N:216;}03F68648{Y:4=T:03E5DB68;Y:1=A:2.6973,-66.2654,-0.0126343;Y:2=V:-0.312744,54.1907,164.464;Y:30=Y:65;Y:23=T:03F4E928;Y:6=Y:66;Y:8=N:0;}03F66690{;}03F1E3B8{Y:1=A:31.1587,-92.2883,359.933;Y:2=V:-1.24268,11.5088,91.0415;Y:3=B:f;}03F72EB8{Y:13=T:03F72F08;Y:20=N:0;Y:21=N:0;}03F57CD0{S:"a"=N:0;S:"b"=N:255;S:"g"=N:0;S:"r"=N:216;}03DBC830{Y:13=T:03F36B70;Y:20=N:0;Y:21=N:0;}03F12978{S:"a"=N:255;S:"b"=N:135;S:"g"=N:133;S:"r"=N:134;}03F53270{S:"a"=N:255;S:"b"=N:38;S:"g"=N:38;S:"r"=N:221;}03F0EFD0{;}03F50430{N:0=T:03DC1470;}03EE9758{N:0=T:03E99D98;}03F5D4F0{Y:13=T:03F12978;Y:20=N:0;Y:21=N:0;}03F3E0A0{S:"a"=N:255;S:"b"=N:255;S:"g"=N:255;S:"r"=N:255;}03EC1460{Y:19=T:03EB46E8;Y:22=T:03EFEA40;}03F6C9F0{S:"A"=T:03F51E20;}03F54670{Y:22=T:03F5D4F0;Y:62=T:03F3A978;}03E9DDF8{;}03F31260{Y:1=A:-0.23438,89.9975,180.047;Y:2=V:-1.13721,54.147,116.047;Y:3=B:f;}03EE4B18{Y:1=A:42.5028,-51.6278,-179.816;Y:6=Y:53;Y:54=N:10000;Y:55=B:t;Y:2=V:-22.0337,79.7091,81.525;Y:8=N:0;Y:23=T:03EC1460;Y:4=T:03EB2348;Y:30=Y:57;}03F5CAA0{Y:1=A:48.0316,-137.513,179.646;Y:6=Y:53;Y:54=N:10000;Y:55=B:t;Y:2=V:25.4846,77.2374,83.812;Y:8=N:0;Y:23=T:03ED3FC0;Y:4=T:03F35CE8;Y:30=Y:57;}03DD5718{S:"A"=T:03EA9BF8;}03EED1F0{Y:43=T:03D94650;}03F2E1A0{Y:30=Y:58;Y:1=A:-0.23438,89.9975,-179.953;Y:2=V:-1.13721,54.147,116.047;Y:8=N:0;Y:4=T:03F74CE0;Y:6=Y:59;Y:23=T:03F54670;}03F0B808{Y:1=A:0.27636,-90.0019,359.952;Y:2=V:-48.6687,54.1127,115.634;Y:3=B:f;}03DBDE88{Y:18=T:03F66848;}03F68DF0{S:"a"=N:0;S:"b"=N:255;S:"g"=N:0;S:"r"=N:216;}03EFB700{Y:13=T:03F68DF0;Y:20=N:0;Y:21=N:0;}03F69BD8{S:"a"=N:255;S:"b"=N:255;S:"g"=N:255;S:"r"=N:255;}03F6B190{Y:1=A:-0.0652194,179.998,359.74;Y:2=V:0.0842285,59.0861,94.2645;Y:3=B:f;}03F16500{N:0=T:03F0B808;}03F6A290{Y:25=B:t;Y:4=T:03F16500;Y:8=N:0;Y:6=Y:46;Y:47=N:10;Y:1=A:0.27636,-90.0019,-0.0475159;Y:48=N:13;Y:49=N:12;Y:2=V:-48.6687,54.1127,115.634;Y:30=Y:50;Y:51=N:10;Y:23=T:03F0BBF0;Y:52=N:0;}03EEA388{Y:13=T:03F57CD0;Y:20=N:0;Y:21=N:0;}03F6EEF8{S:"a"=N:0;S:"b"=N:255;S:"g"=N:0;S:"r"=N:216;}03F1E340{;}03DCC708{N:0=T:03EEE168;}03F6EED0{Y:13=T:03F6EEF8;Y:20=N:0;Y:21=N:0;}03F68260{Y:78=Y:77;Y:79=S:"0";}03F6AD30{;}03F16398{;}03F59A80{N:0=T:03F632B0;}03D88288{Y:13=T:03F53540;Y:20=N:0;Y:21=N:0;}03DC9F30{Y:10=T:03F16398;S:"Src"=N:281;Y:11=S:"A";Y:12=V:-3.64327,1.46891,1.50727;Y:13=T:03F2BF40;Y:15=Y:14;Y:16=V:-1.2575,1.20215,-1.05566;Y:17=N:0;}03F50ED0{Y:43=T:03F683F0;}03EB5A98{Y:18=T:03DD5718;}03E51840{Y:30=Y:58;Y:1=A:0.240757,89.2137,0.154415;Y:2=V:-0.463623,54.1589,116.638;Y:8=N:0;Y:4=T:03DC2118;Y:6=Y:59;Y:23=T:03F3C2C8;}03F2E600{Y:1=A:0.2412,-90.0032,359.945;Y:2=V:-1.12549,101.533,115.772;Y:3=B:f;}03EB46E8{Y:18=T:03F353D8;}03EBEBC0{S:"a"=N:255;S:"b"=N:255;S:"g"=N:255;S:"r"=N:255;}03F13F80{N:0=T:03DC44B8;}03F683F0{Y:10=T:03DC8BD0;S:"Src"=N:281;Y:11=Y:42;Y:12=V:-0.642942,-2.40456,2.14119;Y:13=T:03EBEBE8;Y:15=Y:14;Y:16=V:3.89371,0.277658,1.59541;Y:17=N:0;}03F6EE80{Y:19=T:03F6EF20;Y:22=T:03F6EED0;}03DBF4B8{Y:13=T:03F76EF0;Y:20=N:0;Y:21=N:0;}03EDB090{Y:1=A:30.9175,2.416,0.325601;Y:2=V:41.5762,54.3309,91.1812;Y:3=B:f;}03F26900{Y:61=Y:60;}03F47C68{;}03F62220{Y:19=T:03EE7610;Y:22=T:03F69188;}03F063A8{N:0=T:03F6B190;}03F6DE90{S:"a"=N:0;S:"b"=N:255;S:"g"=N:0;S:"r"=N:216;}03F49810{Y:19=T:03F0E800;Y:22=T:03F49428;}03ED6F90{S:"a"=N:255;S:"b"=N:135;S:"g"=N:133;S:"r"=N:134;}03F6DC10{Y:4=T:03F3A450;Y:6=Y:5;Y:7=N:10000;Y:8=N:0;Y:9=B:t;Y:23=T:03F6EE80;Y:24=B:f;Y:25=B:t;Y:27=Y:26;Y:28=N:0;Y:1=A:89.9133,-95.7411,-95.7438;Y:2=V:4.52466,174.484,114.615;Y:30=Y:29;Y:31=N:10000;Y:32=B:t;Y:33=B:t;Y:35=Y:34;}03F5DB80{Y:1=A:47.7036,47.4915,-179.668;Y:6=Y:53;Y:54=N:10000;Y:55=B:t;Y:2=V:-25.0603,27.7034,84.2857;Y:8=N:0;Y:23=T:03F0C618;Y:4=T:03F2CF58;Y:30=Y:57;}03EF1AE8{Y:4=T:03EE9758;Y:6=Y:5;Y:7=N:10000;Y:8=N:0;Y:9=B:t;Y:23=T:03EE71B0;Y:24=B:f;Y:25=B:t;Y:27=Y:26;Y:28=N:0;Y:1=A:89.9136,-87.5365,92.4608;Y:2=V:-5.91455,174.485,114.634;Y:30=Y:29;Y:31=N:10000;Y:32=B:t;Y:33=B:t;Y:35=Y:34;}03D91450{Y:1=A:47.6806,146.021,179.694;Y:6=Y:53;Y:54=N:10000;Y:55=B:t;Y:2=V:28.3687,34.6106,83.9895;Y:8=N:0;Y:23=T:03F69CA0;Y:4=T:03F50430;Y:30=Y:57;}03F678D8{Y:13=T:03EA2F88;Y:20=N:0;Y:21=N:0;}03F6EC50{;}03E5DB68{N:0=T:03F67428;}03D00C20{Y:1=A:89.9133,-95.7411,264.256;Y:2=V:4.52466,174.484,114.615;Y:3=B:f;}03DC3040{Y:4=T:03F13F80;Y:6=Y:5;Y:7=N:10000;Y:8=N:0;Y:9=B:t;Y:23=T:03F5DEA0;Y:24=B:f;Y:25=B:t;Y:27=Y:26;Y:28=N:0;Y:1=A:89.8594,-86.2063,-86.2094;Y:2=V:4.53784,-61.7574,115.076;Y:30=Y:29;Y:31=N:10000;Y:32=B:t;Y:33=B:t;Y:35=Y:34;}03EC6460{;}03ED3DE0{S:"A"=T:03DC9F30;}03F54760{Y:10=T:03E9DDF8;S:"Src"=N:281;Y:11=Y:56;Y:12=V:0.907669,-0.134499,2.53164;Y:13=T:03EBEBC0;Y:15=Y:14;Y:16=V:-1.44771,2.83042,4.78426;Y:17=N:0;}03F23138{N:0=T:03F2E600;}03F4E928{Y:19=T:03EE69B8;Y:22=T:03EB0700;}03DC44B8{Y:1=A:89.8594,-86.2063,273.791;Y:2=V:4.53784,-61.7574,115.076;Y:3=B:f;}03F6EF20{Y:18=T:03ED3DE0;}03DD4F20{Y:61=Y:60;}03F0C618{Y:19=T:03DBDE88;Y:22=T:03F06A10;}03F04508{Y:89=T:03F6AD30;Y:62=T:03DD4F20;Y:22=T:03F552F0;}03EE43C0{Y:10=T:03F0EFD0;S:"Src"=N:281;Y:11=S:"A";Y:12=V:2.52939,0.418407,2.10648;Y:13=T:03EBF110;Y:15=Y:14;Y:16=V:-1.67434,-0.57666,-0.0732421;Y:17=N:0;}03F28200{S:"A"=T:03F27B48;}03EBEBE8{S:"a"=N:255;S:"b"=N:255;S:"g"=N:255;S:"r"=N:255;}03F2BF40{S:"a"=N:255;S:"b"=N:255;S:"g"=N:255;S:"r"=N:255;}03D85100{Y:4=T:03EC2A40;Y:6=Y:5;Y:7=N:10000;Y:8=N:0;Y:9=B:t;Y:23=T:03F1B190;Y:24=B:f;Y:25=B:t;Y:27=Y:26;Y:28=N:0;Y:1=A:89.8712,-86.2188,93.778;Y:2=V:-5.90137,-61.7583,115.086;Y:30=Y:29;Y:31=N:10000;Y:32=B:t;Y:33=B:t;Y:35=Y:34;}03F59F58{Y:13=T:03F1CBF8;Y:20=N:0;Y:21=N:0;}03EFEDB0{;}03F016F0{S:"a"=N:255;S:"b"=N:255;S:"g"=N:255;S:"r"=N:255;}03F36C38{Y:73=Y:72;Y:74=T:03EFEDB0;Y:76=Y:75;Y:80=T:03F68260;Y:6=Y:71;Y:82=Y:81;Y:84=Y:83;Y:30=Y:85;}03EE4488{S:"a"=N:255;S:"b"=N:255;S:"g"=N:255;S:"r"=N:255;}03F0BBF0{Y:22=T:03EFB700;}03F68DA0{Y:4=T:03F063A8;Y:6=Y:71;Y:86=T:03F36C38;Y:88=Y:87;Y:2=V:0.0842285,59.0861,94.2645;Y:30=Y:85;Y:23=T:03F04508;Y:1=A:-0.0652194,179.998,-0.259583;Y:8=N:0;}03EA9BF8{Y:10=T:03E9E0A0;S:"Src"=N:281;Y:11=Y:56;Y:12=V:2.59711,2.25313,1.71712;Y:13=T:03DE0870;Y:15=Y:14;Y:16=V:-2.24612,-2.09682,5.34116;Y:17=N:0;}03F20118{Y:1=A:-0.00766274,0.00354573,359.899;Y:2=V:-0.689941,56.3643,113.298;Y:3=B:f;}03EC2A40{N:0=T:03EF8B68;}03F3A978{Y:61=Y:60;}03F75E10{Y:64=N:20;Y:22=T:03DBC830;}03DD9B38{Y:1=A:0.201858,-90.0018,359.95;Y:2=V:-1.60425,15.8136,138.64;Y:3=B:f;}03E55940{S:"a"=N:0;S:"b"=N:255;S:"g"=N:0;S:"r"=N:216;}03EE69B8{S:"pod"=N:208;Y:18=T:03F66690;}03F1F308{N:0=T:03DD9B38;}03F62E00{Y:4=T:03F1F308;Y:1=A:0.201858,-90.0018,-0.0497742;Y:2=V:-1.60425,15.8136,138.64;Y:30=Y:69;Y:23=T:03F75E10;Y:6=Y:70;Y:8=N:0;}03DD9728{S:"a"=N:0;S:"b"=N:255;S:"g"=N:0;S:"r"=N:216;}03F5D608{N:0=T:03F6B550;}03DC9E90{Y:1=A:42.5028,-51.6278,180.184;Y:2=V:-22.0337,79.7091,81.525;Y:3=B:f;}03EF1DB8{S:"a"=N:255;S:"b"=N:255;S:"g"=N:255;S:"r"=N:255;}03F02690{Y:64=N:20;Y:22=T:03F07168;}03F6AF60{S:"A"=T:03EF00A8;}03F3AA18{Y:13=T:03EF7998;Y:20=N:0;Y:21=N:0;}03F72F30{Y:18=T:03F50ED0;}03DC8BD0{;}03F0F8E0{S:"a"=N:255;S:"b"=N:255;S:"g"=N:255;S:"r"=N:255;}03F36D78{;}03EF5440{Y:10=T:03F36D78;S:"Src"=N:281;Y:11=Y:42;Y:12=V:0.582666,1.36579,2.46747;Y:13=T:03F69BD8;Y:15=Y:14;Y:16=V:7.2103,1.76124,2.79711;Y:17=N:0;}03F06A10{Y:13=T:03F03EC8;Y:20=N:0;Y:21=N:0;}03EA5DF0{Y:43=T:03EF5440;}03EE7F98{Y:36=N:1;Y:4=T:03F51D58;Y:25=B:t;Y:38=Y:37;Y:6=Y:39;Y:40=N:0;Y:24=S:"0";Y:31=N:100;Y:1=A:31.1587,-92.2883,-0.0673828;Y:2=V:-1.24268,11.5088,91.0415;Y:8=N:0;Y:30=Y:41;Y:23=T:03F62220;Y:44=N:0.050000000745058;Y:45=N:100;}03F69C28{N:0=T:03EDB090;}03F560D8{Y:36=N:1;Y:4=T:03F69C28;Y:25=B:t;Y:38=Y:37;Y:6=Y:39;Y:40=N:0;Y:24=S:"0";Y:31=N:100;Y:1=A:30.9175,2.416,0.325601;Y:2=V:41.5762,54.3309,91.1812;Y:8=N:0;Y:30=Y:41;Y:23=T:03F49810;Y:44=N:0.050000000745058;Y:45=N:100;}03F27B48{Y:10=T:03EC6460;S:"Src"=N:281;Y:11=S:"D";Y:12=V:-0.228919,0.631195,2.56073;Y:13=T:03EF1DB8;Y:15=Y:14;Y:16=V:-1.67434,0.520019,1.19238;Y:17=N:0;}03F64340{Y:25=B:t;Y:4=T:03F0EAA8;Y:8=N:0;Y:6=Y:46;Y:47=N:10;Y:1=A:0.191455,-90.0022,-0.0498962;Y:48=N:13;Y:49=N:12;Y:2=V:-0.0605469,-2.49939,115.463;Y:30=Y:50;Y:51=N:10;Y:23=T:03F6FA10;Y:52=N:0;}03DD0010{Y:10=T:03F1E340;S:"Src"=N:281;Y:11=Y:56;Y:12=V:0.113752,-0.89337,2.53332;Y:13=T:03EC4D68;Y:15=Y:14;Y:16=V:-2.58086,-2.16163,4.14622;Y:17=N:0;}03F2D048{S:"a"=N:0;S:"b"=N:255;S:"g"=N:0;S:"r"=N:216;}03EC67F8{Y:64=N:20;}03F598F0{S:"a"=N:0;S:"b"=N:255;S:"g"=N:0;S:"r"=N:216;}03EE71B0{Y:19=T:03F559A8;Y:22=T:03F3AA18;}03F03F18{Y:19=T:03EE2660;Y:22=T:03EEBE40;}03EEBE40{Y:13=T:03F2D048;Y:20=N:0;Y:21=N:0;}03E99D98{Y:1=A:89.9136,-87.5365,92.4608;Y:2=V:-5.91455,174.485,114.634;Y:3=B:f;}03E9C3E0{Y:10=T:03F47C68;S:"Src"=N:281;Y:11=S:"W";Y:12=V:-0.898114,-0.0696573,2.53307;Y:13=T:03DCEC88;Y:15=Y:14;Y:16=V:-1.67435,0.845703,0.371582;Y:17=N:0;}03EE2660{Y:18=T:03DC07A0;}03EF00A8{Y:10=T:03EEA8D8;S:"Src"=N:281;Y:11=S:"S";Y:12=V:1.95821,0.795515,2.28987;Y:13=T:03EE4488;Y:15=Y:14;Y:16=V:0.282433,1.76172,2.03174;Y:17=N:0;}03EF79C0{Y:1=A:89.9152,-95.692,174.305;Y:2=V:-0.706299,178.712,114.626;Y:3=B:f;}03ED5C30{Y:25=B:t;Y:4=T:03EF7380;Y:8=N:0;Y:6=Y:46;Y:47=N:10;Y:1=A:0.269112,-89.9989,-0.071167;Y:48=N:13;Y:49=N:12;Y:2=V:46.2759,54.1732,115.49;Y:30=Y:50;Y:51=N:10;Y:23=T:03F419F8;Y:52=N:0;}03F01BC8{Y:4=T:03F5A278;Y:6=Y:5;Y:7=N:10000;Y:8=N:0;Y:9=B:t;Y:23=T:03F03F18;Y:24=B:f;Y:25=B:t;Y:27=Y:26;Y:28=N:0;Y:1=A:89.9152,-95.692,174.305;Y:2=V:-0.706299,178.712,114.626;Y:30=Y:29;Y:31=N:10000;Y:32=B:t;Y:33=B:t;Y:35=Y:34;}03EC8EE0{Y:43=T:03F36008;}03EE73B8{Y:1=A:0.240757,89.2137,0.154415;Y:2=V:-0.463623,54.1589,116.638;Y:3=B:f;}03F76EF0{S:"a"=N:0;S:"b"=N:255;S:"g"=N:0;S:"r"=N:216;}03F6DAA8{Y:22=T:03F678D8;}03EAB4A8{;}03F49428{Y:13=T:03DD9728;Y:20=N:0;Y:21=N:0;}03F626F8{Y:30=Y:68;Y:1=A:89.6714,-118.435,-27.6479;Y:2=V:0.155273,13.5287,115.343;Y:8=N:0;Y:4=T:03F468B8;Y:6=Y:59;Y:23=T:03ED6DD8;}03F150B0{S:"a"=N:0;S:"b"=N:255;S:"g"=N:0;S:"r"=N:216;}03EE7B60{Y:61=S:"";}03F74CE0{N:0=T:03F31260;}03EFEA40{Y:13=T:03E55940;Y:20=N:0;Y:21=N:0;}03F07168{Y:13=T:03F150B0;Y:20=N:0;Y:21=N:0;}03F59008{Y:18=T:03EED1F0;}03F40AA8{Y:19=T:03F59008;Y:22=T:03DBF4B8;}03EE6C38{Y:1=A:30.5987,92.2701,0.0417761;Y:2=V:-1.24536,97.0024,91.4431;Y:3=B:f;}03F299E8{Y:36=N:1;Y:4=T:03F3A950;Y:25=B:t;Y:38=Y:37;Y:6=Y:39;Y:40=N:0;Y:24=S:"0";Y:31=N:100;Y:1=A:30.5987,92.2701,0.0417761;Y:2=V:-1.24536,97.0024,91.4431;Y:8=N:0;Y:30=Y:41;Y:23=T:03F40AA8;Y:44=N:0.050000000745058;Y:45=N:100;}03F1CBF8{S:"a"=N:0;S:"b"=N:255;S:"g"=N:0;S:"r"=N:216;}03F4B1B0{Y:13=T:03F53270;Y:20=N:0;Y:21=N:0;}03F03EC8{S:"a"=N:0;S:"b"=N:255;S:"g"=N:0;S:"r"=N:216;}03F419F8{Y:22=T:03F59F58;}03DD1988{Y:1=A:0.269112,-89.9989,359.929;Y:2=V:46.2759,54.1732,115.49;Y:3=B:f;}03F632B0{Y:1=A:-0.219128,89.9984,0.0504768;Y:2=V:1.16748,33.5345,104.601;Y:3=B:f;}03EF7380{N:0=T:03DD1988;}03F5A278{N:0=T:03EF79C0;}03EA9928{S:"a"=N:0;S:"b"=N:255;S:"g"=N:0;S:"r"=N:216;}03F36008{Y:10=T:03F6EC50;S:"Src"=N:281;Y:11=Y:42;Y:12=V:-0.335106,0.321636,2.58469;Y:13=T:03F0F8E0;Y:15=Y:14;Y:16=V:5.39748,0.59596,3.1744;Y:17=N:0;}03F3A450{N:0=T:03D00C20;}03F0E800{Y:18=T:03EA5DF0;}03DC7898{Y:4=T:03F5D608;Y:6=Y:5;Y:7=N:10000;Y:8=N:0;Y:9=B:t;Y:23=T:03F10FB0;Y:24=B:f;Y:25=B:t;Y:27=Y:26;Y:28=N:0;Y:1=A:89.8775,-86.7974,3.19856;Y:2=V:-0.640625,-65.9813,115.079;Y:30=Y:29;Y:31=N:10000;Y:32=B:t;Y:33=B:t;Y:35=Y:34;}03ECB5F0{N:0=T:03F20118;}03EDB130{S:"a"=N:255;S:"b"=N:255;S:"g"=N:0;S:"r"=N:216;}03F6B0A0{Y:18=T:03F6AF60;}03DC2118{N:0=T:03EE73B8;}03DC1DD0{Y:1=A:89.6714,-118.435,332.352;Y:2=V:0.155273,13.5287,115.343;Y:3=B:f;}03F24308{;}03F36B70{S:"a"=N:0;S:"b"=N:255;S:"g"=N:0;S:"r"=N:216;}03EC9E80{Y:1=A:0.191455,-90.0022,359.95;Y:2=V:-0.0605469,-2.49939,115.463;Y:3=B:f;}03F62E78{S:"A"=T:03EE43C0;}03D91770{Y:13=T:03ED6F90;Y:20=N:0;Y:21=N:0;}03F353D8{S:"A"=T:03F54760;}03EBF110{S:"a"=N:255;S:"b"=N:255;S:"g"=N:255;S:"r"=N:255;}03F39910{S:"a"=N:0;S:"b"=N:255;S:"g"=N:0;S:"r"=N:216;}03DCFAE8{Y:30=Y:67;Y:1=A:-0.00766274,0.00354573,-0.100677;Y:2=V:-0.689941,56.3643,113.298;Y:8=N:0;Y:4=T:03ECB5F0;Y:6=Y:59;Y:23=T:03F02690;}03F409E0{Y:36=N:1;Y:4=T:03DCC708;Y:25=B:t;Y:38=Y:37;Y:6=Y:39;Y:40=N:0;Y:24=S:"0";Y:31=N:100;Y:1=A:30.8424,-177.921,-0.325714;Y:2=V:-43.9189,54.1685,91.3045;Y:8=N:0;Y:30=Y:41;Y:23=T:03F6F2E0;Y:44=N:0.050000000745058;Y:45=N:100;}03EF7998{S:"a"=N:0;S:"b"=N:255;S:"g"=N:0;S:"r"=N:216;}03F10B28{S:"a"=N:255;S:"b"=N:255;S:"g"=N:255;S:"r"=N:255;}03E9E0A0{;}03F0BA88{Y:13=T:03EC12D0;Y:20=N:0;Y:21=N:0;}03EEE168{Y:1=A:30.8424,-177.921,359.674;Y:2=V:-43.9189,54.1685,91.3045;Y:3=B:f;}03ED6DD8{Y:64=N:20;Y:62=T:03EE7B60;Y:22=T:03D91770;}03EE19E0{Y:18=T:03F2D818;}03F2CF58{N:0=T:03D902D0;}03ED3FC0{Y:19=T:03EE19E0;Y:22=T:03EEA388;}03F0EAA8{N:0=T:03EC9E80;}03F1B190{Y:19=T:03D93D40;Y:22=T:03F47E98;}03F47E98{Y:13=T:03F39910;Y:20=N:0;Y:21=N:0;}03F53540{S:"a"=N:0;S:"b"=N:255;S:"g"=N:0;S:"r"=N:216;}03EC4D68{S:"a"=N:255;S:"b"=N:255;S:"g"=N:255;S:"r"=N:255;}03F10FB0{Y:19=T:03F6B0A0;Y:22=T:03D88288;}03D902D0{Y:1=A:47.7036,47.4915,180.332;Y:2=V:-25.0603,27.7034,84.2857;Y:3=B:f;}03DCEC88{S:"a"=N:255;S:"b"=N:255;S:"g"=N:255;S:"r"=N:255;}03F6F2E0{Y:19=T:03F72F30;Y:22=T:03F72EB8;}03F5DEA0{Y:19=T:03F32BB0;Y:22=T:03F0BA88;}03F51E20{Y:10=T:03D5A270;S:"Src"=N:281;Y:11=S:"D";Y:12=V:0.321796,-1.01992,2.51391;Y:13=T:03F3E0A0;Y:15=Y:14;Y:16=V:-1.67435,0.227539,0.000976626;Y:17=N:0;}03EA2F88{S:"a"=N:0;S:"b"=N:255;S:"g"=N:0;S:"r"=N:216;}03D5A270{;}03F6B550{Y:1=A:89.8775,-86.7974,3.19856;Y:2=V:-0.640625,-65.9813,115.079;Y:3=B:f;}03F134E0{Y:10=T:03F24308;S:"Src"=N:281;Y:11=Y:56;Y:12=V:-0.786174,3.11041,1.80961;Y:13=T:03F10B28;Y:15=Y:14;Y:16=V:-2.83935,-0.382144,6.0002;Y:17=N:0;}H03F1F7E0{N:301=T:03DC7898;N:286=T:03DC3040;N:712=T:03F409E0;N:279=T:03F64340;N:287=T:03D85100;N:667=T:03EE4B18;N:714=T:03F5DB80;N:206=T:03E51840;N:210=T:03ED4DD0;N:716=T:03D91450;N:281=T:03F68648;N:289=T:03EF1AE8;N:715=T:03F5CAA0;N:282=T:03DCFAE8;N:211=T:03F626F8;N:713=T:03EE7F98;N:275=T:03ED5C30;N:666=T:03F299E8;N:291=T:03F01BC8;N:711=T:03F560D8;N:204=T:03F62E00;N:208=T:03F68DA0;N:276=T:03F2C1C0;N:290=T:03F6DC10;N:277=T:03F6A290;N:209=T:03F2E1A0;}03F66848{S:"A"=T:03DD0010;}03DE0870{S:"a"=N:255;S:"b"=N:255;S:"g"=N:255;S:"r"=N:255;}03ECBD98{Y:13=T:03F6DE90;Y:20=N:0;Y:21=N:0;}03ED4DD0{Y:30=Y:63;Y:1=A:-0.219128,89.9984,0.0504768;Y:2=V:1.16748,33.5345,104.601;Y:8=N:0;Y:4=T:03F59A80;Y:6=Y:59;Y:23=T:03EC67F8;}03F69CA0{Y:19=T:03EB5A98;Y:22=T:03DC1F60;}03EB0700{Y:13=T:03F598F0;Y:20=N:0;Y:21=N:0;}03D93D40{Y:18=T:03F62E78;}03F2E6C8{Y:1=A:48.0316,-137.513,179.646;Y:2=V:25.4846,77.2374,83.812;Y:3=B:f;}03DC1470{Y:1=A:47.6806,146.021,179.694;Y:2=V:28.3687,34.6106,83.9895;Y:3=B:f;}03EF8B68{Y:1=A:89.8712,-86.2188,93.778;Y:2=V:-5.90137,-61.7583,115.086;Y:3=B:f;}03D94650{Y:10=T:03EAB4A8;S:"Src"=N:281;Y:11=Y:42;Y:12=V:-2.0269,0.270291,2.29699;Y:13=T:03F016F0;Y:15=Y:14;Y:16=V:6.98273,1.78594,2.84354;Y:17=N:0;}
Constraints:03DCA318{T:03ECA948;T:03EE0A68;}03F6CC48{T:03DBE1D0;T:03DF6A58;}03F3A810{T:03F0E030;T:03D944E8;}03DBD8E8{Y:90=N:289;Y:91=N:0;}03F3A428{T:03F568F8;T:03F3DD08;}03F5F6D8{Y:92=T:03F676F8;Y:94=Y:93;}03EF2330{T:03F532E8;T:03F6AA10;}03E67028{T:03EA9D88;T:03DBD7D0;}03D7CF50{Y:90=N:209;Y:91=N:0;}03EB2758{Y:90=N:301;Y:91=N:0;}03EFFFA8{Y:25=B:t;Y:96=N:0;Y:92=T:03EDA118;Y:97=B:t;Y:94=Y:95;}03F18440{Y:90=N:279;Y:91=N:0;}03ED5668{Y:90=N:209;Y:91=N:0;}03F5E490{Y:90=N:282;Y:91=N:0;}03F4AF58{Y:92=T:03F5A480;Y:94=Y:95;Y:96=N:0;}03ED41C8{T:03F0E260;T:03F41700;}03F5BE48{Y:90=N:206;Y:91=N:0;}03ECFBC8{Y:90=N:281;Y:91=N:0;}03EF5968{Y:90=N:282;Y:91=N:0;}03F6F6A0{T:03E5BCF0;T:03F2C4E0;}03E5BCF0{Y:90=N:289;Y:91=N:0;}03F5B010{Y:90=N:208;Y:91=N:0;}03F66CD0{Y:90=N:209;Y:91=N:0;}03ED6D10{Y:90=N:209;Y:91=N:0;}03EE9D98{T:03E5F620;T:03F38E98;}H03F216A8{T:03F6E368;T:03EB6CE0;T:03D42C88;T:03DBD4D8;T:03EFC830;T:03DDD198;T:03F2BA90;T:03DBEB08;T:03EC6D98;T:03F2FA78;T:03F37660;T:03F660C8;T:03F55250;T:03F674A0;T:03DE0B68;T:03F28700;T:03F3A068;T:03DBB0E8;T:03F03928;T:03DBEE78;T:03F5A688;T:03DCBA38;T:03E5B390;T:03F4DA28;T:03EC4728;T:03F325E8;T:03F704B0;T:03F61578;T:03ED29B8;T:03F3BFA8;T:03EDE740;T:03EAD3C0;T:03DF6B70;T:03EE4E60;T:03F3A1A8;T:03EAD168;T:03EDE6C8;T:03F68850;T:03EFFFA8;T:03F2EE48;T:03F3EAF0;T:03F5DBF8;T:03F4CC68;T:03E9FBA8;T:03F77378;T:03EC0880;T:03EC9908;T:03D928A0;T:03EA95B8;T:03F49658;T:03F2C508;T:03E61178;T:03EC94D0;T:03DC8F68;T:03ECCB58;T:03F2C9B8;T:03F52EB0;T:03F62478;T:03F680D0;T:03F07B68;T:03F6C590;T:03E5CAD8;T:03EF1598;T:03DF6B48;T:03F3FB08;T:03DFC098;T:03F73FE8;T:03F5F6D8;T:03EFA058;T:03F173B0;T:03EEC480;T:03F3B968;T:03F2B090;T:03EF4AB8;T:03DBC600;T:03F05C00;T:03F3CC00;T:03F766F8;T:03DC23C0;T:03EEDB50;T:03F48910;T:03F578C0;T:03F527F8;T:03EF1EF8;T:03EFF6E8;T:03E9DFB0;T:03F00048;T:03F4F968;T:03D7FF20;T:03E5F328;T:03F66CF8;T:03F090D0;T:03EAC8D0;T:03ED5398;T:03F04710;T:03F2A3E8;T:03F67220;T:03EAEBF8;T:03EA5080;T:03EEE848;T:03F390A0;T:03DD0470;T:03F0B448;T:03F6DCB0;T:03F3EF50;T:03F35860;T:03F229E0;T:03EBD090;T:03EB37E8;T:03F373E0;T:03F40878;T:03F1E7F0;T:03DBADA0;T:03EEFB08;T:03F4AF58;T:03EC7E50;T:03ED35C0;T:03EBBBF0;T:03F496D0;T:03DD1C80;T:03F6DB98;T:03D48598;T:03D99EE8;}03F499A0{T:03F64D40;T:03F4D3E8;}03E99C58{Y:90=N:208;Y:91=N:0;}03F07FC8{Y:90=N:290;Y:91=N:0;}03EC3A08{Y:90=N:291;Y:91=N:0;}03F568F8{Y:90=N:286;Y:91=N:0;}03F6B208{Y:90=N:210;Y:91=N:0;}03EEFF90{T:03EC3A08;T:03F07FC8;}03F256E0{Y:90=N:276;Y:91=N:0;}03EA3848{T:03F1B7A8;T:03EFB200;}03E53208{Y:90=N:282;Y:91=N:0;}03F58338{Y:90=N:211;Y:91=N:0;}03F578C0{Y:92=T:03ED9EC0;Y:94=Y:93;}03F28C00{Y:90=N:282;Y:91=N:0;}03EA9BA8{Y:90=N:208;Y:91=N:0;}03F584A0{T:03D68B90;T:03F327A0;}03F2EE48{Y:92=T:03F366E8;Y:94=Y:93;}03DE0B68{Y:92=T:03F3A810;Y:94=Y:95;Y:96=N:0;}03F54968{Y:90=N:289;Y:91=N:0;}03F390A0{Y:92=T:03F034C8;Y:94=Y:93;}03F566F0{Y:90=N:279;Y:91=N:0;}03F0B448{Y:92=T:03EE42D0;Y:94=Y:93;}03F6DF58{Y:90=N:204;Y:91=N:0;}03F00908{T:03F21E28;T:03F4F828;}03ED29B8{Y:25=B:t;Y:96=N:0;Y:92=T:03E05800;Y:97=B:t;Y:94=Y:95;}03D46900{Y:90=N:714;Y:91=N:0;}03F6D5A8{Y:90=N:210;Y:91=N:0;}03F6DB98{Y:92=T:03F6DCD8;Y:94=Y:95;Y:96=N:0;}03E98F38{Y:90=N:210;Y:91=N:0;}03F6DCD8{T:03F6E200;T:03F6D5A8;}03DC2438{Y:90=N:290;Y:91=N:0;}03F6E200{Y:90=N:209;Y:91=N:0;}03EF0530{Y:90=N:282;Y:91=N:0;}03EC4728{Y:92=T:03EE4BE0;Y:94=Y:93;}03E54CE8{T:03F5B650;T:03EA9BA8;}03E54BF8{T:03DBC4C0;T:03F54008;}03F52D98{T:03ED2FA8;T:03D908C0;}03EA4518{Y:90=N:290;Y:91=N:0;}03F4F828{Y:90=N:282;Y:91=N:0;}03EB9300{Y:90=N:209;Y:91=N:0;}03F68850{Y:92=T:03EA3848;Y:94=Y:93;}03EE4E60{Y:92=T:03EA7D08;Y:94=Y:93;}03F35860{Y:92=T:03F38EE8;Y:94=Y:95;Y:96=N:0;}03F40418{Y:90=N:276;Y:91=N:0;}03E9FEC8{Y:90=N:282;Y:91=N:0;}03DC99E0{T:03F4B890;T:03EB9300;}03EC3558{Y:90=N:287;Y:91=N:0;}03F4B890{Y:90=N:211;Y:91=N:0;}03F496D0{Y:92=T:03DC99E0;Y:94=Y:95;Y:96=N:0;}03F2F9D8{Y:90=N:210;Y:91=N:0;}03F226C0{T:03E98B50;T:03EC97C8;}03D1BE58{T:03EF18B8;T:03DBFEE0;}03E67528{Y:90=N:291;Y:91=N:0;}03E5B8B8{Y:90=N:206;Y:91=N:0;}03F3F770{T:03E5B8B8;T:03F2F9D8;}03DBD758{T:03D46900;T:03F48AA0;}03EBBBF0{Y:92=T:03F3F770;Y:94=Y:95;Y:96=N:0;}03F34A78{T:03DC9AF8;T:03ED61F8;}03EAD168{Y:92=T:03F58748;Y:94=Y:95;Y:96=N:0;}03F61000{T:03EFFA58;T:03EAC6F0;}03F6AA10{Y:90=N:208;Y:91=N:0;}03F16820{Y:90=N:209;Y:91=N:0;}03DDCA68{Y:90=N:667;Y:91=N:0;}03EBE148{Y:90=N:206;Y:91=N:0;}03F77850{T:03DDCA68;T:03ED5668;}03ED35C0{Y:25=B:t;Y:96=N:0;Y:92=T:03F77850;Y:97=B:t;Y:94=Y:95;}03F2C4E0{Y:90=N:282;Y:91=N:0;}03EF8168{Y:90=N:279;Y:91=N:0;}03F45440{Y:90=N:287;Y:91=N:0;}03F33088{T:03F031A8;T:03F5BE48;}03F5F750{T:03F45440;T:03EF8168;}03EA7718{T:03F1CEC8;T:03F17FE0;}03D9EF10{Y:90=N:713;Y:91=N:0;}03EE4BE0{T:03EBE148;T:03F577F8;}03EABAE8{Y:90=N:279;Y:91=N:0;}03F6C978{T:03EAF828;T:03F00A98;}03EC4228{T:03E67410;T:03F39438;}03F03928{Y:92=T:03E51DE0;Y:94=Y:95;Y:96=N:0;}03F2C508{Y:92=T:03F53E00;Y:94=Y:95;Y:96=N:0;}03EA95B8{Y:92=T:03F2DD68;Y:94=Y:95;Y:96=N:0;}03DC0EF8{Y:90=N:287;Y:91=N:0;}03DBFEE0{Y:90=N:206;Y:91=N:0;}03EADE60{Y:90=N:286;Y:91=N:0;}03F37F48{Y:90=N:279;Y:91=N:0;}03EC8828{Y:90=N:287;Y:91=N:0;}03F26F18{T:03F597D8;T:03D1F0F8;}03EAC6F0{Y:90=N:204;Y:91=N:0;}03E67410{Y:90=N:282;Y:91=N:0;}03EEDE98{Y:90=N:208;Y:91=N:0;}03F58748{T:03F690C0;T:03EF85C8;}03F10010{Y:90=N:279;Y:91=N:0;}03F4D398{T:03EDB0B8;T:03EEDE98;}03E61AD8{Y:90=N:204;Y:91=N:0;}03E5B390{Y:25=B:t;Y:96=N:0;Y:92=T:03DBD758;Y:97=B:t;Y:94=Y:95;}03EA9D60{Y:90=N:204;Y:91=N:0;}03DBADA0{Y:92=T:03F3F658;Y:94=Y:95;Y:96=N:0;}03EDB0B8{Y:90=N:206;Y:91=N:0;}03EFC830{Y:92=T:03E9ED20;Y:94=Y:95;Y:96=N:0;}03EA52D8{T:03F40418;T:03ED6E50;}03E61178{Y:92=T:03F61000;Y:94=Y:93;}03F62478{Y:92=T:03EC9F98;Y:94=Y:95;Y:96=N:0;}03EAD1E0{Y:90=N:211;Y:91=N:0;}03F6DCB0{Y:92=T:03F6D058;Y:94=Y:95;Y:96=N:0;}03F3FB08{Y:92=T:03F26F18;Y:94=Y:93;}03F26108{Y:90=N:276;Y:91=N:0;}03E9FBA8{Y:92=T:03F5B5D8;Y:94=Y:95;Y:96=N:0;}03F4D3E8{Y:90=N:204;Y:91=N:0;}03E99078{Y:90=N:286;Y:91=N:0;}03EB4788{Y:90=N:209;Y:91=N:0;}03F1E7F0{Y:92=T:03F499A0;Y:94=Y:95;Y:96=N:0;}03EDE6C8{Y:92=T:03F584A0;Y:94=Y:93;}03ED2E90{Y:90=N:279;Y:91=N:0;}03EC9F98{T:03F40C60;T:03F28C00;}03EC94D0{Y:92=T:03F40648;Y:94=Y:95;Y:96=N:0;}03ED2FA8{Y:90=N:282;Y:91=N:0;}03EF9310{T:03DC2438;T:03DC8C48;}03F38B78{Y:90=N:211;Y:91=N:0;}03EAA1C0{Y:90=N:291;Y:91=N:0;}03ED89D0{Y:90=N:286;Y:91=N:0;}03F173B0{Y:92=T:03EEE3E8;Y:94=Y:93;}03EF63E0{T:03F212C0;T:03F18E68;}03F40648{T:03EB2758;T:03DBAE68;}03E516B0{Y:90=N:287;Y:91=N:0;}03F58608{Y:90=N:286;Y:91=N:0;}03DBB0E8{Y:92=T:03F6ED90;Y:94=Y:93;}03EDA258{T:03F2C990;T:03EF91D0;}03F5B5D8{T:03F34DC0;T:03ED2E90;}03E9CB38{T:03F58608;T:03E516B0;}03F373E0{Y:92=T:03E9CB38;Y:94=Y:93;}03EC1CF8{Y:90=N:276;Y:91=N:0;}03D99EE8{Y:92=T:03EEFF90;Y:94=Y:95;Y:96=N:0;}03EFB200{Y:90=N:208;Y:91=N:0;}03E5F328{Y:92=T:03EC6640;Y:94=Y:93;}03F1AF88{T:03D875B8;T:03F39528;}03F34DC0{Y:90=N:301;Y:91=N:0;}03F034C8{T:03F2AB90;T:03F4CDF8;}03EB37E8{Y:92=T:03F67248;Y:94=Y:95;Y:96=N:0;}03F66028{Y:90=N:210;Y:91=N:0;}03EABC28{Y:90=N:209;Y:91=N:0;}03D7EE18{Y:90=N:204;Y:91=N:0;}03E99BE0{Y:90=N:211;Y:91=N:0;}03F6D008{Y:90=N:209;Y:91=N:0;}03ED9718{T:03F30860;T:03DD4E80;}03F63AF8{Y:90=N:282;Y:91=N:0;}03F031A8{Y:90=N:276;Y:91=N:0;}03EC53F8{T:03E99BE0;T:03D7EE18;}03EDE740{Y:92=T:03F33088;Y:94=Y:93;}03E157A0{T:03EC0E98;T:03F6CC20;}03F6B230{Y:90=N:208;Y:91=N:0;}03EB6CE0{Y:92=T:03EC24F0;Y:94=Y:95;Y:96=N:0;}03EBD090{Y:92=T:03EC53F8;Y:94=Y:93;}03ED5190{Y:90=N:290;Y:91=N:0;}03F52EB0{Y:92=T:03F00908;Y:94=Y:93;}03F46E80{T:03F54968;T:03ED5190;}03DF6B48{Y:92=T:03F1EDB8;Y:94=Y:95;Y:96=N:0;}03F4DA28{Y:92=T:03EFE158;Y:94=Y:95;Y:96=N:0;}03F6BA78{T:03D7F688;T:03F73FC0;}03EEFB08{Y:92=T:03DCEBE8;Y:94=Y:95;Y:96=N:0;}03F167A8{Y:90=N:282;Y:91=N:0;}03F363A0{Y:90=N:209;Y:91=N:0;}03F637D8{Y:90=N:282;Y:91=N:0;}03F18E68{Y:90=N:204;Y:91=N:0;}03F532E8{Y:90=N:291;Y:91=N:0;}03F0E260{Y:90=N:281;Y:91=N:0;}03D875B8{Y:90=N:290;Y:91=N:0;}03ED9A38{Y:90=N:210;Y:91=N:0;}03F2C990{Y:90=N:208;Y:91=N:0;}03F40C60{Y:90=N:210;Y:91=N:0;}03EA19F8{Y:90=N:209;Y:91=N:0;}03EFE7E8{T:03F3F7E8;T:03F38C68;}03F01CE0{T:03F74178;T:03F741A0;}03F35A90{T:03EA13E0;T:03EA19F8;}03F3EF50{Y:25=N:0;Y:96=N:0;Y:92=T:03F35A90;Y:97=B:t;Y:94=Y:95;}03F09C60{Y:90=N:209;Y:91=N:0;}03F6D058{T:03D7CF50;T:03F5B010;}03F30860{Y:90=N:281;Y:91=N:0;}03F3F658{T:03EAD1E0;T:03EA9D60;}03F5E288{Y:90=N:279;Y:91=N:0;}03F00048{Y:92=T:03F52F28;Y:94=Y:93;}03F5A688{Y:92=T:03E157A0;Y:94=Y:93;}03EA9D88{Y:90=N:277;Y:91=N:0;}03F741A0{Y:90=N:211;Y:91=N:0;}03DDD198{Y:25=N:0;Y:96=N:0;Y:92=T:03EA52D8;Y:97=B:t;Y:94=Y:95;}03EE42D0{T:03EBB678;T:03EB2258;}03DDEA70{T:03F43F78;T:03EABC28;}03DBC4C0{Y:90=N:275;Y:91=N:0;}03F03248{T:03F256E0;T:03ED6D10;}03DBEB08{Y:92=T:03F14700;Y:94=Y:93;}03F0FF48{T:03F0DEF0;T:03EA43B0;}03F3A180{T:03EF0C60;T:03EDBEF0;}03EAEBF8{Y:92=T:03F75C30;Y:94=Y:93;}03F6DAF8{Y:90=N:204;Y:91=N:0;}03EFF6E8{Y:92=T:03EF2380;Y:94=Y:93;}03F4CDF8{Y:90=N:208;Y:91=N:0;}03F28F98{Y:90=N:290;Y:91=N:0;}03EF91D0{Y:90=N:276;Y:91=N:0;}03E9ED20{T:03F6DF58;T:03F4C290;}03EECE80{T:03EFC948;T:03F50520;}03EEDB50{Y:92=T:03E61CB8;Y:94=Y:95;Y:96=N:0;}03F6CC20{Y:90=N:286;Y:91=N:0;}03EE0A68{Y:90=N:209;Y:91=N:0;}03EC8238{T:03F2DD18;T:03F080E0;}03ECA948{Y:90=N:204;Y:91=N:0;}03EA5080{Y:92=T:03DCA318;Y:94=Y:95;Y:96=N:0;}03F06A38{Y:90=N:301;Y:91=N:0;}03DCBA38{Y:92=T:03F0FF48;Y:94=Y:95;Y:96=N:0;}03ED61F8{Y:90=N:286;Y:91=N:0;}03F325E8{Y:92=T:03EF63E0;Y:94=Y:95;Y:96=N:0;}03F03A18{Y:90=N:211;Y:91=N:0;}03F5B650{Y:90=N:211;Y:91=N:0;}03F2DFC0{Y:90=N:206;Y:91=N:0;}03EF9680{Y:90=N:281;Y:91=N:0;}03F75C30{T:03EADE60;T:03F566F0;}03EAD3C0{Y:25=B:t;Y:96=N:0;Y:92=T:03F3A180;Y:97=B:t;Y:94=Y:95;}03DBCB78{Y:90=N:206;Y:91=N:0;}03F31120{Y:90=N:206;Y:91=N:0;}03DBAE68{Y:90=N:287;Y:91=N:0;}03F49C48{Y:90=N:206;Y:91=N:0;}03D944E8{Y:90=N:276;Y:91=N:0;}03EA8A50{Y:90=N:209;Y:91=N:0;}03E9DFB0{Y:92=T:03F04F30;Y:94=Y:95;Y:96=N:0;}03F73FE8{Y:92=T:03F70960;Y:94=Y:93;}03F67220{Y:92=T:03EBF818;Y:94=Y:95;Y:96=N:0;}03F3DD08{Y:90=N:279;Y:91=N:0;}03EF2380{T:03DBB480;T:03F65D80;}03F10CB8{Y:90=N:209;Y:91=N:0;}03F5DBF8{Y:92=T:03F57D70;Y:94=Y:93;}03D4F398{T:03EF0530;T:03F66CD0;}03EAF828{Y:90=N:287;Y:91=N:0;}03F2A3E8{Y:92=T:03F3A428;Y:94=Y:95;Y:96=N:0;}03DDDCD8{Y:90=N:276;Y:91=N:0;}03F1FAB0{Y:90=N:291;Y:91=N:0;}03F653A8{T:03DBD8E8;T:03F11ED8;}03F704B0{Y:92=T:03F2B748;Y:94=Y:93;}03F66898{T:03F25B90;T:03E99C58;}03F3F5E0{T:03F1FAB0;T:03DDDCD8;}03E05800{T:03EDBF18;T:03F02230;}03F674A0{Y:25=B:t;Y:96=N:0;Y:92=T:03D1BE58;Y:97=B:t;Y:94=Y:95;}03F40030{Y:90=N:289;Y:91=N:0;}03F3CC00{Y:92=T:03EECE80;Y:94=Y:93;}03F2BA90{Y:92=T:03F519E8;Y:94=Y:93;}03F04710{Y:92=T:03F3F5E0;Y:94=Y:93;}03DC8C48{Y:90=N:208;Y:91=N:0;}03E99FA0{Y:90=N:206;Y:91=N:0;}03ED5398{Y:92=T:03EF9310;Y:94=Y:93;}03F40940{T:03F67B08;T:03F67A40;}03F2AB90{Y:90=N:209;Y:91=N:0;}03F00340{T:03F28F98;T:03EBE8A0;}03F3B968{Y:92=T:03EF2088;Y:94=Y:93;}03EFEFE0{Y:90=N:286;Y:91=N:0;}03DCA5C0{Y:90=N:206;Y:91=N:0;}03EEC480{Y:92=T:03F40940;Y:94=Y:93;}03F505E8{Y:90=N:208;Y:91=N:0;}03DFC098{Y:92=T:03EFE7E8;Y:94=Y:95;Y:96=N:0;}03DC8F68{Y:25=B:t;Y:96=N:0;Y:92=T:03EE9D98;Y:97=B:t;Y:94=Y:95;}03F1C540{T:03D9EF10;T:03E9F6D0;}03F68AF8{Y:90=N:291;Y:91=N:0;}03F4C290{Y:90=N:206;Y:91=N:0;}03EFE158{T:03F6DAF8;T:03ED9A38;}03DBE720{Y:90=N:275;Y:91=N:0;}03F766F8{Y:92=T:03F653A8;Y:94=Y:95;Y:96=N:0;}03DBB480{Y:90=N:277;Y:91=N:0;}03F3C958{T:03F68AF8;T:03F505E8;}03F090D0{Y:92=T:03F3C958;Y:94=Y:93;}03E66C90{Y:90=N:291;Y:91=N:0;}03F519E8{T:03EE2B88;T:03ED3F48;}03DBD7D0{Y:90=N:206;Y:91=N:0;}03D908C0{Y:90=N:209;Y:91=N:0;}03F21E28{Y:90=N:210;Y:91=N:0;}03DD1C80{Y:92=T:03E54BF8;Y:94=Y:95;Y:96=N:0;}03F66CF8{Y:92=T:03F52D98;Y:94=Y:93;}03F05C00{Y:25=B:t;Y:96=N:0;Y:92=T:03F1AF88;Y:97=B:t;Y:94=Y:95;}03DC9AF8{Y:90=N:301;Y:91=N:0;}03F573C0{Y:90=N:289;Y:91=N:0;}03EFFA58{Y:90=N:281;Y:91=N:0;}03F2CC60{Y:90=N:290;Y:91=N:0;}03F54008{Y:90=N:206;Y:91=N:0;}03F37660{Y:92=T:03EC2CC0;Y:94=Y:95;Y:96=N:0;}03F25F78{Y:90=N:289;Y:91=N:0;}03D68B90{Y:90=N:204;Y:91=N:0;}03D7FF20{Y:92=T:03F5D428;Y:94=Y:93;}03F43F78{Y:90=N:204;Y:91=N:0;}03F317D8{Y:90=N:276;Y:91=N:0;}03F21AE0{Y:90=N:301;Y:91=N:0;}03F52F28{T:03F21AE0;T:03EC3558;}03F02230{Y:90=N:209;Y:91=N:0;}03EBB678{Y:90=N:277;Y:91=N:0;}03EC97C8{Y:90=N:208;Y:91=N:0;}03EEE3E8{T:03F66FF0;T:03E9BA58;}03F48AA0{Y:90=N:209;Y:91=N:0;}03F327A0{Y:90=N:210;Y:91=N:0;}03F4B700{Y:90=N:666;Y:91=N:0;}03EC24F0{T:03EABAE8;T:03F203E8;}03F1C2E8{T:03E057B0;T:03DBCB78;}03F27F58{Y:90=N:210;Y:91=N:0;}03F4FF30{Y:90=N:211;Y:91=N:0;}03EF0C60{Y:90=N:711;Y:91=N:0;}03F25B90{Y:90=N:206;Y:91=N:0;}03EA7D08{T:03EA4B58;T:03F5E490;}03F00A98{Y:90=N:211;Y:91=N:0;}03F04F30{T:03F4FF30;T:03F27F58;}03F2FA78{Y:25=B:t;Y:96=N:0;Y:92=T:03F6BA78;Y:97=B:t;Y:94=Y:95;}03F2C9B8{Y:92=T:03EF2330;Y:94=Y:95;Y:96=N:0;}03DD0470{Y:92=T:03F03248;Y:94=Y:93;}03F39438{Y:90=N:208;Y:91=N:0;}03F1A600{T:03F5E288;T:03F49630;}03F3A158{Y:90=N:301;Y:91=N:0;}03EDBF18{Y:90=N:712;Y:91=N:0;}03F5A480{T:03F6AC68;T:03F58338;}03DC19C0{Y:90=N:715;Y:91=N:0;}03DBD4D8{Y:92=T:03D4F398;Y:94=Y:95;Y:96=N:0;}03EC2CC0{T:03EA4518;T:03EF9B80;}03EC6640{T:03E53208;T:03F2DFC0;}03EE4000{T:03F64278;T:03EF5968;}03EF4AB8{Y:92=T:03F6CC48;Y:94=Y:93;}03F59E40{Y:90=N:211;Y:91=N:0;}03F57870{T:03F63AF8;T:03F4CD80;}03F527F8{Y:92=T:03EE4000;Y:94=Y:95;Y:96=N:0;}03DBF210{Y:90=N:206;Y:91=N:0;}03F66FF0{Y:90=N:289;Y:91=N:0;}03DD4E80{Y:90=N:204;Y:91=N:0;}03D9A140{Y:90=N:204;Y:91=N:0;}03F1CEC8{Y:90=N:277;Y:91=N:0;}03EEF8D8{Y:90=N:290;Y:91=N:0;}03F17FE0{Y:90=N:209;Y:91=N:0;}03F5D428{T:03F57C80;T:03F26108;}03F55250{Y:92=T:03F32548;Y:94=Y:93;}03F49630{Y:90=N:210;Y:91=N:0;}03EC6D98{Y:25=B:t;Y:96=N:0;Y:92=T:03E61F88;Y:97=B:t;Y:94=Y:95;}03F4F968{Y:92=T:03DDEA70;Y:94=Y:93;}03F57D70{T:03EE3F60;T:03EB4788;}03F77378{Y:25=B:t;Y:96=N:0;Y:92=T:03F773A0;Y:97=B:t;Y:94=Y:95;}03E98B50{Y:90=N:290;Y:91=N:0;}03F212C0{Y:90=N:208;Y:91=N:0;}03E61CB8{T:03E67528;T:03F317D8;}03DC23C0{Y:92=T:03F66898;Y:94=Y:95;Y:96=N:0;}03F11ED8{Y:90=N:291;Y:91=N:0;}03F50520{Y:90=N:282;Y:91=N:0;}03ED6E50{Y:90=N:209;Y:91=N:0;}03EFC948{Y:90=N:276;Y:91=N:0;}03DD8030{Y:90=N:277;Y:91=N:0;}03D7F688{Y:90=N:291;Y:91=N:0;}03EEE848{Y:92=T:03EDA258;Y:94=Y:93;}03F39528{Y:90=N:282;Y:91=N:0;}03F67248{T:03F573C0;T:03EC1CF8;}03F74178{Y:90=N:279;Y:91=N:0;}03ED2C38{Y:90=N:279;Y:91=N:0;}03F41700{Y:90=N:282;Y:91=N:0;}03F64278{Y:90=N:275;Y:91=N:0;}03F1E318{T:03EAA1C0;T:03F2CC60;}03DBC600{Y:92=T:03F1E318;Y:94=Y:93;}03EC0880{Y:92=T:03F1CC2E8;Y:94=Y:95;Y:96=N:0;}03DBE1D0{Y:90=N:211;Y:91=N:0;}03EF6430{Y:90=N:282;Y:91=N:0;}03F6C590{Y:92=T:03F226C0;Y:94=Y:95;Y:96=N:0;}03EE5720{T:03EFEFE0;T:03EF6430;}03E5F620{Y:90=N:716;Y:91=N:0;}03EDA118{T:03DC0EF8;T:03E9FEC8;}03F2B090{Y:25=B:t;Y:96=N:0;Y:92=T:03EE5720;Y:97=B:t;Y:94=Y:95;}03ED9EC0{T:03DBE720;T:03DBF210;}03EC0E98{Y:90=N:301;Y:91=N:0;}03F50B38{Y:90=N:208;Y:91=N:0;}03EF2088{T:03F50B38;T:03D9A140;}03EF3F00{Y:90=N:281;Y:91=N:0;}03F67A40{Y:90=N:206;Y:91=N:0;}03F2DD68{T:03F1E868;T:03F02D70;}03D1F0F8{Y:90=N:204;Y:91=N:0;}03EE3F60{Y:90=N:211;Y:91=N:0;}03F67B08{Y:90=N:209;Y:91=N:0;}03E5CAD8{Y:25=B:t;Y:96=N:0;Y:92=T:03EE5B58;Y:97=B:t;Y:94=Y:95;}03EBE8A0{Y:90=N:282;Y:91=N:0;}03EAC8D0{Y:92=T:03F00340;Y:94=Y:93;}03F267C0{Y:90=N:282;Y:91=N:0;}03E9BA58{Y:90=N:276;Y:91=N:0;}03F080E0{Y:90=N:275;Y:91=N:0;}03F38EE8{T:03ED9B00;T:03F167A8;}03EFA058{Y:92=T:03EC8238;Y:94=Y:95;Y:96=N:0;}03F33178{Y:90=N:275;Y:91=N:0;}03E54248{Y:90=N:208;Y:91=N:0;}03F4B6D8{T:03F16820;T:03F4EFE0;}03EF18B8{Y:90=N:281;Y:91=N:0;}03EF1598{Y:92=T:03F4CB50;Y:94=Y:93;}03F70960{T:03F40030;T:03E66C90;}03ECCB58{Y:92=T:03ED41C8;Y:94=Y:95;Y:96=N:0;}03EBF818{T:03EA8A50;T:03F31120;}03F4CB50{T:03ECFBC8;T:03F267C0;}03F30068{Y:90=N:211;Y:91=N:0;}03F38C68{Y:90=N:282;Y:91=N:0;}03F3EAF0{Y:92=T:03F34A78;Y:94=Y:95;Y:96=N:0;}03F3F7E8{Y:90=N:277;Y:91=N:0;}03EA13E0{Y:90=N:275;Y:91=N:0;}03F597D8{Y:90=N:287;Y:91=N:0;}03EDBEF0{Y:90=N:209;Y:91=N:0;}03F696B0{T:03F25F78;T:03EEF8D8;}03F1EDB8{T:03F10010;T:03F1DAD0;}03DCE7B0{T:03F3A158;T:03F18440;}03E9F6D0{Y:90=N:209;Y:91=N:0;}03F680D0{Y:92=T:03F1A600;Y:94=Y:93;}03D928A0{Y:92=T:03D95730;Y:94=Y:93;}03EF85C8{Y:90=N:208;Y:91=N:0;}03F773A0{T:03F06A38;T:03F637D8;}03F61578{Y:25=B:t;Y:96=N:0;Y:92=T:03F1C540;Y:97=B:t;Y:94=Y:95;}03F65D80{Y:90=N:209;Y:91=N:0;}03D42C88{Y:92=T:03F57870;Y:94=Y:95;Y:96=N:0;}03EE2B88{Y:90=N:279;Y:91=N:0;}03F32548{T:03D22F78;T:03EA2240;}03EC7E50{Y:92=T:03F5F750;Y:94=Y:93;}03F577F8{Y:90=N:281;Y:91=N:0;}03E61F88{T:03DC19C0;T:03F6D008;}03F690C0{Y:90=N:211;Y:91=N:0;}03ED7FF8{Y:90=N:275;Y:91=N:0;}03F4CC68{Y:92=T:03F6C978;Y:94=Y:93;}03F3A1A8{Y:92=T:03F15CB8;Y:94=Y:95;Y:96=N:0;}03F2DD18{Y:90=N:208;Y:91=N:0;}03F4CD80{Y:90=N:206;Y:91=N:0;}03D95730{T:03E99078;T:03F59E40;}03EE5B58{T:03F4B700;T:03F363A0;}03F15CB8{T:03F03A18;T:03DCA5C0;}03F53E00{T:03EF9680;T:03F66708;}03D87400{T:03DD8030;T:03E99FA0;}03F6AC68{Y:90=N:287;Y:91=N:0;}03F48910{Y:92=T:03F696B0;Y:94=Y:95;Y:96=N:0;}03F1DAD0{Y:90=N:210;Y:91=N:0;}03F366E8{T:03ED7FF8;T:03F10CB8;}03EB2258{Y:90=N:282;Y:91=N:0;}03F40878{Y:92=T:03F25F50;Y:94=Y:95;Y:96=N:0;}03F660C8{Y:25=B:t;Y:96=N:0;Y:92=T:03F6F6A0;Y:97=B:t;Y:94=Y:95;}03ED3F48{Y:90=N:211;Y:91=N:0;}03EA43B0{Y:90=N:287;Y:91=N:0;}03EA2240{Y:90=N:206;Y:91=N:0;}03F64D40{Y:90=N:287;Y:91=N:0;}03EC9908{Y:25=N:0;Y:96=N:0;Y:92=T:03F01CE0;Y:97=B:t;Y:94=Y:95;}03F07B68{Y:92=T:03D87400;Y:94=Y:95;Y:96=N:0;}03F4EFE0{Y:90=N:210;Y:91=N:0;}03D48598{Y:92=T:03E54CE8;Y:94=Y:93;}03E51DE0{T:03F6B208;T:03F6B230;}03ED9B00{Y:90=N:276;Y:91=N:0;}03F0DEF0{Y:90=N:286;Y:91=N:0;}03F6E368{Y:92=T:03F4B6D8;Y:94=Y:93;}03F0E030{Y:90=N:208;Y:91=N:0;}03DBEE78{Y:92=T:03DCE7B0;Y:94=Y:93;}03F6ED90{T:03ED2C38;T:03E61AD8;}03F28700{Y:92=T:03ED9718;Y:94=Y:95;Y:96=N:0;}03F38E98{Y:90=N:209;Y:91=N:0;}03EA4B58{Y:90=N:275;Y:91=N:0;}03DF6A58{Y:90=N:206;Y:91=N:0;}03F2B748{T:03F49C48;T:03E98F38;}03F3A068{Y:92=T:03F4D398;Y:94=Y:93;}03F229E0{Y:92=T:03F46E80;Y:94=Y:93;}03DCEBE8{T:03EC8828;T:03F37F48;}03F66708{Y:90=N:209;Y:91=N:0;}03F57C80{Y:90=N:290;Y:91=N:0;}03F49658{Y:92=T:03ED87C8;Y:94=Y:93;}03ED87C8{T:03EF3F00;T:03F09C60;}03F73FC0{Y:90=N:282;Y:91=N:0;}03F02D70{Y:90=N:208;Y:91=N:0;}03F3BFA8{Y:92=T:03E67028;Y:94=Y:93;}03F1E868{Y:90=N:282;Y:91=N:0;}03F14700{T:03F30068;T:03F66028;}03EF1EF8{Y:92=T:03EC4228;Y:94=Y:93;}03F25F50{T:03ED89D0;T:03F38B78;}03E057B0{Y:90=N:276;Y:91=N:0;}03F203E8{Y:90=N:204;Y:91=N:0;}03EF9B80{Y:90=N:276;Y:91=N:0;}03F1B7A8{Y:90=N:210;Y:91=N:0;}03DF6B70{Y:25=N:0;Y:96=N:0;Y:92=T:03EA7718;Y:97=B:t;Y:94=Y:95;}03D22F78{Y:90=N:204;Y:91=N:0;}03F676F8{T:03E54248;T:03F33178;}
[Dict]
1:"LocalAngle"
2:"LocalPos"
3:"Frozen"
4:"PhysicsObjects"
5:"gmod_wire_thruster"
6:"Class"
7:"force_max"
8:"Skin"
9:"bidir"
10:"Path"
11:"SrcId"
12:"SrcPos"
13:"Color"
14:"cable/rope_icon"
15:"Material"
16:"StartPos"
17:"Width"
18:"Wires"
19:"WireDupeInfo"
20:"RenderMode"
21:"RenderFX"
22:"colour"
23:"EntityMods"
24:"sound"
25:"nocollide"
26:"same"
27:"uweffect"
28:"force_min"
29:"models/props_junk/popcan01a.mdl"
30:"Model"
31:"force"
32:"uwater"
33:"owater"
34:"none"
35:"oweffect"
36:"numbullets"
37:"Tracer"
38:"tracer"
39:"gmod_wire_turret"
40:"spread"
41:"models/weapons/w_smg1.mdl"
42:"Mouse1"
43:"Fire"
44:"delay"
45:"damage"
46:"gmod_hoverball"
47:"strength"
48:"key_d"
49:"key_u"
50:"models/dav0r/hoverball.mdl"
51:"speed"
52:"resistance"
53:"gmod_wire_igniter"
54:"Range"
55:"TargetPlayers"
56:"Mouse2"
57:"models/jaanus/wiretool/wiretool_siren.mdl"
58:"models/props_phx/construct/glass/glass_dome360.mdl"
59:"prop_physics"
60:"phoenix_storms/mat/mat_phx_metallic"
61:"MaterialOverride"
62:"material"
63:"models/props_phx/rt_screen.mdl"
64:"CollisionGroupMod"
65:"models/jaanus/wiretool/wiretool_range.mdl"
66:"gmod_wire_adv_pod"
67:"models/hunter/plates/plate5.mdl"
68:"models/combine_helicopter/helicopter_bomb01.mdl"
69:"models/dav0r/camera.mdl"
70:"gmod_rtcameraprop"
71:"prop_vehicle_prisoner_pod"
72:"Half-Life 2"
73:"Category"
74:"Members"
75:"Jeep Seat"
76:"Name"
77:"scripts/vehicles/prisoner_pod.txt"
78:"vehiclescript"
79:"limitview"
80:"KeyValues"
81:"VALVe"
82:"Author"
83:"A Seat from VALVe's Jeep"
84:"Information"
85:"models/nova/jeep_seat.mdl"
86:"VehicleTable"
87:"Seat_Jeep"
88:"VehicleName"
89:"VehicleMemDupe"
90:"Index"
91:"Bone"
92:"Entity"
93:"NoCollide"
94:"Type"
95:"Weld"
96:"forcelimit"
97:"deleteonbreak"
Saved:1612