N@Destination Controller
I@A B C D E F G H I P12 P34 P56 P78 P90  Radio Catch Send Active
O@Dest Go X Y Z
A2I1= A==0 & B==0 & C==0 & D==0 & E==0 & F==0 & G==0 & H==0 & I==0
P1201= P12==0 & P34==0 & P56==0 & P78==0 & P90==0
Catch==0 & Radio==0 & !A2I1==0 & !P1201==0 ->Go=0;
(A==1 & Active==1) | (P12==1 & Active==1) -> Dest = 1001;
(B==1 & Active==1) | (P12==2 & Active==1) -> Dest = 1002;
(C==1 & Active==1) | (P34==3 & Active==1) -> Dest = 1003;
(D==1 & Active==1) |  (P34==4 & Active==1) -> Dest = 1004;
(E==1 & Active==1) |  (P56==5 & Active==1)  -> Dest = 1005;
(F==1 & Active==1)  | (P56==6 & Active==1) -> Dest = 1006;
Radio==1 -> Dest = 1011;
(G==1 & Active==1)   | (P78==7 & Active==1) -> Dest = 1007;
(H==1 & Active==1)  | (P78==8 & Active==1) -> Dest = 1008;
(I==1 & Active==1)  | (P90==9 & Active==1) -> Dest = 1009;
Catch==1 | (P90==10 & Active==1) ->Dest = 999;
A2I= (A==1 | B==1 | C==1 | D==1 | E==1 | F==1 | G==1 | H==1 | I==1)  & Active==1
P120= (P12==1 | P12==2 | P34==3 | P34==4 | P56==5 | P56==6| P78==7 | P78==8 | P90==9 | P90==10) & Active==1
Catch==1 | A2I==1 | Radio==1 | P120==1 -> Go=1;
X=recv(Send,1)-40 Y=recv(Send,2), Z=recv(Send,3)
