@name Cart
@model models/weapons/w_c4_planted.mdl
@inputs A B F
@outputs C D
if (A==1 & B==0) {C=1}
if (B==1 & A==0) {C=-1}
if (A==1 & B==1) {C=0}
if (A==0 & B==0) {C=0}
if (F==1) {
    if (D==0) {D=1} else {D=0}
    
    }
