@name slamaslay
@persist Model:string Current:entity
runOnChat(1)
if (chatClk(owner()) & owner():lastSaid():sub(1,2)=="-p") {
    local Name=owner():lastSaid():sub(4)
    Current:propDelete()
    Model="models/props_junk/sawblade001a.mdl"
    local Target=noentity()
    local Players=players()
    for (I=1, Players:count()) {
        if (Players[I,entity]:name():lower():matchFirst(Name:lower())) {
            Target=Players[I,entity]
            print("Slamaslaying "+Target:name())
        }
    }
    if (Target) {
        Current=propSpawn(Model,Target:pos()+Target:aabbSize()*vec(0,0,0.75),ang(0,0,90),0)
        Current:applyForce(vec(0,0,-10000))
        timer("fax",10)
        Current:propNotSolid(1)
        timer("do",5000)
        #Entity=propSpawn(string model,vector pos,angle rot,number frozen)
    }
    
}
if (clk("fax")) {Current:propNotSolid(0)}
if (clk("do")) {
    Current:propDelete()
    Current=noentity()
}
