N@Bit Decoder
I@Value
O@B1 B2 B3 B4 B5 B6 B7 B8

B1 = floor(Value / 2^0) % 2
B2 = floor(Value / 2^1) % 2
B3 = floor(Value / 2^2) % 2
B4 = floor(Value / 2^3) % 2
B5 = floor(Value / 2^4) % 2
B6 = floor(Value / 2^5) % 2
B7 = floor(Value / 2^6) % 2
B8 = floor(Value / 2^7) % 2