@name Magic Touch by Scriptis
@persist User:entity
@inputs Scr:wirelink
#KPPL = Keypad:toLocal(Keypad:owner():aimPos()):rotate(ang())
    interval(100)
    if (first()) {User=owner()}
    #Magic Touch
    Y=((Scr:entity():toLocal(User:aimPos()):rotate(ang()):x()+11)/22*18)+1
    if (!inrange(Y,floor(Y)+0.25,floor(Y)+0.95)) {Y=-1} else {Y=floor(Y)-1}
    if (first()) {
        function number pIR(N) {
            return Y==N
        }
    }


