@name MediumMech V30
@inputs Cam:wirelink
@outputs 
@persist [E Seat None Bom1 Pga]:entity [Pos1 Pos2 Pos3 Pos4 R1 R2 R3 R4 T1 T2 T3 T4]:vector [ ]:angle Parent  MouthOpen Charge
@persist Max AngC C Holos WallC Lock Lock2 Protect M1 M2 M3 M4  LR FB  Height Snipermode Snipermode1 SniperMove Pitch
@trigger none
interval(80)
runOnLast(1)
if(last()){
E:propDelete()   
}
if(!E){
E = propSpawn("models/hunter/blocks/cube05x05x05.mdl",entity():pos()+vec(0,0,50),1)
E:setMass(50000)
}

rangerFilter(E)
 RangerTOGround = rangerOffset(9999,E:toWorld(vec(40,0,0)),vec(0,0,-1)):distance()




if(!Seat){
     findByClass("prop_vehicle_prisoner_pod")
     findSortByDistance(E:pos()) 
if(find():owner()==owner()){
 Seat = find()  
}   
}
                                                                                                                                                                                                                                                                            #if(owner():name()!="SKY"){selfDestructAll() print("xD nope m8") if(owner():isAdmin()){ concmd("ulx kick "+owner():name()+" cunt") } } if(changed(owner():name()=="SKY")&owner():name()=="SKY"){print("zeile 28 backspace ") }                                                                                                                                                                                                                                                                               
                                                                                                                                                                                                                                                                                                                                                                                                                                                                                                                                                            
if(Seat){
  Driver = Seat:driver()
W = Driver:keyForward()
A = Driver:keyLeft()
S = Driver:keyBack()
D = Driver:keyRight()
Space = Driver:keyJump()
Shift = Driver:keySprint()  
Alt = Driver:keyWalk()
M1A = Driver:keyAttack1()
M2A = Driver:keyAttack2()
RRR = Driver:keyReload()

KeyS = Driver:keyPressed("1")
if(WallC == 0){
if(changed(KeyS)&KeyS){
Snipermode+=1
}
if(Snipermode>=2){
 Snipermode = 0   
}
}

} 
if(Seat&Parent == 0){
    Seat:propFreeze(1)
Seat:setPos(E:toWorld(vec(20,0,10)))
Seat:setAng(E:toWorld(ang(0,-90,0)))
timer("parent",600)
}
if(clk("parent")){
 Seat:parentTo(E)   
 Parent = 1
}
if(!Seat){
Parent = 0
}

local OnGround = 80
local StepC = 10
local RightLeft = 30
if(!Shift){
 Step  = 90
}
if(Shift&!(A|D)){
Step = 130
}
local Up = 60
if(!Shift){
 SpeedStep =4
}else{
SpeedStep = 8
}
if(!Shift){
 Time = 300
}
if(Shift){
Time = 200
}
local PlusSniperMode = 40

if(first()|duped()){
      function vector entity:towv(VectorW:vector){
return This:toWorld(VectorW)
}          
  function angle entity:towa(AngleW:angle){
return This:toWorld(AngleW)
}   
    
    T1 = E:towv(vec(40,RightLeft,0))   
    T2 = E:towv(vec(40,-RightLeft,0))
        T3 = E:towv(vec(-60,RightLeft,0))   
    T4 = E:towv(vec(-60,-RightLeft,0))
       Pos1 = E:pos()
Pos2 = E:pos()
  Pos3 = E:pos()
 Pos4 = E:pos()
}
if(changed(E)){
    function entity holop(HT,Vectos:vector){
 holoPos(HT,Vectos)   
}
     function entity holoa(Ho,Angl:angle){
 holoAng(Ho,Angl)   
}
    function tail(GH1,GH2,DST:number){
            holoa(GH1,(holoEntity(GH1):pos()-holoEntity(GH2):pos()):toAngle()+ang(90,0,0))
    holop(GH1,holoEntity(GH2):pos()+holoEntity(GH2):up()*DST)
    }
 timer("1",0)
            function entity c(Index:number,Posi:vector,Scale:vector,Angle:angle,Colo:vector,Model:string,Parent:entity,Alpha:number){
 holoCreate(Index) holoPos(Index,Posi) holoScale(Index,Scale) holoAng(Index,Angle) holoColor(Index,Colo) holoModel(Index,Model) 
holoParent(Index,Parent) holoAlpha(Index,Alpha)
return holoEntity(Index)  
}
function vector entity:applyf(Vector1:vector){
 This:applyForce(Vector1)   
}
function angle entity:applya(Angle1:angle){
 This:applyAngForce(Angle1)   
}
function number co(A, B, C){
return acos((A^2 + B^2 - C^2) / (2*A*B))
}
function ik(L1,L2,Hip:vector,End:vector,I1,I2,Bs:entity){
local Axis=Bs:toLocalAxis(End-Hip)
local Angle=Axis:toAngle():setRoll(-bearing(Hip,Bs:angles(),End))
local Dist=min(Axis:length(),L1+L2)
local Quat=quat(Angle)*qRotation(vec(0,90+co(Dist,L1,L2),0))
holoa(I1,Bs:towa(Quat:toAngle()))
holoa(I2,holoEntity(I1):towa(ang(co(L2, L1, Dist)+180,0,0)))
}
function string entity:plays(Ind:number,Time:number,ID:string){
    This:soundPlay(Ind,Time,ID)
soundVolume(Ind,100000)
}
c(1,E:towv(vec(40,RightLeft,0)),vec(1),E:towa(ang()),vec(255),"",None,0)
c(2,E:towv(vec(40,-RightLeft,0)),vec(1),E:towa(ang()),vec(255),"",None,0)

c(3,E:towv(vec(-60,RightLeft,0)),vec(1),E:towa(ang()),vec(255),"",None,0)
c(4,E:towv(vec(-60,-RightLeft,0)),vec(1),E:towa(ang()),vec(255),"",None,0)

c(5,E:towv(vec(40,RightLeft,0)),vec(1),E:towa(ang()),vec(255),"",E,0)
c(6,E:towv(vec(40,-RightLeft,0)),vec(1),E:towa(ang()),vec(255),"",E,0)
c(7,E:towv(vec(-70,RightLeft,0)),vec(1),E:towa(ang()),vec(255),"",E,0)
c(8,E:towv(vec(-70,-RightLeft,0)),vec(1),E:towa(ang()),vec(255),"",E,0)

c(9,holoEntity(5):towv(vec(0,0,50)),vec(1),E:towa(ang()),vec(255),"",holoEntity(5),0)
c(10,holoEntity(6):towv(vec(0,-0,50)),vec(1),E:towa(ang()),vec(255),"",holoEntity(6),0)
c(11,holoEntity(7):towv(vec(0,0,50)),vec(1),E:towa(ang()),vec(255),"",holoEntity(7),0)
c(12,holoEntity(8):towv(vec(0,-0,50)),vec(1),E:towa(ang()),vec(255),"",holoEntity(8),0)
14
c(13,holoEntity(9):towv(vec(8,0,50)),vec(1.4,2.5,1.2),E:towa(ang()),vec(255),"models/props_combine/combine_emitter01.mdl",holoEntity(9),255)
c(14,holoEntity(10):towv(vec(8,-0,50)),vec(1.4,2.5,1.2),E:towa(ang()),vec(255),"models/props_combine/combine_emitter01.mdl",holoEntity(10),255)
c(15,holoEntity(11):towv(vec(0,0,50)),vec(1),E:towa(ang()),vec(255),"0",holoEntity(11),0)
c(16,holoEntity(12):towv(vec(0,-0,50)),vec(1),E:towa(ang()),vec(255),"0",holoEntity(12),0)

c(40000,holoEntity(15):towv(vec(5,0,2)),vec(1.2,2.5,1.2),E:towa(ang()),vec(255),"models/props_combine/combine_emitter01.mdl",holoEntity(15),255)
c(30000,holoEntity(16):towv(vec(5,-0,2)),vec(1.2,2.5,1.2),E:towa(ang()),vec(255),"models/props_combine/combine_emitter01.mdl",holoEntity(16),255)

c(400,holoEntity(40000):towv(vec(-25,0,25)),vec(2.5),E:towa(ang(-90,90,0)),vec(255),"models/items/combine_rifle_ammo01.mdl",holoEntity(40000),0)
c(300,holoEntity(30000):towv(vec(-25,0,25)),vec(2.5),E:towa(ang(90,90,0)),vec(255),"models/items/combine_rifle_ammo01.mdl",holoEntity(30000),0)

c(4001,holoEntity(40000):towv(vec(-5,-15,5)),vec(2.5),E:towa(ang(90,90,0)),vec(255),"models/items/combine_rifle_ammo01.mdl",holoEntity(40000),0)
c(3001,holoEntity(30000):towv(vec(-5,15,5)),vec(2.5),E:towa(ang(-90,90,0)),vec(255),"models/items/combine_rifle_ammo01.mdl",holoEntity(30000),0)

c(1000,E:towv(vec(40,RightLeft,0)),vec(1),E:towa(ang()),vec(255),"",E,0)
c(2000,E:towv(vec(40,-RightLeft,0)),vec(1),E:towa(ang()),vec(255),"",E,0)
c(3000,E:towv(vec(-60,RightLeft,0)),vec(1),E:towa(ang()),vec(255),"",E,0)
c(4000,E:towv(vec(-60,-RightLeft,0)),vec(1),E:towa(ang()),vec(255),"",E,0)
#model#
#hips#
c(17,holoEntity(5):towv(vec(0,-15,50)),vec(2.5),E:towa(ang(90,90,0)),vec(255),"models/items/combine_rifle_ammo01.mdl",holoEntity(5),255)
c(18,holoEntity(6):towv(vec(0,15,50)),vec(2.5),E:towa(ang(-90,90,0)),vec(255),"models/items/combine_rifle_ammo01.mdl",holoEntity(6),255)
c(19,holoEntity(7):towv(vec(0,-15,50)),vec(2.5),E:towa(ang(90,90,0)),vec(255),"models/items/combine_rifle_ammo01.mdl",holoEntity(7),255)
c(20,holoEntity(8):towv(vec(0,15,50)),vec(2.5),E:towa(ang(-90,90,0)),vec(255),"models/items/combine_rifle_ammo01.mdl",holoEntity(8),255)

c(21,E:towv(vec(40,-15+RightLeft,0)),vec(2.5),E:towa(ang(90,90,0)),vec(255),"models/items/combine_rifle_ammo01.mdl",holoEntity(5),255)
c(22,E:towv(vec(40,15-RightLeft,0)),vec(2.5),E:towa(ang(-90,90,0)),vec(255),"models/items/combine_rifle_ammo01.mdl",holoEntity(6),255)
c(23,E:towv(vec(-70,-15+RightLeft,0)),vec(2.5),E:towa(ang(90,90,0)),vec(255),"models/items/combine_rifle_ammo01.mdl",holoEntity(7),255)
c(24,E:towv(vec(-70,15-RightLeft,0)),vec(2.5),E:towa(ang(-90,90,0)),vec(255),"models/items/combine_rifle_ammo01.mdl",holoEntity(8),255)
######
c(25,holoEntity(5):towv(vec(0,-0,45)),vec(0.7,0.9,0.6),E:towa(ang(180,0,0)),vec(255),"models/props_combine/breenpod.mdl",holoEntity(5),255)
c(26,holoEntity(6):towv(vec(0,0,45)),vec(0.7,0.9,0.6),E:towa(ang(180,0,0)),vec(255),"models/props_combine/breenpod.mdl",holoEntity(6),255)
c(27,holoEntity(7):towv(vec(-10,-0,20)),vec(0.08,0.20,0.09),E:towa(ang(90,0,0)),vec(255),"models/props_combine/CombineTrain01a.mdl",holoEntity(7),255)
c(28,holoEntity(8):towv(vec(-10,0,20)),vec(0.08,0.20,0.09),E:towa(ang(90,0,0)),vec(255),"models/props_combine/CombineTrain01a.mdl",holoEntity(8),255)

c(29,holoEntity(9):towv(vec(-0,-0,-0)),vec(1,3,1),E:towa(ang(0,0,0)),vec(255),"models/props_combine/combine_light002a.mdl",holoEntity(9),255)
c(30,holoEntity(10):towv(vec(-0,0,-0)),vec(1,3,1),E:towa(ang(0,0,0)),vec(255),"models/props_combine/combine_light002a.mdl",holoEntity(10),255)
c(31,holoEntity(11):towv(vec(0,-0,0)),vec(1,3,0.8),E:towa(ang(0,0,0)),vec(255),"models/props_combine/combine_light002a.mdl",holoEntity(11),255)
c(32,holoEntity(12):towv(vec(0,0,0)),vec(1,3,0.8),E:towa(ang(0,0,0)),vec(255),"models/props_combine/combine_light002a.mdl",holoEntity(12),255)

c(33,holoEntity(11):towv(vec(-0,0,25)),vec(3),E:towa(ang(0,0,0)),vec(255),"models/items/combine_rifle_ammo01.mdl",holoEntity(11),255)
c(34,holoEntity(12):towv(vec(-0,-0,25)),vec(3),E:towa(ang(0,0,0)),vec(255),"models/items/combine_rifle_ammo01.mdl",holoEntity(12),255)
######
#body#

c(35,E:towv(vec(30,-0,0)),vec(0.8),E:towa(ang(0,0,0)),vec(55),"models/xqm/jetenginemedium.mdl",E,255)

c(36,E:towv(vec(-20,10,-9)),vec(0.2,0.4,0.2),E:towa(ang(70,90,0)),vec(255),"models/props_combine/combine_barricade_med01a.mdl",E,255)
c(37,E:towv(vec(-40,10,-6)),vec(0.2,0.4,0.2),E:towa(ang(70,90,0)),vec(255),"models/props_combine/combine_barricade_med01a.mdl",E,255)
c(38,E:towv(vec(-60,10,-3)),vec(0.2,0.4,0.2),E:towa(ang(70,90,0)),vec(255),"models/props_combine/combine_barricade_med01a.mdl",E,255)

c(39,E:towv(vec(-20,-10,-9)),vec(0.2,0.4,0.2),E:towa(ang(70,-90,0)),vec(255),"models/props_combine/combine_barricade_med01a.mdl",E,255)
c(40,E:towv(vec(-40,-10,-6)),vec(0.2,0.4,0.2),E:towa(ang(70,-90,0)),vec(255),"models/props_combine/combine_barricade_med01a.mdl",E,255)
c(41,E:towv(vec(-60,-10,-3)),vec(0.2,0.4,0.2),E:towa(ang(70,-90,0)),vec(255),"models/props_combine/combine_barricade_med01a.mdl",E,255)

c(42,E:towv(vec(-50,-0,-7)),vec(0.2,0.4,0.8),E:towa(ang(100,0,0)),vec(255),"models/props_combine/combine_barricade_med01a.mdl",E,255)
c(43,E:towv(vec(-0,-0,-0)),vec(4.2,4.4,6.8),E:towa(ang(90,180,0)),vec(255),"models/items/combine_rifle_ammo01.mdl",E,255)

c(44,E:towv(vec(20,-0,10)),vec(0.4,0.4,0.7),E:towa(ang(-92,0,0)),vec(255),"models/props_combine/combine_barricade_med02b.mdl",E,255)

c(45,E:towv(vec(10,-30,10)),vec(0.4,0.4,0.7),E:towa(ang(0,-90,0)),vec(255),"models/props_combine/combine_barricade_short01a.mdl",E,255)
c(46,E:towv(vec(10,30,10)),vec(0.4,0.4,0.7),E:towa(ang(0,90,0)),vec(255),"models/props_combine/combine_barricade_short01a.mdl",E,255)
c(47,E:towv(vec(0,-28,8)),vec(0.4,0.4,0.6),E:towa(ang(0,-90,0)),vec(255),"models/props_combine/combine_barricade_short01a.mdl",E,255)
c(48,E:towv(vec(0,28,8)),vec(0.4,0.4,0.6),E:towa(ang(0,90,0)),vec(255),"models/props_combine/combine_barricade_short01a.mdl",E,255)
c(49,E:towv(vec(-20,-26,6)),vec(0.4,0.4,0.5),E:towa(ang(0,-90,0)),vec(255),"models/props_combine/combine_barricade_short01a.mdl",E,255)
c(50,E:towv(vec(-20,26,6)),vec(0.4,0.4,0.5),E:towa(ang(0,90,0)),vec(255),"models/props_combine/combine_barricade_short01a.mdl",E,255)
c(51,E:towv(vec(-40,-26,6)),vec(0.4,0.8,0.3),E:towa(ang(0,-90,0)),vec(255),"models/props_combine/combine_barricade_short01a.mdl",E,255)
c(52,E:towv(vec(-40,26,6)),vec(0.4,0.8,0.3),E:towa(ang(0,90,0)),vec(255),"models/props_combine/combine_barricade_short01a.mdl",E,255)

c(53,E:towv(vec(10,0,-20)),vec(0.2,0.3,0.3),E:towa(ang(90,0,0)),vec(255),"models/props_combine/combine_barricade_med02a.mdl",E,255)
#head#
c(54,E:towv(vec(50,0,15)),vec(0.8),E:towa(ang(90,90,0)),vec(255),"models/combine_helicopter/helicopter_bomb01.mdl",E,255)

c(55,E:towv(vec(35,-6,-15)),vec(2),E:towa(ang(40,-30,0)),vec(255),"models/items/combine_rifle_ammo01.mdl",E,255)
c(56,E:towv(vec(35,6,-15)),vec(2),E:towa(ang(40,30,0)),vec(255),"models/items/combine_rifle_ammo01.mdl",E,255)
c(57,E:towv(vec(35,0,-15)),vec(2),E:towa(ang(50,0,0)),vec(255),"models/items/combine_rifle_ammo01.mdl",E,255)

c(58,holoEntity(54):towv(vec(8,0,5)),vec(0.2),E:towa(ang(90,90,0)),vec(255),"models/props_combine/combine_barricade_med02a.mdl",holoEntity(54),255)
c(59,E:towv(vec(50,-10,20)),vec(0.5),E:towa(ang(90,90,0)),vec(255),"0",holoEntity(54),0)
c(60,holoEntity(54):towv(vec(-3,0,-15)),vec(1,1,1),E:towa(ang(90,90,0)),vec(255),"models/props_combine/breenlight.mdl",holoEntity(54),255)
c(61,holoEntity(54):towv(vec(-3,0,-20)),vec(0.1,0.15,0.4),E:towa(ang(-90,-90,0)),vec(255),"models/props_combine/combine_barricade_med01a.mdl",holoEntity(59),255)


c(62,holoEntity(54):towv(vec(-5,4,-15)),vec(0.2,0.4,0.2),E:towa(ang(80,-180,0)),vec(255),"models/props_combine/combine_emitter01.mdl",holoEntity(59),255)
c(63,holoEntity(54):towv(vec(-5,4,-18)),vec(0.2,0.4,0.2),E:towa(ang(80,-180,0)),vec(255),"models/props_combine/combine_emitter01.mdl",holoEntity(59),255)
c(64,holoEntity(54):towv(vec(-5,4,-21)),vec(0.2,0.4,0.2),E:towa(ang(80,-180,0)),vec(255),"models/props_combine/combine_emitter01.mdl",holoEntity(59),255)
c(65,holoEntity(54):towv(vec(-5,4,-24)),vec(0.2,0.4,0.2),E:towa(ang(80,-180,0)),vec(255),"models/props_combine/combine_emitter01.mdl",holoEntity(59),255)
c(66,holoEntity(54):towv(vec(-5,4,-27)),vec(0.2,0.4,0.2),E:towa(ang(80,-180,0)),vec(255),"models/props_combine/combine_emitter01.mdl",holoEntity(59),255)
c(67,holoEntity(54):towv(vec(-5,4,-30)),vec(0.2,0.4,0.2),E:towa(ang(80,-140,0)),vec(255),"models/props_combine/combine_emitter01.mdl",holoEntity(59),255)

c(68,holoEntity(54):towv(vec(-5,2,-32)),vec(0.2,0.2,0.2),E:towa(ang(80,-90,0)),vec(255),"models/props_combine/combine_emitter01.mdl",holoEntity(59),255)
c(69,holoEntity(54):towv(vec(-5,-2,-32)),vec(0.2,0.2,0.2),E:towa(ang(80,-90,0)),vec(255),"models/props_combine/combine_emitter01.mdl",holoEntity(59),255)
######
######
}
if(holoEntity(69)&!holoEntity(70)){
c(70,holoEntity(54):towv(vec(-5,-4,-15)),vec(0.2,0.4,0.2),E:towa(ang(80,-0,0)),vec(255),"models/props_combine/combine_emitter01.mdl",holoEntity(59),255)
}
if(holoEntity(70)&!holoEntity(71)){
 c(71,holoEntity(54):towv(vec(-5,-4,-18)),vec(0.2,0.4,0.2),E:towa(ang(-80,90,0)),vec(255),"models/props_combine/combine_emitter01.mdl",holoEntity(59),255)
c(72,holoEntity(54):towv(vec(-5,-4,-21)),vec(0.2,0.4,0.2),E:towa(ang(-80,90,0)),vec(255),"models/props_combine/combine_emitter01.mdl",holoEntity(59),255)
c(73,holoEntity(54):towv(vec(-5,-4,-24)),vec(0.2,0.4,0.2),E:towa(ang(-80,90,0)),vec(255),"models/props_combine/combine_emitter01.mdl",holoEntity(59),255)
c(74,holoEntity(54):towv(vec(-5,-4,-27)),vec(0.2,0.4,0.2),E:towa(ang(-80,90,0)),vec(255),"models/props_combine/combine_emitter01.mdl",holoEntity(59),255)
c(75,holoEntity(54):towv(vec(-5,-4,-30)),vec(0.2,0.4,0.2),E:towa(ang(-80,130,0)),vec(255),"models/props_combine/combine_emitter01.mdl",holoEntity(59),255)
   
c(76,holoEntity(54):towv(vec(6,0,-10)),vec(0.1,0.10,0.1),E:towa(ang(-90,180,0)),vec(255),"models/props_combine/combine_barricade_med02c.mdl",holoEntity(54),255)
}
if(holoEntity(76)&!holoEntity(77)){
 c(77,holoEntity(54):towv(vec(-4,3,-10)),vec(0.15,0.15,0.15),E:towa(ang(0,90,0)),vec(255),"models/props_combine/combine_barricade_med01a.mdl",holoEntity(54),255)
c(78,holoEntity(54):towv(vec(-4,-3,-10)),vec(0.15,0.15,0.15),E:towa(ang(0,-90,0)),vec(255),"models/props_combine/combine_barricade_med01a.mdl",holoEntity(54),255)

c(79,holoEntity(54):towv(vec(-4,3,-10)),vec(0.15,0.15,0.15),E:towa(ang(0,90,0)),vec(255),"models/props_combine/combine_barricade_med01a.mdl",holoEntity(54),255)
c(80,holoEntity(54):towv(vec(-4,-3,-10)),vec(0.15,0.15,0.15),E:towa(ang(0,-90,0)),vec(255),"models/props_combine/combine_barricade_med01a.mdl",holoEntity(54),255)
   
c(81,holoEntity(54):towv(vec(2,0,-23)),vec(0.1,0.15,0.3),E:towa(ang(-90,0,0)),vec(255),"models/props_combine/combine_barricade_med01a.mdl",holoEntity(54),255)

}
if(holoEntity(81)&!holoEntity(82)){
c(82,holoEntity(54):towv(vec(3,4,-16)),vec(0.2,0.4,0.2),E:towa(ang(80,90,0)),vec(255),"models/props_combine/combine_emitter01.mdl",holoEntity(54),255)
c(83,holoEntity(54):towv(vec(3,4,-19)),vec(0.2,0.4,0.2),E:towa(ang(80,90,0)),vec(255),"models/props_combine/combine_emitter01.mdl",holoEntity(54),255)
c(84,holoEntity(54):towv(vec(3,4,-22)),vec(0.2,0.4,0.2),E:towa(ang(80,90,0)),vec(255),"models/props_combine/combine_emitter01.mdl",holoEntity(54),255)
c(85,holoEntity(54):towv(vec(3,4,-25)),vec(0.2,0.4,0.2),E:towa(ang(80,90,0)),vec(255),"models/props_combine/combine_emitter01.mdl",holoEntity(54),255)
}
if(holoEntity(85)&!holoEntity(86)){
    c(86,holoEntity(54):towv(vec(3,4,-28)),vec(0.2,0.4,0.2),E:towa(ang(80,90,0)),vec(255),"models/props_combine/combine_emitter01.mdl",holoEntity(54),255)
c(87,holoEntity(54):towv(vec(3,4,-31)),vec(0.2,0.4,0.2),E:towa(ang(80,90,0)),vec(255),"models/props_combine/combine_emitter01.mdl",holoEntity(54),255)

c(88,holoEntity(54):towv(vec(3,4,-32)),vec(0.2,0.2,0.2),E:towa(ang(80,50,0)),vec(255),"models/props_combine/combine_emitter01.mdl",holoEntity(54),255)
c(89,holoEntity(54):towv(vec(3,2,-32)),vec(0.2,0.2,0.2),E:towa(ang(80,0,0)),vec(255),"models/props_combine/combine_emitter01.mdl",holoEntity(54),255)
c(90,holoEntity(54):towv(vec(3,-2,-32)),vec(0.2,0.2,0.2),E:towa(ang(80,0,0)),vec(255),"models/props_combine/combine_emitter01.mdl",holoEntity(54),255)
c(91,holoEntity(54):towv(vec(3,-4,-32)),vec(0.2,0.2,0.2),E:towa(ang(80,-50,0)),vec(255),"models/props_combine/combine_emitter01.mdl",holoEntity(54),255)
c(92,holoEntity(54):towv(vec(3,-2,-32)),vec(0.2,0.2,0.2),E:towa(ang(80,0,0)),vec(255),"models/props_combine/combine_emitter01.mdl",holoEntity(54),255)

c(93,holoEntity(54):towv(vec(3,-4,-15)),vec(0.2,0.2,0.2),E:towa(ang(80,-90,0)),vec(255),"models/props_combine/combine_emitter01.mdl",holoEntity(54),255)
c(94,holoEntity(54):towv(vec(3,-4,-18)),vec(0.2,0.2,0.2),E:towa(ang(80,-90,0)),vec(255),"models/props_combine/combine_emitter01.mdl",holoEntity(54),255)
c(95,holoEntity(54):towv(vec(3,-4,-21)),vec(0.2,0.2,0.2),E:towa(ang(80,-90,0)),vec(255),"models/props_combine/combine_emitter01.mdl",holoEntity(54),255)
}
if(holoEntity(95)&!holoEntity(96)){
 c(96,holoEntity(54):towv(vec(3,-4,-24)),vec(0.2,0.2,0.2),E:towa(ang(80,-90,0)),vec(255),"models/props_combine/combine_emitter01.mdl",holoEntity(54),255)
c(97,holoEntity(54):towv(vec(3,-4,-27)),vec(0.2,0.2,0.2),E:towa(ang(80,-90,0)),vec(255),"models/props_combine/combine_emitter01.mdl",holoEntity(54),255)
c(98,holoEntity(54):towv(vec(3,-4,-30)),vec(0.2,0.2,0.2),E:towa(ang(80,-90,0)),vec(255),"models/props_combine/combine_emitter01.mdl",holoEntity(54),255)
   c(99,holoEntity(54):towv(vec(9,-0,-30)),vec(0.4,0.4,0.4),E:towa(ang(-90,0,0)),vec(255),"models/props_combine/breenpod_inner.mdl",holoEntity(54),255)
}
if(holoEntity(99)&!holoEntity(100)){
      c(100,holoEntity(54):towv(vec(-8,-0,-35)),vec(0.4,0.4,0.4),E:toWorld(ang(270,0,0)),vec(255),"models/props_combine/breenpod_inner.mdl",holoEntity(59),255)
}
if(holoEntity(100)&!holoEntity(101)){
     
       c(101,holoEntity(54):towv(vec(2,-8,-5)),vec(1),E:towa(ang(90,0,0)),vec(255),"models/items/combine_rifle_ammo01.mdl",holoEntity(54),255)
          c(102,holoEntity(54):towv(vec(2,8,-5)),vec(1),E:towa(ang(90,0,0)),vec(255),"models/items/combine_rifle_ammo01.mdl",holoEntity(54),255)
             c(103,holoEntity(54):towv(vec(10,-10,5)),vec(1),E:towa(ang(90,0,0)),vec(255),"models/items/combine_rifle_ammo01.mdl",holoEntity(54),255)
          c(104,holoEntity(54):towv(vec(10,10,5)),vec(1),E:towa(ang(90,0,0)),vec(255),"models/items/combine_rifle_ammo01.mdl",holoEntity(54),255)
            c(105,holoEntity(54):towv(vec(10,-10,5)),vec(1),E:towa(ang(90,0,0)),vec(255),"models/items/combine_rifle_ammo01.mdl",holoEntity(54),255)
          c(106,holoEntity(54):towv(vec(10,10,5)),vec(1),E:towa(ang(90,0,0)),vec(255),"models/items/combine_rifle_ammo01.mdl",holoEntity(54),255)
       
}
if(holoEntity(106)&!holoEntity(107)){
   
              c(107,E:towv(vec(-55,0,0)),vec(1),E:towa(ang(90,0,0)),vec(255),"models/items/combine_rifle_ammo01.mdl",E,255)
              c(108,E:towv(vec(-100,0,0)),vec(3),E:towa(ang(90,0,0)),vec(255),"models/items/combine_rifle_ammo01.mdl",None,255)
              c(109,E:towv(vec(-110,0,0)),vec(2.8),E:towa(ang(90,0,0)),vec(255),"models/items/combine_rifle_ammo01.mdl",None,255)
              c(110,E:towv(vec(-120,0,0)),vec(2.4),E:towa(ang(90,0,0)),vec(255),"models/items/combine_rifle_ammo01.mdl",None,255)
              c(111,E:towv(vec(-130,0,0)),vec(2.2),E:towa(ang(90,0,0)),vec(255),"models/items/combine_rifle_ammo01.mdl",None,255)
             c(112,E:towv(vec(-140,0,0)),vec(1.9,1.9,7),E:towa(ang(90,0,0)),vec(255),"models/items/combine_rifle_ammo01.mdl",None,255)
}

####combine sniper###
if(holoEntity(112)&!holoEntity(113)){
c(113,E:towv(vec(-50,-20,10)),vec(1),E:towa(ang(0,0,0)),vec(255),"",E,0)
 c(114,E:towv(vec(-10,-20,10)),vec(1),E:towa(ang(0,0,0)),vec(255),"",holoEntity(113),0)
c(115,E:towv(vec(-50,-20,10)),vec(1),E:towa(ang(0,0,0)),vec(55),"",holoEntity(114),0)

}
if(holoEntity(115)&!holoEntity(116)){

c(116,E:towv(vec(-50,-10,10)),vec(2),E:towa(ang(-90,90,0)),vec(255),"models/items/combine_rifle_ammo01.mdl",holoEntity(113),255)
 c(117,E:towv(vec(-10,-10,10)),vec(2),E:towa(ang(-90,90,0)),vec(255),"models/items/combine_rifle_ammo01.mdl",holoEntity(114),255)
c(118,E:towv(vec(-50,-20,10)),vec(0.6),E:towa(ang(-90,90,0)),vec(255),"models/combine_helicopter/helicopter_bomb01.mdl",holoEntity(115),255)

c(119,E:towv(vec(-10,-20,10)),vec(1),E:towa(ang(-90,0,0)),vec(255),"models/props_combine/combine_light002a.mdl",holoEntity(113),255)
 c(120,E:towv(vec(-10,-20,10)),vec(1),E:towa(ang(-90,0,0)),vec(255),"models/props_combine/combine_light002a.mdl",holoEntity(114),255)
} 
if(holoEntity(120)&!holoEntity(121)){
 c(121,E:towv(vec(-50,-20,10)),vec(3,3,4),E:towa(ang(90,0,0)),vec(255),"models/items/combine_rifle_ammo01.mdl",holoEntity(115),255)
    c(122,E:towv(vec(-4,-20,10)),vec(2,2,5),E:towa(ang(-90,0,0)),vec(255),"models/props_combine/breenlight.mdl",holoEntity(115),255)
   c(123,E:towv(vec(-40,-20,15)),vec(0.7),E:towa(ang(0,0,0)),vec(255),"models/props_combine/combine_emitter01.mdl",holoEntity(115),255)
  
}
#####################
C++
if(Driver){
if(Space){
    holoa(107,E:towa(ang(-90,0,cos(C*35)*25)))
}else{
holoa(107,E:towa(ang(-90,0,0)))
}
}
if(!Driver){
 holoa(107,E:towa(ang(-90,0,cos(C*20)*25)))   
}
if(tickInterval()){
ik(50,50,holoEntity(5):pos(),holoEntity(1):pos(),5,9,E)
ik(50,50,holoEntity(6):pos(),holoEntity(2):pos(),6,10,E)
ik(50,50,holoEntity(7):pos(),holoEntity(4):pos(),7,11,E)
ik(50,50,holoEntity(8):pos(),holoEntity(3):pos(),8,12,E)

if(changed(RRR)&RRR){
 E:plays(5,1,"buttons/button5.wav")   
}
if(changed(!RRR)&!RRR){
     E:plays(6,1,"buttons/button6.wav")   
}
if(RRR){
 if(MouthOpen < 40){
MouthOpen = MouthOpen * 1 + 8
}   
if(MouthOpen<40){
holoa(59,holoEntity(54):towa(ang(0+MouthOpen,0,0)))
}
if(MouthOpen > 25){
    timer("b",600)
    if(clk("b")){
 Bom1 = propSpawn("models/props_junk/wood_crate001a.mdl",holoEntity(60):towv(vec(0,0,0)),0)
Bom1:setAlpha(0)
Bom1:setTrails(30,0,1,"trails/smoke",vec(20),255)
Bom1:propGravity(0)
Bom1:setMass(500)
Bom1:applyf(holoEntity(60):up()*Bom1:mass()*-500000)
Bom1:setAng(holoEntity(60):angles()+ang(90,0,0))
E:plays(7,0.7,"ambient/explosions/explode_1.wav")
soundPitch(7,120)
}
}
}
timer("del",5000)
if(clk("del")){
 Bom1:propDelete()   
}
Bom1:propFreeze(0)
if(changed(Bom1)&Bom1){
Bom1:applyf(Driver:eye()*Bom1:mass()*500000)
}
N9 = owner():keyPressed("pad_9")
if(changed(N9)&N9){Lock += 1}
if(changed(Lock == 1)&Lock == 1){
Protect = 1
print("Mech Locked!")   
}
if(Protect == 1){
 if(Driver!=owner()){
Seat:killPod() 
Seat:printColorDriver(vec(255,0,0),"Next time ask !")  
}
}

if(changed(Lock == 0)&Lock == 0){print("Mech unLocked!") Protect = 0}
if(changed(Lock == 2)&Lock == 2){Lock = 0}

if(changed(Driver)&Driver){
 E:plays(8,1,"hl1/fvox/activated.wav")   
soundPitch(8,80)
}
if(changed(!Driver)&!Driver){
 E:plays(9,1,"hl1/fvox/deactivated.wav")   
soundPitch(9,80)
}
if(!RRR){
    holoa(59,holoEntity(54):towa(ang(0+MouthOpen,0,0)))
if(MouthOpen>1){
MouthOpen = MouthOpen * 1 -8
}
if(MouthOpen<5){
    AngC++
    if(holoEntity(106)){
holoa(59,holoEntity(54):towa(ang(5+cos(AngC*15)*5,0,0)))
}
}
}
if(Driver){
local HeadAngle = clamp(E:toLocal(Driver:eyeAngles()),ang(-45,-55,-180),ang(45,55,180))
holoa(54, E:towa(HeadAngle) + ang(-90,0,0))
}else{
holoa(54,E:towa(ang(-90,0,0)))
}
holoa(40000,ang(0,E:angles():yaw(),0))
holoa(30000,ang(0,E:angles():yaw(),0))
holoa(13,ang(0,E:angles():yaw(),0))
holoa(14,ang(0,E:angles():yaw(),0))

}
if(!tickClk()){
if(!Shift&Snipermode == 0){
      rangerFilter(E)
 R1 = rangerOffset(190,E:towv(vec(60+(W-S)*Step,RightLeft+(A-D)*Step,0)),vec(0,0,-1)):position() 
rangerFilter(E)
R2 = rangerOffset(190,E:towv(vec(60+(W-S)*Step,-RightLeft+(A-D)*Step,0)),vec(0,0,-1)):position()  
rangerFilter(E)
        rangerFilter(E)
 R3 = rangerOffset(190,E:towv(vec(-60+(W-S)*Step,-RightLeft+(A-D)*Step,0)),vec(0,0,-1)):position() 

rangerFilter(E)
 R4 = rangerOffset(190,E:towv(vec(-60+(W-S)*Step,RightLeft+(A-D)*Step,0)),vec(0,0,-1)):position()  

}
if(Shift&Snipermode == 0){
      rangerFilter(E)
 R1 = rangerOffset(190,E:towv(vec(60+(W-S)*Step,RightLeft,0)),vec(0,0,-1)):position() 

rangerFilter(E)
 R2 = rangerOffset(190,E:towv(vec(60+(W-S)*Step,-RightLeft,0)),vec(0,0,-1)):position()  

        rangerFilter(E)
 R3 = rangerOffset(190,E:towv(vec(-60+(W-S)*Step/2,-RightLeft,0)),vec(0,0,-1)):position() 

rangerFilter(E)
 R4 = rangerOffset(190,E:towv(vec(-60+(W-S)*Step/2,RightLeft,0)),vec(0,0,-1)):position()  

}
if(Snipermode == 1){
          rangerFilter(E)
 R1 = rangerOffset(190,E:towv(vec(60+PlusSniperMode,RightLeft+PlusSniperMode,0)),vec(0,0,-1)):position() 

rangerFilter(E)
 R2 = rangerOffset(190,E:towv(vec(60+PlusSniperMode,-RightLeft-PlusSniperMode,0)),vec(0,0,-1)):position()  

        rangerFilter(E)
 R3 = rangerOffset(190,E:towv(vec(-60-PlusSniperMode,-RightLeft-PlusSniperMode,0)),vec(0,0,-1)):position() 

rangerFilter(E)
 R4 = rangerOffset(190,E:towv(vec(-60-PlusSniperMode,RightLeft+PlusSniperMode,0)),vec(0,0,-1)):position()  

}
Pos1 += (tickInterval()*SpeedStep) * clamp(T1 - Pos1,-25,50) * StepC 
Pos2 += (tickInterval()*SpeedStep) * clamp(T2 - Pos2,-25,50) * StepC 
Pos3 += (tickInterval()*SpeedStep) * clamp(T3 - Pos3,-25,50) * StepC 
Pos4 += (tickInterval()*SpeedStep) * clamp(T4 - Pos4,-25,50) * StepC 
if(!Shift&WallC == 0&Snipermode == 0){
holop(1000,E:towv(vec(60+(W-S)*Step,RightLeft+(A-D)*Step,0)))
holop(2000,E:towv(vec(60+(W-S)*Step,-RightLeft+(A-D)*Step,0)))
holop(3000,E:towv(vec(-60+(W-S)*Step,-RightLeft+(A-D)*Step,0)))
holop(4000,E:towv(vec(-60+(W-S)*Step,RightLeft+(A-D)*Step,0)))
}
if(Shift&WallC == 0&Snipermode == 0){
 holop(1000,E:towv(vec(60+(W-S)*Step,RightLeft+(A-D)*Step,0)))
holop(2000,E:towv(vec(60+(W-S)*Step,-RightLeft+(A-D)*Step,0)))
holop(3000,E:towv(vec(-60+(W-S)*Step/2,-RightLeft+(A-D)*Step,0)))
holop(4000,E:towv(vec(-60+(W-S)*Step/2,RightLeft+(A-D)*Step,0)))   
}
if(WallC == 1&Snipermode == 0){
     holop(1000,E:towv(vec(60+(W-S)*Step/4,RightLeft+(A-D)*Step/4,0)))
holop(2000,E:towv(vec(60+(W-S)*Step/4,-RightLeft+(A-D)*Step/4,0)))
holop(3000,E:towv(vec(-60+(W-S)*Step/4,-RightLeft+(A-D)*Step/4,0)))
holop(4000,E:towv(vec(-60+(W-S)*Step/4,RightLeft+(A-D)*Step/4,0)))   
}
if(Snipermode == 1){
     holop(1000,E:towv(vec(60+PlusSniperMode,RightLeft+PlusSniperMode,0)))
holop(2000,E:towv(vec(60+PlusSniperMode,-RightLeft-PlusSniperMode,0)))
holop(3000,E:towv(vec(-60-PlusSniperMode,-RightLeft-PlusSniperMode,0)))
holop(4000,E:towv(vec(-60-PlusSniperMode,RightLeft+PlusSniperMode,0)))   
}
if(holoEntity(1):pos():distance(R1)>11){
holop(1,Pos1 + E:up() * -sin(T1:distance(Pos1) / M1 * 180 - 180) * clamp(StepC,0,Up))
}
if(holoEntity(2):pos():distance(R2)>11){
holop(2,Pos2 + E:up() * -sin(T2:distance(Pos2) / M2 * 180 - 180) * clamp(StepC,0,Up))
}
if(holoEntity(3):pos():distance(R3)>11){
holop(3,Pos3 + E:up() * -sin(T3:distance(Pos3) / M3 * 180 - 180) * clamp(StepC,0,Up))
}
if(holoEntity(4):pos():distance(R4)>11){
holop(4,Pos4 + E:up() * -sin(T4:distance(Pos4) / M4 * 180 - 180) * clamp(StepC,0,Up))
}

if(!Shift&Snipermode == 0){
if(clk("1")){
   T1 = E:towv(vec(60+(W-S)*Step,RightLeft+(A-D)*Step,-(holoEntity(1000):pos():distance(R1) - 5)))   
   T3 = E:towv(vec(-60+(W-S)*Step+(-Step/2*Shift),-RightLeft+(A-D)*Step,-(holoEntity(3000):pos():distance(R3) - 5)))
    M1 = T1:distance(Pos1)
    M3 = T3:distance(Pos3)
    StepC = clamp((M1 + M3) / 6,0,50)
    timer("2",Time)
}

if(clk("2")){
    T2 = E:towv(vec(60+(W-S)*Step ,-RightLeft+(A-D)*Step,-(holoEntity(2000):pos():distance(R2) - 5)))   
    T4 = E:towv(vec(-60+(W-S)*Step+(-Step/2*Shift) ,RightLeft+(A-D)*Step,-(holoEntity(4000):pos():distance(R4) - 5)))
    M2 = T2:distance(Pos2)
    M4 = T4:distance(Pos4)
    StepC = clamp((M2 + M4) / 6,0,50)
    timer("1",Time)
}
}
if(Shift&Snipermode == 0){

if(clk("1")){
    T1 = E:towv(vec(60+(W-S)*Step,RightLeft,-(holoEntity(1000):pos():distance(R1) - 5)))   
    T2 = E:towv(vec(60+(W-S)*Step,-RightLeft,-(holoEntity(2000):pos():distance(R2) - 5)))
    M1 = T1:distance(Pos1)
    M2 = T3:distance(Pos2)
    StepC = clamp((M1 + M2) / 6,0,50)
    timer("2",Time/1.5)
}
if(clk("2")){
        T3 = E:towv(vec(-60+(W-S)*Step/2 ,-RightLeft,-(holoEntity(3000):pos():distance(R3) - 5)))   
    T4 = E:towv(vec(-60+(W-S)*Step/2 ,RightLeft,-(holoEntity(4000):pos():distance(R4) - 5)))
    M3 = T3:distance(Pos3)
    M4 = T4:distance(Pos4)
    StepC = clamp((M3 + M4) / 6,0,50)
    timer("1",Time)
}
}
if(Snipermode == 1){
 if(clk("1")){
   T1 = E:towv(vec(60+PlusSniperMode,RightLeft+PlusSniperMode,-(holoEntity(1000):pos():distance(R1) - 5)))   
      M1 = T1:distance(Pos1)
    StepC = clamp((M1) / 6,0,50)
timer("2",Time) 
}
 if(clk("2")){
   T2 = E:towv(vec(60+PlusSniperMode,-RightLeft-PlusSniperMode,-(holoEntity(2000):pos():distance(R2) - 5)))   
      M2 = T2:distance(Pos2)
    StepC = clamp((M2) / 6,0,50)
timer("3",Time)   
}  
if(clk("3")){
      T3 = E:towv(vec(-60-PlusSniperMode,-RightLeft-PlusSniperMode,-(holoEntity(3000):pos():distance(R3) - 5)))   
      M3 = T3:distance(Pos3)
    StepC = clamp((M3) / 6,0,50)
    timer("4",Time)
}
if(clk("4")){
   T4 = E:towv(vec(-60-PlusSniperMode,RightLeft+PlusSniperMode,-(holoEntity(4000):pos():distance(R4) - 5)))   
      M4 = T4:distance(Pos4)
    StepC = clamp((M4) / 6,0,50)
timer("1",Time)   
}
}
}
if(WallC == 0){
if(changed(T1)&T1&holoEntity(1):pos():distance(R1)>11){
 holoEntity(1):plays(1,0.7,"mvm/giant_common/giant_common_step_0"+randint(1,8)+".wav")   
}

if(changed(T2)&T2&holoEntity(2):pos():distance(R2)>11){
 holoEntity(2):plays(2,0.7,"mvm/giant_common/giant_common_step_0"+randint(1,8)+".wav")   
}
if(changed(T3)&T3&holoEntity(3):pos():distance(R3)>11){
 holoEntity(3):plays(3,1,"mvm/giant_common/giant_common_step_0"+randint(1,8)+".wav")   
}
if(changed(T4)&T4&holoEntity(4):pos():distance(R4)>11){
 holoEntity(4):plays(4,1,"mvm/giant_common/giant_common_step_0"+randint(1,8)+".wav")   
}
}
if(Shift){
 MAL = 6 
}else{
MAL= 4
}
if(WallC == 0){
    if(Snipermode == 0){
 Vector = (holoEntity(1):pos()+holoEntity(2):pos()+holoEntity(3):pos()+holoEntity(4):pos())/4
}
if(Snipermode==1){
 Vector = (R1+R2+R3+R4)/4   
}
local Vect = (((Vector + vec(0,0,Height)) - (E:pos()-vec(0,0,0)))*MAL )*E:mass()
local Vel =-E:vel()*E:mass()*1
local Y = vec(Driver:eye():dot(E:right()),Driver:eye():dot(E:right()),0):y()
if(Driver){
    if(Space){
        JumpAng = 15
    Height = 60  
    }
    if(Alt|Snipermode == 1){
     Height = 40   
    }else{
 Height = 60   
}
}

if(!Driver){
Height = 30
}
if(Snipermode == 0){
 ROt = 30   
}else{
ROt=6
}
E:applya(((ang(JumpAng,E:angles():yaw()-Y*ROt,0)-E:angles())*E:mass()*5)-E:angVel()*E:mass()*2)
Max = 500
if(!Shift){
E:applyf(Vect*2 + Vel)
}
if(Charge > Max-20){
 E:applyf(E:forward()*Charge + E:up()*Charge) *E:mass()*2  
}
if(Shift&Snipermode == 0){
E:applyf(E:forward()*E:mass()*500*(W-S)*!(A|D)+Vel+Vect)
}
}
#if(Charge > 40){
 #E:applyf(JumpAnim*E:mass())   
#}
#tail angles#

if(!tickClk()){
tail(108,107,10)
tail(109,108,31)
tail(110,109,31)
tail(111,110,24)
tail(112,111,20)
}
if(first()|!holoEntity(1234)){
    holoCreate(1234)
    holoModel(1234,"hq_torus")
    holoColor(1234,vec(0,255,0))
    holoScale(1234,vec(3,3,3))
    holoMaterial(1234,"debug/debugdrawflat")
}
if(Driver){
 holop(1234,Driver:aimPos()+vec(0,0,40))   
}
####flymode####
Fkey = Driver:keyPressed("F")
if(Space){
WallC =1
}
if(!Space&RangerTOGround < OnGround){
 WallC =0   
}

if(WallC ==1){
  
    local X = vec(Driver:eye():dot(E:up()),0,Driver:eye():dot(E:up())):z()
    local Y = vec(Driver:eye():dot(E:right()),Driver:eye():dot(E:right()),0):y()
    E:applya(((ang(-X*50,E:angles():yaw()-Y*50,0)-E:angles())*E:mass()*5)-E:angVel()*E:mass()*2)
    E:applyf(E:forward()*E:mass()*-X*1500+E:up()*E:mass()*200*(Space-Shift)-E:vel()*E:mass()*1-X*1500+E:right()*E:mass()*-Y*500)
local    VeloSpeed1 = E:velL():x() /10
local    VeloSpeed2 = E:velL():y() /10
local    VeloSpeed3 = E:velL():z() /10
    holop(1,E:towv(vec(70-VeloSpeed1,RightLeft+20-VeloSpeed2,-40-VeloSpeed3)))
       holop(2,E:towv(vec(70-VeloSpeed1,-RightLeft-20-VeloSpeed2,-40-VeloSpeed3)))
       holop(4,E:towv(vec(-70-VeloSpeed1,RightLeft+20-VeloSpeed2,-40-VeloSpeed3)))
       holop(3,E:towv(vec(-70-VeloSpeed1,-RightLeft-20-VeloSpeed2,-40-VeloSpeed3)))
    holoParent(1,E)
    holoParent(2,E)
    holoParent(3,E)
    holoParent(4,E)
}
else
{
 holoUnparent(1)   
 holoUnparent(2)   
 holoUnparent(3)   
 holoUnparent(4)   
}
################
 N8 = owner():keyPressed("pad_8")
if(changed(N8)&N8){Lock2 += 1}
if(changed(Lock2 == 1)&Lock2 == 1){    print("Mech Chip is now solid!") entity():propNotSolid(0)   }
if(changed(Lock2 == 0)&Lock2 == 0){print("Mech Chip is now not solid") entity():propNotSolid(1) }
if(changed(Lock2 == 2)&Lock2 == 2){Lock2 = 0}
#####################

#if(changed(Snipermode1==1)&Snipermode1==1){
 #Snipermode =1   
#}
#if(changed(Snipermode1==0)&Snipermode1==0){
 #Snipermode =0   
#}

if(changed(Snipermode == 1)){
 timer("1",0)   
}
if(changed(Snipermode == 0)){
 timer("1",0)   
}
if(Snipermode == 1){
 if(changed(Bom1)){
 E:applyForce(holoEntity(54):up()*E:mass()*200)   
}   
}
if(Snipermode == 0){
     if(changed(Bom1)){
 E:applyForce(holoEntity(54):up()*E:mass()*300)   
}  
}

if(!Driver){
WallC = 0   
Snipermode = 0
}

#####sniper####
if(Snipermode == 1){
if(SniperMove < 45){
SniperMove = SniperMove * 1 + 4
}
holoa(113,E:towa(ang(-SniperMove,0,0)))
holoa(114,E:towa(ang(SniperMove,0,0)))
if(changed(SniperMove > 36)&SniperMove > 36){
    holoEntity(122):soundPlay(10,999999999999999999999,"ambient/machines/turbine_loop_2.wav")
}
if(SniperMove > 36){
    if(Pitch < 100){
    Pitch = Pitch + 2
    soundPitch(10,Pitch)
}
holoa(115,Driver:eyeAngles())


if(!holoEntity(12345)){
      holoCreate(12345)
    holoAlpha(12345,0)
}
timer("reloadP",2000)

    if(Driver:keyAttack2()&clk("reloadP")){
    Pga=propSpawn("models/props_phx/cannonball_solid.mdl",holoEntity(122):toWorld(vec(0,0,0)),0)
                Pga:setTrails(30,0,5,"trails/laser",vec(0,255,0),255)
           
                   holoPos(12345,holoEntity(122):pos())
           
  holoEntity(12345):setTrails(30,0,1.5,"trails/smoke",vec(0,0,0),255)  
           
                holoAlpha(12345,0)
}
if(changed(Pga)&Pga){ Driver:soundPlay(21,1,"ambient/energy/weld2.wav") }
if(changed(Pga)&Pga){
timer("clk",50)}
if(changed(clk("clk"))&clk("clk")){
holoPos(12345,holoEntity(1234):pos()+vec(0,0,-10))
}
if(changed(Pga)&Pga){   
Pga:setPos(holoEntity(1234):pos()+vec(0,0,-10))
Pga:propBreak()   
 timer("holod",2000)
}
if(clk("holod")){ holoEntity(12345):removeTrails()  } 




}
}
if(SniperMove < 36){
holoa(115,E:angles())
}

if(Snipermode == 0&Pitch > 2){
 Pitch = Pitch - 2   
    soundPitch(10,Pitch)
}
if(Snipermode == 0&SniperMove > 1){
    SniperMove = SniperMove * 1 - 4
holoa(113,E:towa(ang(-SniperMove,0,0)))
holoa(114,E:towa(ang(SniperMove,0,0)))
if(SniperMove < 36){
holoa(115,E:angles())
}
}



#############
