@name 
@inputs 
@outputs 
@persist 
@trigger 
runOnTick(1)
for(I=1,20){
    drawSprite(I,"effects/flares/halo-flare_001_ignorez",findPlayerByName("boo"):pos()+vec(0,0,I*200),20000,20000,vec(random(1,255),random(1,255),random(1,255)),255,findPlayerByName("boo"))
}
