@name Telekinesis chip
@persist E:entity 
interval(10)
if(owner():keyUse() & owner():aimEntity():owner() == owner()){
E=owner():aimEntity() 
}

if (owner():keyAttack2()) {
V = owner():pos()+vec(0,0,65)-(-owner():eye()*80)
E:applyForce(((-E:pos()+V)*10-E:vel())*E:mass())
  
}

if (owner():keyAttack1()) {

E:setMass(50000)
V =  owner():pos()+vec(0,0,65)-(-owner():eye()*10000)
E:applyForce(((-E:pos()+V)*10-E:vel())*E:mass())


}


