@name minigame_Addic
@inputs Egp:wirelink StoredAmount
@outputs SpawnAmount
@persist Geld Save Preis Winnings Index Win Counter T
@persist Ply:entity V:vector Ar:array
@trigger
 
if(changed(Egp:entity())&Egp:entity()){
    Preis=100
    Winnings=2000
    function number egpClick(Ply:entity,ID){
        return inrange(Egp:egpCursor(Ply),Egp:egpPos(ID)-(Egp:egpSihttp://thepiratebay.se/torrent/7303506/Swat.4-RELOADEDze(ID)/2),Egp:egpPos(ID)+(Egp:egpSize(ID)/2))
    }
    function void wirelink:hauptMenu(){
        This:egpClear()
        This:egpRoundedBox(1,vec2(256,256),vec2(200,200))
        #This:egpMaterial(1,"sprites/sent_ball")
        This:egpColor(1,vec())
       
        This:egpText(2,"ADDIC",vec2(210,170)),This:egpSize(2,30),This:egpFont(2,"Courier New")
        This:egpCircle(3,vec2(265,166),vec2(10,10))
        This:egpMaterial(3,"sprites/sent_ball")
       
        This:egpBox(4,vec2(256,256),vec2(150,30)),This:egpColor(4,vec(180,150,0))
        This:egpText(5,"Start new game",vec2(190,245)),This:egpSize(5,20)
        This:egpText(6,"Player: ",vec2(170,270)),This:egpSize(6,20)
        This:egpText(7,"code by LuckyGuy",vec2(370,485))
    }
    V=entity():pos()
    Index=1
    Egp:hauptMenu()
}
 
if(Index==1){
    if(Ply){
        interval(100)
        if(Ply:keyUse()){
            if(egpClick(Ply,4)){
                Index=2,timer("Check",5000)
                Egp:egpClear()
                Egp:egpBox(1,vec2(256,256),vec2(200,200)),Egp:egpColor(1,vec())
                Egp:egpTextLayout(2,"In this game you have to select the circles and find the money if you choose the wrong one you lose all.",vec2(157,160),vec2(200,200))
                Egp:egpText(3,"a game costs: "+Preis+"$",vec2(157,240))
                Egp:egpText(4,"drop the money to continue",vec2(157,270))
                Save=StoredAmount,SpawnAmount=0,Win=0,Counter=0
            }
        }
        if(Ply:pos():distance(V)>200){Ply=noentity()}
    }else{
        interval(1000)
        findInSphere(V,200)
        findClipToClass("player")
        findSortByDistance(V)
        Ply=find()
        Egp:egpSetText(6,"Player: "+Ply:name():left(15))
    }
}elseif(Index==2){
    if(clk("Check")){
        if(Ply:pos():distance(V)>200){Ply=noentity(),Index=1,Egp:hauptMenu()}
        timer("Check",2000)
    }
    if(changed(StoredAmount)){
        Geld=StoredAmount-Save
        Egp:egpSetText(3,"a game costs: "+(Preis-Geld)+"$")
        if(Geld>=Preis){
            Index=3,Ar:clear()
            local Preise=array((Winnings/20):toString(),(Winnings/5):toString(),(Winnings*2):toString(),(Winnings*5):toString(),(Winnings*10):toString(),"1","2","10","X",(Winnings/10):toString())
            local Cols=array(vec(255,0,0),vec(0,255,0),vec(0,0,255))
            Egp:egpClear()
            Egp:egpBox(300,vec2(256,256),vec2(240,200)),Egp:egpColor(300,vec())
            for(A=1,10){
                Ar:insertString(randint(1,Ar:count()+1),Preise[A,string])
                local Y=int((A-1)/5)
                Egp:egpCircle(A,vec2((A-Y*5)*50-25+130,Y*50+25+250),vec2(1,1)*random(5,25))
                Egp:egpMaterial(A,"sprites/sent_ball"),Egp:egpColor(A,Cols[randint(1,3),vector])
            }
            Egp:egpText(11,"Choose a ball !",vec2(160,170)),Egp:egpSize(11,20)
            Egp:egpBox(12,vec2(330,180),vec2(80,30)),Egp:egpColor(12,vec(255,255,0))
            Egp:egpText(13,"End game",vec2(290,170)),Egp:egpSize(13,20),Egp:egpColor(13,vec())
            Egp:egpText(14,"Win = "+Win,vec2(270,195))
        }
    }
}elseif(Index==3){
    interval(100)
    if(Ply:keyUse()){
        if(egpClick(Ply,12)){
            timer("Tick",2000),Index=5,T=4
            Egp:egpSetText(11,"You Win :)"),Egp:egpColor(11,vec(0,255,0)),Egp:egpRemove(12),Egp:egpRemove(13),Egp:egpRemove(14)
        }else{
            for(A=1,10){
                if(egpClick(Ply,A)){
                    if(Ar[A,string]=="X"){
                        local Y=int((A-1)/5)
                        Egp:egpText(A,Ar[A,string],vec2((A-Y*5)*50-25+130,Y*50+25+250)),Egp:egpSize(A,20)
                        Egp:egpSetText(11,"You Lose :("),Egp:egpColor(11,vec(255,0,0)),Egp:egpRemove(12),Egp:egpRemove(13),Egp:egpRemove(14)
                        Index=4,timer("End",5000)
                    }else{
                        local Y=int((A-1)/5)
                        Egp:egpText(A,Ar[A,string]+"$",vec2((A-Y*5)*50-25+130-Ar[A,string]:length()*5,Y*50+25+250)),Egp:egpSize(A,20),Egp:egpColor(A,vec(0,255,0))
                        Win+=Ar[A,string]:toNumber(),Counter++
                        Egp:egpSetText(14,"Win = "+Win+"$")
                        if(Counter>=5){
                            timer("Tick",3000),Index=5,T=4
                            Egp:egpSetText(11,"You Win :)"),Egp:egpColor(11,vec(0,255,0)),Egp:egpRemove(12),Egp:egpRemove(13),Egp:egpRemove(14)
                        }
                    }
                    break
                }
            }
        }
    }
}elseif(Index==4){
    if(clk("End")){
        Ply=noentity(),Index=1
        Egp:hauptMenu(),timer("Bug?",1000)
    }
}elseif(Index==5){
    if(clk("Tick")){
        if(T>0){
            T--
            timer("Tick",1000)
            Egp:egpSetText(11,"Money spawns in "+T),Egp:egpColor(11,vec(0,255,0))
        }else{
            if(StoredAmount>=Win){
                SpawnAmount=Win,Egp:hauptMenu(),Ply=noentity(),Index=1,timer("Bug?",1000)
            }else{
                Egp:egpSetText(11,"Tell the owner to fill up the money"),Egp:egpColor(11,vec(255,0,0))
            }
        }
    }
    if(changed(StoredAmount)){timer("Tick",1000),T=4}
}