@name RaidAlarm
@persist Alarm Alarming Allowed:array Triggers:array Illegal:string
@trigger all
interval(1000)
if (duped()) {reset()}
if (first()) {
    concmd("say /channel 13")
    Triggers=array("mad","pick","cracker")
    Allowed[1,entity]=owner()
    function number isAllowed(E:entity) {
        for (I=1, Allowed:count()) {
            if (Allowed[I,entity]==E) {return 1}
        }
        return 0
        
    }
    function number isFucker(S:string) {
        Bad=0
        Illegal=""
        for (I=1, Triggers:count()) {
            if (S:matchFirst(Triggers[I,string])) {
                if (!Bad) {
                    Illegal=Illegal+S
            } else {Illegal=Illegal+", "+S}
                Bad=1
            }
        }
        Illegal=Illegal+"!"
        return Bad
    }
}
runOnChat(1)
if (chatClk(owner())) {
    Owner=owner()
    Args=owner():lastSaid():explode(" ")
        if (Args[1,string]=="-add") {
        Players=players()
        for (I=1, Players:count()) {
            if (Players[I,entity]:name():lower():matchFirst(Args[2,string])) {
                Allowed[Allowed:count()+1,entity]=Players[I,entity]
                print("Added "+Players[I,entity]:name()+" to do not alarm list")
                break
            }
        }
    }
    if (Args[1,string]=="-remove") {
        for (I=1, Allowed:count()) {
            if (Allowed[I,entity]:name():lower():matchFirst(Args[2,string])) {
                print("Popping "+Allowed[I,entity]:name()+" from table")
                Allowed:removeEntity(I)
            }
        }
    }
    if (Args[1,string]=="-reset") {reset()}
}
Alarm=0

#Stuff=ranger(1000)
#Player=Stuff:entity()
findByClass("player")
findInSphere(entity():pos(),2000)
Player=findClosest(entity():pos())
if (1) {
    Weps=Player:getWeapons()
    for (I=1, Weps:count()) {
        if (isFucker(Weps[I,entity]:type())) {
            Alarm=1
            print(_HUD_PRINTCENTER,"RAID! "+(Player:name())+" has "+Illegal)
        }
    }
        
}
    

if (Alarm & !Alarming) {
    Alarming=1
    soundPlay(0,0,"/buttons/button19.wav")
    concmd("say /r We're being raided!  "+(Player:name())+" has "+Illegal)
}
if (!Alarm & Alarming) {Alarming=0}
